RLC_R_993.9/ALL0059/2.CSV

Format,1.0B,
Memory Length,10000,
IntpDistance,0,
Trigger Address,4999,
Trigger Level,-8.000E-02,
Source,CH2,
Vertical Units,V,
Vertical Units Div,0,
Vertical Units Extend Div,16,
Label, ,
Probe Type,0,
Probe Ratio,1.000E+00,
Vertical Scale,2.000E+00,
Vertical Position,-3.920E+00,
Horizontal Units,S,
Horizontal Scale,5.000E-05,
Horizontal Position,0.000E+00,
Horizontal Mode,Main,
SincET Mode,Real Time,
Sampling Period,5.000E-08,
Horizontal Old Scale,5.000E-05,
Horizontal Old Position,0.000E+00,
Firmware,V1.24,
Mode,Fast,
Waveform Data,
38,
38,
38,
38,
38,
38,
38,
38,
38,
38,
38,
38,
38,
38,
37,
37,
37,
38,
37,
37,
37,
37,
37,
37,
37,
37,
37,
37,
37,
37,
37,
37,
37,
37,
37,
36,
36,
36,
36,
36,
36,
36,
36,
36,
36,
36,
36,
36,
36,
36,
36,
36,
36,
36,
36,
35,
35,
35,
35,
35,
35,
35,
35,
35,
35,
35,
35,
35,
35,
35,
35,
34,
34,
34,
34,
34,
34,
34,
34,
34,
34,
34,
34,
34,
34,
32,
34,
32,
34,
34,
32,
32,
32,
32,
32,
32,
32,
32,
32,
32,
32,
32,
32,
32,
32,
32,
32,
31,
31,
31,
31,
31,
31,
31,
31,
31,
31,
31,
31,
31,
31,
31,
30,
30,
30,
30,
30,
30,
30,
30,
30,
30,
30,
30,
30,
30,
30,
30,
29,
29,
29,
29,
29,
29,
29,
29,
29,
29,
29,
29,
29,
29,
29,
28,
28,
28,
28,
28,
28,
28,
28,
28,
28,
28,
28,
28,
28,
26,
26,
26,
26,
26,
26,
26,
26,
26,
26,
26,
26,
26,
26,
26,
25,
26,
26,
25,
25,
25,
25,
25,
25,
25,
25,
25,
25,
25,
25,
25,
25,
24,
24,
24,
24,
24,
24,
24,
24,
24,
24,
24,
24,
24,
23,
23,
23,
23,
23,
23,
23,
23,
23,
23,
23,
23,
23,
23,
22,
22,
22,
22,
22,
22,
22,
22,
22,
22,
22,
22,
20,
20,
20,
20,
20,
20,
20,
20,
20,
20,
20,
20,
20,
19,
19,
19,
20,
19,
19,
19,
19,
19,
19,
19,
19,
19,
18,
19,
19,
18,
18,
18,
18,
18,
18,
18,
18,
18,
18,
18,
18,
18,
17,
17,
17,
17,
17,
17,
17,
17,
17,
17,
17,
17,
16,
17,
16,
16,
16,
16,
16,
16,
16,
16,
16,
16,
16,
14,
14,
14,
14,
14,
14,
14,
14,
14,
14,
14,
14,
14,
14,
13,
13,
13,
13,
13,
13,
13,
13,
13,
13,
13,
13,
13,
12,
12,
12,
12,
12,
12,
12,
12,
12,
12,
12,
12,
11,
12,
11,
11,
11,
11,
11,
11,
11,
11,
11,
11,
10,
11,
10,
10,
10,
10,
10,
10,
10,
10,
10,
10,
10,
10,
9,
9,
9,
9,
9,
9,
9,
9,
9,
9,
9,
9,
7,
7,
7,
7,
7,
7,
7,
7,
7,
7,
7,
7,
7,
6,
6,
6,
6,
6,
6,
6,
6,
6,
6,
6,
5,
5,
5,
5,
5,
5,
5,
5,
5,
5,
5,
5,
5,
5,
5,
4,
4,
4,
4,
4,
4,
4,
4,
4,
4,
4,
4,
3,
3,
3,
3,
3,
3,
3,
3,
3,
3,
3,
1,
1,
1,
1,
1,
1,
1,
1,
1,
1,
1,
1,
1,
0,
0,
0,
0,
0,
0,
0,
0,
0,
0,
0,
0,
0,
-1,
0,
-1,
-1,
-1,
-1,
-1,
-1,
-1,
-1,
-1,
-1,
-2,
-2,
-2,
-2,
-2,
-2,
-2,
-2,
-2,
-2,
-2,
-2,
-3,
-2,
-2,
-3,
-3,
-3,
-3,
-3,
-3,
-3,
-3,
-3,
-5,
-3,
-3,
-5,
-5,
-3,
-5,
-5,
-5,
-5,
-5,
-5,
-6,
-5,
-5,
-6,
-6,
-6,
-6,
-6,
-6,
-6,
-6,
-6,
-6,
-6,
-6,
-7,
-7,
-7,
-6,
-7,
-7,
-7,
-7,
-7,
-8,
-7,
-7,
-7,
-8,
-8,
-8,
-8,
-8,
-8,
-8,
-8,
-9,
-8,
-8,
-8,
-8,
-8,
-8,
-9,
-9,
-9,
-9,
-9,
-9,
-9,
-9,
-9,
-9,
-9,
-11,
-11,
-11,
-11,
-11,
-11,
-11,
-11,
-11,
-11,
-12,
-11,
-11,
-11,
-12,
-12,
-12,
-12,
-12,
-12,
-12,
-12,
-12,
-12,
-12,
-13,
-12,
-12,
-12,
-13,
-13,
-13,
-13,
-13,
-13,
-13,
-13,
-13,
-14,
-14,
-13,
-14,
-14,
-14,
-14,
-14,
-14,
-14,
-14,
-14,
-15,
-15,
-14,
-15,
-15,
-15,
-15,
-15,
-15,
-15,
-15,
-15,
-15,
-15,
-15,
-15,
-16,
-15,
-15,
-16,
-16,
-16,
-16,
-16,
-16,
-16,
-16,
-16,
-18,
-16,
-18,
-18,
-18,
-18,
-18,
-18,
-18,
-18,
-18,
-18,
-19,
-18,
-18,
-19,
-19,
-19,
-19,
-19,
-19,
-19,
-19,
-19,
-20,
-19,
-19,
-20,
-20,
-20,
-20,
-20,
-20,
-20,
-20,
-20,
-20,
-20,
-20,
-21,
-21,
-20,
-20,
-20,
-21,
-21,
-20,
-21,
-22,
-21,
-21,
-21,
-21,
-21,
-21,
-21,
-22,
-22,
-21,
-22,
-22,
-22,
-22,
-22,
-22,
-22,
-22,
-22,
-24,
-24,
-22,
-24,
-24,
-22,
-22,
-24,
-24,
-24,
-24,
-24,
-24,
-24,
-24,
-24,
-25,
-24,
-24,
-25,
-25,
-25,
-25,
-25,
-25,
-25,
-25,
-25,
-26,
-25,
-25,
-26,
-25,
-26,
-26,
-26,
-26,
-26,
-26,
-26,
-27,
-25,
-26,
-26,
-26,
-26,
-27,
-26,
-27,
-27,
-27,
-27,
-27,
-27,
-26,
-27,
-27,
-27,
-27,
-27,
-27,
-28,
-27,
-27,
-28,
-27,
-27,
-28,
-28,
-28,
-28,
-28,
-30,
-28,
-28,
-28,
-30,
-28,
-28,
-30,
-30,
-30,
-30,
-30,
-30,
-30,
-30,
-30,
-31,
-30,
-30,
-30,
-30,
-30,
-30,
-30,
-31,
-31,
-30,
-31,
-32,
-30,
-31,
-31,
-31,
-31,
-31,
-31,
-32,
-31,
-31,
-31,
-32,
-31,
-31,
-32,
-32,
-32,
-32,
-32,
-32,
-32,
-32,
-32,
-33,
-32,
-32,
-33,
-32,
-32,
-32,
-32,
-33,
-33,
-33,
-33,
-34,
-33,
-33,
-33,
-33,
-33,
-33,
-33,
-34,
-33,
-33,
-33,
-34,
-33,
-33,
-34,
-34,
-34,
-34,
-34,
-36,
-34,
-34,
-34,
-36,
-33,
-34,
-34,
-36,
-36,
-36,
-34,
-36,
-34,
-36,
-34,
-37,
-36,
-36,
-36,
-36,
-36,
-36,
-36,
-36,
-37,
-36,
-36,
-37,
-36,
-36,
-37,
-37,
-37,
-38,
-36,
-37,
-37,
-37,
-37,
-38,
-37,
-37,
-37,
-37,
-37,
-38,
-37,
-38,
-38,
-37,
-38,
-38,
-37,
-38,
-38,
-38,
-38,
-38,
-38,
-38,
-38,
-38,
-38,
-39,
-38,
-38,
-38,
-38,
-38,
-39,
-38,
-39,
-39,
-39,
-39,
-39,
-38,
-39,
-39,
-39,
-39,
-39,
-38,
-39,
-40,
-39,
-39,
-40,
-39,
-39,
-39,
-39,
-39,
-40,
-39,
-40,
-40,
-39,
-40,
-40,
-39,
-40,
-40,
-40,
-40,
-40,
-40,
-40,
-40,
-40,
-40,
-41,
-40,
-40,
-40,
-40,
-40,
-41,
-40,
-41,
-41,
-41,
-40,
-41,
-40,
-40,
-41,
-41,
-41,
-41,
-40,
-41,
-41,
-41,
-41,
-41,
-41,
-41,
-41,
-41,
-41,
-43,
-41,
-41,
-43,
-41,
-41,
-41,
-41,
-41,
-43,
-41,
-43,
-43,
-41,
-43,
-43,
-43,
-43,
-43,
-41,
-43,
-44,
-41,
-43,
-43,
-43,
-43,
-44,
-43,
-43,
-43,
-43,
-43,
-43,
-43,
-43,
-44,
-43,
-44,
-44,
-43,
-43,
-44,
-43,
-43,
-44,
-43,
-44,
-44,
-44,
-44,
-44,
-44,
-44,
-44,
-43,
-44,
-45,
-44,
-44,
-44,
-44,
-44,
-44,
-44,
-44,
-45,
-43,
-45,
-45,
-44,
-44,
-45,
-44,
-44,
-44,
-44,
-44,
-45,
-44,
-45,
-45,
-44,
-44,
-45,
-44,
-45,
-45,
-45,
-45,
-45,
-44,
-45,
-45,
-44,
-45,
-45,
-44,
-45,
-45,
-45,
-45,
-46,
-44,
-45,
-45,
-45,
-45,
-46,
-45,
-45,
-45,
-45,
-45,
-46,
-45,
-45,
-46,
-45,
-45,
-45,
-45,
-45,
-46,
-45,
-45,
-46,
-45,
-45,
-45,
-45,
-45,
-46,
-45,
-46,
-46,
-45,
-45,
-46,
-45,
-45,
-45,
-45,
-46,
-46,
-45,
-46,
-46,
-45,
-46,
-46,
-45,
-46,
-46,
-45,
-46,
-46,
-45,
-46,
-46,
-46,
-45,
-46,
-45,
-46,
-46,
-46,
-46,
-46,
-45,
-46,
-46,
-46,
-46,
-46,
-45,
-46,
-46,
-46,
-46,
-47,
-45,
-46,
-46,
-46,
-46,
-46,
-46,
-46,
-46,
-46,
-46,
-47,
-45,
-46,
-46,
-46,
-46,
-47,
-46,
-46,
-46,
-46,
-46,
-46,
-45,
-46,
-47,
-46,
-46,
-46,
-45,
-46,
-46,
-46,
-46,
-46,
-45,
-46,
-46,
-46,
-46,
-46,
-45,
-45,
-46,
-46,
-46,
-47,
-45,
-46,
-46,
-46,
-46,
-47,
-45,
-46,
-46,
-46,
-46,
-46,
-45,
-47,
-46,
-46,
-46,
-47,
-45,
-46,
-46,
-46,
-46,
-47,
-45,
-47,
-46,
-45,
-46,
-47,
-45,
-46,
-46,
-45,
-46,
-46,
-45,
-47,
-46,
-46,
-46,
-47,
-45,
-46,
-45,
-46,
-46,
-46,
-45,
-46,
-46,
-45,
-46,
-47,
-45,
-45,
-46,
-46,
-46,
-46,
-45,
-46,
-45,
-45,
-45,
-46,
-45,
-45,
-45,
-45,
-45,
-46,
-45,
-46,
-45,
-45,
-45,
-46,
-44,
-45,
-46,
-45,
-45,
-45,
-44,
-45,
-45,
-45,
-45,
-46,
-44,
-45,
-45,
-45,
-45,
-45,
-44,
-45,
-45,
-44,
-45,
-45,
-44,
-45,
-45,
-45,
-45,
-45,
-44,
-45,
-44,
-44,
-45,
-45,
-44,
-45,
-44,
-44,
-44,
-44,
-44,
-44,
-44,
-44,
-44,
-45,
-43,
-44,
-44,
-44,
-44,
-45,
-43,
-45,
-44,
-44,
-44,
-45,
-43,
-43,
-44,
-43,
-44,
-45,
-43,
-45,
-44,
-43,
-44,
-45,
-43,
-43,
-44,
-43,
-43,
-44,
-43,
-44,
-43,
-43,
-43,
-44,
-43,
-43,
-43,
-43,
-43,
-43,
-43,
-44,
-43,
-43,
-43,
-44,
-41,
-43,
-43,
-43,
-43,
-43,
-41,
-43,
-43,
-41,
-41,
-43,
-41,
-41,
-41,
-41,
-41,
-41,
-41,
-41,
-41,
-41,
-41,
-41,
-41,
-41,
-41,
-41,
-41,
-43,
-40,
-41,
-41,
-40,
-40,
-41,
-40,
-40,
-41,
-40,
-40,
-41,
-40,
-40,
-40,
-40,
-40,
-41,
-39,
-40,
-40,
-40,
-40,
-40,
-39,
-40,
-40,
-39,
-40,
-40,
-39,
-39,
-39,
-39,
-39,
-40,
-39,
-39,
-40,
-39,
-39,
-40,
-38,
-39,
-39,
-39,
-39,
-39,
-38,
-39,
-39,
-38,
-38,
-39,
-38,
-38,
-38,
-38,
-38,
-39,
-38,
-39,
-39,
-38,
-38,
-39,
-38,
-38,
-38,
-38,
-38,
-38,
-37,
-38,
-38,
-37,
-38,
-38,
-37,
-37,
-37,
-37,
-37,
-37,
-37,
-38,
-38,
-36,
-37,
-38,
-36,
-36,
-36,
-37,
-36,
-37,
-36,
-37,
-37,
-36,
-36,
-37,
-36,
-36,
-36,
-36,
-36,
-36,
-36,
-36,
-36,
-34,
-34,
-36,
-34,
-34,
-34,
-34,
-34,
-34,
-34,
-34,
-36,
-34,
-34,
-34,
-34,
-33,
-34,
-34,
-34,
-34,
-33,
-33,
-34,
-33,
-33,
-34,
-33,
-33,
-33,
-33,
-33,
-33,
-33,
-33,
-33,
-32,
-33,
-33,
-32,
-32,
-33,
-32,
-32,
-32,
-32,
-32,
-33,
-31,
-32,
-32,
-32,
-32,
-32,
-31,
-31,
-31,
-31,
-31,
-32,
-31,
-31,
-32,
-31,
-31,
-31,
-31,
-31,
-31,
-31,
-31,
-31,
-30,
-30,
-31,
-30,
-30,
-31,
-30,
-30,
-30,
-30,
-30,
-31,
-28,
-28,
-30,
-30,
-30,
-28,
-28,
-28,
-28,
-28,
-30,
-28,
-27,
-28,
-30,
-28,
-28,
-28,
-28,
-28,
-27,
-27,
-27,
-28,
-27,
-27,
-28,
-27,
-27,
-27,
-27,
-27,
-27,
-26,
-27,
-28,
-26,
-26,
-27,
-26,
-26,
-26,
-26,
-26,
-26,
-26,
-26,
-26,
-25,
-25,
-26,
-26,
-25,
-25,
-25,
-25,
-25,
-25,
-25,
-26,
-24,
-25,
-25,
-25,
-25,
-25,
-24,
-25,
-24,
-24,
-24,
-25,
-22,
-24,
-24,
-24,
-24,
-24,
-22,
-24,
-22,
-22,
-22,
-24,
-22,
-22,
-22,
-22,
-22,
-22,
-22,
-22,
-22,
-21,
-21,
-22,
-21,
-21,
-21,
-21,
-21,
-21,
-21,
-21,
-21,
-21,
-21,
-21,
-20,
-20,
-20,
-20,
-20,
-20,
-20,
-20,
-20,
-20,
-20,
-20,
-19,
-19,
-20,
-19,
-19,
-20,
-19,
-19,
-19,
-19,
-19,
-19,
-18,
-19,
-19,
-18,
-19,
-18,
-18,
-18,
-18,
-18,
-18,
-18,
-18,
-16,
-18,
-16,
-16,
-18,
-16,
-18,
-16,
-16,
-16,
-16,
-15,
-16,
-18,
-16,
-16,
-16,
-15,
-16,
-15,
-15,
-15,
-15,
-15,
-15,
-15,
-15,
-14,
-15,
-14,
-14,
-14,
-14,
-15,
-14,
-14,
-14,
-15,
-14,
-14,
-14,
-14,
-14,
-13,
-13,
-14,
-14,
-13,
-13,
-13,
-13,
-13,
-13,
-13,
-13,
-13,
-13,
-13,
-13,
-12,
-12,
-13,
-12,
-12,
-12,
-12,
-12,
-11,
-11,
-12,
-12,
-11,
-11,
-11,
-11,
-11,
-11,
-11,
-11,
-11,
-11,
-11,
-11,
-9,
-9,
-9,
-9,
-9,
-9,
-9,
-9,
-9,
-9,
-9,
-9,
-8,
-8,
-9,
-8,
-8,
-8,
-8,
-8,
-8,
-8,
-8,
-8,
-7,
-7,
-8,
-7,
-7,
-7,
-7,
-7,
-7,
-7,
-7,
-7,
-6,
-6,
-7,
-6,
-6,
-6,
-6,
-6,
-6,
-6,
-6,
-6,
-5,
-5,
-6,
-5,
-5,
-5,
-5,
-5,
-5,
-5,
-5,
-5,
-5,
-3,
-5,
-5,
-3,
-3,
-3,
-3,
-3,
-3,
-3,
-3,
-2,
-3,
-3,
-2,
-2,
-2,
-2,
-2,
-2,
-2,
-2,
-2,
-2,
-2,
-2,
-2,
-2,
-1,
-1,
-1,
-1,
-1,
-1,
-1,
-1,
-1,
-1,
-1,
-1,
-1,
0,
0,
0,
0,
0,
0,
0,
0,
0,
0,
0,
0,
1,
1,
1,
1,
1,
1,
1,
1,
1,
1,
1,
1,
3,
3,
3,
3,
3,
3,
3,
3,
3,
3,
3,
3,
3,
4,
4,
4,
4,
4,
4,
4,
4,
4,
4,
5,
5,
5,
5,
5,
5,
5,
5,
5,
5,
5,
5,
6,
5,
6,
6,
6,
6,
6,
6,
6,
6,
6,
6,
6,
7,
7,
7,
6,
7,
7,
7,
7,
7,
7,
7,
7,
9,
7,
9,
7,
7,
9,
9,
9,
9,
9,
9,
9,
9,
10,
10,
9,
9,
10,
10,
10,
10,
10,
10,
10,
10,
10,
10,
10,
10,
11,
11,
11,
10,
11,
11,
11,
11,
12,
12,
11,
11,
12,
12,
12,
12,
12,
12,
12,
12,
12,
12,
12,
12,
12,
13,
13,
12,
12,
13,
13,
13,
13,
13,
13,
13,
13,
13,
13,
14,
14,
14,
14,
14,
14,
14,
14,
14,
14,
14,
14,
16,
16,
16,
16,
16,
16,
16,
16,
16,
16,
16,
16,
16,
16,
17,
17,
17,
17,
17,
17,
17,
17,
17,
17,
17,
17,
18,
18,
18,
18,
18,
18,
18,
18,
18,
18,
18,
18,
19,
19,
19,
19,
19,
19,
19,
19,
19,
19,
19,
19,
19,
20,
20,
20,
20,
20,
20,
20,
20,
20,
20,
20,
20,
20,
20,
20,
22,
20,
20,
20,
22,
22,
22,
22,
22,
22,
22,
22,
23,
22,
22,
23,
22,
23,
23,
23,
23,
23,
23,
23,
23,
23,
23,
23,
23,
23,
23,
23,
24,
24,
24,
24,
24,
24,
24,
24,
24,
24,
24,
24,
25,
25,
25,
25,
25,
25,
25,
25,
25,
25,
25,
25,
26,
26,
26,
26,
26,
26,
26,
26,
26,
26,
26,
26,
26,
26,
26,
26,
26,
26,
28,
28,
28,
28,
28,
28,
28,
28,
28,
28,
28,
28,
28,
28,
28,
28,
28,
28,
29,
29,
29,
29,
29,
29,
29,
29,
29,
29,
29,
29,
30,
30,
30,
30,
30,
30,
30,
30,
30,
30,
30,
30,
30,
30,
30,
30,
31,
30,
30,
31,
31,
31,
31,
31,
31,
31,
31,
31,
31,
31,
31,
31,
31,
31,
31,
31,
32,
32,
32,
32,
32,
32,
32,
32,
32,
32,
32,
32,
32,
34,
34,
34,
34,
34,
34,
34,
34,
34,
34,
34,
34,
34,
34,
34,
34,
34,
34,
34,
35,
35,
35,
35,
35,
35,
35,
35,
35,
35,
35,
35,
35,
35,
35,
35,
35,
35,
35,
36,
36,
36,
36,
36,
36,
36,
36,
36,
36,
36,
36,
36,
36,
36,
36,
36,
36,
36,
36,
36,
37,
37,
37,
37,
37,
37,
37,
37,
37,
37,
37,
37,
37,
37,
37,
37,
37,
38,
38,
38,
38,
37,
38,
38,
38,
38,
38,
38,
38,
38,
38,
38,
38,
38,
38,
38,
38,
38,
38,
39,
39,
39,
38,
39,
39,
39,
39,
39,
39,
39,
39,
39,
39,
39,
39,
39,
39,
39,
39,
39,
39,
41,
39,
39,
41,
41,
41,
41,
41,
41,
41,
41,
41,
41,
41,
41,
41,
41,
41,
41,
41,
41,
41,
41,
41,
41,
41,
42,
42,
42,
42,
42,
42,
42,
42,
42,
42,
42,
42,
42,
42,
42,
42,
42,
42,
42,
42,
42,
42,
42,
42,
42,
43,
43,
42,
42,
42,
42,
43,
43,
43,
43,
43,
43,
43,
43,
43,
43,
43,
43,
43,
43,
43,
43,
43,
43,
43,
43,
43,
43,
43,
43,
43,
43,
43,
44,
43,
44,
44,
44,
44,
44,
44,
44,
44,
44,
44,
44,
44,
44,
44,
44,
44,
44,
44,
44,
44,
44,
44,
44,
44,
44,
44,
44,
44,
44,
44,
45,
44,
44,
45,
44,
45,
45,
45,
45,
45,
45,
45,
45,
45,
45,
45,
45,
45,
45,
45,
45,
45,
45,
45,
45,
45,
45,
45,
45,
45,
45,
45,
45,
45,
45,
45,
45,
45,
45,
45,
45,
45,
45,
45,
45,
45,
45,
45,
45,
45,
45,
45,
45,
45,
47,
45,
47,
45,
45,
47,
45,
47,
47,
47,
47,
47,
47,
47,
47,
47,
47,
47,
47,
47,
47,
47,
47,
47,
47,
47,
47,
47,
47,
47,
47,
47,
47,
47,
47,
47,
47,
47,
47,
47,
47,
47,
47,
47,
47,
47,
47,
47,
47,
47,
47,
47,
47,
47,
47,
47,
47,
47,
47,
47,
47,
47,
47,
47,
47,
47,
47,
47,
47,
47,
47,
47,
47,
47,
47,
47,
47,
47,
47,
47,
47,
47,
47,
47,
47,
47,
47,
47,
47,
47,
47,
47,
47,
47,
47,
47,
47,
47,
47,
47,
47,
47,
47,
47,
47,
47,
47,
47,
47,
47,
47,
47,
47,
47,
47,
47,
47,
47,
47,
47,
47,
47,
47,
47,
47,
47,
47,
47,
47,
47,
47,
47,
47,
47,
47,
47,
47,
47,
47,
47,
47,
47,
47,
47,
47,
47,
47,
47,
47,
47,
47,
47,
47,
47,
47,
47,
47,
47,
47,
47,
47,
47,
47,
47,
47,
47,
47,
47,
47,
47,
47,
47,
47,
47,
47,
47,
47,
47,
47,
47,
47,
47,
47,
47,
45,
45,
47,
47,
47,
45,
47,
47,
45,
45,
45,
45,
45,
45,
45,
45,
45,
45,
45,
45,
45,
45,
45,
45,
45,
45,
45,
45,
45,
45,
45,
45,
45,
45,
45,
45,
45,
45,
45,
45,
45,
45,
45,
45,
45,
45,
45,
45,
45,
45,
45,
44,
45,
44,
45,
45,
44,
45,
44,
44,
44,
44,
44,
44,
44,
44,
44,
44,
44,
44,
44,
44,
44,
44,
44,
44,
44,
44,
44,
44,
44,
44,
44,
44,
44,
44,
44,
44,
44,
44,
43,
43,
43,
43,
43,
43,
43,
43,
43,
43,
43,
43,
43,
43,
43,
43,
43,
43,
43,
43,
43,
43,
43,
43,
43,
43,
43,
43,
43,
42,
42,
43,
42,
42,
42,
42,
42,
42,
42,
42,
42,
42,
42,
42,
42,
42,
42,
42,
42,
42,
42,
42,
42,
42,
42,
42,
41,
41,
41,
41,
41,
41,
41,
41,
41,
41,
41,
41,
41,
41,
41,
41,
41,
41,
41,
41,
41,
41,
41,
41,
39,
39,
39,
39,
39,
39,
39,
39,
39,
39,
39,
39,
39,
39,
39,
39,
39,
39,
39,
39,
39,
39,
38,
38,
38,
38,
38,
38,
38,
38,
38,
38,
38,
38,
38,
38,
38,
38,
38,
38,
38,
38,
38,
37,
37,
37,
37,
37,
37,
37,
37,
37,
37,
37,
37,
37,
37,
37,
37,
37,
37,
37,
37,
37,
37,
36,
36,
36,
36,
36,
36,
36,
36,
36,
36,
36,
36,
36,
36,
36,
36,
36,
35,
35,
35,
35,
35,
35,
35,
35,
35,
35,
35,
35,
35,
35,
35,
35,
35,
35,
34,
35,
35,
34,
34,
34,
34,
34,
34,
34,
34,
34,
34,
34,
34,
34,
34,
34,
32,
32,
32,
32,
32,
32,
32,
32,
32,
32,
32,
32,
32,
32,
31,
31,
31,
32,
31,
31,
31,
31,
31,
31,
31,
31,
31,
31,
31,
31,
31,
31,
31,
31,
30,
30,
30,
30,
30,
30,
30,
30,
30,
30,
30,
30,
30,
30,
30,
29,
29,
29,
29,
29,
29,
29,
29,
29,
29,
29,
29,
29,
29,
29,
29,
28,
28,
28,
28,
28,
28,
28,
28,
28,
28,
28,
28,
28,
26,
28,
26,
26,
26,
26,
26,
26,
26,
26,
26,
26,
26,
26,
26,
25,
25,
25,
25,
25,
25,
25,
25,
25,
25,
25,
25,
25,
25,
24,
24,
24,
24,
24,
24,
24,
24,
24,
24,
24,
24,
24,
24,
24,
23,
23,
23,
23,
23,
23,
23,
23,
23,
23,
23,
23,
23,
23,
23,
23,
23,
22,
22,
22,
22,
22,
22,
22,
22,
22,
22,
22,
22,
22,
22,
20,
20,
20,
20,
20,
20,
20,
20,
20,
20,
20,
20,
19,
19,
19,
19,
19,
19,
19,
19,
19,
19,
19,
18,
19,
18,
18,
18,
18,
18,
18,
18,
18,
18,
18,
18,
18,
18,
17,
17,
17,
17,
17,
17,
17,
17,
17,
17,
17,
17,
17,
17,
16,
16,
16,
16,
16,
16,
16,
16,
16,
16,
16,
14,
14,
16,
16,
14,
14,
14,
14,
14,
14,
14,
14,
14,
14,
14,
14,
13,
13,
13,
13,
13,
13,
13,
13,
13,
13,
13,
12,
12,
12,
12,
12,
12,
12,
12,
12,
12,
12,
12,
12,
12,
11,
11,
11,
11,
11,
11,
11,
11,
11,
11,
11,
11,
11,
10,
10,
10,
10,
10,
10,
10,
10,
10,
10,
10,
10,
9,
9,
9,
9,
9,
9,
9,
9,
9,
9,
9,
7,
7,
7,
9,
7,
7,
7,
7,
7,
7,
7,
6,
7,
7,
7,
7,
6,
6,
6,
6,
6,
6,
6,
6,
6,
6,
6,
6,
5,
5,
5,
5,
5,
5,
5,
5,
5,
5,
4,
4,
4,
4,
4,
4,
4,
4,
4,
4,
4,
4,
4,
3,
4,
3,
3,
3,
3,
3,
3,
3,
3,
3,
3,
1,
1,
1,
1,
1,
1,
1,
1,
1,
1,
1,
1,
1,
1,
0,
0,
0,
0,
0,
0,
0,
0,
0,
0,
0,
-1,
-1,
-1,
-1,
-1,
-1,
-1,
-1,
-1,
-1,
-2,
-1,
-1,
-1,
-2,
-2,
-2,
-2,
-2,
-2,
-2,
-2,
-2,
-2,
-2,
-3,
-3,
-3,
-3,
-3,
-3,
-3,
-3,
-3,
-3,
-3,
-3,
-5,
-3,
-5,
-5,
-5,
-5,
-5,
-5,
-5,
-5,
-5,
-5,
-5,
-6,
-5,
-5,
-5,
-6,
-6,
-6,
-6,
-6,
-6,
-6,
-6,
-6,
-6,
-7,
-7,
-7,
-7,
-7,
-7,
-7,
-7,
-7,
-7,
-8,
-7,
-7,
-8,
-8,
-8,
-8,
-8,
-8,
-8,
-8,
-8,
-8,
-8,
-8,
-9,
-9,
-8,
-9,
-9,
-9,
-9,
-9,
-9,
-9,
-9,
-9,
-9,
-11,
-9,
-11,
-11,
-11,
-11,
-11,
-11,
-11,
-11,
-11,
-11,
-12,
-11,
-11,
-12,
-12,
-12,
-12,
-12,
-12,
-12,
-12,
-12,
-13,
-12,
-12,
-13,
-13,
-13,
-13,
-13,
-13,
-13,
-13,
-13,
-14,
-13,
-13,
-14,
-14,
-14,
-14,
-14,
-14,
-14,
-14,
-14,
-15,
-14,
-14,
-15,
-15,
-14,
-14,
-15,
-15,
-15,
-15,
-15,
-16,
-15,
-15,
-16,
-15,
-15,
-16,
-16,
-16,
-16,
-16,
-16,
-18,
-16,
-16,
-16,
-16,
-16,
-16,
-18,
-18,
-18,
-18,
-18,
-18,
-18,
-18,
-18,
-18,
-18,
-18,
-18,
-18,
-19,
-18,
-19,
-19,
-19,
-19,
-19,
-19,
-19,
-19,
-19,
-20,
-19,
-19,
-20,
-20,
-19,
-20,
-20,
-20,
-20,
-20,
-20,
-20,
-21,
-20,
-20,
-21,
-20,
-21,
-21,
-21,
-21,
-21,
-21,
-21,
-21,
-21,
-21,
-22,
-21,
-21,
-22,
-22,
-22,
-22,
-22,
-22,
-22,
-22,
-22,
-22,
-22,
-22,
-24,
-24,
-24,
-24,
-24,
-24,
-24,
-24,
-24,
-25,
-24,
-24,
-24,
-24,
-25,
-25,
-24,
-25,
-25,
-24,
-25,
-25,
-25,
-25,
-25,
-25,
-25,
-25,
-25,
-25,
-26,
-25,
-26,
-26,
-25,
-25,
-26,
-26,
-26,
-26,
-26,
-26,
-26,
-26,
-26,
-27,
-26,
-26,
-27,
-27,
-27,
-27,
-27,
-27,
-27,
-27,
-27,
-28,
-27,
-27,
-27,
-27,
-27,
-28,
-28,
-28,
-28,
-27,
-28,
-30,
-28,
-28,
-28,
-28,
-28,
-28,
-28,
-30,
-28,
-28,
-30,
-31,
-28,
-30,
-30,
-30,
-30,
-30,
-30,
-31,
-30,
-30,
-30,
-31,
-30,
-30,
-31,
-31,
-31,
-31,
-31,
-31,
-31,
-31,
-31,
-32,
-31,
-31,
-32,
-32,
-31,
-32,
-31,
-32,
-32,
-31,
-32,
-33,
-32,
-32,
-32,
-32,
-32,
-32,
-32,
-33,
-32,
-32,
-32,
-33,
-32,
-32,
-33,
-33,
-32,
-33,
-33,
-33,
-33,
-33,
-33,
-34,
-33,
-33,
-34,
-34,
-33,
-34,
-33,
-34,
-34,
-34,
-34,
-34,
-33,
-34,
-34,
-34,
-34,
-34,
-34,
-36,
-34,
-34,
-34,
-37,
-34,
-36,
-36,
-36,
-36,
-36,
-36,
-36,
-36,
-36,
-36,
-37,
-36,
-36,
-36,
-36,
-37,
-37,
-36,
-37,
-37,
-36,
-36,
-37,
-37,
-37,
-37,
-37,
-37,
-38,
-36,
-37,
-37,
-37,
-37,
-38,
-37,
-37,
-37,
-37,
-38,
-38,
-37,
-38,
-38,
-38,
-38,
-38,
-37,
-38,
-38,
-38,
-38,
-39,
-38,
-38,
-39,
-38,
-39,
-39,
-38,
-38,
-38,
-38,
-39,
-39,
-38,
-39,
-39,
-39,
-39,
-39,
-39,
-39,
-39,
-39,
-39,
-39,
-38,
-40,
-40,
-39,
-39,
-40,
-39,
-40,
-40,
-39,
-40,
-40,
-39,
-40,
-40,
-40,
-40,
-41,
-40,
-40,
-40,
-40,
-40,
-41,
-40,
-40,
-41,
-40,
-40,
-41,
-40,
-40,
-41,
-40,
-40,
-41,
-40,
-41,
-41,
-41,
-41,
-41,
-41,
-40,
-41,
-41,
-41,
-41,
-41,
-41,
-43,
-41,
-41,
-41,
-41,
-41,
-41,
-41,
-41,
-43,
-41,
-41,
-43,
-41,
-43,
-43,
-41,
-41,
-43,
-41,
-43,
-43,
-43,
-41,
-43,
-43,
-43,
-43,
-41,
-43,
-43,
-43,
-43,
-44,
-43,
-44,
-44,
-43,
-43,
-44,
-43,
-43,
-44,
-43,
-43,
-44,
-43,
-44,
-44,
-43,
-43,
-44,
-43,
-43,
-44,
-43,
-43,
-44,
-44,
-44,
-44,
-44,
-44,
-44,
-43,
-44,
-44,
-44,
-44,
-45,
-44,
-44,
-44,
-44,
-44,
-45,
-44,
-44,
-45,
-44,
-44,
-45,
-44,
-44,
-45,
-45,
-44,
-45,
-44,
-45,
-45,
-44,
-44,
-45,
-44,
-45,
-45,
-45,
-45,
-45,
-44,
-45,
-45,
-45,
-45,
-46,
-44,
-45,
-45,
-45,
-45,
-46,
-44,
-45,
-45,
-45,
-45,
-46,
-45,
-45,
-45,
-45,
-45,
-46,
-44,
-45,
-45,
-45,
-45,
-46,
-45,
-46,
-46,
-45,
-45,
-46,
-45,
-46,
-45,
-45,
-46,
-46,
-45,
-46,
-46,
-45,
-45,
-46,
-45,
-45,
-45,
-45,
-46,
-46,
-45,
-46,
-46,
-45,
-46,
-46,
-45,
-46,
-46,
-46,
-46,
-46,
-45,
-46,
-46,
-45,
-46,
-46,
-45,
-46,
-46,
-46,
-46,
-47,
-45,
-46,
-46,
-45,
-46,
-46,
-45,
-46,
-46,
-46,
-46,
-47,
-45,
-46,
-47,
-46,
-46,
-47,
-45,
-46,
-46,
-46,
-46,
-47,
-45,
-46,
-46,
-45,
-46,
-47,
-46,
-46,
-46,
-46,
-46,
-46,
-46,
-46,
-46,
-46,
-46,
-46,
-45,
-46,
-46,
-46,
-46,
-47,
-46,
-46,
-46,
-46,
-46,
-47,
-46,
-46,
-46,
-46,
-46,
-47,
-45,
-47,
-46,
-46,
-46,
-47,
-45,
-46,
-46,
-46,
-46,
-47,
-45,
-47,
-46,
-46,
-46,
-47,
-45,
-46,
-46,
-46,
-46,
-46,
-45,
-47,
-46,
-46,
-46,
-47,
-45,
-46,
-45,
-45,
-46,
-46,
-45,
-47,
-46,
-45,
-46,
-47,
-45,
-45,
-46,
-46,
-46,
-46,
-45,
-46,
-45,
-45,
-45,
-47,
-45,
-45,
-45,
-45,
-46,
-46,
-45,
-46,
-45,
-45,
-45,
-46,
-45,
-45,
-45,
-45,
-46,
-46,
-45,
-45,
-45,
-45,
-45,
-46,
-44,
-45,
-45,
-45,
-45,
-46,
-44,
-45,
-45,
-45,
-45,
-46,
-44,
-45,
-45,
-45,
-45,
-45,
-44,
-45,
-45,
-44,
-45,
-45,
-44,
-45,
-45,
-45,
-45,
-45,
-44,
-45,
-44,
-44,
-44,
-45,
-43,
-44,
-44,
-44,
-44,
-44,
-44,
-45,
-44,
-44,
-44,
-45,
-43,
-44,
-44,
-44,
-44,
