RLC_R_11.91/ALL0022/2.CSV

Format,1.0B,
Memory Length,10000,
IntpDistance,0,
Trigger Address,4999,
Trigger Level,0.000E+00,
Source,CH2,
Vertical Units,V,
Vertical Units Div,0,
Vertical Units Extend Div,16,
Label, ,
Probe Type,0,
Probe Ratio,1.000E+00,
Vertical Scale,1.000E-01,
Vertical Position,-1.960E-01,
Horizontal Units,S,
Horizontal Scale,5.000E-05,
Horizontal Position,0.000E+00,
Horizontal Mode,Main,
SincET Mode,Real Time,
Sampling Period,5.000E-08,
Horizontal Old Scale,5.000E-05,
Horizontal Old Position,0.000E+00,
Firmware,V1.24,
Mode,Fast,
Waveform Data,
-20,
-21,
-21,
-21,
-21,
-21,
-20,
-21,
-20,
-21,
-21,
-21,
-21,
-21,
-21,
-23,
-23,
-21,
-21,
-23,
-21,
-23,
-21,
-21,
-21,
-21,
-21,
-21,
-21,
-21,
-21,
-21,
-23,
-23,
-23,
-23,
-23,
-23,
-21,
-23,
-23,
-23,
-21,
-21,
-21,
-21,
-21,
-21,
-23,
-21,
-23,
-23,
-23,
-23,
-23,
-21,
-23,
-23,
-21,
-23,
-23,
-21,
-23,
-23,
-23,
-23,
-24,
-23,
-24,
-24,
-23,
-23,
-24,
-23,
-23,
-23,
-23,
-23,
-23,
-23,
-23,
-23,
-23,
-23,
-24,
-23,
-23,
-21,
-24,
-23,
-23,
-24,
-23,
-24,
-23,
-24,
-23,
-24,
-23,
-23,
-23,
-23,
-23,
-23,
-23,
-23,
-24,
-24,
-24,
-24,
-24,
-24,
-24,
-23,
-24,
-24,
-24,
-23,
-23,
-23,
-24,
-24,
-24,
-24,
-24,
-24,
-26,
-24,
-24,
-26,
-24,
-24,
-24,
-23,
-24,
-23,
-24,
-23,
-26,
-24,
-24,
-24,
-24,
-24,
-24,
-24,
-24,
-24,
-26,
-24,
-26,
-24,
-24,
-24,
-24,
-24,
-24,
-24,
-24,
-24,
-24,
-26,
-24,
-24,
-24,
-26,
-24,
-26,
-24,
-24,
-26,
-24,
-24,
-24,
-24,
-24,
-24,
-26,
-24,
-26,
-26,
-26,
-26,
-26,
-26,
-26,
-27,
-26,
-24,
-26,
-26,
-24,
-24,
-26,
-24,
-26,
-26,
-26,
-26,
-27,
-26,
-27,
-26,
-26,
-26,
-26,
-24,
-24,
-24,
-26,
-24,
-26,
-24,
-24,
-26,
-26,
-26,
-26,
-26,
-26,
-26,
-26,
-26,
-26,
-26,
-26,
-26,
-26,
-26,
-24,
-26,
-24,
-26,
-26,
-27,
-24,
-27,
-26,
-26,
-26,
-27,
-26,
-27,
-26,
-26,
-26,
-26,
-26,
-26,
-26,
-26,
-26,
-26,
-27,
-26,
-26,
-26,
-27,
-27,
-26,
-26,
-26,
-26,
-26,
-26,
-26,
-26,
-26,
-26,
-26,
-27,
-27,
-26,
-27,
-27,
-26,
-27,
-27,
-26,
-26,
-26,
-26,
-27,
-26,
-26,
-26,
-26,
-26,
-27,
-27,
-26,
-27,
-27,
-26,
-29,
-26,
-26,
-27,
-26,
-26,
-27,
-26,
-26,
-27,
-27,
-26,
-27,
-27,
-27,
-27,
-27,
-26,
-27,
-27,
-27,
-27,
-26,
-27,
-26,
-26,
-26,
-27,
-26,
-26,
-26,
-26,
-27,
-26,
-26,
-29,
-27,
-27,
-29,
-27,
-26,
-27,
-27,
-27,
-27,
-24,
-26,
-27,
-27,
-26,
-27,
-27,
-27,
-27,
-27,
-27,
-27,
-27,
-27,
-27,
-26,
-27,
-27,
-27,
-26,
-27,
-27,
-27,
-27,
-27,
-27,
-27,
-27,
-27,
-27,
-27,
-27,
-26,
-29,
-27,
-27,
-27,
-27,
-26,
-29,
-27,
-27,
-29,
-27,
-26,
-27,
-27,
-27,
-27,
-27,
-27,
-27,
-26,
-27,
-27,
-26,
-26,
-27,
-27,
-27,
-27,
-27,
-27,
-29,
-27,
-27,
-29,
-27,
-27,
-27,
-27,
-27,
-27,
-26,
-27,
-26,
-27,
-27,
-27,
-27,
-27,
-27,
-27,
-27,
-27,
-27,
-27,
-26,
-27,
-26,
-26,
-26,
-26,
-26,
-26,
-27,
-26,
-27,
-27,
-27,
-27,
-29,
-27,
-27,
-27,
-27,
-27,
-26,
-26,
-26,
-27,
-27,
-27,
-27,
-29,
-27,
-27,
-29,
-27,
-27,
-29,
-26,
-27,
-27,
-26,
-26,
-27,
-26,
-26,
-27,
-26,
-26,
-27,
-27,
-26,
-29,
-27,
-27,
-29,
-27,
-26,
-27,
-27,
-27,
-27,
-26,
-26,
-27,
-26,
-27,
-27,
-26,
-26,
-26,
-27,
-26,
-27,
-27,
-27,
-27,
-27,
-27,
-27,
-26,
-26,
-26,
-27,
-26,
-24,
-26,
-27,
-26,
-26,
-27,
-27,
-27,
-27,
-27,
-27,
-26,
-26,
-26,
-26,
-26,
-26,
-26,
-26,
-26,
-26,
-26,
-27,
-26,
-27,
-27,
-27,
-27,
-26,
-26,
-27,
-26,
-26,
-26,
-26,
-26,
-26,
-26,
-26,
-27,
-26,
-27,
-27,
-26,
-26,
-27,
-26,
-26,
-26,
-26,
-26,
-26,
-24,
-26,
-27,
-24,
-27,
-26,
-26,
-26,
-26,
-26,
-26,
-27,
-26,
-27,
-27,
-26,
-26,
-26,
-26,
-26,
-24,
-26,
-26,
-26,
-24,
-26,
-26,
-26,
-26,
-26,
-26,
-26,
-24,
-26,
-24,
-24,
-26,
-24,
-24,
-24,
-26,
-24,
-26,
-24,
-26,
-26,
-26,
-24,
-26,
-26,
-24,
-26,
-24,
-24,
-26,
-24,
-24,
-24,
-24,
-24,
-26,
-26,
-26,
-26,
-24,
-27,
-26,
-26,
-24,
-26,
-24,
-24,
-23,
-24,
-26,
-24,
-24,
-26,
-24,
-24,
-24,
-24,
-26,
-26,
-24,
-24,
-26,
-24,
-24,
-24,
-24,
-24,
-24,
-24,
-24,
-24,
-23,
-24,
-26,
-24,
-24,
-26,
-24,
-26,
-23,
-24,
-24,
-24,
-23,
-24,
-23,
-23,
-24,
-23,
-24,
-24,
-24,
-26,
-24,
-23,
-24,
-26,
-24,
-24,
-23,
-24,
-24,
-23,
-24,
-24,
-24,
-24,
-24,
-23,
-24,
-24,
-23,
-26,
-24,
-24,
-23,
-24,
-23,
-23,
-23,
-23,
-23,
-24,
-23,
-23,
-24,
-23,
-23,
-24,
-23,
-24,
-24,
-24,
-24,
-23,
-23,
-23,
-23,
-23,
-23,
-23,
-23,
-23,
-23,
-23,
-23,
-23,
-23,
-23,
-23,
-24,
-23,
-23,
-23,
-23,
-21,
-23,
-23,
-21,
-23,
-23,
-21,
-23,
-21,
-23,
-23,
-24,
-21,
-24,
-23,
-23,
-23,
-23,
-21,
-21,
-21,
-21,
-21,
-21,
-23,
-21,
-23,
-21,
-23,
-23,
-23,
-23,
-21,
-21,
-21,
-21,
-20,
-21,
-21,
-21,
-21,
-20,
-21,
-21,
-21,
-21,
-21,
-23,
-23,
-21,
-23,
-21,
-20,
-21,
-21,
-20,
-20,
-21,
-20,
-21,
-20,
-21,
-23,
-21,
-20,
-21,
-21,
-21,
-21,
-20,
-20,
-21,
-20,
-20,
-21,
-20,
-20,
-20,
-20,
-20,
-20,
-20,
-21,
-21,
-20,
-20,
-21,
-20,
-21,
-20,
-20,
-21,
-18,
-20,
-20,
-20,
-20,
-20,
-20,
-18,
-20,
-18,
-20,
-21,
-20,
-20,
-20,
-20,
-18,
-20,
-20,
-20,
-18,
-18,
-18,
-18,
-18,
-18,
-20,
-20,
-18,
-20,
-20,
-20,
-18,
-20,
-18,
-20,
-18,
-18,
-18,
-18,
-18,
-18,
-20,
-18,
-18,
-18,
-20,
-18,
-18,
-18,
-18,
-18,
-18,
-17,
-18,
-18,
-17,
-17,
-17,
-17,
-18,
-17,
-18,
-18,
-18,
-18,
-20,
-18,
-18,
-18,
-17,
-17,
-17,
-17,
-17,
-17,
-17,
-17,
-18,
-17,
-17,
-18,
-17,
-18,
-17,
-17,
-17,
-17,
-17,
-17,
-17,
-17,
-17,
-16,
-16,
-17,
-16,
-17,
-17,
-17,
-17,
-17,
-17,
-17,
-17,
-17,
-17,
-17,
-16,
-16,
-16,
-16,
-16,
-16,
-17,
-16,
-17,
-14,
-17,
-17,
-16,
-16,
-17,
-16,
-16,
-16,
-17,
-16,
-16,
-16,
-16,
-16,
-16,
-16,
-16,
-16,
-13,
-16,
-16,
-16,
-14,
-17,
-16,
-14,
-16,
-16,
-14,
-16,
-14,
-14,
-16,
-16,
-14,
-16,
-14,
-16,
-16,
-16,
-14,
-14,
-14,
-14,
-17,
-14,
-14,
-14,
-14,
-14,
-14,
-14,
-14,
-14,
-14,
-16,
-17,
-14,
-13,
-14,
-13,
-13,
-13,
-13,
-13,
-13,
-13,
-13,
-14,
-14,
-13,
-14,
-13,
-14,
-13,
-13,
-17,
-13,
-11,
-13,
-14,
-13,
-13,
-11,
-14,
-13,
-13,
-14,
-13,
-13,
-13,
-13,
-14,
-13,
-13,
-13,
-13,
-11,
-13,
-13,
-13,
-11,
-11,
-13,
-11,
-11,
-11,
-13,
-13,
-13,
-13,
-13,
-11,
-11,
-11,
-13,
-13,
-11,
-11,
-11,
-11,
-11,
-11,
-11,
-11,
-11,
-11,
-11,
-13,
-11,
-10,
-13,
-11,
-11,
-11,
-11,
-10,
-11,
-8,
-11,
-11,
-10,
-10,
-11,
-10,
-11,
-11,
-11,
-11,
-11,
-10,
-11,
-11,
-10,
-10,
-10,
-10,
-10,
-10,
-10,
-10,
-10,
-10,
-10,
-11,
-10,
-8,
-8,
-10,
-8,
-8,
-8,
-10,
-8,
-8,
-10,
-8,
-10,
-8,
-8,
-8,
-8,
-8,
-10,
-10,
-8,
-8,
-8,
-8,
-8,
-8,
-7,
-8,
-7,
-8,
-8,
-8,
-7,
-8,
-7,
-8,
-8,
-8,
-7,
-8,
-7,
-8,
-8,
-7,
-7,
-7,
-7,
-7,
-7,
-7,
-7,
-7,
-7,
-7,
-7,
-8,
-8,
-7,
-7,
-8,
-7,
-7,
-7,
-5,
-5,
-7,
-7,
-7,
-7,
-5,
-7,
-7,
-7,
-7,
-8,
-5,
-7,
-5,
-5,
-5,
-7,
-4,
-7,
-7,
-5,
-5,
-5,
-5,
-5,
-7,
-5,
-7,
-5,
-5,
-5,
-5,
-4,
-5,
-5,
-5,
-4,
-4,
-5,
-5,
-4,
-5,
-4,
-5,
-5,
-4,
-5,
-5,
-5,
-4,
-5,
-5,
-4,
-4,
-4,
-4,
-4,
-4,
-4,
-4,
-4,
-2,
-4,
-4,
-5,
-4,
-5,
-4,
-4,
-2,
-4,
-4,
-2,
-2,
-4,
-2,
-2,
-2,
-2,
-4,
-4,
-2,
-2,
-4,
-4,
-2,
-2,
-2,
-2,
-2,
-2,
-2,
-1,
-2,
-2,
-2,
-2,
-2,
-2,
-4,
-2,
-2,
-2,
-4,
-2,
-2,
-1,
-2,
-1,
-1,
-1,
-2,
-1,
-1,
-2,
-2,
-1,
-2,
-1,
-2,
-2,
-1,
-1,
-1,
-1,
1,
-1,
-1,
-1,
1,
-1,
-1,
-1,
1,
-1,
-1,
-1,
-1,
-1,
-1,
-1,
1,
-1,
-1,
1,
1,
-1,
1,
1,
1,
1,
1,
-1,
2,
-1,
1,
1,
1,
-1,
1,
-1,
1,
1,
1,
1,
2,
1,
1,
1,
2,
1,
1,
1,
1,
1,
-1,
1,
1,
2,
1,
2,
2,
2,
1,
2,
2,
2,
1,
2,
1,
2,
1,
1,
2,
2,
1,
-1,
4,
4,
2,
2,
4,
2,
2,
2,
4,
2,
2,
2,
2,
2,
2,
2,
4,
2,
2,
4,
4,
4,
2,
4,
2,
4,
2,
4,
2,
4,
4,
4,
4,
4,
4,
4,
4,
4,
4,
4,
5,
4,
4,
4,
5,
4,
5,
2,
5,
4,
4,
4,
5,
4,
5,
4,
5,
4,
5,
5,
5,
5,
4,
5,
5,
5,
4,
5,
4,
5,
5,
5,
4,
5,
5,
5,
6,
6,
5,
5,
6,
5,
5,
5,
5,
5,
5,
5,
5,
8,
6,
6,
6,
6,
8,
6,
6,
6,
6,
6,
6,
6,
6,
5,
6,
6,
6,
6,
6,
6,
8,
6,
8,
8,
8,
8,
8,
6,
6,
8,
6,
8,
6,
8,
8,
8,
8,
8,
8,
8,
8,
9,
8,
8,
6,
8,
8,
8,
8,
8,
8,
8,
9,
8,
9,
8,
8,
8,
9,
9,
9,
9,
9,
9,
9,
8,
8,
9,
6,
9,
9,
8,
9,
9,
9,
9,
9,
11,
9,
11,
9,
9,
9,
9,
9,
9,
11,
9,
11,
9,
9,
9,
11,
9,
11,
11,
11,
9,
11,
9,
11,
11,
9,
11,
11,
9,
9,
11,
11,
11,
11,
11,
11,
12,
11,
11,
11,
11,
11,
12,
11,
11,
11,
11,
11,
12,
11,
12,
11,
12,
12,
12,
12,
11,
12,
12,
11,
11,
12,
12,
11,
11,
12,
12,
12,
12,
12,
12,
12,
12,
12,
12,
11,
12,
12,
12,
12,
12,
12,
12,
12,
14,
14,
12,
12,
12,
14,
12,
14,
12,
14,
14,
12,
14,
12,
14,
12,
12,
14,
14,
14,
14,
14,
14,
12,
14,
14,
14,
12,
14,
14,
14,
14,
14,
14,
14,
14,
14,
14,
15,
14,
14,
15,
14,
15,
14,
15,
14,
15,
14,
15,
15,
14,
14,
15,
14,
15,
15,
15,
15,
15,
15,
15,
15,
15,
14,
15,
15,
15,
15,
15,
15,
15,
15,
15,
17,
15,
17,
15,
17,
17,
15,
15,
15,
14,
15,
15,
15,
15,
17,
17,
17,
17,
17,
17,
17,
15,
15,
17,
18,
15,
17,
17,
17,
17,
15,
17,
17,
17,
17,
17,
17,
17,
17,
17,
17,
17,
17,
18,
17,
17,
17,
17,
17,
17,
17,
18,
17,
17,
17,
18,
18,
18,
18,
18,
18,
17,
18,
17,
17,
17,
18,
17,
18,
17,
18,
18,
18,
18,
18,
18,
18,
18,
18,
18,
18,
18,
17,
18,
18,
18,
17,
20,
18,
18,
20,
18,
20,
18,
20,
20,
20,
18,
20,
18,
18,
18,
18,
20,
18,
20,
20,
20,
20,
18,
20,
20,
21,
20,
20,
20,
20,
20,
20,
20,
20,
20,
18,
20,
20,
20,
21,
20,
20,
20,
21,
20,
21,
20,
20,
20,
20,
20,
21,
20,
21,
20,
21,
21,
21,
21,
21,
21,
21,
20,
21,
21,
21,
20,
21,
20,
21,
20,
21,
21,
21,
21,
21,
21,
23,
21,
21,
21,
21,
21,
23,
21,
21,
21,
21,
21,
21,
21,
21,
23,
21,
23,
21,
23,
21,
23,
21,
23,
21,
21,
21,
21,
21,
20,
21,
21,
21,
23,
23,
23,
23,
23,
23,
23,
23,
23,
21,
23,
21,
21,
21,
23,
21,
23,
21,
23,
23,
23,
23,
23,
23,
23,
23,
23,
23,
23,
23,
21,
23,
21,
23,
23,
23,
23,
24,
23,
23,
23,
24,
23,
24,
23,
23,
24,
24,
23,
24,
23,
23,
23,
23,
23,
24,
24,
24,
23,
24,
24,
24,
24,
23,
24,
23,
24,
23,
24,
23,
24,
24,
24,
23,
24,
24,
24,
24,
24,
24,
24,
24,
24,
24,
24,
24,
24,
24,
23,
24,
24,
24,
24,
24,
24,
26,
24,
24,
24,
24,
24,
24,
24,
24,
24,
24,
24,
24,
24,
26,
24,
26,
24,
26,
24,
24,
24,
26,
26,
26,
24,
24,
24,
24,
24,
24,
24,
26,
26,
26,
26,
26,
26,
26,
26,
26,
26,
24,
24,
24,
24,
24,
26,
24,
26,
26,
26,
26,
26,
24,
26,
26,
26,
24,
26,
24,
24,
26,
26,
26,
26,
24,
26,
26,
26,
26,
26,
26,
24,
26,
26,
24,
26,
24,
26,
27,
26,
24,
26,
26,
26,
24,
26,
26,
24,
26,
26,
26,
26,
26,
26,
26,
26,
24,
26,
26,
24,
26,
26,
26,
26,
26,
26,
27,
26,
27,
26,
26,
26,
24,
26,
26,
26,
26,
26,
26,
26,
26,
27,
26,
27,
26,
26,
26,
26,
26,
26,
24,
26,
24,
24,
26,
27,
26,
26,
26,
26,
26,
27,
26,
26,
26,
26,
26,
26,
26,
26,
26,
24,
27,
26,
26,
26,
26,
26,
27,
26,
26,
26,
26,
26,
26,
26,
27,
26,
26,
27,
26,
27,
27,
26,
27,
27,
27,
27,
27,
26,
27,
27,
27,
27,
26,
27,
27,
26,
26,
27,
27,
26,
27,
27,
27,
27,
27,
26,
27,
27,
27,
26,
27,
26,
27,
27,
26,
27,
26,
27,
27,
27,
27,
27,
27,
27,
27,
27,
27,
27,
26,
26,
26,
26,
26,
26,
27,
27,
27,
27,
27,
27,
27,
27,
27,
26,
27,
27,
27,
27,
27,
27,
26,
27,
27,
27,
27,
27,
26,
27,
27,
27,
27,
27,
27,
26,
27,
27,
27,
26,
27,
27,
27,
27,
27,
27,
27,
27,
27,
27,
27,
27,
27,
27,
27,
27,
26,
27,
26,
27,
26,
27,
27,
27,
27,
27,
27,
27,
27,
27,
26,
27,
27,
27,
27,
27,
26,
27,
27,
26,
27,
27,
27,
27,
27,
27,
27,
27,
27,
27,
27,
26,
26,
26,
27,
27,
26,
27,
27,
27,
27,
27,
27,
27,
27,
27,
27,
27,
26,
27,
27,
27,
27,
27,
26,
27,
27,
27,
26,
27,
27,
26,
27,
27,
27,
27,
27,
26,
27,
27,
27,
26,
27,
26,
26,
27,
26,
27,
27,
27,
27,
27,
27,
27,
27,
27,
26,
27,
26,
26,
26,
26,
26,
27,
26,
26,
27,
27,
27,
27,
26,
27,
27,
27,
26,
26,
27,
26,
26,
26,
26,
26,
26,
26,
26,
26,
27,
26,
26,
26,
26,
26,
26,
26,
26,
26,
26,
26,
26,
26,
26,
26,
26,
27,
26,
26,
26,
27,
26,
26,
26,
27,
26,
26,
26,
23,
27,
26,
24,
26,
26,
26,
26,
26,
26,
26,
26,
26,
26,
26,
24,
26,
26,
26,
24,
26,
26,
26,
26,
24,
26,
26,
26,
27,
26,
26,
26,
26,
24,
24,
26,
24,
24,
24,
24,
26,
26,
24,
26,
26,
26,
26,
26,
24,
24,
24,
24,
24,
24,
24,
24,
24,
24,
24,
24,
26,
24,
24,
24,
26,
24,
26,
24,
24,
24,
24,
24,
24,
24,
24,
24,
24,
24,
24,
24,
24,
24,
24,
24,
24,
24,
24,
24,
24,
24,
26,
24,
24,
24,
24,
24,
24,
24,
24,
24,
24,
24,
24,
24,
26,
23,
24,
24,
23,
23,
24,
23,
24,
24,
23,
24,
24,
24,
24,
24,
24,
24,
23,
24,
23,
24,
23,
24,
23,
24,
23,
23,
23,
24,
23,
23,
24,
23,
23,
23,
23,
23,
23,
23,
24,
23,
23,
23,
23,
23,
23,
24,
23,
23,
23,
24,
23,
23,
23,
23,
23,
23,
23,
23,
23,
23,
21,
23,
23,
23,
23,
23,
23,
23,
23,
23,
23,
23,
21,
23,
23,
21,
23,
21,
21,
21,
23,
21,
23,
23,
23,
23,
23,
23,
23,
21,
23,
21,
21,
21,
21,
21,
21,
21,
21,
23,
21,
21,
23,
21,
21,
21,
21,
21,
21,
20,
21,
21,
20,
20,
21,
20,
21,
21,
21,
21,
21,
20,
21,
21,
20,
21,
20,
20,
20,
21,
20,
21,
20,
20,
20,
21,
21,
21,
21,
21,
21,
21,
21,
20,
20,
20,
20,
20,
21,
20,
20,
20,
20,
20,
20,
20,
20,
20,
20,
21,
20,
20,
20,
20,
18,
20,
20,
18,
20,
20,
18,
20,
20,
20,
20,
20,
20,
20,
20,
20,
18,
18,
18,
18,
18,
18,
18,
18,
18,
18,
20,
20,
18,
18,
20,
18,
18,
18,
20,
18,
18,
18,
18,
18,
18,
18,
18,
18,
18,
18,
18,
18,
18,
18,
18,
18,
17,
17,
17,
17,
17,
18,
17,
18,
17,
17,
17,
18,
18,
18,
17,
17,
17,
17,
17,
17,
17,
17,
15,
17,
17,
17,
17,
15,
17,
17,
17,
17,
17,
17,
17,
17,
17,
15,
17,
17,
15,
15,
17,
15,
15,
15,
15,
15,
17,
15,
17,
15,
15,
15,
15,
15,
15,
15,
15,
15,
15,
15,
15,
15,
15,
15,
15,
17,
15,
15,
15,
15,
15,
14,
15,
14,
14,
15,
14,
15,
14,
15,
15,
15,
15,
14,
15,
14,
14,
14,
15,
14,
14,
12,
14,
14,
14,
14,
14,
14,
14,
14,
14,
14,
14,
14,
14,
14,
14,
14,
12,
14,
14,
12,
14,
14,
12,
15,
14,
14,
14,
14,
12,
14,
14,
12,
12,
14,
12,
12,
12,
12,
12,
12,
11,
14,
12,
14,
12,
12,
14,
12,
12,
12,
12,
11,
12,
12,
11,
12,
11,
11,
12,
12,
12,
14,
12,
12,
12,
12,
12,
11,
12,
11,
12,
11,
11,
11,
11,
9,
12,
11,
12,
11,
12,
11,
11,
11,
12,
11,
11,
9,
11,
11,
11,
11,
11,
9,
11,
11,
11,
9,
11,
11,
11,
11,
11,
9,
11,
9,
9,
9,
11,
9,
9,
9,
9,
11,
11,
11,
11,
9,
9,
9,
9,
9,
9,
9,
9,
9,
8,
9,
9,
9,
8,
9,
9,
9,
9,
9,
9,
9,
8,
9,
8,
9,
8,
8,
8,
8,
8,
8,
8,
8,
8,
8,
8,
8,
9,
8,
9,
8,
8,
8,
8,
6,
6,
8,
8,
6,
8,
6,
8,
8,
8,
6,
8,
8,
8,
6,
8,
6,
6,
6,
6,
6,
6,
6,
6,
8,
6,
6,
8,
6,
6,
6,
6,
6,
6,
6,
5,
6,
5,
6,
6,
6,
5,
6,
5,
6,
6,
6,
6,
6,
5,
6,
6,
5,
5,
6,
4,
5,
5,
5,
5,
6,
5,
5,
5,
5,
5,
5,
5,
5,
5,
5,
5,
5,
5,
4,
5,
4,
4,
4,
5,
4,
5,
5,
5,
4,
5,
4,
5,
5,
4,
4,
5,
4,
4,
4,
4,
2,
4,
4,
4,
4,
4,
4,
5,
4,
4,
4,
4,
2,
2,
2,
2,
2,
2,
2,
2,
4,
2,
4,
2,
1,
4,
4,
2,
2,
2,
2,
2,
1,
2,
2,
1,
2,
1,
2,
2,
2,
2,
2,
2,
2,
2,
2,
2,
1,
1,
1,
2,
1,
1,
1,
1,
1,
1,
1,
2,
1,
1,
1,
2,
1,
1,
1,
1,
1,
1,
1,
1,
-1,
-1,
-1,
1,
-1,
-1,
1,
-1,
1,
1,
1,
1,
1,
-1,
-1,
-1,
-1,
-1,
-1,
-1,
-1,
-1,
-1,
-1,
-1,
-1,
-1,
-1,
-1,
-1,
1,
-1,
-2,
-1,
-1,
-2,
-1,
-2,
-2,
-1,
-1,
-2,
-1,
-1,
-1,
-1,
-2,
-1,
-2,
-1,
-2,
-1,
-2,
-2,
-2,
-2,
-2,
-2,
-2,
-2,
-2,
-2,
-2,
-1,
-2,
-2,
-2,
-2,
-2,
-2,
-2,
-2,
-2,
-4,
-4,
-4,
-2,
-4,
-2,
-4,
-2,
-4,
-2,
-2,
-2,
-2,
-4,
-4,
-2,
-4,
-4,
-4,
-4,
-5,
-4,
-4,
-5,
-4,
-4,
-4,
-4,
-4,
-4,
-4,
-4,
-5,
-4,
-4,
-5,
-5,
-4,
-5,
-4,
-5,
-5,
-5,
-4,
-5,
-4,
-5,
-4,
-5,
-4,
-5,
-4,
-5,
-5,
-5,
-5,
-5,
-7,
-5,
-7,
-7,
-5,
-4,
-5,
-5,
-5,
-5,
-7,
-5,
-7,
-5,
-7,
-7,
-7,
-5,
-8,
-7,
-5,
-7,
-7,
-7,
-7,
-5,
-5,
-8,
-5,
-7,
-7,
-7,
-5,
-7,
-7,
-8,
-8,
-7,
-7,
-8,
-7,
-7,
-7,
-7,
-7,
-7,
-7,
-7,
-8,
-7,
-8,
-8,
-8,
-7,
-8,
-7,
-8,
-7,
-8,
-8,
-8,
-8,
-8,
-8,
-8,
-8,
-7,
-10,
-7,
-8,
-10,
-8,
-8,
-10,
-8,
-10,
-8,
-10,
-8,
-10,
-8,
-8,
-8,
-10,
-8,
-10,
-8,
-10,
-10,
-10,
-10,
-10,
-10,
-10,
-11,
-10,
-10,
-8,
-10,
-10,
-10,
-8,
-10,
-8,
-10,
-10,
-10,
-10,
-11,
-11,
-10,
-11,
-10,
-10,
-10,
-11,
-10,
-10,
-10,
-11,
-10,
-10,
-11,
-13,
-10,
-11,
-11,
-11,
-11,
-11,
-11,
-11,
-11,
-10,
-11,
-13,
-10,
-11,
-11,
-11,
-11,
-13,
-11,
-13,
-11,
-13,
-13,
-13,
-13,
-13,
-11,
-11,
-13,
-11,
-13,
-11,
-13,
-11,
-13,
-13,
-13,
-11,
-13,
-13,
-13,
-13,
-14,
-13,
-13,
-13,
-14,
-13,
-13,
-13,
-13,
-13,
-13,
-13,
-14,
-13,
-14,
-13,
-14,
-14,
-14,
-14,
-14,
-14,
-13,
-14,
-13,
-14,
-13,
-13,
-13,
-14,
-14,
-14,
-14,
-14,
-14,
-14,
-16,
-16,
-14,
-14,
-16,
-13,
-14,
-14,
-14,
-14,
-14,
-14,
-14,
-16,
-16,
-16,
-16,
-17,
-16,
-16,
-14,
-16,
-14,
-16,
-14,
-16,
-14,
-14,
-14,
-16,
-14,
-16,
-16,
-16,
-16,
-17,
-16,
-16,
-14,
-16,
-16,
-16,
-14,
-14,
-16,
-16,
-16,
-16,
-17,
-17,
-17,
-16,
-17,
-17,
-17,
-16,
-16,
-14,
-16,
-16,
-16,
-16,
-16,
-16,
-16,
-17,
-16,
-16,
-18,
-16,
-17,
-17,
-17,
-17,
-18,
-16,
-17,
-17,
-17,
-16,
-17,
-17,
-17,
-17,
-17,
-17,
-18,
-17,
-17,
-18,
-17,
-17,
-18,
-17,
-17,
-17,
-17,
-17,
-17,
-17,
-17,
-17,
-17,
-17,
-17,
-18,
-17,
-18,
-17,
-18,
-18,
-18,
-18,
-18,
-18,
-17,
-18,
-17,
-18,
-17,
-18,
-17,
-18,
-18,
-18,
-18,
-18,
-18,
-20,
-18,
-18,
-18,
-20,
-18,
-18,
-18,
-18,
-18,
-18,
-17,
-18,
-18,
-18,
-20,
-20,
-20,
-20,
-18,
-20,
-20,
-18,
-18,
-18,
-18,
-18,
-18,
-18,
-20,
-18,
-20,
-20,
-21,
-18,
-21,
-20,
-20,
-20,
-20,
-18,
-20,
-18,
-18,
-20,
-20,
-18,
-20,
-20,
-20,
-20,
-20,
-21,
-21,
-21,
-20,
-20,
-20,
-20,
-20,
-20,
-20,
-20,
-18,
-20,
-20,
-20,
-21,
-20,
-21,
-21,
-20,
-21,
-21,
-20,
-21,
-21,
-20,
-20,
-21,
-20,
-21,
-20,
-20,
-21,
-21,
-21,
-21,
-21,
-21,
-21,
-21,
-21,
-23,
-21,
-20,
-21,
-21,
-21,
-21,
-21,
-20,
-21,
-21,
-21,
-23,
-21,
-21,
-23,
-23,
-21,
-23,
-21,
-21,
-21,
-21,
-21,
-23,
-20,
-21,
-21,
-21,
-21,
-23,
-21,
-23,
-23,
-23,
-23,
-23,
-23,
-21,
-23,
-23,
-21,
-21,
-23,
-23,
-21,
-23,
-23,
-23,
-23,
-23,
-23,
-23,
-24,
-23,
-23,
-23,
-21,
-23,
-23,
-23,
-23,
-23,
-23,
-23,
-23,
-23,
-23,
-24,
-24,
-24,
-24,
-23,
-24,
-23,
-24,
-23,
-23,
-23,
-24,
-23,
-23,
-23,
-24,
-24,
-24,
-23,
-24,
-23,
-23,
-24,
-24,
-24,
-23,
-23,
-23,
-24,
-23,
-24,
-24,
-23,
-24,
-24,
-23,
-24,
-24,
-24,
-24,
-24,
-23,
-24,
-24,
-23,
-24,
-24,
-23,
-24,
-24,
-24,
-24,
-24,
-24,
-24,
-24,
-24,
-26,
-24,
-24,
-24,
-26,
-24,
-24,
-24,
-24,
-24,
-24,
-24,
-24,
-26,
-26,
-24,
-26,
-24,
-26,
-26,
-26,
-23,
-26,
-24,
-24,
-24,
-24,
-24,
-24,
-24,
-24,
-27,
-26,
-24,
-26,
-26,
-24,
-26,
-24,
-26,
-26,
-24,
-24,
-26,
-24,
-24,
-24,
-24,
-24,
-26,
-24,
-26,
-26,
-26,
-24,
-27,
-24,
-26,
-24,
-24,
-24,
-26,
-24,
-26,
-26,
-24,
-26,
-27,
-26,
-26,
-26,
-26,
-26,
-26,
-26,
-26,
-24,
-24,
-24,
-26,
-26,
-26,
-24,
-26,
-26,
-26,
-26,
-26,
-26,
-26,
-26,
-26,
-26,
-26,
-26,
-26,
-26,
-26,
-26,
-26,
-26,
-26,
-26,
-26,
-27,
-26,
-26,
-26,
-26,
-26,
-26,
-26,
-27,
-26,
-26,
-26,
-26,
-26,
-26,
-26,
-24,
-27,
-26,
-26,
-29,
-26,
-26,
-27,
-26,
-26,
-27,
-26,
-26,
-26,
-26,
-26,
-26,
-26,
-26,
-27,
-26,
-26,
-27,
-27,
-27,
-27,
-26,
-27,
-27,
-24,
-26,
-26,
-26,
-26,
-26,
-26,
-27,
-26,
-26,
-27,
-27,
-26,
-27,
-27,
-26,
-26,
-27,
-26,
-26,
-26,
-26,
-26,
-27,
-26,
-27,
-27,
-27,
-26,
-27,
-27,
-26,
-27,
-27,
-26,
-27,
-26,
-26,
-26,
-26,
-26,
-27,
-27,
-26,
-27,
-27,
-27,
-27,
-27,
-27,
-27,
-27,
-26,
-27,
-26,
-26,
-26,
-26,
-26,
-27,
-27,
-27,
-29,
-27,
-27,
-27,
-27,
-27,
-27,
-27,
-27,
-27,
-26,
-27,
-27,
-26,
-27,
-27,
-27,
-27,
-27,
-27,
-29,
-27,
-27,
-27,
-27,
-26,
-27,
-27,
-27,
-27,
-26,
-26,
-26,
-27,
-27,
-27,
-27,
-26,
-27,
-27,
-27,
-27,
-27,
-27,
-27,
-27,
-27,
-27,
-26,
-26,
-27,
-26,
-27,
-27,
-27,
-27,
-27,
-29,
-27,
-29,
-27,
-27,
-27,
-27,
-27,
-27,
-26,
-26,
-26,
-26,
-27,
-27,
-29,
-27,
-27,
-29,
-27,
-27,
-29,
-27,
-27,
-27,
-26,
-26,
-27,
-24,
-27,
-29,
-26,
-26,
-29,
-29,
-27,
-29,
-27,
-27,
-29,
-26,
-27,
-27,
-27,
-27,
-27,
-26,
-26,
-27,
-26,
-27,
-29,
-27,
-27,
-29,
-27,
-27,
-27,
-27,
-27,
-27,
-27,
-27,
-29,
-26,
-27,
-27,
-27,
-27,
-27,
-27,
-29,
-27,
-27,
-27,
-29,
-27,
-27,
-26,
-27,
-27,
-26,
-27,
-26,
-27,
-26,
-27,
-29,
-27,
-26,
-27,
-29,
-26,
-27,
-27,
-27,
-27,
-27,
-26,
-27,
-27,
-26,
-26,
-27,
-26,
-26,
-27,
-27,
-29,
-27,
-27,
-29,
-27,
-26,
-27,
-26,
-27,
-26,
-26,
-24,
-26,
-24,
-27,
-27,
-26,
-27,
-27,
-27,
-27,
-27,
-27,
-26,
-27,
-26,
-26,
-27,
-24,
-26,
-26,
-26,
-26,
-26,
-26,
-27,
-26,
-26,
-27,
-27,
-26,
-26,
-26,
-26,
-26,
-24,
-26,
-26,
-26,
-26,
-26,
-26,
-26,
-26,
-26,
-27,
-26,
-26,
-26,
-27,
-26,
-24,
-26,
-26,
-24,
-26,
-26,
-26,
-26,
-26,
-26,
-26,
-27,
-26,
-26,
-27,
-26,
-24,
-26,
-26,
-26,
-26,
-24,
-24,
-26,
-24,
-24,
-27,
-24,
-26,
-27,
-26,
-24,
-26,
-26,
-24,
-26,
-24,
-24,
-26,
-24,
-24,
-26,
-24,
-24,
-26,
-24,
-26,
-26,
-26,
-26,
-27,
-26,
-24,
-26,
-24,
-24,
-24,
-24,
-24,
-26,
-24,
-24,
-26,
-24,
-24,
-26,
-26,
-26,
-24,
-24,
-24,
-24,
-23,
-24,
-24,
-24,
-24,
-24,
-24,
-24,
-24,
-24,
-24,
-24,
-24,
-24,
-24,
-24,
-24,
-24,
-24,
-24,
-23,
-24,
-24,
-24,
-24,
-24,
-24,
-24,
-24,
-24,
-24,
-24,
-24,
-24,
-24,
-24,
-23,
-23,
-23,
-23,
-23,
-23,
-24,
-24,
-23,
-23,
-24,
-24,
-24,
-24,
-24,
-23,
-23,
-24,
-23,
-23,
-23,
-23,
-23,
-23,
-21,
-23,
-24,
-23,
-23,
-24,
-23,
-24,
-23,
-23,
-23,
-24,
-21,
-23,
-23,
-23,
-23,
-23,
-21,
-23,
-23,
-23,
-23,
-24,
-23,
