RLC_R_993.9/ALL0032/2.CSV

Format,1.0B,
Memory Length,10000,
IntpDistance,0,
Trigger Address,4999,
Trigger Level,0.000E+00,
Source,CH2,
Vertical Units,V,
Vertical Units Div,0,
Vertical Units Extend Div,16,
Label, ,
Probe Type,0,
Probe Ratio,1.000E+00,
Vertical Scale,5.000E-01,
Vertical Position,-9.800E-01,
Horizontal Units,S,
Horizontal Scale,2.000E-04,
Horizontal Position,0.000E+00,
Horizontal Mode,Main,
SincET Mode,Real Time,
Sampling Period,2.000E-07,
Horizontal Old Scale,2.000E-04,
Horizontal Old Position,0.000E+00,
Firmware,V1.24,
Mode,Fast,
Waveform Data,
-41,
-41,
-41,
-41,
-41,
-41,
-41,
-43,
-41,
-41,
-40,
-41,
-41,
-43,
-41,
-41,
-43,
-41,
-41,
-43,
-40,
-40,
-41,
-40,
-41,
-43,
-40,
-41,
-41,
-41,
-41,
-41,
-40,
-41,
-41,
-40,
-39,
-40,
-41,
-41,
-40,
-40,
-40,
-40,
-40,
-41,
-40,
-40,
-40,
-40,
-41,
-40,
-41,
-40,
-41,
-43,
-40,
-40,
-40,
-40,
-40,
-40,
-40,
-40,
-41,
-40,
-40,
-40,
-40,
-40,
-39,
-40,
-40,
-41,
-39,
-40,
-41,
-40,
-39,
-40,
-40,
-39,
-40,
-40,
-40,
-41,
-39,
-39,
-40,
-40,
-39,
-39,
-40,
-39,
-40,
-40,
-39,
-39,
-39,
-40,
-39,
-39,
-39,
-39,
-39,
-39,
-39,
-39,
-39,
-40,
-39,
-39,
-39,
-39,
-40,
-38,
-39,
-39,
-39,
-39,
-38,
-39,
-38,
-39,
-39,
-38,
-38,
-40,
-38,
-38,
-39,
-38,
-39,
-38,
-39,
-38,
-39,
-39,
-39,
-39,
-38,
-38,
-39,
-39,
-38,
-38,
-38,
-38,
-38,
-38,
-38,
-39,
-38,
-39,
-37,
-38,
-38,
-38,
-38,
-39,
-38,
-38,
-37,
-37,
-38,
-38,
-37,
-37,
-38,
-37,
-38,
-38,
-37,
-37,
-38,
-37,
-37,
-37,
-38,
-37,
-37,
-37,
-37,
-37,
-37,
-37,
-37,
-37,
-37,
-37,
-37,
-35,
-37,
-37,
-37,
-37,
-37,
-35,
-35,
-37,
-37,
-37,
-37,
-37,
-35,
-35,
-37,
-37,
-35,
-35,
-37,
-37,
-35,
-37,
-35,
-35,
-35,
-37,
-35,
-37,
-35,
-35,
-35,
-35,
-34,
-35,
-35,
-35,
-35,
-34,
-35,
-34,
-37,
-34,
-34,
-34,
-34,
-34,
-34,
-34,
-34,
-34,
-34,
-34,
-34,
-34,
-33,
-34,
-34,
-35,
-34,
-33,
-34,
-34,
-33,
-33,
-34,
-33,
-34,
-34,
-34,
-34,
-33,
-33,
-33,
-33,
-33,
-33,
-34,
-34,
-33,
-33,
-33,
-33,
-34,
-33,
-33,
-33,
-32,
-33,
-33,
-33,
-33,
-32,
-33,
-32,
-33,
-33,
-33,
-33,
-33,
-31,
-32,
-32,
-32,
-32,
-33,
-32,
-32,
-32,
-32,
-32,
-32,
-32,
-32,
-32,
-32,
-32,
-32,
-32,
-32,
-33,
-31,
-31,
-31,
-32,
-32,
-32,
-31,
-32,
-31,
-31,
-31,
-32,
-31,
-32,
-31,
-31,
-31,
-31,
-32,
-31,
-31,
-31,
-31,
-31,
-29,
-29,
-31,
-31,
-31,
-31,
-31,
-31,
-29,
-29,
-29,
-29,
-29,
-29,
-29,
-29,
-29,
-31,
-31,
-29,
-29,
-29,
-29,
-29,
-29,
-28,
-31,
-29,
-29,
-29,
-28,
-28,
-29,
-29,
-28,
-29,
-29,
-28,
-28,
-28,
-28,
-28,
-29,
-29,
-28,
-28,
-28,
-28,
-28,
-27,
-27,
-28,
-27,
-28,
-27,
-28,
-27,
-27,
-27,
-27,
-28,
-27,
-29,
-28,
-27,
-27,
-26,
-27,
-27,
-27,
-26,
-26,
-27,
-28,
-27,
-26,
-27,
-26,
-26,
-27,
-26,
-26,
-26,
-26,
-26,
-26,
-26,
-26,
-26,
-26,
-26,
-26,
-26,
-26,
-26,
-26,
-26,
-26,
-25,
-25,
-26,
-26,
-26,
-25,
-26,
-25,
-25,
-25,
-25,
-25,
-26,
-25,
-25,
-26,
-23,
-23,
-23,
-25,
-23,
-25,
-25,
-25,
-25,
-25,
-23,
-23,
-25,
-25,
-23,
-23,
-23,
-23,
-23,
-23,
-25,
-25,
-23,
-23,
-23,
-23,
-23,
-23,
-23,
-23,
-22,
-23,
-22,
-22,
-22,
-22,
-23,
-22,
-22,
-22,
-22,
-23,
-22,
-22,
-22,
-22,
-22,
-22,
-21,
-21,
-21,
-22,
-22,
-22,
-21,
-21,
-21,
-21,
-21,
-21,
-21,
-21,
-22,
-22,
-21,
-21,
-21,
-21,
-21,
-21,
-20,
-21,
-20,
-21,
-20,
-20,
-20,
-20,
-20,
-20,
-20,
-20,
-20,
-20,
-20,
-20,
-21,
-19,
-20,
-20,
-20,
-20,
-19,
-20,
-20,
-19,
-19,
-20,
-19,
-20,
-19,
-19,
-19,
-20,
-19,
-19,
-19,
-19,
-19,
-19,
-18,
-19,
-18,
-19,
-19,
-18,
-19,
-18,
-18,
-19,
-18,
-18,
-18,
-16,
-18,
-18,
-18,
-18,
-18,
-18,
-16,
-18,
-18,
-16,
-18,
-16,
-18,
-18,
-16,
-16,
-18,
-16,
-16,
-16,
-16,
-18,
-16,
-16,
-16,
-16,
-15,
-16,
-15,
-16,
-15,
-16,
-15,
-15,
-16,
-15,
-15,
-16,
-15,
-14,
-15,
-15,
-15,
-15,
-15,
-15,
-15,
-15,
-14,
-14,
-14,
-14,
-15,
-14,
-14,
-14,
-15,
-14,
-14,
-14,
-14,
-14,
-14,
-13,
-14,
-14,
-14,
-14,
-14,
-14,
-13,
-13,
-13,
-13,
-13,
-13,
-13,
-13,
-13,
-12,
-13,
-13,
-13,
-12,
-12,
-12,
-12,
-12,
-12,
-12,
-12,
-12,
-12,
-12,
-12,
-12,
-12,
-10,
-12,
-12,
-12,
-12,
-12,
-10,
-12,
-10,
-12,
-12,
-10,
-10,
-10,
-10,
-10,
-10,
-10,
-12,
-10,
-10,
-10,
-10,
-10,
-9,
-10,
-9,
-9,
-9,
-9,
-9,
-10,
-10,
-9,
-9,
-9,
-9,
-10,
-9,
-9,
-10,
-9,
-9,
-9,
-9,
-8,
-8,
-9,
-8,
-8,
-8,
-8,
-8,
-8,
-8,
-8,
-8,
-7,
-7,
-9,
-7,
-8,
-8,
-8,
-8,
-7,
-8,
-7,
-7,
-7,
-8,
-7,
-7,
-7,
-7,
-7,
-8,
-7,
-7,
-7,
-6,
-6,
-7,
-6,
-7,
-6,
-7,
-6,
-6,
-6,
-6,
-6,
-6,
-6,
-6,
-6,
-6,
-4,
-4,
-6,
-4,
-6,
-4,
-6,
-4,
-4,
-4,
-4,
-4,
-4,
-4,
-4,
-4,
-6,
-4,
-4,
-3,
-4,
-3,
-3,
-4,
-4,
-3,
-3,
-3,
-3,
-3,
-3,
-2,
-3,
-3,
-2,
-3,
-2,
-3,
-2,
-3,
-2,
-2,
-2,
-3,
-2,
-2,
-1,
-2,
-2,
-2,
-2,
-2,
-1,
-2,
-2,
-3,
-2,
-1,
-2,
-2,
-2,
-1,
-2,
-1,
-1,
-1,
-1,
-1,
-1,
-1,
-1,
-1,
-1,
-1,
-1,
-1,
0,
-1,
-1,
0,
-1,
0,
0,
0,
0,
0,
0,
0,
0,
0,
0,
0,
-1,
1,
1,
0,
1,
0,
1,
1,
1,
1,
1,
1,
1,
1,
1,
1,
1,
1,
1,
1,
3,
1,
1,
3,
3,
3,
3,
3,
3,
3,
3,
3,
3,
3,
3,
3,
3,
4,
3,
4,
4,
4,
4,
4,
3,
4,
4,
4,
4,
4,
4,
4,
4,
4,
5,
5,
4,
5,
4,
5,
5,
5,
5,
5,
5,
5,
5,
5,
4,
5,
5,
5,
6,
5,
6,
5,
6,
5,
6,
5,
6,
6,
6,
6,
6,
6,
6,
6,
6,
7,
6,
6,
6,
6,
6,
6,
7,
7,
7,
7,
7,
6,
7,
7,
7,
7,
9,
9,
9,
7,
9,
9,
9,
9,
9,
9,
9,
9,
9,
9,
9,
9,
9,
10,
9,
9,
9,
9,
9,
10,
10,
10,
10,
9,
10,
10,
10,
10,
10,
10,
10,
10,
9,
10,
10,
10,
10,
10,
10,
10,
10,
11,
11,
11,
11,
10,
11,
11,
11,
11,
11,
11,
11,
11,
11,
12,
12,
12,
11,
12,
11,
12,
11,
12,
12,
12,
11,
12,
12,
12,
12,
12,
13,
12,
12,
12,
12,
12,
12,
12,
12,
12,
13,
13,
13,
13,
12,
13,
13,
13,
13,
13,
13,
13,
15,
13,
13,
13,
15,
15,
15,
15,
15,
15,
15,
15,
15,
15,
15,
15,
15,
16,
15,
15,
15,
15,
16,
15,
16,
16,
16,
16,
16,
16,
16,
16,
16,
16,
16,
16,
16,
16,
16,
16,
16,
17,
16,
17,
17,
17,
17,
17,
17,
17,
16,
17,
17,
17,
17,
17,
17,
17,
17,
17,
17,
17,
17,
17,
17,
18,
18,
18,
18,
18,
18,
18,
18,
18,
18,
18,
18,
18,
19,
18,
18,
19,
19,
19,
19,
19,
19,
19,
19,
18,
19,
19,
19,
19,
19,
19,
20,
19,
19,
19,
20,
20,
20,
20,
19,
19,
20,
20,
19,
20,
20,
20,
20,
20,
20,
20,
20,
20,
20,
20,
22,
20,
22,
22,
22,
22,
22,
22,
22,
22,
22,
22,
22,
22,
22,
22,
22,
22,
22,
22,
22,
23,
23,
22,
22,
23,
23,
22,
23,
23,
23,
23,
23,
23,
23,
23,
23,
23,
23,
23,
23,
24,
24,
24,
24,
24,
24,
23,
24,
24,
24,
24,
24,
24,
24,
24,
24,
24,
25,
24,
24,
24,
24,
24,
24,
24,
25,
25,
24,
25,
24,
25,
25,
24,
24,
25,
25,
25,
25,
25,
25,
25,
25,
25,
25,
25,
25,
25,
25,
25,
26,
26,
26,
26,
26,
26,
26,
26,
26,
26,
26,
26,
26,
26,
26,
26,
26,
26,
28,
28,
28,
28,
26,
28,
28,
28,
28,
28,
28,
28,
28,
28,
28,
28,
28,
28,
28,
28,
28,
28,
28,
28,
29,
28,
28,
29,
28,
28,
28,
29,
29,
29,
29,
29,
29,
29,
29,
29,
29,
29,
29,
29,
29,
29,
29,
30,
29,
29,
30,
29,
29,
30,
29,
30,
29,
30,
30,
30,
30,
30,
30,
30,
30,
30,
30,
30,
30,
30,
30,
30,
30,
30,
31,
30,
30,
30,
31,
31,
30,
31,
31,
30,
31,
31,
31,
31,
31,
31,
31,
31,
31,
31,
31,
31,
31,
31,
31,
32,
32,
31,
31,
31,
32,
32,
31,
32,
32,
32,
32,
32,
32,
32,
32,
32,
32,
32,
32,
32,
32,
32,
34,
32,
32,
34,
32,
34,
32,
34,
32,
32,
34,
32,
34,
34,
34,
34,
34,
34,
34,
34,
34,
34,
34,
34,
34,
34,
34,
34,
34,
34,
34,
34,
34,
34,
34,
34,
34,
35,
35,
34,
34,
35,
34,
35,
35,
34,
35,
35,
35,
35,
35,
35,
35,
35,
35,
35,
35,
35,
35,
35,
35,
35,
35,
35,
35,
36,
36,
35,
36,
35,
35,
36,
35,
36,
35,
35,
36,
36,
35,
36,
36,
36,
36,
36,
36,
36,
36,
36,
36,
36,
36,
36,
36,
36,
36,
36,
36,
36,
36,
36,
36,
37,
36,
37,
37,
36,
37,
37,
37,
37,
37,
37,
37,
37,
37,
37,
37,
37,
37,
37,
37,
37,
37,
37,
37,
37,
37,
37,
37,
37,
37,
38,
37,
37,
37,
38,
37,
37,
38,
37,
37,
38,
38,
38,
38,
38,
38,
38,
38,
38,
38,
37,
38,
38,
38,
38,
38,
38,
38,
38,
38,
38,
38,
38,
38,
38,
38,
38,
38,
38,
39,
38,
38,
38,
38,
39,
38,
39,
38,
38,
39,
39,
38,
39,
39,
39,
39,
38,
39,
39,
38,
39,
38,
39,
39,
39,
39,
39,
39,
39,
39,
39,
39,
39,
39,
39,
39,
39,
39,
39,
39,
39,
39,
39,
39,
39,
39,
39,
39,
39,
39,
39,
39,
39,
41,
39,
39,
39,
41,
39,
39,
41,
41,
41,
39,
41,
41,
41,
41,
41,
41,
41,
39,
41,
41,
41,
41,
41,
41,
39,
41,
41,
41,
41,
41,
41,
41,
41,
41,
41,
41,
41,
41,
41,
41,
41,
41,
41,
41,
41,
41,
41,
41,
41,
42,
41,
42,
42,
41,
41,
41,
41,
41,
42,
42,
41,
42,
42,
42,
41,
42,
42,
41,
42,
42,
41,
41,
42,
42,
41,
42,
42,
42,
42,
42,
42,
42,
42,
42,
42,
42,
42,
42,
42,
42,
42,
42,
42,
42,
42,
42,
42,
42,
42,
42,
42,
42,
42,
42,
42,
42,
42,
42,
42,
42,
42,
42,
42,
42,
42,
42,
42,
42,
42,
42,
42,
43,
42,
42,
42,
42,
42,
43,
42,
42,
43,
43,
43,
42,
42,
42,
42,
43,
43,
42,
42,
43,
43,
43,
42,
42,
43,
42,
43,
42,
42,
42,
43,
43,
42,
42,
43,
43,
43,
43,
43,
42,
43,
43,
42,
42,
43,
43,
42,
43,
43,
43,
43,
43,
43,
43,
43,
43,
43,
43,
43,
43,
43,
43,
43,
43,
43,
42,
42,
43,
43,
43,
43,
43,
43,
43,
43,
42,
42,
43,
43,
43,
43,
43,
43,
43,
43,
43,
43,
43,
43,
43,
43,
43,
43,
43,
43,
43,
43,
42,
43,
43,
43,
43,
43,
43,
43,
43,
43,
43,
43,
43,
43,
43,
43,
43,
43,
43,
43,
43,
42,
43,
43,
43,
43,
43,
43,
43,
43,
43,
43,
43,
43,
43,
43,
43,
43,
43,
43,
43,
43,
43,
43,
42,
43,
43,
43,
43,
43,
43,
42,
43,
43,
42,
43,
42,
43,
43,
42,
43,
43,
43,
43,
43,
42,
43,
43,
43,
43,
42,
43,
43,
43,
43,
43,
42,
43,
43,
43,
43,
43,
42,
42,
42,
43,
43,
43,
43,
43,
42,
42,
43,
43,
43,
42,
42,
42,
43,
42,
42,
42,
43,
42,
43,
42,
43,
42,
43,
43,
42,
42,
42,
42,
42,
42,
42,
42,
43,
42,
42,
42,
42,
43,
43,
42,
42,
43,
42,
42,
42,
42,
42,
42,
42,
42,
42,
43,
42,
42,
42,
42,
42,
42,
42,
42,
42,
42,
42,
42,
42,
42,
42,
42,
42,
42,
42,
42,
42,
42,
42,
42,
42,
42,
42,
42,
42,
42,
42,
42,
42,
42,
42,
42,
42,
42,
42,
42,
42,
41,
42,
42,
42,
42,
42,
42,
42,
42,
41,
42,
42,
42,
42,
42,
42,
42,
41,
42,
42,
41,
42,
41,
41,
42,
41,
41,
42,
41,
42,
41,
41,
42,
42,
42,
41,
41,
41,
41,
41,
41,
41,
41,
41,
41,
41,
41,
41,
42,
41,
41,
41,
41,
41,
41,
41,
41,
41,
41,
41,
41,
41,
41,
41,
41,
41,
41,
41,
41,
41,
41,
41,
39,
41,
41,
41,
39,
41,
41,
41,
41,
39,
39,
39,
39,
39,
41,
39,
41,
41,
41,
39,
39,
39,
39,
39,
39,
39,
39,
39,
39,
39,
39,
39,
39,
39,
39,
39,
38,
39,
39,
39,
39,
39,
39,
39,
39,
39,
39,
39,
39,
39,
39,
39,
39,
39,
39,
39,
38,
39,
38,
38,
38,
38,
38,
38,
38,
39,
38,
39,
39,
38,
38,
39,
38,
38,
38,
38,
38,
38,
38,
38,
38,
38,
38,
38,
38,
38,
38,
38,
38,
38,
37,
38,
38,
37,
38,
38,
37,
38,
38,
38,
38,
38,
38,
38,
38,
38,
38,
38,
37,
37,
38,
37,
37,
37,
37,
37,
37,
37,
37,
37,
37,
37,
37,
37,
37,
37,
37,
37,
37,
37,
37,
37,
37,
37,
37,
37,
36,
37,
37,
36,
36,
36,
36,
36,
36,
36,
36,
36,
36,
36,
36,
36,
37,
36,
36,
36,
36,
36,
36,
36,
36,
36,
36,
35,
36,
36,
36,
36,
36,
36,
35,
35,
35,
35,
36,
36,
36,
35,
36,
35,
35,
35,
35,
35,
35,
35,
35,
35,
35,
35,
35,
35,
35,
35,
35,
35,
35,
35,
35,
34,
35,
35,
35,
34,
34,
34,
35,
34,
35,
34,
34,
34,
34,
34,
34,
34,
34,
34,
34,
32,
35,
34,
34,
34,
34,
34,
34,
34,
34,
34,
34,
34,
34,
32,
32,
34,
34,
34,
34,
32,
32,
34,
32,
32,
34,
34,
32,
32,
32,
32,
32,
32,
32,
32,
32,
32,
32,
32,
32,
32,
32,
32,
31,
32,
32,
31,
32,
31,
32,
31,
32,
31,
31,
31,
31,
31,
31,
31,
31,
31,
31,
31,
31,
30,
31,
31,
31,
30,
31,
31,
31,
30,
31,
30,
31,
30,
30,
30,
30,
30,
31,
30,
30,
30,
30,
30,
30,
29,
30,
30,
30,
30,
29,
30,
29,
30,
30,
29,
29,
29,
29,
29,
30,
29,
30,
29,
29,
29,
29,
29,
29,
29,
29,
29,
29,
29,
29,
28,
28,
28,
28,
28,
28,
28,
28,
28,
28,
28,
28,
28,
28,
28,
28,
28,
28,
28,
28,
28,
28,
28,
28,
26,
28,
28,
26,
28,
26,
28,
26,
26,
28,
26,
26,
26,
26,
26,
26,
26,
26,
26,
26,
26,
26,
26,
26,
26,
26,
26,
26,
25,
25,
25,
26,
25,
25,
25,
25,
25,
25,
25,
25,
25,
25,
25,
25,
25,
25,
25,
25,
25,
25,
24,
24,
24,
24,
25,
25,
25,
24,
24,
24,
24,
24,
24,
24,
24,
24,
24,
24,
24,
24,
24,
23,
24,
23,
23,
24,
24,
23,
23,
23,
23,
23,
23,
24,
23,
23,
23,
23,
23,
23,
23,
23,
23,
22,
23,
22,
23,
22,
22,
22,
22,
22,
22,
22,
22,
20,
22,
20,
22,
22,
22,
20,
20,
22,
20,
22,
22,
22,
20,
20,
20,
20,
20,
20,
20,
20,
20,
20,
20,
20,
19,
19,
20,
20,
20,
20,
19,
19,
19,
19,
20,
20,
19,
19,
19,
19,
19,
19,
19,
19,
18,
19,
19,
19,
19,
19,
19,
18,
19,
18,
19,
18,
18,
19,
18,
18,
18,
18,
18,
18,
18,
18,
17,
17,
18,
18,
17,
17,
17,
18,
17,
17,
17,
17,
17,
17,
17,
17,
17,
17,
17,
16,
17,
16,
17,
16,
16,
17,
16,
16,
16,
16,
16,
17,
16,
16,
16,
15,
16,
16,
16,
16,
16,
16,
16,
16,
15,
16,
15,
16,
15,
13,
16,
15,
15,
15,
15,
15,
15,
13,
15,
13,
15,
15,
15,
15,
13,
15,
13,
13,
13,
13,
13,
13,
12,
13,
13,
13,
13,
13,
13,
13,
13,
12,
13,
13,
12,
12,
12,
13,
12,
13,
12,
12,
13,
12,
12,
12,
12,
12,
11,
12,
11,
12,
11,
11,
11,
12,
11,
12,
11,
11,
11,
11,
11,
11,
11,
11,
11,
11,
10,
11,
11,
10,
11,
10,
11,
10,
10,
10,
10,
10,
10,
10,
10,
9,
10,
10,
10,
9,
10,
10,
10,
9,
9,
10,
9,
10,
9,
10,
7,
9,
9,
9,
9,
9,
9,
7,
9,
9,
7,
7,
7,
7,
7,
7,
7,
7,
7,
7,
7,
7,
7,
6,
7,
7,
7,
7,
6,
6,
6,
6,
7,
7,
6,
6,
6,
6,
6,
6,
6,
6,
6,
6,
5,
6,
6,
6,
5,
5,
6,
5,
5,
5,
5,
5,
5,
5,
5,
5,
5,
5,
5,
5,
5,
5,
5,
4,
4,
5,
4,
4,
4,
4,
4,
4,
4,
4,
4,
4,
3,
4,
4,
4,
4,
4,
3,
4,
4,
3,
3,
3,
4,
3,
3,
3,
3,
3,
3,
3,
1,
1,
1,
1,
3,
1,
1,
3,
3,
3,
1,
1,
1,
3,
1,
1,
1,
1,
1,
1,
1,
1,
1,
1,
1,
0,
1,
0,
1,
0,
0,
0,
0,
0,
0,
0,
0,
0,
-1,
0,
0,
-1,
-1,
0,
-1,
-1,
0,
-1,
-1,
-1,
-1,
0,
-2,
-1,
-1,
-1,
-2,
-1,
-2,
-2,
-3,
-1,
-2,
-1,
-2,
-2,
-2,
-2,
-2,
-2,
-2,
-2,
-2,
-3,
-2,
-3,
-2,
-2,
-2,
-2,
-3,
-2,
-2,
-3,
-3,
-3,
-3,
-3,
-3,
-4,
-3,
-4,
-3,
-4,
-3,
-4,
-3,
-4,
-4,
-4,
-3,
-4,
-4,
-6,
-4,
-4,
-3,
-4,
-4,
-6,
-4,
-4,
-6,
-6,
-4,
-6,
-4,
-4,
-6,
-6,
-6,
-4,
-7,
-6,
-4,
-7,
-6,
-7,
-6,
-6,
-6,
-6,
-6,
-6,
-7,
-6,
-7,
-7,
-7,
-7,
-7,
-7,
-8,
-7,
-7,
-7,
-7,
-8,
-7,
-8,
-7,
-8,
-7,
-7,
-7,
-8,
-8,
-7,
-8,
-8,
-8,
-8,
-8,
-9,
-9,
-8,
-8,
-8,
-8,
-9,
-8,
-9,
-8,
-9,
-8,
-9,
-9,
-10,
-9,
-9,
-9,
-10,
-9,
-10,
-9,
-10,
-10,
-10,
-10,
-10,
-9,
-10,
-10,
-10,
-10,
-12,
-10,
-10,
-9,
-10,
-10,
-10,
-10,
-12,
-10,
-10,
-10,
-12,
-12,
-10,
-12,
-10,
-12,
-12,
-12,
-10,
-10,
-12,
-13,
-13,
-12,
-13,
-12,
-12,
-12,
-13,
-12,
-13,
-12,
-13,
-12,
-13,
-13,
-12,
-13,
-13,
-14,
-13,
-13,
-13,
-13,
-13,
-14,
-14,
-13,
-13,
-14,
-13,
-13,
-14,
-14,
-14,
-14,
-14,
-14,
-14,
-14,
-15,
-14,
-14,
-14,
-14,
-14,
-14,
-15,
-14,
-15,
-14,
-15,
-15,
-15,
-15,
-15,
-15,
-15,
-16,
-15,
-15,
-15,
-15,
-15,
-15,
-16,
-16,
-15,
-16,
-16,
-16,
-16,
-16,
-16,
-16,
-16,
-18,
-16,
-16,
-16,
-16,
-16,
-18,
-18,
-19,
-16,
-18,
-16,
-16,
-18,
-19,
-18,
-18,
-16,
-18,
-18,
-18,
-18,
-18,
-18,
-19,
-19,
-19,
-18,
-18,
-19,
-19,
-19,
-20,
-19,
-19,
-18,
-19,
-19,
-20,
-19,
-19,
-19,
-20,
-19,
-18,
-19,
-19,
-19,
-19,
-19,
-20,
-19,
-20,
-20,
-19,
-20,
-19,
-20,
-20,
-20,
-20,
-21,
-21,
-19,
-20,
-20,
-20,
-21,
-20,
-20,
-20,
-21,
-21,
-20,
-20,
-21,
-21,
-21,
-21,
-21,
-21,
-21,
-21,
-21,
-22,
-21,
-21,
-22,
-21,
-22,
-21,
-21,
-22,
-22,
-22,
-21,
-22,
-22,
-22,
-22,
-22,
-21,
-22,
-23,
-23,
-22,
-22,
-22,
-23,
-23,
-22,
-22,
-23,
-22,
-23,
-23,
-23,
-23,
-23,
-22,
-23,
-23,
-25,
-23,
-23,
-23,
-23,
-23,
-23,
-25,
-23,
-25,
-25,
-23,
-25,
-23,
-25,
-25,
-25,
-25,
-25,
-25,
-25,
-25,
-25,
-26,
-25,
-25,
-25,
-25,
-25,
-25,
-25,
-26,
-26,
-25,
-25,
-26,
-25,
-26,
-26,
-25,
-27,
-26,
-27,
-26,
-26,
-25,
-26,
-26,
-25,
-26,
-26,
-26,
-26,
-27,
-26,
-26,
-26,
-27,
-26,
-28,
-26,
-26,
-27,
-27,
-26,
-28,
-27,
-26,
-27,
-27,
-27,
-27,
-27,
-27,
-28,
-27,
-28,
-29,
-27,
-27,
-27,
-28,
-27,
-28,
-28,
-28,
-28,
-29,
-27,
-28,
-28,
-29,
-28,
-28,
-27,
-31,
-28,
-29,
-28,
-28,
-28,
-31,
-28,
-28,
-29,
-29,
-28,
-29,
-29,
-29,
-29,
-29,
-28,
-31,
-29,
-29,
-28,
-29,
-29,
-28,
-29,
-29,
-32,
-31,
-31,
-29,
-29,
-29,
-31,
-29,
-31,
-29,
-31,
-31,
-32,
-29,
-31,
-32,
-31,
-31,
-31,
-33,
-31,
-31,
-31,
-32,
-31,
-32,
-32,
-32,
-31,
-31,
-31,
-31,
-31,
-32,
-32,
-32,
-33,
-32,
-32,
-32,
-32,
-31,
-32,
-32,
-33,
-32,
-32,
-32,
-32,
-32,
-32,
-34,
-33,
-32,
-32,
-33,
-34,
-33,
-33,
-32,
-33,
-32,
-33,
-32,
-33,
-33,
-34,
-33,
-33,
-32,
-33,
-32,
-33,
-33,
-33,
-33,
-34,
-33,
-33,
-33,
-33,
-33,
-34,
-34,
-34,
-34,
-33,
-34,
-34,
-32,
-33,
-34,
-34,
-35,
-35,
-34,
-35,
-34,
-33,
-34,
-34,
-34,
-34,
-34,
-35,
-35,
-34,
-34,
-35,
-34,
-34,
-35,
-35,
-34,
-34,
-34,
-35,
-35,
-35,
-34,
-35,
-37,
-34,
-35,
-35,
-35,
-35,
-35,
-35,
-37,
-35,
-35,
-35,
-37,
-35,
-35,
-35,
-35,
-35,
-37,
-37,
-37,
-37,
-35,
-37,
-35,
-37,
-37,
-38,
-35,
-38,
-35,
-37,
-35,
-37,
-37,
-38,
-37,
-37,
-37,
-37,
-37,
-37,
-37,
-37,
-38,
-37,
-37,
-37,
-38,
-35,
-39,
-37,
-37,
-39,
-38,
-38,
-37,
-38,
-37,
-38,
-37,
-39,
-38,
-37,
-38,
-38,
-38,
-37,
-38,
-38,
-38,
-39,
-38,
-38,
-39,
-38,
-38,
-38,
-38,
-37,
-39,
-38,
-38,
-38,
-38,
-39,
-39,
-40,
-38,
-38,
-39,
-39,
-38,
-38,
-40,
-39,
-39,
-39,
-39,
-39,
-38,
-38,
-39,
-38,
-38,
-39,
-38,
-38,
-39,
-39,
-38,
-39,
-39,
-39,
-40,
-39,
-39,
-39,
-39,
-39,
-40,
-39,
-38,
-40,
-39,
-39,
-40,
-39,
-40,
-39,
-39,
-39,
-39,
-40,
-39,
-40,
-39,
-39,
-41,
-39,
-40,
-39,
-39,
-39,
-40,
-40,
-39,
-39,
-39,
-40,
-39,
-40,
-39,
-39,
-40,
-40,
-41,
-40,
-40,
-40,
-40,
-41,
-41,
-40,
-41,
-40,
-41,
-40,
-40,
-40,
-40,
-41,
-40,
-40,
-40,
-40,
-40,
-41,
-40,
-40,
-41,
-41,
-41,
-41,
-40,
-40,
-40,
-40,
-40,
-41,
-40,
-41,
-40,
-40,
-40,
-43,
-41,
-41,
-40,
-41,
-40,
-41,
-43,
-41,
-41,
-41,
-41,
-41,
-43,
-41,
-41,
-41,
-43,
-40,
-43,
-41,
-43,
-41,
-43,
-41,
-40,
-41,
-41,
-44,
-41,
-41,
-40,
-40,
-41,
-41,
-40,
-41,
-41,
-41,
-43,
-41,
-40,
-41,
-43,
-41,
-41,
-43,
-40,
-43,
-41,
-41,
-41,
-43,
-43,
-41,
-41,
-41,
-43,
-43,
-41,
-41,
-43,
-43,
-41,
-43,
-43,
-43,
-43,
-43,
-43,
-44,
-41,
-43,
-41,
-44,
-43,
-43,
-41,
-43,
-43,
-43,
-43,
-44,
-43,
-43,
-43,
-43,
-41,
-43,
-43,
-43,
-43,
-43,
-43,
-43,
-43,
-43,
-44,
-43,
-43,
-41,
-43,
-43,
-43,
-43,
-41,
-43,
-43,
-44,
-43,
-43,
-41,
-43,
-43,
-43,
-44,
-43,
-43,
-43,
-44,
-44,
-44,
-44,
-43,
-43,
-43,
-43,
-43,
-44,
-44,
-44,
-43,
-43,
-43,
-44,
-43,
-43,
-44,
-43,
-44,
-44,
-43,
-43,
-43,
-44,
-43,
-44,
-44,
-44,
-43,
-43,
-44,
-43,
-44,
-43,
-45,
-44,
-43,
-43,
-43,
-43,
-44,
-44,
-44,
-43,
-44,
-43,
-45,
-44,
-43,
-44,
-43,
-44,
-41,
-45,
-43,
-43,
-43,
-44,
-43,
-45,
-43,
-43,
-44,
-44,
-43,
-45,
-44,
-44,
-44,
-45,
-43,
-44,
-44,
-44,
-43,
-43,
-44,
-43,
-45,
-43,
-43,
-44,
-43,
-44,
-45,
-43,
-44,
-44,
-44,
-44,
-45,
-43,
-44,
-43,
-43,
-43,
-44,
-44,
-44,
-44,
-44,
-45,
-44,
-43,
-43,
-44,
-44,
-45,
-43,
-44,
-44,
-44,
-44,
-45,
-44,
-44,
-44,
-44,
-44,
-45,
-43,
-44,
-44,
-44,
-44,
-44,
-43,
-43,
-44,
-44,
-43,
-44,
-45,
-44,
-43,
-43,
-44,
-44,
-43,
-43,
-44,
-44,
-45,
-43,
-44,
-44,
-43,
-44,
-43,
-41,
-44,
-43,
-44,
-44,
-43,
-43,
-44,
-44,
-44,
-44,
-43,
-43,
-44,
-43,
-44,
-44,
-43,
-44,
-44,
-44,
-43,
-43,
-45,
-43,
-44,
-43,
-43,
-43,
-44,
-45,
-44,
-43,
-43,
-43,
-43,
-45,
-43,
-43,
-44,
-43,
-44,
-43,
-44,
-43,
-43,
-43,
-43,
-44,
-43,
-41,
-43,
-43,
-43,
-43,
-44,
-44,
-43,
-44,
-43,
-43,
-41,
-43,
-43,
-43,
-43,
-44,
-44,
-43,
-43,
-43,
-44,
-44,
-41,
-43,
-43,
-43,
-43,
-43,
-41,
-41,
-43,
-43,
-43,
-43,
-43,
-44,
-41,
-44,
-43,
-43,
-43,
-45,
-41,
-43,
-43,
-43,
-43,
-44,
-43,
-43,
-43,
-41,
-44,
-44,
-41,
-44,
-43,
-43,
-43,
-44,
-43,
-44,
-41,
-43,
-43,
-44,
-43,
-43,
-41,
-41,
-43,
-41,
-41,
-43,
-41,
-41,
-43,
-44,
-43,
-41,
-41,
-41,
-43,
-41,
-43,
-41,
-40,
-41,
-43,
-41,
-44,
-43,
-41,
-41,
-43,
-43,
-41,
-41,
-41,
-41,
-43,
-41,
-41,
-41,
-43,
-41,
-41,
-41,
-41,
-40,
-41,
-43,
-44,
-40,
-41,
-40,
-41,
-41,
-43,
-41,
-41,
-41,
-40,
-41,
-41,
-41,
-41,
-40,
-41,
-41,
-41,
-41,
-41,
-41,
-41,
-41,
-40,
-41,
-40,
-40,
-41,
-41,
-40,
-40,
-40,
-41,
-40,
-40,
-40,
-40,
-40,
-40,
-39,
-40,
-41,
-40,
-40,
-40,
-40,
-40,
-40,
-40,
-40,
-40,
-40,
-40,
-40,
-40,
-40,
-40,
-40,
-40,
-40,
-39,
-40,
-39,
-40,
-40,
-40,
-40,
-40,
-39,
-40,
-39,
-40,
-40,
-39,
-39,
-39,
-39,
-39,
-39,
-39,
-40,
-40,
-40,
-40,
-40,
-39,
-39,
-40,
-39,
-39,
-39,
-39,
-38,
-40,
-39,
-40,
-39,
-39,
-39,
-39,
-39,
-40,
-40,
-39,
-38,
-39,
-39,
-39,
-38,
-39,
-38,
-39,
-39,
-39,
-38,
-38,
-39,
-38,
-39,
-38,
-38,
-39,
-37,
-38,
-39,
-38,
-38,
-38,
-38,
-40,
-38,
-38,
-39,
-38,
-39,
-37,
-38,
-38,
-38,
-39,
-37,
-38,
-38,
-38,
-38,
-38,
-37,
-38,
-38,
-38,
-38,
-37,
-37,
-38,
-37,
-38,
-38,
-38,
-38,
-37,
-37,
-37,
-37,
-38,
-38,
-37,
-37,
-35,
-38,
-37,
-37,
-37,
-37,
-37,
-37,
-37,
-37,
-35,
-37,
-35,
-37,
-37,
-37,
-35,
-35,
-37,
-37,
-35,
-35,
-38,
-37,
-35,
-35,
-35,
-35,
-37,
-37,
-35,
-35,
-37,
-35,
-37,
-35,
-35,
-35,
-35,
-35,
-35,
-35,
-35,
-34,
-35,
-35,
-35,
-34,
-35,
-35,
-34,
-34,
-35,
-35,
-34,
-34,
-35,
-34,
-34,
-35,
-34,
-34,
-35,
-34,
-33,
-34,
-34,
-34,
-34,
-34,
-34,
-34,
-33,
-34,
-34,
-33,
-34,
-34,
-33,
-34,
