RLC_R_11.91/ALL0014/2.CSV

Format,1.0B,
Memory Length,10000,
IntpDistance,0,
Trigger Address,4999,
Trigger Level,0.000E+00,
Source,CH2,
Vertical Units,V,
Vertical Units Div,0,
Vertical Units Extend Div,16,
Label, ,
Probe Type,0,
Probe Ratio,1.000E+00,
Vertical Scale,1.000E-01,
Vertical Position,-2.000E-01,
Horizontal Units,S,
Horizontal Scale,1.000E-04,
Horizontal Position,0.000E+00,
Horizontal Mode,Main,
SincET Mode,Real Time,
Sampling Period,1.000E-07,
Horizontal Old Scale,1.000E-04,
Horizontal Old Position,0.000E+00,
Firmware,V1.24,
Mode,Fast,
Waveform Data,
24,
24,
24,
24,
22,
24,
24,
22,
22,
22,
22,
24,
24,
24,
24,
22,
24,
24,
24,
24,
24,
24,
22,
24,
24,
24,
24,
21,
24,
22,
22,
22,
22,
22,
22,
22,
24,
22,
22,
22,
22,
22,
24,
24,
22,
22,
22,
22,
24,
24,
24,
22,
22,
22,
22,
24,
22,
22,
22,
22,
22,
22,
22,
22,
22,
22,
21,
22,
22,
21,
22,
21,
21,
22,
21,
22,
22,
21,
21,
21,
21,
22,
21,
22,
22,
21,
22,
21,
22,
19,
21,
22,
21,
21,
22,
22,
21,
21,
21,
22,
21,
21,
21,
19,
21,
21,
21,
21,
21,
21,
21,
21,
21,
19,
19,
21,
19,
21,
19,
19,
19,
19,
19,
19,
19,
19,
19,
19,
19,
19,
19,
19,
19,
21,
19,
19,
21,
19,
19,
19,
19,
21,
21,
19,
19,
19,
19,
18,
18,
21,
18,
19,
19,
16,
18,
18,
18,
18,
18,
18,
18,
18,
19,
18,
18,
18,
16,
18,
18,
19,
18,
18,
18,
18,
18,
18,
16,
16,
18,
16,
16,
18,
16,
16,
16,
16,
18,
16,
18,
16,
18,
18,
16,
18,
16,
16,
18,
16,
16,
18,
16,
18,
16,
15,
16,
16,
16,
16,
16,
16,
16,
15,
16,
16,
16,
16,
16,
16,
15,
16,
16,
15,
16,
16,
16,
16,
15,
16,
15,
13,
16,
15,
15,
15,
13,
15,
15,
15,
15,
15,
15,
15,
13,
15,
15,
13,
15,
12,
13,
15,
13,
15,
15,
13,
15,
13,
13,
13,
15,
13,
13,
13,
13,
15,
15,
13,
13,
13,
13,
13,
13,
13,
13,
12,
13,
13,
12,
13,
12,
12,
12,
12,
12,
12,
12,
12,
10,
12,
12,
12,
12,
10,
12,
13,
10,
13,
12,
12,
12,
12,
12,
12,
12,
12,
10,
12,
12,
10,
12,
10,
10,
10,
9,
10,
10,
10,
10,
10,
9,
9,
9,
10,
10,
9,
10,
7,
10,
9,
9,
10,
9,
9,
9,
9,
9,
9,
9,
9,
9,
9,
10,
9,
9,
7,
9,
7,
9,
9,
7,
9,
9,
6,
9,
7,
7,
9,
7,
7,
7,
7,
7,
7,
7,
7,
6,
7,
7,
7,
7,
7,
7,
9,
7,
7,
7,
6,
7,
7,
7,
7,
7,
7,
7,
6,
7,
6,
6,
7,
6,
6,
6,
6,
7,
6,
5,
6,
5,
7,
6,
6,
6,
6,
6,
6,
5,
6,
6,
5,
6,
6,
6,
5,
5,
5,
5,
5,
5,
5,
5,
5,
3,
5,
5,
5,
5,
5,
5,
5,
5,
5,
5,
5,
5,
3,
3,
3,
3,
3,
2,
3,
3,
3,
3,
5,
3,
3,
3,
5,
2,
3,
3,
3,
3,
2,
2,
2,
2,
2,
3,
2,
2,
2,
2,
2,
3,
3,
2,
3,
2,
2,
2,
2,
2,
2,
0,
2,
2,
0,
2,
0,
0,
2,
0,
2,
0,
-1,
2,
0,
0,
0,
-1,
-1,
0,
0,
0,
-1,
0,
-1,
-1,
0,
-1,
-1,
-1,
-1,
-1,
-1,
-1,
0,
-1,
-1,
0,
-1,
0,
0,
-1,
-1,
-3,
-1,
-1,
-1,
-1,
-3,
-1,
-1,
-3,
-1,
-3,
-1,
-1,
-1,
-3,
-3,
-3,
-3,
-3,
-3,
-3,
-3,
-3,
-4,
-3,
-3,
-3,
-3,
-3,
-1,
-1,
-4,
-3,
-3,
-4,
-3,
-6,
-3,
-4,
-4,
-4,
-4,
-4,
-4,
-4,
-3,
-4,
-3,
-4,
-4,
-4,
-4,
-6,
-4,
-4,
-4,
-4,
-4,
-3,
-6,
-6,
-4,
-4,
-4,
-6,
-7,
-6,
-4,
-4,
-4,
-6,
-6,
-6,
-6,
-6,
-6,
-6,
-6,
-7,
-6,
-7,
-6,
-6,
-6,
-7,
-7,
-7,
-7,
-7,
-7,
-7,
-6,
-6,
-7,
-7,
-9,
-9,
-6,
-7,
-7,
-6,
-7,
-7,
-7,
-7,
-7,
-9,
-7,
-7,
-7,
-7,
-9,
-9,
-9,
-7,
-7,
-9,
-10,
-9,
-9,
-9,
-9,
-9,
-9,
-9,
-9,
-9,
-12,
-10,
-9,
-9,
-9,
-9,
-10,
-9,
-10,
-9,
-10,
-10,
-9,
-9,
-9,
-9,
-10,
-9,
-10,
-10,
-10,
-10,
-10,
-10,
-12,
-10,
-12,
-12,
-10,
-10,
-10,
-12,
-10,
-10,
-10,
-10,
-12,
-12,
-12,
-12,
-10,
-10,
-10,
-10,
-12,
-12,
-12,
-12,
-10,
-13,
-12,
-12,
-13,
-12,
-13,
-13,
-12,
-13,
-12,
-12,
-12,
-12,
-13,
-13,
-12,
-13,
-13,
-13,
-13,
-13,
-13,
-13,
-13,
-15,
-13,
-13,
-13,
-12,
-13,
-13,
-15,
-15,
-12,
-15,
-13,
-13,
-15,
-13,
-15,
-15,
-13,
-13,
-13,
-13,
-16,
-15,
-16,
-13,
-13,
-15,
-15,
-15,
-15,
-13,
-15,
-15,
-16,
-15,
-15,
-13,
-13,
-15,
-15,
-15,
-15,
-16,
-15,
-15,
-15,
-15,
-15,
-15,
-15,
-15,
-15,
-16,
-15,
-16,
-15,
-15,
-17,
-16,
-17,
-17,
-15,
-16,
-16,
-16,
-17,
-16,
-16,
-16,
-16,
-16,
-16,
-17,
-16,
-16,
-17,
-16,
-17,
-16,
-16,
-16,
-16,
-16,
-17,
-17,
-17,
-17,
-16,
-17,
-17,
-19,
-17,
-16,
-17,
-17,
-17,
-17,
-17,
-17,
-17,
-17,
-17,
-19,
-17,
-17,
-17,
-19,
-17,
-17,
-17,
-17,
-19,
-17,
-17,
-17,
-17,
-19,
-19,
-17,
-20,
-17,
-19,
-19,
-19,
-20,
-17,
-19,
-19,
-19,
-20,
-19,
-20,
-22,
-17,
-19,
-19,
-19,
-22,
-20,
-19,
-19,
-19,
-22,
-19,
-20,
-19,
-19,
-20,
-20,
-20,
-20,
-19,
-20,
-20,
-19,
-20,
-20,
-20,
-20,
-20,
-20,
-20,
-20,
-20,
-19,
-22,
-20,
-23,
-22,
-19,
-22,
-20,
-19,
-20,
-20,
-22,
-20,
-22,
-22,
-20,
-20,
-20,
-19,
-20,
-20,
-22,
-22,
-20,
-20,
-20,
-22,
-23,
-22,
-22,
-20,
-20,
-22,
-22,
-22,
-20,
-20,
-22,
-22,
-22,
-22,
-22,
-22,
-20,
-22,
-22,
-22,
-22,
-22,
-22,
-22,
-22,
-22,
-22,
-22,
-23,
-23,
-22,
-22,
-20,
-22,
-23,
-23,
-23,
-22,
-23,
-22,
-22,
-23,
-23,
-23,
-22,
-22,
-23,
-22,
-23,
-23,
-22,
-25,
-22,
-23,
-23,
-22,
-23,
-25,
-23,
-23,
-22,
-23,
-23,
-23,
-25,
-22,
-22,
-25,
-23,
-23,
-25,
-23,
-25,
-23,
-23,
-25,
-23,
-25,
-23,
-23,
-23,
-23,
-23,
-23,
-23,
-23,
-23,
-23,
-22,
-23,
-25,
-23,
-25,
-23,
-23,
-25,
-23,
-25,
-23,
-23,
-25,
-23,
-25,
-25,
-23,
-23,
-23,
-25,
-25,
-23,
-25,
-23,
-26,
-25,
-25,
-23,
-25,
-25,
-26,
-25,
-25,
-25,
-23,
-26,
-25,
-25,
-25,
-25,
-25,
-26,
-25,
-25,
-25,
-26,
-25,
-25,
-25,
-25,
-26,
-25,
-26,
-25,
-25,
-25,
-26,
-26,
-26,
-26,
-25,
-25,
-25,
-25,
-25,
-25,
-26,
-25,
-26,
-25,
-26,
-26,
-25,
-26,
-25,
-25,
-26,
-25,
-26,
-26,
-25,
-25,
-25,
-25,
-26,
-25,
-25,
-26,
-26,
-26,
-23,
-26,
-25,
-25,
-26,
-25,
-26,
-26,
-25,
-26,
-25,
-25,
-26,
-25,
-26,
-25,
-26,
-26,
-25,
-26,
-25,
-25,
-26,
-25,
-26,
-26,
-28,
-26,
-26,
-25,
-25,
-25,
-26,
-25,
-28,
-26,
-25,
-26,
-26,
-25,
-26,
-26,
-26,
-25,
-25,
-26,
-26,
-26,
-25,
-26,
-26,
-25,
-26,
-28,
-26,
-26,
-26,
-25,
-25,
-25,
-26,
-26,
-25,
-26,
-25,
-26,
-25,
-26,
-26,
-26,
-26,
-26,
-28,
-26,
-25,
-25,
-26,
-25,
-26,
-25,
-26,
-26,
-26,
-25,
-25,
-25,
-26,
-26,
-28,
-25,
-25,
-26,
-25,
-28,
-26,
-25,
-26,
-25,
-25,
-28,
-26,
-26,
-26,
-25,
-26,
-26,
-26,
-26,
-25,
-25,
-25,
-25,
-28,
-26,
-26,
-26,
-25,
-26,
-28,
-26,
-26,
-25,
-25,
-26,
-25,
-26,
-26,
-26,
-26,
-25,
-28,
-26,
-26,
-26,
-25,
-25,
-26,
-25,
-26,
-26,
-26,
-25,
-26,
-25,
-26,
-26,
-26,
-25,
-26,
-25,
-26,
-26,
-26,
-26,
-25,
-25,
-28,
-25,
-26,
-26,
-25,
-26,
-26,
-25,
-26,
-25,
-26,
-25,
-25,
-26,
-25,
-25,
-25,
-25,
-25,
-25,
-25,
-26,
-25,
-26,
-25,
-26,
-26,
-25,
-25,
-25,
-25,
-25,
-25,
-25,
-26,
-25,
-25,
-25,
-25,
-25,
-26,
-25,
-25,
-25,
-25,
-25,
-25,
-25,
-23,
-23,
-25,
-26,
-25,
-25,
-25,
-23,
-25,
-26,
-23,
-25,
-23,
-23,
-25,
-25,
-25,
-25,
-23,
-25,
-23,
-23,
-25,
-23,
-26,
-23,
-22,
-25,
-25,
-25,
-23,
-22,
-23,
-25,
-23,
-25,
-25,
-25,
-23,
-23,
-25,
-23,
-23,
-23,
-25,
-25,
-23,
-25,
-23,
-23,
-25,
-23,
-25,
-25,
-23,
-23,
-23,
-22,
-25,
-23,
-23,
-23,
-23,
-23,
-23,
-23,
-22,
-23,
-23,
-23,
-23,
-23,
-23,
-23,
-23,
-23,
-23,
-23,
-23,
-23,
-23,
-22,
-22,
-22,
-23,
-23,
-23,
-22,
-22,
-22,
-22,
-25,
-23,
-23,
-22,
-22,
-22,
-22,
-23,
-23,
-22,
-22,
-22,
-22,
-22,
-22,
-22,
-22,
-22,
-22,
-22,
-23,
-22,
-22,
-22,
-22,
-22,
-22,
-22,
-22,
-22,
-20,
-22,
-22,
-20,
-22,
-22,
-22,
-22,
-20,
-22,
-22,
-22,
-22,
-20,
-22,
-22,
-20,
-22,
-20,
-20,
-20,
-20,
-22,
-20,
-22,
-20,
-20,
-20,
-20,
-20,
-20,
-20,
-20,
-20,
-19,
-20,
-20,
-20,
-20,
-19,
-19,
-17,
-20,
-20,
-19,
-20,
-19,
-19,
-22,
-20,
-19,
-19,
-19,
-20,
-20,
-20,
-20,
-19,
-19,
-19,
-19,
-20,
-17,
-20,
-19,
-19,
-19,
-17,
-19,
-20,
-19,
-20,
-17,
-17,
-19,
-19,
-19,
-19,
-17,
-19,
-19,
-19,
-19,
-17,
-19,
-17,
-17,
-17,
-17,
-17,
-17,
-17,
-17,
-16,
-17,
-17,
-16,
-17,
-16,
-17,
-19,
-17,
-17,
-16,
-16,
-16,
-17,
-20,
-19,
-17,
-17,
-16,
-17,
-17,
-16,
-17,
-16,
-17,
-17,
-16,
-16,
-17,
-16,
-16,
-16,
-16,
-17,
-16,
-16,
-16,
-16,
-17,
-16,
-15,
-16,
-16,
-16,
-15,
-16,
-15,
-15,
-16,
-15,
-16,
-16,
-16,
-17,
-15,
-16,
-16,
-15,
-15,
-15,
-15,
-16,
-15,
-13,
-15,
-15,
-17,
-15,
-15,
-15,
-15,
-16,
-15,
-15,
-15,
-15,
-15,
-15,
-15,
-15,
-15,
-13,
-13,
-15,
-15,
-15,
-13,
-16,
-13,
-13,
-13,
-13,
-13,
-12,
-13,
-13,
-13,
-13,
-13,
-12,
-13,
-13,
-12,
-12,
-13,
-13,
-12,
-12,
-13,
-10,
-13,
-13,
-13,
-13,
-13,
-12,
-12,
-13,
-13,
-12,
-12,
-10,
-12,
-12,
-10,
-12,
-12,
-10,
-12,
-12,
-10,
-12,
-10,
-10,
-10,
-12,
-12,
-10,
-12,
-12,
-12,
-10,
-10,
-10,
-12,
-10,
-10,
-9,
-9,
-9,
-10,
-9,
-9,
-10,
-10,
-10,
-10,
-10,
-9,
-9,
-9,
-9,
-10,
-9,
-10,
-9,
-9,
-10,
-9,
-9,
-9,
-9,
-9,
-10,
-9,
-9,
-9,
-9,
-9,
-7,
-9,
-7,
-7,
-10,
-7,
-7,
-7,
-7,
-7,
-9,
-7,
-9,
-7,
-7,
-7,
-6,
-7,
-7,
-7,
-7,
-6,
-7,
-7,
-7,
-7,
-6,
-7,
-9,
-7,
-7,
-6,
-6,
-7,
-7,
-7,
-7,
-6,
-6,
-6,
-6,
-6,
-6,
-6,
-6,
-4,
-6,
-6,
-6,
-6,
-6,
-6,
-6,
-6,
-4,
-6,
-6,
-4,
-4,
-4,
-4,
-4,
-6,
-4,
-4,
-4,
-6,
-6,
-6,
-6,
-6,
-3,
-4,
-4,
-4,
-4,
-4,
-4,
-4,
-4,
-4,
-3,
-4,
-4,
-4,
-4,
-3,
-4,
-4,
-3,
-4,
-3,
-3,
-3,
-1,
-3,
-4,
-3,
-4,
-1,
-3,
-3,
-3,
-3,
-3,
-1,
-4,
-1,
-1,
-1,
0,
-1,
-1,
-3,
-1,
-1,
-1,
-1,
-3,
-3,
-1,
-1,
-1,
-1,
-3,
-1,
-1,
0,
-1,
0,
-1,
-1,
-1,
0,
0,
0,
0,
-1,
0,
0,
0,
2,
0,
0,
0,
-1,
0,
0,
0,
2,
-1,
0,
0,
0,
2,
2,
2,
2,
2,
2,
3,
2,
2,
0,
2,
2,
2,
2,
2,
2,
2,
2,
2,
2,
2,
3,
2,
0,
2,
2,
3,
2,
2,
2,
0,
2,
2,
2,
3,
2,
2,
3,
3,
5,
3,
2,
5,
3,
5,
3,
3,
3,
3,
3,
3,
3,
3,
3,
5,
3,
3,
3,
3,
3,
5,
3,
3,
5,
5,
5,
5,
5,
5,
5,
5,
6,
5,
6,
5,
5,
5,
5,
6,
6,
6,
6,
5,
6,
5,
6,
6,
5,
6,
6,
6,
6,
7,
6,
6,
6,
6,
7,
6,
7,
6,
7,
7,
6,
6,
6,
6,
6,
6,
7,
7,
6,
7,
7,
7,
7,
6,
6,
7,
7,
7,
7,
9,
9,
7,
9,
9,
7,
9,
9,
9,
9,
7,
9,
9,
9,
9,
9,
9,
9,
7,
9,
9,
9,
9,
9,
9,
7,
9,
10,
9,
9,
9,
9,
9,
9,
10,
10,
9,
10,
10,
10,
10,
10,
10,
10,
10,
10,
10,
10,
12,
10,
10,
10,
9,
10,
10,
12,
10,
10,
10,
10,
12,
12,
10,
12,
12,
12,
12,
12,
12,
12,
12,
13,
12,
12,
12,
12,
13,
12,
10,
13,
12,
13,
13,
12,
12,
12,
13,
13,
12,
13,
12,
13,
13,
13,
13,
13,
12,
13,
13,
13,
15,
13,
15,
13,
13,
13,
13,
13,
13,
13,
13,
13,
13,
13,
13,
15,
13,
13,
15,
13,
15,
15,
13,
15,
15,
15,
15,
15,
15,
15,
15,
15,
15,
15,
15,
13,
15,
15,
15,
15,
15,
15,
15,
15,
15,
15,
15,
16,
15,
15,
16,
16,
16,
15,
16,
15,
16,
16,
16,
16,
16,
16,
16,
16,
16,
18,
16,
16,
16,
16,
16,
16,
16,
16,
16,
16,
18,
18,
16,
16,
16,
16,
16,
18,
18,
18,
16,
18,
18,
18,
18,
18,
18,
19,
18,
18,
18,
18,
18,
18,
18,
18,
18,
18,
18,
18,
18,
18,
18,
19,
18,
18,
18,
18,
19,
18,
19,
19,
19,
19,
19,
19,
19,
19,
19,
19,
18,
21,
19,
19,
21,
19,
19,
21,
19,
21,
19,
19,
21,
19,
21,
21,
19,
21,
21,
21,
21,
19,
19,
21,
21,
19,
19,
19,
19,
21,
21,
21,
21,
21,
19,
21,
21,
21,
21,
21,
21,
21,
21,
21,
21,
21,
21,
21,
22,
21,
21,
21,
21,
22,
21,
21,
22,
21,
22,
21,
21,
21,
21,
21,
22,
21,
21,
21,
21,
22,
22,
22,
21,
21,
22,
21,
24,
22,
22,
22,
22,
22,
22,
22,
22,
22,
21,
22,
22,
22,
22,
22,
22,
22,
22,
24,
22,
22,
22,
22,
22,
22,
22,
22,
22,
22,
24,
22,
22,
22,
22,
22,
22,
24,
24,
22,
22,
22,
22,
24,
24,
24,
22,
24,
24,
24,
24,
24,
22,
24,
25,
24,
24,
24,
24,
24,
24,
24,
24,
24,
24,
24,
25,
24,
24,
24,
24,
25,
24,
24,
24,
24,
25,
24,
24,
24,
24,
24,
24,
24,
25,
22,
24,
25,
24,
24,
25,
24,
25,
24,
24,
25,
24,
25,
25,
25,
25,
24,
25,
25,
24,
25,
24,
24,
25,
24,
25,
25,
25,
25,
24,
25,
25,
25,
25,
24,
25,
25,
24,
25,
25,
25,
25,
24,
25,
25,
25,
25,
25,
24,
25,
24,
25,
25,
25,
25,
25,
25,
25,
25,
25,
25,
25,
25,
25,
27,
25,
25,
25,
25,
25,
25,
25,
27,
27,
24,
25,
25,
25,
25,
25,
25,
25,
25,
25,
24,
25,
25,
25,
27,
25,
25,
27,
25,
25,
25,
25,
27,
25,
25,
25,
25,
25,
25,
25,
25,
25,
25,
25,
25,
24,
25,
25,
25,
25,
25,
24,
25,
25,
25,
25,
25,
25,
25,
25,
27,
27,
25,
25,
25,
25,
27,
25,
25,
25,
25,
25,
25,
27,
27,
25,
27,
25,
25,
25,
25,
25,
25,
25,
27,
27,
27,
27,
25,
25,
27,
25,
25,
25,
25,
25,
25,
27,
25,
25,
25,
25,
25,
25,
27,
25,
27,
27,
25,
25,
25,
25,
27,
25,
25,
25,
25,
25,
25,
25,
25,
25,
25,
27,
25,
25,
25,
25,
27,
25,
25,
25,
25,
25,
25,
25,
25,
25,
25,
27,
25,
27,
25,
25,
25,
25,
25,
25,
25,
25,
25,
25,
25,
25,
27,
25,
25,
25,
24,
27,
25,
25,
25,
24,
25,
25,
25,
25,
25,
24,
25,
24,
25,
25,
25,
25,
24,
25,
25,
25,
25,
25,
25,
25,
25,
25,
25,
25,
25,
25,
25,
25,
24,
25,
24,
25,
22,
25,
24,
24,
24,
25,
24,
24,
25,
24,
24,
24,
24,
24,
24,
24,
24,
24,
25,
24,
24,
24,
24,
24,
22,
25,
24,
22,
22,
24,
24,
24,
24,
24,
22,
24,
24,
24,
24,
24,
22,
24,
22,
24,
22,
22,
25,
24,
24,
24,
24,
24,
22,
24,
24,
24,
22,
24,
22,
24,
24,
22,
22,
24,
22,
24,
22,
24,
22,
22,
24,
22,
24,
24,
22,
22,
22,
22,
22,
22,
22,
22,
22,
22,
22,
22,
22,
22,
22,
22,
22,
22,
22,
22,
21,
21,
22,
22,
22,
22,
21,
22,
21,
22,
22,
22,
22,
22,
22,
22,
21,
22,
22,
21,
22,
21,
22,
22,
22,
22,
21,
21,
21,
21,
21,
22,
21,
21,
19,
21,
21,
21,
22,
19,
21,
21,
19,
21,
21,
21,
21,
21,
21,
21,
21,
21,
21,
21,
21,
19,
19,
21,
21,
19,
21,
19,
19,
19,
19,
19,
19,
19,
19,
19,
19,
19,
19,
19,
19,
19,
19,
21,
19,
18,
19,
19,
19,
21,
19,
19,
21,
18,
18,
19,
19,
21,
19,
18,
18,
18,
19,
19,
18,
18,
18,
18,
18,
18,
18,
18,
18,
18,
18,
18,
18,
18,
18,
18,
18,
18,
18,
18,
18,
16,
18,
16,
18,
18,
16,
18,
16,
18,
18,
18,
18,
18,
18,
18,
16,
16,
16,
16,
18,
16,
18,
16,
16,
16,
16,
16,
16,
16,
16,
16,
16,
15,
15,
15,
16,
15,
16,
16,
16,
16,
15,
16,
15,
16,
16,
15,
16,
16,
16,
15,
15,
15,
15,
15,
15,
15,
13,
15,
15,
13,
15,
15,
13,
15,
13,
15,
13,
13,
15,
13,
13,
15,
13,
15,
15,
13,
15,
13,
15,
15,
13,
13,
13,
13,
13,
13,
13,
13,
13,
13,
13,
12,
12,
12,
12,
12,
12,
13,
13,
13,
13,
12,
13,
13,
13,
13,
12,
12,
12,
10,
12,
12,
12,
12,
10,
12,
12,
10,
12,
10,
10,
12,
12,
12,
12,
10,
12,
10,
12,
10,
10,
12,
10,
9,
12,
10,
10,
10,
10,
10,
10,
10,
10,
10,
10,
9,
10,
10,
9,
9,
9,
9,
9,
9,
9,
10,
9,
9,
9,
7,
9,
9,
10,
9,
7,
9,
7,
9,
9,
9,
9,
7,
7,
9,
7,
7,
9,
7,
7,
9,
7,
7,
6,
9,
9,
7,
9,
7,
7,
9,
7,
7,
7,
7,
7,
7,
7,
7,
7,
7,
7,
6,
7,
6,
6,
7,
6,
6,
6,
6,
6,
6,
6,
6,
6,
6,
6,
6,
7,
5,
6,
6,
6,
5,
5,
5,
6,
5,
5,
6,
5,
5,
5,
5,
5,
5,
5,
5,
6,
5,
5,
6,
5,
5,
5,
3,
5,
5,
3,
5,
3,
3,
5,
3,
3,
5,
3,
5,
3,
3,
3,
3,
5,
5,
3,
5,
3,
5,
3,
3,
3,
3,
3,
3,
2,
2,
3,
2,
3,
3,
2,
2,
2,
2,
2,
2,
0,
3,
3,
2,
2,
2,
2,
2,
2,
2,
2,
0,
0,
2,
2,
0,
2,
0,
2,
2,
0,
2,
0,
0,
2,
0,
0,
0,
0,
0,
-1,
-1,
0,
-1,
0,
-1,
0,
-1,
0,
0,
-1,
-1,
-1,
-1,
0,
0,
-1,
0,
-3,
-1,
0,
-3,
-1,
-1,
-4,
-1,
-1,
-1,
-1,
-3,
-1,
-1,
-3,
-1,
-1,
-3,
-3,
-6,
-3,
-3,
-3,
-1,
-4,
-4,
-3,
-4,
-3,
-3,
-4,
-3,
-4,
-3,
-3,
-4,
-4,
-3,
-3,
-3,
-3,
-3,
-3,
-4,
-4,
-4,
-3,
-4,
-4,
-3,
-4,
-4,
-4,
-3,
-4,
-4,
-4,
-4,
-6,
-4,
-4,
-6,
-4,
-4,
-6,
-4,
-6,
-6,
-6,
-6,
-6,
-6,
-7,
-4,
-6,
-6,
-6,
-6,
-6,
-6,
-6,
-6,
-7,
-7,
-7,
-7,
-6,
-7,
-7,
-7,
-7,
-6,
-7,
-6,
-7,
-7,
-7,
-7,
-7,
-6,
-7,
-7,
-7,
-7,
-6,
-7,
-7,
-6,
-7,
-7,
-7,
-7,
-7,
-9,
-7,
-7,
-7,
-7,
-9,
-9,
-9,
-9,
-9,
-7,
-9,
-9,
-9,
-10,
-9,
-9,
-9,
-9,
-10,
-9,
-9,
-9,
-9,
-9,
-9,
-9,
-10,
-9,
-10,
-9,
-9,
-10,
-9,
-10,
-12,
-10,
-10,
-10,
-10,
-12,
-12,
-10,
-10,
-10,
-12,
-12,
-13,
-12,
-9,
-10,
-10,
-10,
-12,
-10,
-12,
-10,
-10,
-12,
-12,
-12,
-13,
-12,
-12,
-12,
-12,
-12,
-12,
-12,
-12,
-12,
-12,
-13,
-12,
-12,
-13,
-13,
-13,
-10,
-12,
-12,
-13,
-13,
-12,
-12,
-12,
-13,
-13,
-13,
-12,
-13,
-13,
-13,
-13,
-12,
-13,
-12,
-13,
-13,
-13,
-13,
-13,
-13,
-15,
-13,
-15,
-15,
-15,
-15,
-13,
-13,
-15,
-15,
-15,
-16,
-13,
-15,
-15,
-15,
-16,
-13,
-15,
-15,
-13,
-16,
-15,
-13,
-16,
-15,
-15,
-15,
-15,
-16,
-15,
-15,
-16,
-15,
-16,
-15,
-16,
-16,
-16,
-15,
-15,
-15,
-16,
-17,
-16,
-16,
-15,
-16,
-15,
-15,
-16,
-16,
-16,
-16,
-16,
-17,
-16,
-16,
-16,
-16,
-16,
-16,
-17,
-17,
-17,
-16,
-16,
-17,
-17,
-17,
-17,
-16,
-17,
-17,
-19,
-17,
-17,
-17,
-16,
-17,
-17,
-17,
-17,
-17,
-17,
-17,
-17,
-19,
-19,
-17,
-17,
-17,
-19,
-19,
-19,
-19,
-17,
-17,
-19,
-17,
-19,
-19,
-19,
-19,
-17,
-19,
-19,
-19,
-19,
-17,
-17,
-19,
-19,
-20,
-19,
-19,
-19,
-19,
-20,
-20,
-20,
-20,
-20,
-19,
-20,
-19,
-20,
-20,
-19,
-20,
-19,
-20,
-20,
-19,
-20,
-19,
-19,
-20,
-20,
-20,
-20,
-19,
-19,
-20,
-19,
-22,
-20,
-20,
-20,
-20,
-20,
-20,
-20,
-20,
-22,
-22,
-20,
-22,
-20,
-22,
-20,
-20,
-22,
-22,
-22,
-20,
-20,
-20,
-20,
-22,
-22,
-22,
-20,
-22,
-20,
-20,
-22,
-20,
-22,
-22,
-22,
-22,
-20,
-23,
-20,
-20,
-22,
-22,
-22,
-22,
-22,
-22,
-20,
-22,
-23,
-22,
-22,
-22,
-22,
-23,
-22,
-22,
-23,
-22,
-23,
-22,
-22,
-22,
-22,
-23,
-22,
-22,
-22,
-22,
-22,
-23,
-23,
-23,
-22,
-22,
-22,
-22,
-25,
-22,
-22,
-23,
-22,
-22,
-23,
-23,
-23,
-23,
-23,
-22,
-23,
-23,
-23,
-23,
-23,
-23,
-23,
-25,
-23,
-23,
-22,
-23,
-23,
-23,
-25,
-23,
-23,
-25,
-23,
-25,
-23,
-23,
-25,
-25,
-23,
-23,
-23,
-23,
-25,
-23,
-25,
-22,
-23,
-25,
-25,
-25,
-23,
-25,
-25,
-23,
-25,
-25,
-23,
-25,
-25,
-25,
-23,
-23,
-25,
-25,
-25,
-25,
-25,
-25,
-25,
-25,
-25,
-23,
-25,
-25,
-25,
-25,
-25,
-25,
-25,
-25,
-26,
-25,
-25,
-26,
-23,
-23,
-25,
-25,
-25,
-25,
-23,
-25,
-25,
-26,
-26,
-26,
-25,
-25,
-25,
-26,
-25,
-25,
-25,
-25,
-23,
-26,
-26,
-26,
-26,
-25,
-25,
-25,
-25,
-25,
-26,
-25,
-25,
-25,
-23,
-26,
-25,
-25,
-26,
-25,
-25,
-26,
-25,
-26,
-25,
-25,
-26,
-25,
-26,
-25,
-25,
-26,
-23,
-23,
-26,
-26,
-26,
-26,
-25,
-25,
-26,
-26,
-25,
-25,
-25,
-25,
-26,
-26,
-26,
-26,
-25,
-25,
-25,
-25,
-28,
-26,
-26,
-26,
-25,
-25,
-26,
-26,
-26,
-26,
-26,
-25,
-26,
-26,
-25,
-26,
-26,
-25,
-26,
-23,
-26,
-26,
-25,
-28,
-26,
-25,
-28,
-25,
-26,
-26,
-26,
-26,
-25,
-26,
-28,
-25,
-26,
-25,
-26,
-25,
-26,
-28,
-25,
-26,
-26,
-26,
-25,
-28,
-26,
-26,
-25,
-25,
-26,
-26,
-28,
-26,
-26,
-25,
-26,
-26,
-26,
-26,
-26,
-26,
-25,
-26,
-26,
-26,
-26,
-26,
-26,
-25,
-26,
-26,
-26,
-26,
-25,
-25,
-26,
-25,
-26,
-26,
-26,
-28,
-26,
-26,
-28,
-26,
-26,
-28,
-26,
-26,
-25,
-26,
-25,
-26,
-26,
-25,
-25,
-26,
-23,
-26,
-26,
-25,
-26,
-26,
-26,
-26,
-26,
-26,
-23,
-25,
-25,
-25,
-26,
-26,
-26,
-25,
-25,
-26,
-26,
-25,
-28,
-26,
-26,
-26,
-25,
-25,
-26,
-26,
-26,
-25,
-25,
-25,
-25,
-26,
-23,
-25,
-25,
-25,
-26,
-25,
-25,
-25,
-23,
-25,
-25,
-25,
-25,
-25,
-25,
-26,
-25,
-25,
-25,
-25,
-26,
-25,
-26,
-26,
-25,
-25,
-25,
-25,
-25,
-25,
-26,
-26,
-25,
-25,
-25,
-25,
-25,
-23,
-25,
-25,
-25,
-25,
-25,
-25,
-25,
-23,
-25,
-25,
-25,
-25,
-25,
-25,
-25,
-25,
-25,
-25,
-26,
-25,
-25,
-25,
-23,
-23,
-25,
-23,
-25,
-23,
-25,
-25,
-23,
-25,
-25,
-25,
-25,
-22,
-23,
-23,
-25,
-25,
-23,
-23,
-25,
-23,
-26,
-25,
-23,
-23,
-25,
-23,
-25,
-23,
-25,
-23,
-25,
-23,
-23,
-25,
-23,
-23,
-23,
-25,
-25,
-25,
-23,
-23,
-23,
-23,
-25,
-25,
-25,
-22,
-23,
-23,
-23,
-23,
-23,
-22,
-23,
-23,
-23,
-23,
-23,
-25,
-23,
-23,
-23,
-23,
-23,
-23,
-23,
-23,
-22,
-22,
-22,
-23,
-23,
-22,
-23,
-22,
-20,
-22,
-22,
-23,
-22,
-22,
-22,
-20,
-22,
-23,
-22,
-22,
-22,
-20,
-22,
-22,
-22,
-20,
-20,
-22,
-22,
-22,
-20,
-20,
-20,
-20,
-22,
-22,
-22,
-20,
-22,
-22,
-22,
-22,
-20,
-22,
-22,
-20,
-20,
-22,
-22,
-22,
-22,
-20,
-20,
-22,
-20,
-20,
-20,
-20,
-20,
-20,
-20,
-20,
-20,
-20,
-22,
-20,
-20,
-20,
-19,
-19,
-19,
-19,
-20,
-19,
-20,
-19,
-17,
-20,
-19,
-20,
-20,
-19,
-19,
-19,
-19,
-22,
-19,
-19,
-20,
-17,
-20,
-19,
-20,
-19,
-19,
-20,
-19,
-19,
-19,
-19,
-19,
-19,
-19,
-19,
-19,
-17,
-19,
-17,
-19,
-19,
-19,
-19,
-17,
-17,
-17,
-17,
-17,
-17,
-17,
-19,
-17,
-17,
-17,
-17,
-17,
-19,
-19,
-19,
-17,
-17,
-17,
-16,
-19,
-17,
-17,
-17,
-16,
-17,
-17,
-17,
-16,
-16,
-17,
-17,
-17,
-17,
-16,
-17,
-16,
-17,
-17,
-16,
-17,
-16,
-16,
-17,
-17,
-17,
-16,
-16,
-16,
-17,
-17,
-16,
-16,
-16,
-16,
-15,
-16,
-15,
-15,
-16,
-16,
-16,
-16,
-16,
-16,
-16,
-15,
-15,
-15,
-16,
-15,
-15,
-15,
-15,
-15,
-13,
-15,
-15,
-15,
-15,
-15,
-15,
-15,
-15,
-15,
-15,
-15,
-15,
-15,
-13,
-13,
-13,
-13,
-15,
-13,
-13,
-13,
-13,
-13,
-13,
-13,
-13,
-13,
-13,
-13,
-15,
-13,
-13,
-13,
-13,
-13,
-13,
-13,
-13,
-12,
-13,
-13,
-13,
-15,
-12,
-13,
-13,
-12,
-13,
-12,
-12,
-12,
-12,
-12,
-12,
-12,
-12,
-12,
-12,
-12,
-12,
-13,
-12,
-12,
-12,
-12,
-12,
-12,
-12,
-12,
-12,
-12,
-10,
-12,
-12,
-10,
-10,
-10,
-10,
-10,
-10,
-9,
-12,
-10,
-9,
-12,
-10,
-10,
-10,
-9,
-10,
-10,
-9,
-10,
-9,
-10,
-10,
-10,
-10,
-9,
-10,
-9,
-9,
-12,
-7,
-10,
-9,
-9,
-10,
-9,
-9,
-9,
-9,
-10,
-9,
-9,
-9,
-9,
-9,
-9,
-9,
-9,
-7,
-7,
-7,
-7,
-9,
-9,
-7,
-9,
-7,
-7,
-9,
-7,
-7,
-7,
-7,
-9,
-7,
-7,
-9,
-6,
-7,
-7,
-6,
-7,
-7,
-7,
-7,
-6,
-7,
-6,
-6,
-7,
-6,
-4,
-6,
-6,
-6,
-6,
-6,
-6,
-6,
-6,
-6,
-4,
-6,
-4,
-6,
-4,
-4,
-4,
-4,
-4,
-6,
-6,
-4,
-6,
-6,
-4,
-4,
-4,
-4,
-6,
-4,
-4,
-3,
-4,
-4,
-4,
-4,
-3,
-4,
-3,
-3,
-4,
-3,
-3,
-3,
-3,
-4,
-4,
-3,
-4,
-3,
-4,
-4,
-4,
-3,
-3,
-3,
-3,
-3,
-4,
-3,
-3,
-3,
-3,
-1,
-1,
-3,
-3,
-1,
-3,
-3,
-1,
-3,
-1,
-1,
-1,
-1,
-1,
-1,
-1,
-1,
0,
0,
-1,
0,
-1,
-1,
-1,
-1,
0,
-1,
-1,
0,
-1,
-1,
-1,
0,
0,
-1,
0,
-1,
0,
0,
0,
0,
0,
0,
0,
0,
0,
2,
0,
0,
0,
0,
0,
0,
0,
2,
0,
0,
2,
2,
2,
2,
2,
2,
2,
2,
2,
2,
2,
2,
2,
3,
2,
3,
2,
2,
3,
2,
2,
2,
2,
3,
2,
0,
2,
2,
2,
3,
2,
2,
2,
2,
3,
