RLC_R_11.91/ALL0010/2.CSV

Format,1.0B,
Memory Length,10000,
IntpDistance,0,
Trigger Address,4999,
Trigger Level,-4.000E-01,
Source,CH2,
Vertical Units,V,
Vertical Units Div,0,
Vertical Units Extend Div,16,
Label, ,
Probe Type,0,
Probe Ratio,1.000E+00,
Vertical Scale,5.000E-02,
Vertical Position,-9.800E-02,
Horizontal Units,S,
Horizontal Scale,1.000E-04,
Horizontal Position,0.000E+00,
Horizontal Mode,Main,
SincET Mode,Real Time,
Sampling Period,1.000E-07,
Horizontal Old Scale,1.000E-04,
Horizontal Old Position,0.000E+00,
Firmware,V1.24,
Mode,Fast,
Waveform Data,
-19,
-22,
-21,
-21,
-21,
-21,
-21,
-19,
-22,
-22,
-21,
-21,
-19,
-21,
-22,
-22,
-22,
-21,
-19,
-21,
-21,
-21,
-22,
-21,
-22,
-22,
-22,
-21,
-21,
-21,
-21,
-22,
-21,
-21,
-24,
-21,
-21,
-24,
-21,
-22,
-21,
-21,
-24,
-21,
-22,
-24,
-22,
-21,
-22,
-21,
-22,
-21,
-24,
-24,
-21,
-21,
-19,
-22,
-24,
-21,
-21,
-21,
-24,
-22,
-24,
-24,
-22,
-22,
-21,
-21,
-22,
-22,
-22,
-24,
-22,
-22,
-21,
-22,
-21,
-22,
-25,
-21,
-22,
-22,
-22,
-22,
-21,
-25,
-22,
-19,
-22,
-21,
-24,
-24,
-19,
-22,
-21,
-21,
-21,
-21,
-25,
-21,
-21,
-22,
-21,
-24,
-22,
-21,
-19,
-21,
-22,
-22,
-22,
-22,
-21,
-22,
-21,
-19,
-22,
-21,
-24,
-21,
-21,
-21,
-19,
-21,
-22,
-21,
-21,
-19,
-19,
-21,
-22,
-24,
-19,
-21,
-21,
-19,
-24,
-19,
-22,
-22,
-21,
-22,
-21,
-21,
-22,
-21,
-22,
-21,
-21,
-22,
-22,
-22,
-22,
-19,
-21,
-21,
-22,
-22,
-21,
-21,
-19,
-21,
-19,
-21,
-24,
-21,
-22,
-22,
-19,
-22,
-19,
-22,
-22,
-21,
-24,
-21,
-22,
-22,
-22,
-22,
-21,
-19,
-19,
-21,
-22,
-19,
-21,
-22,
-19,
-21,
-21,
-21,
-21,
-21,
-22,
-21,
-19,
-21,
-19,
-21,
-21,
-21,
-21,
-19,
-22,
-22,
-21,
-21,
-19,
-21,
-21,
-21,
-21,
-19,
-22,
-22,
-21,
-22,
-19,
-21,
-22,
-21,
-21,
-25,
-19,
-22,
-21,
-21,
-19,
-21,
-22,
-19,
-22,
-22,
-21,
-22,
-19,
-21,
-21,
-19,
-22,
-21,
-22,
-21,
-19,
-22,
-21,
-22,
-22,
-21,
-22,
-21,
-21,
-22,
-19,
-22,
-18,
-22,
-21,
-21,
-24,
-19,
-21,
-22,
-21,
-21,
-19,
-21,
-22,
-19,
-21,
-16,
-19,
-21,
-21,
-21,
-19,
-19,
-21,
-18,
-21,
-22,
-19,
-22,
-18,
-19,
-21,
-18,
-21,
-19,
-19,
-19,
-19,
-21,
-21,
-19,
-19,
-18,
-21,
-19,
-19,
-21,
-19,
-19,
-19,
-19,
-19,
-19,
-21,
-19,
-19,
-19,
-16,
-21,
-19,
-19,
-19,
-18,
-19,
-19,
-19,
-19,
-16,
-19,
-19,
-18,
-19,
-19,
-19,
-19,
-18,
-18,
-19,
-19,
-19,
-18,
-18,
-18,
-18,
-21,
-18,
-18,
-18,
-18,
-18,
-18,
-19,
-19,
-19,
-19,
-18,
-19,
-18,
-15,
-19,
-19,
-19,
-19,
-15,
-18,
-18,
-19,
-19,
-18,
-19,
-16,
-16,
-19,
-16,
-19,
-18,
-19,
-19,
-18,
-18,
-19,
-18,
-19,
-16,
-16,
-18,
-16,
-19,
-19,
-16,
-18,
-15,
-19,
-21,
-18,
-19,
-16,
-16,
-18,
-18,
-19,
-16,
-16,
-16,
-16,
-18,
-18,
-18,
-18,
-16,
-18,
-18,
-18,
-21,
-19,
-18,
-18,
-16,
-18,
-16,
-18,
-18,
-16,
-18,
-18,
-18,
-16,
-16,
-19,
-15,
-16,
-18,
-16,
-18,
-19,
-18,
-19,
-16,
-16,
-18,
-16,
-21,
-16,
-16,
-16,
-15,
-18,
-18,
-18,
-18,
-16,
-18,
-18,
-18,
-19,
-10,
-15,
-15,
-15,
-18,
-16,
-18,
-18,
-15,
-16,
-16,
-16,
-19,
-15,
-16,
-15,
-13,
-16,
-15,
-15,
-15,
-15,
-15,
-15,
-16,
-15,
-15,
-15,
-13,
-15,
-15,
-13,
-15,
-15,
-16,
-16,
-13,
-15,
-16,
-13,
-15,
-13,
-15,
-15,
-13,
-16,
-16,
-13,
-15,
-15,
-16,
-16,
-15,
-15,
-13,
-15,
-15,
-13,
-15,
-15,
-15,
-15,
-13,
-15,
-13,
-15,
-16,
-13,
-15,
-13,
-12,
-13,
-12,
-13,
-13,
-13,
-13,
-13,
-12,
-13,
-12,
-15,
-15,
-12,
-13,
-10,
-13,
-15,
-15,
-15,
-12,
-12,
-13,
-13,
-15,
-13,
-13,
-15,
-12,
-12,
-12,
-8,
-13,
-13,
-13,
-13,
-12,
-13,
-12,
-13,
-13,
-12,
-15,
-12,
-13,
-13,
-12,
-13,
-12,
-12,
-13,
-12,
-13,
-12,
-10,
-13,
-12,
-12,
-12,
-8,
-13,
-12,
-10,
-16,
-12,
-12,
-10,
-12,
-13,
-12,
-13,
-12,
-10,
-13,
-12,
-10,
-12,
-10,
-12,
-12,
-8,
-12,
-12,
-12,
-13,
-12,
-13,
-12,
-12,
-13,
-13,
-12,
-12,
-10,
-12,
-12,
-13,
-12,
-12,
-10,
-10,
-12,
-13,
-13,
-12,
-10,
-12,
-10,
-10,
-12,
-10,
-12,
-8,
-7,
-10,
-12,
-10,
-12,
-7,
-8,
-8,
-8,
-10,
-8,
-8,
-12,
-8,
-10,
-8,
-8,
-12,
-10,
-12,
-10,
-7,
-10,
-8,
-8,
-12,
-8,
-8,
-8,
-7,
-13,
-8,
-8,
-8,
-5,
-7,
-8,
-7,
-8,
-5,
-10,
-10,
-7,
-8,
-7,
-8,
-10,
-7,
-8,
-8,
-8,
-8,
-8,
-7,
-7,
-8,
-8,
-8,
-7,
-7,
-8,
-8,
-8,
-8,
-8,
-7,
-8,
-7,
-7,
-7,
-8,
-8,
-8,
-5,
-5,
-4,
-8,
-7,
-7,
-5,
-5,
-5,
-5,
-5,
-7,
-7,
-7,
-8,
-7,
-7,
-5,
-5,
-8,
-7,
-7,
-7,
-5,
-7,
-7,
-5,
-8,
-7,
-5,
-7,
-5,
-7,
-5,
-4,
-7,
-5,
-5,
-5,
-4,
-4,
-4,
-7,
-7,
-4,
-8,
-4,
-4,
-5,
-4,
-7,
-7,
-7,
-5,
-10,
-4,
-7,
-5,
-7,
-7,
-4,
-7,
-4,
-2,
-4,
-4,
-7,
-7,
-4,
-5,
-4,
-5,
-4,
-2,
-4,
-4,
-2,
-5,
-2,
-4,
-4,
-4,
-5,
-4,
-4,
-5,
-4,
-5,
-4,
-4,
-4,
-4,
-7,
-5,
-4,
-4,
-4,
-4,
-4,
-4,
-5,
-2,
-1,
-2,
1,
-2,
-2,
-2,
-4,
-2,
-4,
-2,
-2,
-5,
-4,
-2,
-4,
-2,
-2,
-2,
-2,
-4,
-2,
-2,
-5,
-2,
-2,
-1,
1,
-2,
1,
-1,
-1,
1,
-2,
-1,
-2,
-2,
1,
-2,
-1,
-1,
-4,
-1,
-1,
-1,
1,
-1,
-1,
1,
-2,
-2,
-2,
-1,
-1,
-1,
-1,
-1,
1,
1,
1,
1,
-1,
-1,
1,
1,
1,
1,
-1,
-1,
-1,
1,
1,
-1,
1,
-1,
-1,
-1,
-2,
-2,
1,
-1,
1,
1,
-1,
1,
1,
2,
2,
2,
2,
2,
1,
1,
1,
2,
1,
1,
1,
-2,
1,
1,
1,
2,
1,
1,
2,
2,
2,
2,
1,
2,
2,
2,
2,
1,
2,
2,
2,
1,
-1,
1,
2,
1,
5,
1,
1,
1,
-1,
2,
2,
1,
1,
2,
1,
4,
2,
4,
2,
2,
5,
2,
4,
4,
1,
4,
2,
1,
4,
1,
2,
4,
1,
2,
1,
2,
4,
2,
1,
2,
2,
2,
2,
2,
2,
2,
2,
4,
2,
4,
2,
4,
2,
1,
4,
4,
5,
5,
4,
4,
5,
4,
7,
5,
5,
5,
2,
5,
4,
5,
5,
2,
4,
5,
4,
4,
4,
5,
4,
4,
7,
4,
4,
5,
5,
7,
5,
7,
7,
7,
5,
8,
5,
7,
8,
7,
5,
7,
5,
7,
5,
5,
5,
5,
7,
7,
7,
5,
4,
7,
5,
5,
7,
5,
5,
7,
5,
7,
5,
7,
8,
7,
8,
8,
5,
8,
5,
5,
8,
7,
11,
10,
7,
8,
7,
8,
8,
7,
8,
8,
7,
8,
7,
7,
8,
7,
8,
8,
7,
8,
8,
8,
8,
7,
7,
8,
8,
8,
8,
8,
8,
7,
8,
5,
8,
8,
10,
11,
7,
7,
10,
8,
10,
10,
8,
8,
7,
8,
10,
8,
8,
8,
8,
8,
8,
8,
8,
8,
11,
10,
8,
10,
8,
10,
8,
8,
8,
7,
8,
8,
10,
8,
7,
10,
10,
8,
10,
10,
8,
10,
8,
8,
10,
8,
10,
10,
10,
10,
8,
10,
10,
11,
11,
10,
10,
10,
8,
11,
10,
10,
10,
8,
11,
10,
8,
10,
10,
10,
13,
10,
11,
11,
14,
11,
10,
10,
11,
10,
11,
11,
11,
11,
11,
10,
11,
10,
11,
13,
13,
11,
11,
13,
11,
14,
13,
11,
11,
13,
13,
14,
13,
11,
13,
11,
13,
13,
13,
13,
11,
11,
13,
11,
13,
13,
13,
14,
11,
13,
13,
13,
13,
11,
13,
13,
13,
13,
11,
13,
13,
14,
14,
13,
13,
13,
11,
11,
13,
11,
14,
14,
14,
14,
10,
13,
14,
14,
16,
14,
14,
14,
11,
14,
14,
14,
16,
14,
16,
14,
13,
16,
14,
14,
14,
13,
14,
17,
16,
16,
13,
13,
14,
14,
16,
13,
13,
14,
13,
16,
14,
14,
14,
13,
14,
14,
14,
16,
16,
14,
16,
13,
16,
16,
16,
16,
14,
14,
16,
16,
17,
17,
13,
16,
16,
16,
16,
14,
17,
17,
16,
17,
16,
16,
14,
16,
16,
16,
16,
16,
14,
14,
14,
16,
16,
14,
16,
14,
16,
17,
14,
16,
14,
13,
17,
17,
14,
17,
16,
14,
16,
16,
17,
16,
16,
16,
13,
19,
17,
17,
17,
14,
16,
19,
17,
19,
17,
17,
17,
17,
19,
17,
16,
19,
16,
17,
19,
16,
17,
19,
17,
19,
16,
17,
16,
16,
19,
17,
17,
17,
16,
17,
17,
17,
19,
17,
19,
19,
19,
17,
19,
19,
17,
19,
17,
17,
19,
20,
17,
19,
17,
17,
19,
17,
19,
19,
17,
19,
19,
17,
19,
17,
19,
19,
17,
19,
19,
19,
20,
17,
19,
19,
19,
19,
19,
19,
19,
19,
19,
20,
19,
20,
17,
19,
19,
17,
20,
19,
19,
19,
19,
17,
19,
19,
20,
19,
19,
17,
19,
19,
19,
20,
19,
19,
22,
19,
19,
22,
19,
19,
19,
19,
20,
20,
19,
19,
17,
20,
20,
20,
20,
19,
19,
19,
19,
20,
20,
14,
22,
17,
19,
20,
20,
20,
19,
20,
19,
17,
20,
19,
20,
20,
19,
20,
20,
19,
20,
17,
19,
20,
20,
20,
20,
19,
20,
20,
20,
19,
20,
19,
17,
22,
20,
19,
20,
20,
20,
20,
20,
20,
19,
17,
20,
20,
20,
23,
19,
20,
19,
20,
20,
20,
23,
20,
20,
22,
20,
22,
22,
20,
20,
22,
22,
22,
22,
20,
20,
20,
23,
20,
22,
20,
20,
22,
20,
20,
22,
20,
23,
22,
20,
22,
20,
20,
22,
20,
23,
23,
20,
22,
20,
22,
23,
22,
23,
20,
20,
22,
22,
22,
20,
20,
22,
22,
22,
23,
22,
22,
22,
20,
23,
22,
22,
23,
22,
22,
20,
22,
22,
22,
23,
22,
22,
25,
20,
20,
20,
22,
22,
22,
22,
22,
22,
22,
20,
23,
22,
22,
23,
20,
22,
22,
22,
23,
22,
20,
22,
20,
22,
23,
22,
23,
20,
22,
23,
20,
25,
20,
22,
23,
22,
22,
22,
20,
22,
22,
22,
23,
22,
23,
22,
20,
22,
22,
23,
20,
26,
20,
20,
22,
22,
22,
22,
22,
22,
23,
20,
23,
22,
22,
23,
22,
22,
22,
20,
22,
22,
23,
22,
20,
22,
20,
23,
23,
22,
23,
20,
22,
22,
22,
23,
23,
20,
23,
22,
22,
22,
20,
22,
23,
22,
22,
20,
25,
25,
22,
23,
22,
22,
23,
22,
22,
22,
22,
23,
22,
23,
22,
23,
23,
22,
23,
20,
23,
25,
23,
23,
23,
22,
22,
23,
23,
23,
22,
23,
22,
23,
25,
22,
23,
23,
20,
23,
23,
23,
23,
22,
22,
20,
23,
23,
22,
25,
23,
22,
23,
22,
23,
23,
22,
23,
23,
22,
23,
22,
23,
23,
23,
23,
22,
23,
23,
23,
23,
22,
23,
22,
23,
23,
23,
23,
22,
23,
23,
22,
22,
23,
22,
23,
22,
22,
23,
22,
23,
23,
22,
23,
22,
22,
22,
22,
25,
22,
23,
22,
20,
23,
22,
23,
23,
22,
23,
23,
20,
23,
23,
23,
23,
22,
22,
20,
20,
22,
23,
22,
22,
22,
22,
23,
23,
22,
23,
22,
22,
22,
25,
22,
23,
22,
22,
20,
22,
23,
20,
23,
22,
22,
22,
22,
22,
22,
23,
23,
20,
20,
22,
22,
23,
20,
22,
22,
23,
23,
20,
20,
20,
22,
23,
22,
20,
22,
20,
22,
22,
22,
20,
22,
22,
20,
20,
22,
19,
22,
23,
20,
23,
22,
22,
20,
20,
22,
22,
22,
22,
20,
23,
20,
20,
22,
22,
22,
22,
22,
22,
19,
22,
22,
22,
22,
22,
23,
22,
22,
23,
22,
22,
23,
19,
23,
22,
22,
25,
22,
20,
22,
20,
22,
22,
22,
22,
20,
20,
20,
22,
23,
19,
20,
20,
22,
23,
20,
20,
22,
22,
22,
22,
22,
19,
19,
22,
20,
22,
20,
19,
22,
20,
22,
22,
22,
23,
20,
22,
22,
19,
22,
22,
22,
20,
20,
20,
17,
19,
22,
20,
20,
20,
19,
20,
20,
19,
20,
20,
20,
20,
22,
20,
22,
22,
20,
19,
20,
19,
22,
22,
20,
20,
19,
20,
22,
20,
20,
20,
19,
20,
20,
19,
19,
19,
20,
19,
19,
20,
20,
20,
19,
16,
20,
17,
20,
20,
19,
19,
17,
19,
20,
17,
20,
19,
20,
20,
19,
20,
19,
20,
19,
17,
20,
19,
19,
19,
19,
19,
17,
17,
17,
17,
20,
19,
19,
20,
17,
19,
19,
17,
19,
17,
19,
19,
17,
17,
14,
19,
19,
19,
19,
19,
17,
20,
19,
19,
19,
19,
19,
19,
19,
19,
17,
20,
17,
17,
19,
14,
17,
19,
19,
19,
17,
17,
17,
17,
19,
17,
19,
19,
19,
17,
17,
17,
19,
19,
20,
19,
19,
17,
17,
17,
19,
17,
17,
16,
17,
17,
17,
17,
16,
17,
17,
17,
17,
16,
17,
20,
17,
20,
17,
16,
17,
16,
19,
19,
16,
19,
17,
17,
17,
17,
17,
17,
16,
17,
17,
17,
19,
16,
16,
16,
17,
17,
17,
16,
16,
16,
16,
16,
16,
17,
19,
17,
14,
16,
14,
16,
17,
14,
16,
16,
14,
16,
16,
16,
17,
14,
16,
16,
16,
16,
16,
17,
16,
17,
16,
16,
17,
16,
17,
16,
16,
16,
16,
16,
16,
16,
16,
16,
13,
19,
13,
16,
16,
14,
16,
13,
14,
14,
14,
13,
13,
13,
14,
14,
14,
13,
11,
13,
11,
14,
14,
13,
14,
13,
14,
13,
13,
16,
13,
16,
14,
11,
14,
14,
14,
16,
13,
14,
14,
13,
16,
14,
14,
14,
14,
14,
14,
13,
14,
14,
13,
14,
17,
16,
13,
13,
13,
13,
14,
13,
14,
10,
11,
13,
11,
13,
13,
13,
14,
13,
14,
14,
13,
13,
11,
13,
13,
11,
13,
11,
11,
14,
11,
13,
13,
13,
13,
11,
14,
14,
13,
13,
10,
13,
11,
10,
11,
10,
11,
13,
11,
11,
11,
13,
13,
13,
13,
10,
13,
13,
11,
13,
11,
11,
13,
11,
13,
11,
11,
13,
11,
13,
11,
10,
11,
10,
11,
10,
10,
10,
8,
11,
11,
8,
11,
10,
11,
13,
11,
11,
10,
11,
10,
11,
11,
10,
11,
10,
10,
10,
8,
10,
10,
8,
11,
10,
8,
10,
8,
10,
10,
8,
10,
8,
8,
8,
8,
10,
8,
7,
8,
7,
10,
10,
10,
8,
8,
8,
10,
10,
10,
7,
8,
10,
8,
8,
8,
10,
8,
7,
7,
7,
7,
8,
7,
8,
5,
8,
8,
8,
8,
8,
8,
8,
7,
7,
8,
7,
8,
8,
10,
7,
7,
8,
7,
7,
8,
4,
7,
7,
5,
7,
5,
7,
7,
8,
7,
7,
5,
5,
7,
8,
8,
8,
7,
5,
8,
7,
8,
8,
7,
7,
7,
7,
5,
7,
7,
7,
7,
7,
7,
7,
7,
5,
7,
5,
7,
7,
5,
5,
2,
7,
5,
5,
7,
5,
5,
7,
4,
7,
5,
5,
8,
5,
7,
5,
5,
7,
7,
7,
4,
5,
7,
5,
5,
7,
5,
7,
4,
2,
5,
4,
4,
5,
4,
4,
1,
4,
4,
7,
5,
4,
4,
2,
2,
4,
2,
4,
2,
4,
4,
2,
5,
5,
4,
7,
2,
4,
4,
2,
4,
4,
2,
4,
1,
2,
4,
2,
2,
2,
2,
2,
4,
2,
2,
4,
2,
4,
4,
2,
4,
4,
4,
2,
1,
2,
4,
2,
2,
1,
2,
1,
1,
2,
2,
1,
1,
-1,
2,
1,
1,
5,
2,
2,
1,
2,
2,
-1,
1,
1,
-2,
2,
-1,
1,
1,
-2,
1,
1,
-1,
1,
4,
1,
-1,
1,
1,
1,
1,
-1,
-1,
1,
-1,
-1,
-1,
-1,
-1,
-1,
-1,
-1,
-1,
2,
1,
2,
1,
-1,
1,
-1,
2,
1,
-2,
-1,
-1,
1,
4,
2,
-1,
-2,
-1,
1,
1,
-1,
-1,
-2,
-1,
-2,
-1,
-1,
-1,
-1,
-2,
-4,
-2,
-2,
-1,
-2,
-2,
-2,
-2,
-2,
-1,
-2,
-2,
-2,
-2,
-2,
-2,
-2,
-2,
1,
-2,
-1,
-1,
-2,
-1,
-1,
-1,
-1,
-2,
-2,
-1,
-4,
-4,
-2,
-1,
-1,
-2,
-2,
-4,
-4,
-1,
-2,
-2,
-2,
-4,
-2,
-4,
-5,
-4,
-4,
-4,
-2,
-2,
-4,
-5,
-2,
-2,
-2,
-2,
-4,
-2,
-4,
-4,
-2,
-2,
-2,
-4,
-5,
-4,
-5,
-4,
-5,
-5,
-2,
-4,
-2,
-2,
-5,
-2,
-4,
-4,
-2,
-4,
-4,
-5,
-4,
-5,
-7,
-5,
-5,
-7,
-4,
-7,
-5,
-7,
-5,
-5,
-5,
-5,
-5,
-4,
-7,
-5,
-8,
-5,
-4,
-4,
-7,
-7,
-7,
-5,
-7,
-7,
-5,
-5,
-5,
-4,
-7,
-5,
-5,
-5,
-4,
-7,
-7,
-5,
-8,
-7,
-7,
-7,
-5,
-7,
-7,
-7,
-7,
-8,
-10,
-7,
-8,
-8,
-7,
-8,
-8,
-7,
-8,
-7,
-8,
-7,
-7,
-7,
-7,
-7,
-5,
-5,
-5,
-7,
-7,
-5,
-7,
-7,
-7,
-10,
-8,
-7,
-8,
-7,
-8,
-8,
-7,
-10,
-7,
-7,
-10,
-8,
-10,
-10,
-8,
-10,
-8,
-8,
-10,
-8,
-10,
-7,
-7,
-8,
-8,
-8,
-8,
-10,
-7,
-8,
-8,
-7,
-8,
-8,
-7,
-8,
-7,
-12,
-7,
-5,
-12,
-10,
-13,
-8,
-8,
-10,
-8,
-10,
-12,
-10,
-10,
-7,
-8,
-10,
-10,
-10,
-10,
-8,
-10,
-10,
-8,
-10,
-8,
-10,
-8,
-8,
-8,
-12,
-13,
-8,
-10,
-8,
-8,
-10,
-10,
-12,
-10,
-8,
-10,
-8,
-10,
-12,
-10,
-10,
-10,
-10,
-10,
-8,
-12,
-10,
-8,
-10,
-7,
-10,
-13,
-10,
-12,
-10,
-12,
-10,
-10,
-10,
-12,
-12,
-13,
-12,
-12,
-12,
-12,
-12,
-12,
-13,
-12,
-12,
-12,
-13,
-15,
-12,
-13,
-12,
-10,
-16,
-13,
-13,
-16,
-12,
-13,
-13,
-12,
-15,
-13,
-15,
-10,
-10,
-12,
-12,
-13,
-13,
-10,
-12,
-12,
-12,
-15,
-13,
-13,
-12,
-12,
-15,
-12,
-16,
-13,
-13,
-15,
-13,
-13,
-13,
-12,
-15,
-13,
-16,
-15,
-13,
-15,
-12,
-12,
-12,
-12,
-13,
-12,
-15,
-15,
-13,
-16,
-13,
-13,
-15,
-15,
-16,
-15,
-15,
-16,
-15,
-15,
-15,
-15,
-16,
-15,
-15,
-15,
-13,
-16,
-15,
-15,
-15,
-13,
-15,
-15,
-15,
-15,
-13,
-15,
-15,
-15,
-13,
-13,
-15,
-15,
-13,
-15,
-13,
-15,
-15,
-16,
-16,
-15,
-15,
-15,
-13,
-16,
-13,
-15,
-16,
-15,
-16,
-13,
-15,
-15,
-15,
-16,
-16,
-13,
-15,
-13,
-16,
-18,
-15,
-16,
-15,
-15,
-16,
-13,
-16,
-16,
-15,
-18,
-16,
-15,
-15,
-15,
-16,
-15,
-16,
-13,
-15,
-15,
-16,
-18,
-16,
-15,
-16,
-15,
-18,
-16,
-16,
-18,
-15,
-16,
-16,
-16,
-18,
-18,
-18,
-18,
-16,
-18,
-18,
-18,
-18,
-16,
-16,
-18,
-18,
-19,
-18,
-16,
-16,
-16,
-18,
-18,
-19,
-16,
-16,
-18,
-19,
-16,
-27,
-19,
-18,
-15,
-15,
-16,
-18,
-19,
-19,
-19,
-18,
-16,
-19,
-18,
-19,
-21,
-16,
-18,
-18,
-16,
-21,
-18,
-18,
-19,
-16,
-19,
-18,
-16,
-19,
-18,
-19,
-18,
-18,
-19,
-18,
-18,
-18,
-16,
-19,
-19,
-19,
-19,
-19,
-18,
-18,
-16,
-21,
-18,
-19,
-18,
-18,
-19,
-18,
-19,
-18,
-19,
-21,
-18,
-18,
-18,
-18,
-21,
-18,
-18,
-18,
-16,
-19,
-19,
-19,
-19,
-16,
-18,
-19,
-19,
-19,
-18,
-21,
-21,
-16,
-19,
-19,
-19,
-19,
-18,
-21,
-19,
-19,
-19,
-18,
-21,
-19,
-19,
-18,
-16,
-19,
-18,
-19,
-19,
-18,
-19,
-18,
-19,
-21,
-19,
-21,
-19,
-18,
-19,
-18,
-19,
-18,
-21,
-21,
-19,
-19,
-21,
-19,
-21,
-19,
-19,
-21,
-16,
-21,
-21,
-21,
-21,
-16,
-21,
-19,
-19,
-22,
-19,
-19,
-21,
-19,
-19,
-19,
-19,
-21,
-19,
-21,
-19,
-19,
-21,
-21,
-21,
-19,
-19,
-19,
-19,
-24,
-21,
-19,
-19,
-21,
-21,
-19,
-19,
-21,
-21,
-21,
-19,
-19,
-21,
-19,
-21,
-21,
-18,
-21,
-21,
-21,
-22,
-19,
-19,
-21,
-21,
-25,
-19,
-18,
-21,
-21,
-22,
-21,
-21,
-19,
-21,
-21,
-22,
-21,
-21,
-19,
-22,
-22,
-22,
-22,
-21,
-21,
-21,
-21,
-22,
-21,
-22,
-21,
-21,
-22,
-21,
-24,
-22,
-21,
-22,
-21,
-21,
-22,
-19,
-24,
-22,
-21,
-22,
-21,
-22,
-21,
-21,
-21,
-21,
-21,
-22,
-21,
-22,
-22,
-21,
-21,
-21,
-19,
-21,
-22,
-21,
-22,
-22,
-21,
-21,
-21,
-19,
-24,
-21,
-22,
-22,
-21,
-22,
-22,
-21,
-22,
-21,
-22,
-22,
-21,
-21,
-21,
-21,
-21,
-21,
-22,
-21,
-21,
-21,
-21,
-24,
-21,
-21,
-21,
-19,
-24,
-24,
-21,
-24,
-21,
-21,
-21,
-21,
-24,
-21,
-22,
-21,
-22,
-21,
-21,
-22,
-21,
-22,
-22,
-19,
-21,
-21,
-21,
-22,
-19,
-22,
-21,
-21,
-22,
-21,
-21,
-22,
-19,
-22,
-21,
-21,
-25,
-21,
-21,
-22,
-21,
-21,
-22,
-22,
-22,
-21,
-21,
-21,
-22,
-22,
-22,
-22,
-21,
-21,
-22,
-21,
-21,
-21,
-21,
-22,
-21,
-21,
-21,
-21,
-24,
-22,
-24,
-22,
-19,
-22,
-22,
-21,
-22,
-19,
-22,
-24,
-22,
-22,
-21,
-21,
-22,
-21,
-30,
-33,
-25,
-19,
-18,
-21,
-22,
-21,
-25,
-25,
-22,
-22,
-19,
-21,
-22,
-22,
-24,
-21,
-21,
-22,
-21,
-22,
-21,
-25,
-21,
-21,
-22,
-21,
-24,
-22,
-21,
-22,
-21,
-22,
-21,
-22,
-24,
-22,
-21,
-24,
-22,
-24,
-22,
-22,
-22,
-22,
-19,
-24,
-22,
-25,
-21,
-22,
-21,
-18,
-21,
-22,
-22,
-25,
-19,
-21,
-21,
-19,
-22,
-21,
-22,
-21,
-19,
-24,
-21,
-21,
-22,
-21,
-21,
-21,
-22,
-22,
-22,
-22,
-21,
-19,
-21,
-21,
-22,
-22,
-21,
-21,
-18,
-21,
-21,
-21,
-22,
-19,
-21,
-21,
-21,
-21,
-19,
-22,
-22,
-22,
-21,
-19,
-21,
-22,
-21,
-22,
-22,
-19,
-21,
-21,
-22,
-24,
-21,
-21,
-19,
-19,
-22,
-21,
-22,
-21,
-21,
-22,
-21,
-21,
-19,
-21,
-21,
-19,
-19,
-22,
-24,
-19,
-19,
-21,
-22,
-21,
-21,
-19,
-21,
-21,
-19,
-21,
-19,
-21,
-19,
-21,
-19,
-21,
-21,
-22,
-18,
-21,
-21,
-21,
-24,
-21,
-21,
-21,
-19,
-21,
-21,
-19,
-21,
-21,
-21,
-21,
-19,
-21,
-19,
-22,
-21,
-18,
-19,
-19,
-21,
-22,
-22,
-12,
-10,
-21,
-25,
-24,
-22,
-21,
-19,
-19,
-19,
-21,
-21,
-21,
-22,
-19,
-21,
-21,
-19,
-19,
-19,
-22,
-18,
-19,
-21,
-19,
-19,
-21,
-19,
-19,
-19,
-19,
-21,
-19,
-21,
-21,
-21,
-21,
-19,
-19,
-19,
-18,
-21,
-19,
-21,
-19,
-16,
-19,
-16,
-15,
-18,
-19,
-21,
-22,
-19,
-19,
-19,
-21,
-19,
-21,
-18,
-18,
-19,
-19,
-19,
-21,
-18,
-19,
-18,
-18,
-18,
-18,
-19,
-19,
-18,
-19,
-18,
-18,
-19,
-18,
-21,
-19,
-18,
-19,
-16,
-18,
-19,
-18,
-19,
-18,
-18,
-21,
-19,
-19,
-18,
-18,
-18,
-16,
-18,
-18,
-18,
-19,
-16,
-18,
-18,
-16,
-18,
-19,
-19,
-19,
-18,
-18,
-18,
-18,
-19,
-18,
-21,
-18,
-18,
-19,
-16,
-18,
-18,
-18,
-18,
-16,
-18,
-18,
-18,
-19,
-16,
-16,
-15,
-18,
-18,
-18,
-16,
-16,
-15,
-18,
-16,
-16,
-18,
-15,
-16,
-16,
-18,
-18,
-16,
-18,
-15,
-15,
-19,
-18,
-18,
-18,
-16,
-18,
-18,
-16,
-18,
-18,
-19,
-18,
-16,
-19,
-18,
-19,
-18,
-16,
-15,
-16,
-18,
-18,
-18,
-27,
-19,
-10,
-10,
-13,
-21,
-19,
-19,
-18,
-12,
-15,
-15,
-16,
-19,
-15,
-16,
-16,
-15,
-16,
-16,
-18,
-16,
-15,
-16,
-15,
-16,
-16,
-15,
-15,
-15,
-15,
-15,
-16,
-18,
-16,
-19,
-16,
-13,
-18,
-16,
-16,
-16,
-15,
-18,
-16,
-16,
-15,
-15,
-18,
-15,
-13,
-16,
-15,
-15,
-18,
-15,
-16,
-16,
-15,
-13,
-13,
-15,
-15,
-15,
-15,
-13,
-16,
-15,
-13,
-15,
-13,
-16,
-13,
-13,
-16,
-13,
-13,
-13,
-13,
-16,
-15,
-15,
-13,
-13,
-13,
-13,
-15,
-16,
-12,
-13,
-12,
-16,
-16,
-13,
-15,
-12,
-13,
-15,
-13,
-15,
-15,
-13,
-15,
-13,
-13,
-13,
-13,
-15,
-13,
-13,
-15,
-13,
-13,
-13,
-12,
-12,
-12,
-12,
-12,
-13,
-13,
-12,
-13,
-10,
-13,
-15,
-12,
-13,
-13,
-12,
-12,
-12,
-12,
-13,
-13,
-15,
-12,
-13,
-10,
-12,
-13,
-12,
-12,
-12,
-10,
-10,
-10,
-12,
-13,
-10,
-12,
-10,
-10,
-10,
-10,
-12,
-12,
-13,
-12,
-10,
-10,
-13,
-13,
-12,
-10,
-12,
-12,
-13,
-13,
-12,
-12,
-10,
-10,
-15,
-18,
-15,
-8,
-2,
-8,
-12,
-13,
-15,
-12,
-13,
-12,
-10,
-12,
-10,
-12,
-10,
-12,
-10,
-8,
-10,
-10,
-10,
-12,
-10,
-10,
-10,
-8,
-10,
-10,
-10,
-12,
-10,
-10,
-8,
-8,
-10,
-10,
-12,
-12,
-12,
-10,
-10,
-12,
-8,
-10,
-8,
-8,
-7,
-5,
-7,
-8,
-8,
-12,
-8,
-8,
-8,
-7,
-10,
-10,
-8,
-8,
-8,
-8,
-8,
-10,
-10,
-7,
-8,
-10,
-8,
-8,
-7,
-7,
-7,
-7,
-8,
-8,
-8,
-8,
-7,
-8,
-7,
-8,
-12,
-8,
-7,
-8,
-5,
-8,
-7,
-7,
-7,
-5,
-7,
-7,
-7,
-7,
-7,
-5,
-4,
-5,
-7,
-5,
-8,
-7,
-7,
-8,
-7,
-10,
-7,
-7,
-10,
-5,
-5,
-7,
-7,
-7,
-7,
-5,
-7,
-5,
-5,
-7,
-7,
-7,
-5,
-5,
-2,
-5,
-4,
-4,
-7,
-7,
-5,
-7,
-4,
-5,
-5,
-5,
-5,
-4,
-5,
-5,
-5,
-7,
-5,
-7,
-4,
-5,
-7,
-5,
-7,
-7,
-5,
-5,
-4,
-5,
-7,
-4,
-5,
-2,
-4,
-5,
-2,
-4,
-4,
-4,
-4,
-4,
-5,
-4,
-4,
-4,
-2,
-10,
-12,
-1,
2,
-2,
-7,
-7,
-5,
-5,
-4,
-4,
-4,
-5,
-5,
-4,
-5,
-4,
-4,
-5,
-4,
-4,
-5,
-2,
-4,
-4,
-2,
-5,
-2,
-2,
-1,
-2,
-5,
-4,
-2,
-2,
-2,
-4,
-4,
-4,
-4,
-2,
-4,
-4,
-5,
-4,
1,
-2,
2,
2,
-1,
1,
-2,
-5,
-2,
-2,
-1,
-1,
-2,
-2,
-4,
-2,
-1,
-2,
-2,
-2,
-2,
-1,
-1,
1,
-2,
-1,
-1,
-1,
1,
-1,
-1,
1,
-1,
1,
-1,
1,
1,
-2,
-1,
-2,
-2,
1,
-2,
-1,
-1,
-2,
-1,
-1,
1,
1,
-1,
1,
1,
1,
1,
-1,
1,
-1,
1,
2,
-1,
-1,
-1,
1,
1,
1,
1,
1,
-2,
1,
1,
2,
1,
2,
1,
-1,
2,
2,
2,
2,
-2,
1,
1,
-2,
2,
-1,
1,
1,
2,
2,
2,
2,
2,
2,
2,
2,
2,
4,
1,
4,
2,
2,
4,
1,
4,
2,
2,
4,
2,
2,
2,
1,
1,
4,
4,
2,
2,
1,
2,
2,
4,
1,
2,
2,
2,
4,
2,
4,
2,
-4,
7,
10,
7,
-1,
-1,
5,
4,
5,
5,
4,
5,
4,
4,
4,
2,
4,
4,
2,
5,
4,
4,
2,
2,
4,
2,
4,
4,
1,
4,
2,
4,
5,
5,
4,
2,
4,
4,
4,
7,
4,
4,
4,
5,
2,
4,
4,
8,
7,
7,
5,
7,
2,
2,
5,
4,
5,
5,
2,
7,
4,
5,
7,
4,
5,
5,
4,
7,
7,
7,
7,
5,
7,
7,
8,
7,
7,
7,
7,
8,
8,
8,
7,
5,
5,
7,
7,
8,
8,
8,
8,
7,
7,
7,
8,
10,
7,
8,
7,
8,
8,
7,
7,
7,
8,
10,
8,
7,
8,
4,
8,
8,
7,
7,
5,
5,
7,
7,
8,
7,
7,
7,
7,
8,
8,
8,
8,
7,
7,
7,
8,
8,
8,
10,
8,
10,
10,
10,
10,
10,
10,
10,
8,
10,
8,
7,
10,
5,
10,
11,
7,
10,
7,
8,
10,
7,
8,
8,
8,
10,
8,
10,
10,
10,
10,
8,
10,
11,
10,
11,
8,
11,
11,
10,
5,
2,
7,
17,
13,
11,
8,
8,
11,
8,
8,
10,
8,
11,
8,
11,
11,
10,
10,
13,
10,
10,
10,
10,
8,
10,
10,
10,
11,
10,
11,
11,
8,
11,
11,
11,
13,
11,
11,
8,
11,
11,
11,
11,
11,
8,
11,
10,
10,
10,
10,
14,
11,
11,
11,
8,
11,
13,
11,
11,
11,
11,
11,
13,
14,
11,
13,
13,
11,
14,
13,
14,
14,
13,
13,
13,
11,
14,
13,
13,
13,
13,
13,
14,
13,
11,
11,
13,
13,
13,
13,
13,
13,
10,
13,
13,
13,
14,
13,
13,
14,
10,
14,
13,
13,
13,
13,
14,
13,
13,
16,
11,
14,
