RLC_R_11.91/ALL0027/2.CSV

Format,1.0B,
Memory Length,10000,
IntpDistance,0,
Trigger Address,4999,
Trigger Level,-4.000E-01,
Source,CH2,
Vertical Units,V,
Vertical Units Div,0,
Vertical Units Extend Div,16,
Label, ,
Probe Type,0,
Probe Ratio,1.000E+00,
Vertical Scale,5.000E-02,
Vertical Position,-9.800E-02,
Horizontal Units,S,
Horizontal Scale,5.000E-05,
Horizontal Position,0.000E+00,
Horizontal Mode,Main,
SincET Mode,Real Time,
Sampling Period,5.000E-08,
Horizontal Old Scale,5.000E-05,
Horizontal Old Position,0.000E+00,
Firmware,V1.24,
Mode,Fast,
Waveform Data,
25,
23,
23,
23,
23,
23,
25,
25,
23,
25,
25,
25,
23,
25,
23,
25,
25,
25,
23,
25,
23,
22,
25,
25,
23,
25,
26,
22,
26,
25,
23,
25,
26,
23,
25,
26,
23,
25,
25,
23,
23,
25,
23,
25,
25,
25,
26,
26,
26,
25,
26,
25,
25,
25,
25,
23,
25,
25,
25,
25,
26,
26,
26,
28,
25,
26,
26,
26,
23,
26,
25,
25,
25,
25,
23,
26,
26,
25,
28,
26,
26,
28,
26,
26,
26,
26,
25,
26,
25,
25,
26,
25,
26,
25,
26,
28,
28,
26,
26,
28,
26,
26,
26,
26,
26,
25,
26,
25,
26,
26,
26,
25,
26,
28,
28,
28,
26,
28,
26,
28,
26,
28,
25,
26,
26,
26,
25,
28,
26,
26,
26,
28,
28,
28,
28,
26,
29,
26,
26,
28,
26,
26,
26,
26,
26,
28,
26,
26,
26,
26,
28,
28,
26,
28,
26,
28,
28,
26,
26,
26,
26,
26,
26,
28,
26,
28,
26,
28,
28,
28,
28,
28,
28,
28,
28,
28,
26,
28,
26,
26,
28,
26,
28,
28,
28,
23,
28,
31,
29,
28,
28,
28,
26,
28,
26,
26,
25,
28,
26,
28,
28,
28,
28,
28,
28,
29,
29,
28,
28,
28,
26,
26,
28,
26,
26,
26,
26,
26,
29,
26,
29,
28,
28,
29,
28,
29,
28,
26,
28,
28,
26,
26,
28,
25,
28,
29,
26,
29,
29,
28,
28,
29,
26,
28,
28,
26,
26,
28,
26,
28,
28,
26,
28,
28,
28,
28,
29,
28,
28,
28,
29,
28,
28,
28,
28,
26,
29,
26,
28,
28,
26,
28,
28,
28,
28,
29,
31,
28,
31,
29,
28,
29,
26,
28,
26,
29,
28,
28,
28,
28,
29,
29,
28,
29,
28,
28,
28,
29,
28,
29,
28,
28,
28,
26,
28,
28,
28,
28,
29,
28,
31,
29,
29,
28,
28,
28,
29,
28,
28,
28,
26,
28,
28,
28,
28,
29,
28,
29,
29,
29,
28,
29,
28,
28,
28,
26,
26,
28,
26,
26,
29,
28,
29,
29,
28,
29,
29,
28,
28,
28,
28,
28,
28,
26,
26,
28,
28,
28,
28,
28,
28,
29,
28,
28,
28,
29,
26,
28,
28,
26,
26,
28,
26,
25,
28,
28,
28,
29,
28,
28,
29,
28,
28,
29,
28,
26,
28,
26,
26,
28,
26,
26,
28,
26,
28,
28,
29,
28,
28,
29,
28,
28,
28,
28,
25,
26,
26,
26,
28,
28,
26,
28,
28,
28,
28,
29,
26,
28,
29,
25,
28,
28,
25,
26,
28,
25,
28,
28,
26,
26,
29,
26,
28,
28,
26,
28,
28,
26,
26,
28,
25,
25,
26,
26,
26,
28,
26,
26,
26,
28,
26,
28,
26,
26,
26,
26,
26,
25,
26,
25,
26,
28,
26,
26,
26,
26,
26,
26,
28,
26,
28,
26,
26,
28,
25,
25,
25,
23,
25,
26,
26,
26,
28,
26,
25,
28,
26,
26,
26,
25,
25,
26,
25,
25,
25,
25,
25,
26,
26,
26,
26,
26,
26,
25,
26,
26,
25,
25,
25,
22,
25,
26,
23,
23,
25,
23,
26,
26,
25,
26,
26,
23,
25,
26,
23,
23,
25,
22,
23,
26,
23,
25,
25,
25,
25,
26,
25,
23,
26,
23,
23,
23,
20,
23,
26,
23,
22,
23,
25,
23,
23,
25,
23,
25,
25,
23,
23,
25,
22,
23,
23,
23,
23,
23,
22,
23,
25,
23,
23,
23,
23,
23,
25,
20,
23,
22,
23,
22,
23,
22,
22,
22,
22,
22,
23,
23,
22,
22,
23,
23,
22,
23,
23,
20,
22,
22,
20,
23,
22,
20,
22,
23,
20,
23,
22,
22,
22,
23,
22,
23,
22,
22,
20,
22,
19,
22,
20,
20,
20,
22,
20,
23,
22,
22,
22,
22,
22,
22,
22,
19,
20,
20,
22,
20,
20,
23,
19,
23,
20,
22,
22,
23,
22,
19,
22,
19,
22,
22,
17,
20,
19,
19,
20,
22,
19,
19,
22,
19,
22,
22,
22,
20,
22,
19,
20,
20,
17,
17,
20,
19,
19,
20,
20,
20,
20,
20,
22,
20,
22,
20,
19,
19,
19,
19,
19,
19,
17,
20,
19,
19,
20,
20,
19,
20,
19,
19,
19,
19,
17,
19,
19,
17,
19,
17,
17,
19,
19,
19,
19,
19,
19,
19,
19,
17,
19,
17,
19,
17,
17,
19,
17,
17,
17,
17,
17,
19,
19,
17,
19,
17,
17,
19,
17,
17,
17,
17,
17,
17,
17,
17,
17,
16,
17,
17,
17,
17,
17,
16,
17,
17,
16,
17,
16,
16,
16,
17,
14,
19,
16,
16,
17,
17,
16,
19,
16,
16,
17,
17,
16,
16,
14,
14,
16,
14,
16,
16,
16,
16,
16,
16,
16,
16,
16,
16,
16,
16,
14,
16,
13,
14,
14,
14,
14,
14,
14,
16,
14,
14,
16,
14,
14,
14,
14,
14,
14,
14,
13,
13,
11,
13,
14,
14,
13,
14,
13,
16,
14,
14,
14,
13,
14,
13,
14,
13,
14,
11,
11,
13,
13,
13,
14,
13,
14,
14,
14,
13,
13,
13,
11,
13,
11,
11,
11,
11,
13,
11,
13,
14,
13,
13,
14,
11,
13,
13,
11,
10,
11,
8,
10,
11,
10,
10,
11,
11,
11,
13,
11,
11,
13,
11,
10,
13,
10,
11,
10,
10,
8,
11,
8,
11,
10,
10,
11,
11,
11,
11,
10,
11,
10,
10,
10,
10,
7,
8,
7,
8,
11,
11,
7,
10,
10,
8,
11,
10,
8,
8,
10,
5,
10,
8,
8,
8,
10,
7,
10,
8,
8,
8,
10,
8,
8,
10,
7,
8,
7,
8,
7,
8,
7,
7,
7,
8,
7,
8,
8,
8,
7,
7,
7,
7,
7,
5,
5,
7,
5,
5,
7,
5,
5,
7,
7,
7,
8,
7,
5,
8,
5,
5,
7,
5,
5,
5,
5,
4,
7,
4,
5,
7,
5,
5,
7,
5,
5,
5,
5,
5,
5,
4,
4,
5,
5,
4,
5,
4,
5,
7,
5,
7,
5,
5,
5,
5,
5,
5,
4,
4,
2,
2,
4,
5,
2,
5,
4,
4,
4,
5,
4,
5,
4,
1,
4,
4,
2,
2,
4,
2,
4,
2,
2,
2,
5,
1,
4,
4,
4,
4,
4,
2,
2,
2,
2,
1,
1,
1,
2,
1,
4,
2,
2,
5,
1,
4,
4,
4,
2,
2,
1,
-1,
2,
1,
-1,
2,
1,
-1,
4,
2,
1,
2,
2,
1,
2,
2,
-1,
2,
-1,
-2,
1,
-1,
-1,
-1,
1,
1,
2,
1,
1,
2,
1,
1,
1,
-1,
1,
-1,
-2,
-1,
-2,
-2,
-1,
-1,
-1,
-1,
-1,
-1,
1,
-2,
-1,
1,
-1,
-1,
-2,
-2,
-2,
-2,
-2,
-2,
-1,
-2,
-2,
1,
-2,
-1,
-1,
-2,
-2,
-1,
-4,
-1,
-4,
-4,
-4,
-2,
-4,
-2,
-2,
-1,
-4,
-1,
-1,
-4,
-1,
-2,
-4,
-4,
-2,
-5,
-4,
-4,
-4,
-5,
-2,
-5,
-4,
-4,
-4,
-4,
-1,
-4,
-4,
-1,
-5,
-7,
-4,
-5,
-7,
-4,
-7,
-5,
-4,
-4,
-7,
-2,
-5,
-5,
-4,
-4,
-5,
-4,
-5,
-5,
-5,
-5,
-7,
-5,
-5,
-7,
-5,
-4,
-4,
-5,
-5,
-7,
-5,
-5,
-4,
-7,
-5,
-7,
-7,
-7,
-5,
-7,
-7,
-7,
-8,
-7,
-5,
-7,
-7,
-7,
-7,
-5,
-5,
-7,
-7,
-5,
-8,
-5,
-7,
-7,
-8,
-10,
-8,
-8,
-7,
-7,
-7,
-7,
-7,
-7,
-7,
-8,
-8,
-10,
-8,
-8,
-8,
-8,
-8,
-10,
-8,
-10,
-8,
-8,
-8,
-8,
-7,
-8,
-8,
-8,
-8,
-8,
-10,
-12,
-10,
-10,
-12,
-12,
-8,
-15,
-8,
-5,
-10,
-10,
-8,
-12,
-8,
-8,
-10,
-13,
-10,
-12,
-12,
-10,
-12,
-12,
-10,
-12,
-12,
-8,
-12,
-10,
-10,
-10,
-12,
-10,
-12,
-10,
-13,
-12,
-13,
-12,
-12,
-13,
-13,
-10,
-10,
-13,
-10,
-10,
-12,
-12,
-12,
-13,
-12,
-15,
-13,
-15,
-13,
-13,
-13,
-13,
-13,
-12,
-12,
-12,
-12,
-12,
-13,
-12,
-15,
-12,
-15,
-13,
-15,
-13,
-16,
-13,
-15,
-15,
-13,
-13,
-15,
-12,
-13,
-13,
-12,
-13,
-15,
-13,
-15,
-15,
-15,
-15,
-16,
-13,
-13,
-15,
-13,
-13,
-12,
-13,
-12,
-15,
-13,
-15,
-13,
-13,
-15,
-13,
-16,
-16,
-15,
-15,
-15,
-13,
-15,
-16,
-13,
-15,
-13,
-13,
-13,
-16,
-15,
-15,
-16,
-15,
-16,
-16,
-16,
-15,
-16,
-15,
-15,
-16,
-15,
-16,
-15,
-15,
-15,
-16,
-16,
-15,
-16,
-16,
-16,
-16,
-18,
-16,
-16,
-16,
-16,
-15,
-16,
-15,
-15,
-15,
-16,
-16,
-18,
-16,
-16,
-19,
-18,
-18,
-19,
-16,
-18,
-18,
-16,
-16,
-16,
-16,
-16,
-18,
-16,
-18,
-18,
-18,
-18,
-19,
-18,
-19,
-18,
-18,
-18,
-18,
-16,
-16,
-18,
-16,
-18,
-18,
-16,
-19,
-19,
-19,
-21,
-19,
-18,
-19,
-18,
-18,
-18,
-16,
-18,
-18,
-16,
-18,
-19,
-18,
-19,
-19,
-19,
-21,
-21,
-18,
-19,
-18,
-18,
-19,
-19,
-18,
-18,
-18,
-18,
-19,
-21,
-19,
-21,
-19,
-19,
-19,
-21,
-19,
-21,
-19,
-19,
-19,
-19,
-19,
-18,
-19,
-19,
-19,
-21,
-22,
-19,
-21,
-21,
-19,
-19,
-25,
-19,
-21,
-19,
-19,
-19,
-22,
-18,
-19,
-21,
-21,
-19,
-24,
-19,
-21,
-22,
-19,
-22,
-22,
-21,
-19,
-21,
-19,
-19,
-22,
-21,
-21,
-21,
-21,
-22,
-21,
-22,
-22,
-21,
-22,
-22,
-21,
-22,
-22,
-21,
-21,
-22,
-19,
-21,
-21,
-21,
-22,
-22,
-22,
-22,
-24,
-22,
-22,
-22,
-21,
-22,
-22,
-22,
-21,
-22,
-21,
-21,
-22,
-21,
-22,
-24,
-24,
-24,
-24,
-22,
-24,
-22,
-22,
-21,
-22,
-22,
-21,
-21,
-22,
-21,
-24,
-22,
-24,
-24,
-27,
-24,
-24,
-25,
-22,
-24,
-24,
-21,
-22,
-22,
-21,
-22,
-24,
-22,
-24,
-27,
-22,
-25,
-25,
-24,
-24,
-25,
-22,
-24,
-24,
-25,
-21,
-21,
-22,
-24,
-25,
-24,
-25,
-25,
-25,
-24,
-27,
-25,
-25,
-24,
-24,
-24,
-24,
-24,
-24,
-22,
-25,
-24,
-24,
-25,
-24,
-25,
-27,
-25,
-24,
-25,
-25,
-24,
-25,
-24,
-24,
-25,
-24,
-24,
-25,
-25,
-24,
-25,
-27,
-24,
-27,
-25,
-25,
-25,
-25,
-25,
-25,
-25,
-24,
-24,
-25,
-24,
-25,
-25,
-28,
-24,
-27,
-27,
-25,
-27,
-27,
-25,
-25,
-27,
-25,
-25,
-25,
-24,
-25,
-28,
-24,
-27,
-25,
-25,
-25,
-28,
-25,
-27,
-28,
-24,
-27,
-27,
-24,
-25,
-25,
-21,
-24,
-27,
-25,
-28,
-25,
-27,
-25,
-27,
-27,
-27,
-27,
-25,
-25,
-25,
-27,
-25,
-25,
-25,
-25,
-25,
-25,
-25,
-25,
-27,
-25,
-27,
-27,
-25,
-27,
-27,
-25,
-25,
-25,
-25,
-27,
-25,
-24,
-25,
-27,
-27,
-27,
-28,
-25,
-27,
-27,
-27,
-27,
-27,
-25,
-25,
-25,
-24,
-25,
-27,
-25,
-25,
-27,
-28,
-28,
-27,
-28,
-27,
-27,
-27,
-27,
-25,
-25,
-27,
-24,
-27,
-27,
-24,
-27,
-27,
-25,
-27,
-28,
-25,
-28,
-27,
-25,
-27,
-27,
-24,
-25,
-27,
-25,
-27,
-25,
-27,
-27,
-27,
-27,
-28,
-28,
-27,
-27,
-27,
-27,
-27,
-27,
-27,
-25,
-25,
-25,
-27,
-27,
-27,
-27,
-27,
-28,
-27,
-28,
-28,
-28,
-27,
-27,
-27,
-25,
-27,
-25,
-27,
-27,
-27,
-27,
-28,
-27,
-28,
-27,
-27,
-28,
-28,
-27,
-28,
-25,
-25,
-27,
-27,
-25,
-27,
-27,
-27,
-30,
-27,
-27,
-30,
-28,
-27,
-30,
-27,
-27,
-27,
-27,
-27,
-27,
-25,
-27,
-27,
-27,
-27,
-27,
-28,
-28,
-27,
-27,
-27,
-27,
-27,
-28,
-27,
-27,
-27,
-25,
-25,
-27,
-27,
-25,
-27,
-28,
-27,
-30,
-27,
-27,
-27,
-27,
-27,
-28,
-27,
-27,
-28,
-25,
-25,
-27,
-27,
-27,
-27,
-27,
-27,
-28,
-27,
-28,
-27,
-28,
-27,
-27,
-27,
-27,
-27,
-25,
-27,
-25,
-27,
-27,
-27,
-27,
-27,
-28,
-28,
-28,
-27,
-27,
-27,
-27,
-25,
-27,
-25,
-27,
-24,
-27,
-27,
-27,
-27,
-28,
-28,
-28,
-30,
-27,
-27,
-28,
-27,
-27,
-27,
-25,
-25,
-25,
-25,
-25,
-28,
-27,
-28,
-30,
-27,
-28,
-28,
-27,
-27,
-25,
-25,
-25,
-27,
-24,
-28,
-28,
-24,
-25,
-28,
-28,
-28,
-28,
-27,
-28,
-25,
-27,
-27,
-25,
-25,
-25,
-25,
-27,
-27,
-25,
-27,
-28,
-25,
-28,
-28,
-27,
-27,
-27,
-25,
-27,
-27,
-24,
-24,
-25,
-25,
-25,
-27,
-27,
-27,
-28,
-27,
-27,
-27,
-27,
-25,
-25,
-25,
-25,
-25,
-25,
-24,
-25,
-25,
-25,
-27,
-28,
-25,
-27,
-28,
-27,
-27,
-28,
-27,
-25,
-25,
-25,
-25,
-25,
-25,
-25,
-27,
-25,
-27,
-27,
-27,
-25,
-28,
-25,
-25,
-25,
-22,
-25,
-24,
-24,
-24,
-27,
-24,
-25,
-25,
-25,
-25,
-25,
-24,
-27,
-24,
-24,
-25,
-25,
-22,
-25,
-22,
-24,
-25,
-24,
-25,
-25,
-24,
-24,
-27,
-25,
-25,
-25,
-24,
-24,
-24,
-24,
-22,
-24,
-22,
-24,
-25,
-24,
-25,
-25,
-24,
-25,
-25,
-24,
-24,
-25,
-22,
-24,
-24,
-22,
-24,
-24,
-22,
-24,
-24,
-22,
-24,
-25,
-24,
-24,
-25,
-24,
-24,
-24,
-24,
-22,
-24,
-24,
-22,
-22,
-22,
-19,
-22,
-25,
-24,
-22,
-24,
-24,
-21,
-27,
-22,
-22,
-25,
-21,
-21,
-25,
-21,
-21,
-22,
-22,
-19,
-24,
-22,
-22,
-24,
-22,
-22,
-25,
-24,
-21,
-22,
-21,
-21,
-21,
-21,
-21,
-21,
-21,
-21,
-22,
-22,
-22,
-22,
-22,
-22,
-22,
-22,
-22,
-21,
-19,
-21,
-21,
-19,
-21,
-19,
-21,
-22,
-21,
-22,
-25,
-21,
-22,
-22,
-21,
-22,
-21,
-21,
-21,
-21,
-19,
-19,
-21,
-21,
-21,
-21,
-21,
-22,
-21,
-21,
-21,
-21,
-19,
-22,
-19,
-21,
-18,
-19,
-19,
-19,
-21,
-19,
-21,
-19,
-21,
-19,
-21,
-22,
-19,
-19,
-19,
-18,
-19,
-18,
-19,
-18,
-21,
-18,
-19,
-21,
-19,
-19,
-21,
-19,
-19,
-22,
-19,
-19,
-19,
-18,
-18,
-19,
-18,
-18,
-19,
-18,
-18,
-19,
-19,
-18,
-19,
-18,
-19,
-19,
-19,
-19,
-18,
-18,
-18,
-18,
-19,
-18,
-18,
-18,
-19,
-18,
-19,
-19,
-16,
-19,
-19,
-16,
-19,
-18,
-16,
-18,
-19,
-16,
-18,
-18,
-15,
-16,
-18,
-16,
-18,
-19,
-18,
-18,
-19,
-18,
-16,
-19,
-16,
-15,
-16,
-16,
-16,
-16,
-16,
-15,
-18,
-18,
-16,
-18,
-19,
-18,
-18,
-18,
-16,
-16,
-16,
-15,
-15,
-16,
-13,
-16,
-18,
-15,
-15,
-19,
-21,
-15,
-15,
-16,
-18,
-16,
-15,
-15,
-16,
-13,
-15,
-15,
-16,
-15,
-18,
-13,
-16,
-16,
-15,
-15,
-18,
-15,
-15,
-15,
-16,
-15,
-15,
-13,
-15,
-15,
-15,
-15,
-15,
-15,
-13,
-15,
-16,
-16,
-15,
-15,
-15,
-13,
-15,
-13,
-13,
-13,
-13,
-12,
-15,
-13,
-13,
-15,
-13,
-13,
-15,
-15,
-13,
-15,
-13,
-12,
-15,
-13,
-12,
-13,
-12,
-12,
-12,
-15,
-13,
-13,
-13,
-13,
-13,
-15,
-13,
-13,
-13,
-13,
-12,
-15,
-12,
-12,
-10,
-13,
-10,
-12,
-13,
-13,
-12,
-13,
-10,
-10,
-15,
-8,
-12,
-12,
-10,
-10,
-12,
-7,
-8,
-12,
-8,
-10,
-13,
-8,
-12,
-12,
-12,
-10,
-12,
-12,
-10,
-8,
-10,
-10,
-8,
-8,
-7,
-10,
-10,
-10,
-10,
-10,
-12,
-10,
-10,
-10,
-12,
-10,
-10,
-8,
-8,
-8,
-7,
-10,
-8,
-8,
-8,
-10,
-8,
-10,
-10,
-10,
-10,
-8,
-7,
-8,
-8,
-8,
-7,
-7,
-7,
-8,
-7,
-8,
-7,
-8,
-8,
-8,
-7,
-8,
-7,
-8,
-7,
-8,
-5,
-7,
-7,
-7,
-7,
-7,
-7,
-7,
-7,
-7,
-10,
-7,
-8,
-7,
-7,
-5,
-7,
-5,
-7,
-7,
-5,
-5,
-7,
-4,
-7,
-5,
-5,
-7,
-5,
-7,
-7,
-8,
-4,
-7,
-5,
-5,
-5,
-5,
-4,
-5,
-4,
-5,
-5,
-5,
-4,
-5,
-5,
-5,
-7,
-5,
-5,
-5,
-4,
-4,
-7,
-4,
-4,
-4,
-4,
-4,
-4,
-4,
-5,
-4,
-4,
-5,
-5,
-5,
-4,
-4,
-4,
-4,
-2,
-2,
-2,
-2,
-2,
-2,
-4,
-4,
-4,
-2,
-7,
-4,
-4,
-2,
-4,
-2,
-2,
-2,
-2,
-2,
-1,
-1,
-2,
-2,
-1,
-4,
-2,
-2,
-2,
-2,
-2,
-4,
-1,
-1,
-1,
-1,
-1,
-1,
1,
-2,
1,
-2,
-2,
-2,
-2,
-2,
-2,
-2,
-2,
-1,
-1,
-2,
1,
2,
-1,
1,
-1,
1,
-1,
1,
-4,
1,
-2,
-2,
-1,
1,
-4,
2,
1,
1,
1,
1,
1,
1,
1,
-1,
2,
-1,
1,
-1,
1,
-1,
-1,
-1,
2,
1,
2,
1,
2,
2,
2,
1,
1,
2,
-1,
2,
2,
1,
-1,
2,
1,
2,
2,
2,
2,
2,
1,
2,
4,
2,
2,
4,
2,
4,
-1,
2,
5,
4,
-2,
2,
2,
2,
4,
2,
4,
4,
4,
2,
4,
2,
2,
2,
4,
4,
2,
1,
4,
2,
4,
4,
4,
4,
5,
5,
4,
5,
2,
4,
5,
4,
1,
5,
2,
4,
4,
4,
4,
7,
5,
4,
8,
4,
5,
5,
5,
4,
5,
4,
4,
5,
5,
4,
7,
5,
7,
7,
7,
5,
7,
7,
5,
5,
7,
5,
4,
5,
5,
5,
7,
7,
4,
7,
7,
7,
8,
8,
5,
8,
7,
5,
10,
7,
5,
7,
7,
10,
8,
10,
7,
8,
10,
7,
11,
7,
8,
8,
8,
7,
8,
8,
8,
8,
7,
8,
8,
10,
8,
8,
10,
11,
10,
10,
10,
10,
10,
10,
10,
8,
10,
8,
10,
10,
8,
10,
11,
8,
10,
11,
10,
11,
11,
10,
10,
11,
10,
11,
10,
10,
8,
11,
8,
11,
10,
11,
11,
11,
11,
14,
13,
11,
10,
11,
10,
11,
10,
10,
11,
11,
13,
11,
13,
13,
13,
11,
14,
11,
13,
11,
13,
10,
13,
11,
11,
13,
10,
11,
14,
11,
13,
14,
13,
13,
14,
13,
13,
14,
10,
13,
11,
13,
11,
13,
11,
13,
13,
14,
14,
14,
14,
14,
14,
14,
14,
13,
14,
13,
14,
13,
14,
13,
13,
14,
14,
14,
16,
13,
16,
14,
14,
16,
16,
14,
14,
14,
13,
14,
14,
14,
16,
14,
16,
16,
16,
16,
16,
16,
17,
16,
16,
14,
17,
13,
17,
16,
13,
16,
16,
14,
16,
16,
16,
17,
19,
16,
17,
17,
16,
17,
16,
17,
14,
16,
14,
16,
16,
17,
16,
19,
17,
19,
17,
17,
17,
16,
19,
16,
16,
17,
17,
14,
17,
17,
16,
19,
19,
17,
20,
19,
19,
19,
17,
14,
17,
17,
16,
17,
17,
16,
19,
17,
19,
19,
19,
19,
19,
19,
19,
19,
19,
17,
19,
17,
19,
19,
17,
19,
19,
19,
19,
19,
19,
19,
20,
19,
20,
19,
19,
19,
17,
19,
19,
19,
19,
19,
17,
20,
20,
20,
19,
22,
19,
22,
19,
20,
19,
20,
14,
19,
22,
19,
19,
20,
17,
20,
20,
20,
20,
20,
20,
20,
20,
20,
19,
20,
19,
20,
19,
20,
20,
20,
20,
20,
22,
23,
20,
20,
22,
20,
19,
22,
20,
17,
20,
20,
17,
22,
20,
20,
22,
22,
20,
25,
22,
20,
22,
22,
19,
22,
20,
19,
22,
20,
20,
22,
23,
20,
23,
22,
22,
22,
23,
22,
20,
22,
22,
20,
22,
20,
20,
22,
22,
23,
22,
25,
22,
22,
23,
22,
23,
22,
20,
20,
22,
20,
23,
23,
22,
25,
25,
23,
23,
23,
23,
22,
25,
23,
23,
23,
22,
23,
23,
22,
25,
23,
23,
22,
23,
23,
25,
23,
25,
23,
23,
25,
23,
23,
23,
23,
22,
25,
23,
23,
23,
23,
22,
26,
25,
25,
26,
25,
23,
26,
23,
23,
25,
23,
22,
23,
25,
23,
25,
25,
25,
26,
26,
25,
26,
25,
23,
25,
25,
23,
23,
23,
23,
23,
25,
23,
26,
26,
26,
25,
26,
26,
25,
25,
25,
23,
26,
25,
23,
25,
26,
23,
26,
28,
25,
26,
26,
25,
26,
26,
25,
25,
26,
23,
25,
26,
25,
25,
28,
25,
26,
28,
26,
26,
26,
26,
25,
28,
26,
26,
25,
26,
25,
26,
26,
25,
23,
28,
26,
26,
26,
26,
25,
28,
26,
25,
29,
25,
26,
26,
26,
25,
26,
26,
25,
26,
26,
26,
28,
28,
26,
28,
28,
26,
28,
26,
26,
26,
25,
25,
26,
26,
26,
26,
28,
28,
28,
28,
28,
28,
26,
28,
26,
26,
26,
25,
26,
26,
25,
26,
28,
26,
28,
28,
28,
28,
28,
26,
28,
28,
25,
26,
26,
25,
28,
28,
26,
28,
29,
28,
28,
28,
26,
29,
29,
26,
28,
28,
26,
26,
26,
26,
28,
26,
28,
26,
28,
28,
28,
28,
29,
26,
29,
28,
28,
26,
28,
26,
26,
28,
26,
26,
29,
26,
28,
29,
28,
26,
29,
28,
28,
28,
28,
26,
28,
28,
26,
28,
26,
26,
28,
28,
28,
28,
29,
28,
28,
28,
28,
28,
28,
28,
26,
28,
28,
25,
28,
23,
28,
31,
29,
28,
29,
29,
28,
28,
29,
26,
28,
28,
25,
28,
26,
28,
28,
28,
26,
29,
29,
28,
28,
28,
29,
28,
28,
28,
28,
26,
26,
26,
26,
28,
28,
26,
29,
28,
29,
28,
29,
28,
28,
28,
28,
28,
28,
28,
26,
28,
26,
28,
28,
28,
28,
28,
28,
29,
28,
28,
28,
28,
28,
28,
26,
28,
26,
26,
28,
28,
26,
28,
28,
28,
28,
29,
28,
28,
28,
28,
28,
28,
28,
28,
26,
28,
26,
26,
28,
29,
29,
28,
29,
28,
31,
28,
28,
28,
28,
28,
26,
28,
25,
28,
28,
28,
29,
29,
28,
31,
28,
28,
29,
28,
28,
26,
26,
26,
28,
26,
28,
28,
28,
29,
28,
28,
29,
28,
28,
29,
28,
28,
28,
28,
25,
28,
26,
28,
28,
28,
28,
29,
29,
28,
28,
28,
28,
28,
28,
28,
28,
26,
28,
26,
28,
29,
26,
28,
28,
26,
29,
29,
28,
26,
28,
26,
28,
28,
26,
28,
28,
26,
28,
28,
28,
26,
28,
26,
28,
29,
28,
28,
28,
28,
26,
28,
26,
26,
26,
28,
26,
26,
28,
28,
28,
26,
28,
26,
29,
28,
26,
26,
28,
25,
28,
26,
25,
26,
26,
26,
28,
28,
28,
26,
28,
26,
28,
28,
26,
26,
26,
26,
25,
26,
23,
26,
26,
26,
26,
28,
26,
26,
26,
26,
28,
26,
26,
25,
25,
26,
25,
26,
26,
25,
26,
26,
28,
26,
29,
25,
26,
26,
25,
25,
26,
23,
23,
25,
23,
26,
26,
25,
26,
28,
26,
28,
26,
25,
25,
25,
23,
25,
25,
25,
23,
26,
25,
26,
26,
25,
26,
25,
26,
25,
26,
25,
25,
23,
25,
23,
23,
25,
25,
23,
26,
25,
26,
26,
25,
25,
26,
25,
22,
25,
23,
23,
25,
23,
23,
25,
25,
23,
25,
25,
25,
25,
25,
23,
25,
23,
25,
23,
25,
23,
23,
23,
25,
22,
25,
23,
23,
25,
25,
23,
23,
23,
22,
23,
25,
22,
23,
23,
20,
23,
25,
20,
22,
26,
23,
22,
22,
23,
22,
23,
20,
22,
23,
20,
22,
22,
22,
22,
23,
22,
22,
22,
23,
22,
22,
22,
22,
22,
23,
20,
22,
20,
22,
19,
22,
20,
22,
23,
20,
22,
22,
22,
22,
23,
22,
20,
22,
20,
19,
22,
20,
22,
20,
22,
20,
23,
20,
22,
22,
20,
22,
20,
20,
20,
20,
17,
19,
19,
20,
20,
20,
20,
20,
20,
22,
20,
20,
20,
19,
19,
20,
19,
17,
19,
19,
16,
20,
19,
19,
22,
20,
22,
23,
20,
19,
19,
19,
17,
20,
19,
17,
20,
19,
19,
20,
22,
20,
20,
20,
19,
19,
20,
19,
17,
19,
17,
17,
19,
19,
19,
19,
20,
17,
20,
20,
19,
19,
20,
16,
19,
19,
17,
17,
19,
16,
19,
20,
17,
19,
19,
17,
17,
19,
17,
17,
19,
17,
17,
19,
16,
17,
16,
19,
16,
17,
17,
17,
17,
17,
17,
17,
17,
17,
16,
17,
16,
17,
17,
16,
14,
17,
16,
16,
17,
16,
16,
17,
17,
16,
17,
16,
16,
16,
14,
16,
16,
14,
16,
17,
14,
16,
16,
16,
16,
17,
16,
16,
16,
16,
14,
14,
14,
13,
16,
14,
14,
14,
16,
14,
16,
16,
16,
14,
16,
14,
14,
14,
14,
13,
14,
13,
13,
14,
14,
14,
16,
14,
14,
16,
16,
13,
14,
14,
13,
13,
13,
11,
13,
11,
13,
14,
14,
14,
13,
14,
14,
14,
14,
13,
13,
11,
13,
11,
11,
13,
11,
13,
13,
13,
11,
14,
13,
13,
14,
13,
11,
13,
10,
10,
11,
10,
11,
11,
11,
11,
13,
11,
13,
13,
13,
11,
11,
10,
13,
10,
10,
8,
10,
10,
10,
11,
11,
11,
13,
11,
13,
10,
11,
11,
10,
10,
10,
8,
10,
8,
8,
10,
10,
10,
10,
11,
10,
10,
10,
10,
8,
8,
8,
10,
7,
8,
10,
7,
8,
10,
8,
10,
8,
8,
8,
8,
8,
10,
8,
7,
7,
8,
7,
8,
8,
8,
8,
8,
8,
8,
8,
8,
5,
7,
10,
8,
7,
5,
8,
4,
8,
5,
7,
7,
7,
7,
7,
7,
7,
8,
7,
5,
7,
5,
5,
5,
5,
5,
5,
7,
5,
7,
5,
5,
7,
7,
7,
7,
5,
5,
5,
5,
5,
5,
4,
4,
5,
5,
5,
5,
4,
7,
4,
5,
5,
7,
4,
5,
4,
4,
4,
2,
4,
4,
4,
4,
7,
4,
5,
4,
5,
4,
5,
2,
4,
4,
2,
2,
2,
2,
4,
2,
2,
4,
4,
4,
4,
4,
2,
5,
2,
4,
4,
2,
2,
4,
2,
4,
2,
4,
2,
4,
2,
4,
2,
2,
2,
2,
2,
2,
1,
-1,
2,
1,
2,
2,
4,
2,
5,
1,
2,
2,
4,
1,
2,
-1,
1,
1,
1,
-1,
2,
1,
1,
2,
2,
2,
1,
2,
1,
2,
1,
1,
-1,
1,
-1,
-1,
-1,
1,
-1,
1,
1,
1,
2,
1,
1,
-1,
1,
-2,
1,
-1,
-2,
-1,
-1,
-2,
1,
-1,
-2,
-2,
-1,
-2,
1,
-1,
-1,
-1,
-1,
-2,
-1,
-2,
-2,
-2,
-2,
-2,
-2,
-1,
-2,
-2,
-2,
-1,
-1,
-1,
-2,
-2,
-4,
-1,
-4,
-2,
-4,
-2,
-4,
-2,
-4,
-4,
-2,
-2,
-2,
-2,
-1,
-4,
-2,
-4,
-2,
-2,
-4,
-5,
-4,
-4,
-4,
-4,
-5,
-4,
-2,
-4,
-4,
-2,
-4,
-2,
-4,
-4,
-5,
-4,
-7,
-4,
-5,
-4,
-5,
-4,
-4,
-5,
-4,
-4,
-4,
-5,
-4,
-5,
-4,
-5,
-5,
-8,
-5,
-7,
-7,
-5,
-5,
-7,
-4,
-5,
-5,
-4,
-4,
-7,
-4,
-5,
-7,
-7,
-7,
-10,
-5,
-7,
-7,
-5,
-5,
-7,
-5,
-5,
-7,
-4,
-7,
-7,
-7,
-7,
-8,
-7,
-8,
-8,
-10,
-8,
-7,
-7,
-7,
-7,
-7,
-7,
-5,
-8,
-8,
-7,
-10,
-10,
-7,
-10,
-8,
-8,
-10,
-10,
-7,
-8,
-8,
-7,
-8,
-7,
-8,
-7,
-10,
-8,
-10,
-10,
-8,
-10,
-8,
-10,
-8,
-10,
-8,
-8,
-8,
-10,
-8,
-10,
-8,
-10,
-10,
-10,
-10,
-12,
-13,
-10,
-12,
-12,
-10,
-10,
-12,
-10,
-10,
-10,
-10,
-10,
-12,
-8,
-13,
-16,
-10,
-10,
-13,
-12,
-12,
-13,
-12,
-13,
-12,
-10,
-12,
-12,
-10,
-10,
-13,
-10,
-12,
-15,
-12,
-15,
-13,
-13,
-12,
-16,
-12,
-13,
-12,
-13,
-12,
-12,
-13,
-12,
-12,
-13,
-12,
-15,
-15,
-13,
-13,
-16,
-13,
-13,
-15,
-13,
-12,
-13,
-12,
-12,
-15,
-13,
-13,
-16,
-15,
-13,
-16,
-16,
-15,
-15,
-15,
-13,
-13,
-15,
-13,
-13,
-13,
-13,
-15,
-15,
-15,
-15,
-16,
-16,
-16,
-16,
-18,
-15,
-16,
-15,
-15,
-15,
-16,
-12,
-16,
-15,
-12,
-16,
-18,
-15,
-13,
-18,
-13,
-18,
-18,
-15,
-15,
-15,
-13,
-16,
-16,
-16,
-15,
-16,
-13,
-16,
-16,
-16,
-16,
-18,
-15,
-16,
-18,
-16,
-16,
-15,
-16,
-16,
-16,
-16,
-16,
-15,
-18,
-16,
-16,
-18,
-16,
-18,
-18,
-16,
-18,
-18,
-16,
-16,
-16,
-15,
-16,
-18,
-16,
-16,
-19,
-16,
-18,
-18,
-18,
-19,
-19,
-18,
-18,
-19,
-18,
-16,
-18,
-16,
-16,
-18,
-18,
-18,
-18,
-18,
-19,
-18,
-21,
-19,
-19,
-19,
-18,
-18,
-18,
-18,
-16,
-19,
-18,
-18,
-19,
-19,
-16,
-21,
-19,
-19,
-21,
-22,
-16,
-21,
-18,
-18,
-18,
-19,
-16,
-19,
-18,
-19,
-19,
-21,
-18,
-21,
-21,
-19,
-21,
-21,
-19,
-19,
-19,
-19,
-21,
-19,
-19,
-19,
-19,
-21,
-19,
-19,
-22,
-18,
-21,
-21,
-21,
-22,
-22,
-19,
-21,
-21,
-19,
-19,
-21,
-18,
-19,
-21,
-19,
