RLC_R_11.91/ALL0030/2.CSV

Format,1.0B,
Memory Length,10000,
IntpDistance,0,
Trigger Address,4999,
Trigger Level,-4.000E-01,
Source,CH2,
Vertical Units,V,
Vertical Units Div,0,
Vertical Units Extend Div,16,
Label, ,
Probe Type,0,
Probe Ratio,1.000E+00,
Vertical Scale,5.000E-02,
Vertical Position,-1.000E-01,
Horizontal Units,S,
Horizontal Scale,5.000E-05,
Horizontal Position,0.000E+00,
Horizontal Mode,Main,
SincET Mode,Real Time,
Sampling Period,5.000E-08,
Horizontal Old Scale,5.000E-05,
Horizontal Old Position,0.000E+00,
Firmware,V1.24,
Mode,Fast,
Waveform Data,
0,
-1,
-1,
2,
0,
0,
3,
2,
2,
5,
2,
2,
3,
-1,
2,
3,
0,
-1,
3,
0,
2,
5,
3,
5,
5,
3,
5,
5,
5,
2,
5,
2,
2,
3,
2,
3,
2,
3,
2,
3,
5,
3,
3,
5,
3,
3,
5,
5,
3,
3,
5,
3,
5,
3,
2,
5,
5,
3,
6,
5,
3,
5,
5,
3,
6,
5,
5,
5,
5,
5,
5,
6,
5,
3,
6,
5,
6,
5,
6,
5,
6,
5,
6,
6,
5,
5,
5,
6,
5,
5,
5,
5,
5,
6,
5,
8,
6,
8,
6,
9,
5,
6,
6,
5,
5,
8,
3,
8,
6,
5,
6,
9,
8,
8,
9,
6,
8,
8,
6,
6,
8,
3,
6,
6,
6,
6,
9,
6,
9,
9,
8,
8,
8,
8,
8,
8,
6,
6,
6,
8,
6,
6,
9,
8,
9,
11,
9,
9,
9,
9,
6,
9,
8,
9,
9,
8,
6,
9,
8,
8,
9,
9,
9,
11,
9,
9,
11,
9,
9,
9,
8,
9,
9,
8,
8,
9,
9,
11,
11,
11,
11,
9,
11,
11,
9,
9,
9,
9,
9,
11,
9,
11,
11,
9,
11,
12,
11,
11,
12,
11,
11,
11,
11,
9,
11,
9,
11,
11,
9,
11,
11,
9,
12,
11,
12,
11,
12,
11,
11,
12,
9,
12,
11,
11,
11,
12,
11,
12,
11,
11,
12,
12,
12,
12,
11,
12,
12,
12,
11,
14,
11,
12,
11,
12,
12,
11,
12,
12,
12,
12,
14,
12,
14,
12,
14,
12,
14,
9,
14,
12,
12,
12,
14,
11,
14,
14,
12,
14,
14,
14,
14,
14,
12,
12,
14,
12,
14,
12,
12,
12,
11,
14,
15,
12,
14,
15,
15,
15,
15,
12,
15,
14,
14,
12,
14,
11,
12,
14,
12,
15,
14,
14,
15,
15,
15,
15,
15,
15,
15,
14,
14,
15,
14,
12,
14,
14,
14,
15,
14,
17,
15,
15,
15,
17,
14,
15,
15,
15,
15,
15,
14,
15,
14,
14,
15,
15,
15,
15,
17,
15,
17,
17,
17,
17,
17,
17,
15,
15,
15,
15,
14,
15,
15,
15,
15,
17,
14,
18,
15,
17,
18,
17,
17,
18,
17,
15,
18,
15,
14,
17,
18,
15,
18,
17,
15,
18,
17,
18,
18,
18,
18,
17,
18,
17,
20,
17,
17,
17,
15,
17,
17,
18,
18,
17,
18,
18,
20,
18,
20,
18,
18,
18,
17,
18,
17,
17,
17,
18,
17,
20,
18,
18,
18,
20,
18,
20,
18,
18,
18,
18,
17,
18,
18,
18,
18,
18,
18,
20,
20,
18,
18,
20,
20,
20,
18,
18,
18,
20,
18,
18,
18,
18,
18,
18,
18,
18,
20,
20,
20,
20,
20,
18,
21,
20,
20,
20,
21,
18,
20,
20,
17,
18,
20,
18,
18,
21,
18,
20,
23,
20,
21,
23,
20,
20,
21,
20,
18,
21,
18,
18,
20,
18,
18,
20,
20,
20,
20,
23,
21,
21,
21,
20,
21,
20,
20,
18,
21,
20,
18,
21,
20,
20,
23,
21,
21,
23,
21,
20,
21,
20,
20,
21,
21,
17,
21,
20,
21,
21,
21,
20,
23,
21,
21,
21,
23,
20,
21,
21,
21,
20,
20,
21,
20,
21,
21,
21,
21,
21,
21,
21,
23,
21,
23,
21,
21,
21,
21,
20,
21,
21,
20,
21,
21,
21,
21,
21,
21,
21,
21,
21,
23,
21,
21,
21,
21,
20,
21,
21,
20,
21,
21,
21,
21,
21,
21,
23,
23,
21,
23,
23,
20,
23,
20,
23,
21,
21,
21,
20,
21,
21,
21,
21,
23,
21,
23,
23,
23,
21,
23,
20,
21,
21,
20,
21,
21,
20,
21,
21,
23,
23,
23,
23,
23,
23,
23,
21,
21,
20,
21,
20,
20,
21,
21,
21,
23,
21,
23,
24,
23,
20,
23,
24,
23,
21,
20,
21,
21,
21,
20,
23,
21,
21,
23,
21,
23,
23,
23,
21,
23,
21,
23,
21,
21,
20,
21,
20,
21,
21,
21,
23,
21,
23,
23,
23,
23,
23,
20,
23,
23,
21,
21,
21,
20,
23,
23,
21,
23,
23,
21,
23,
23,
21,
23,
23,
21,
23,
21,
21,
21,
21,
21,
21,
23,
21,
21,
23,
21,
23,
23,
23,
23,
21,
23,
21,
21,
21,
21,
21,
21,
21,
20,
23,
21,
21,
23,
23,
23,
24,
21,
24,
24,
21,
21,
23,
20,
21,
21,
20,
21,
23,
21,
23,
23,
23,
24,
24,
23,
21,
23,
21,
21,
21,
20,
21,
21,
21,
21,
23,
23,
23,
23,
23,
23,
23,
23,
21,
21,
23,
20,
21,
23,
20,
21,
23,
21,
23,
24,
23,
21,
24,
21,
21,
23,
20,
21,
21,
21,
20,
23,
21,
23,
21,
23,
21,
23,
23,
21,
23,
23,
23,
21,
23,
21,
20,
21,
21,
21,
23,
21,
21,
23,
23,
20,
23,
21,
21,
23,
23,
21,
23,
21,
20,
21,
23,
20,
23,
21,
20,
23,
23,
21,
21,
23,
21,
23,
23,
21,
23,
21,
20,
21,
21,
21,
20,
21,
20,
21,
21,
23,
21,
21,
21,
21,
21,
21,
21,
21,
21,
18,
21,
21,
21,
21,
21,
20,
23,
23,
21,
21,
23,
21,
23,
21,
20,
20,
20,
17,
20,
20,
18,
21,
21,
20,
21,
21,
21,
23,
20,
21,
21,
21,
18,
20,
18,
20,
21,
20,
21,
20,
21,
21,
20,
21,
21,
20,
21,
21,
20,
20,
21,
20,
20,
21,
20,
20,
20,
20,
20,
20,
20,
20,
21,
20,
21,
20,
20,
20,
20,
20,
20,
20,
18,
20,
20,
20,
20,
20,
18,
20,
20,
20,
20,
20,
20,
20,
20,
20,
18,
18,
18,
20,
18,
18,
20,
18,
18,
20,
20,
20,
20,
20,
20,
20,
20,
18,
18,
17,
17,
18,
17,
18,
17,
18,
20,
18,
20,
20,
18,
20,
20,
18,
18,
20,
15,
18,
18,
15,
17,
18,
12,
20,
23,
17,
18,
20,
17,
20,
18,
18,
17,
18,
18,
15,
18,
15,
17,
17,
18,
17,
18,
18,
18,
17,
18,
17,
18,
17,
17,
17,
18,
17,
15,
18,
15,
17,
17,
15,
14,
17,
17,
17,
18,
17,
15,
18,
17,
15,
17,
15,
15,
17,
15,
15,
17,
15,
15,
17,
15,
17,
17,
17,
17,
17,
17,
15,
17,
14,
15,
14,
15,
15,
15,
14,
15,
15,
17,
17,
15,
17,
17,
15,
15,
17,
14,
15,
14,
14,
15,
15,
14,
18,
17,
15,
17,
18,
15,
15,
17,
14,
17,
15,
14,
14,
15,
12,
15,
15,
14,
15,
15,
15,
15,
17,
15,
15,
15,
15,
14,
15,
14,
14,
14,
14,
12,
15,
14,
14,
14,
15,
14,
14,
17,
14,
14,
15,
14,
12,
17,
12,
12,
14,
14,
12,
15,
12,
12,
14,
15,
12,
15,
14,
14,
14,
14,
12,
12,
12,
12,
12,
12,
14,
12,
14,
11,
14,
14,
14,
12,
14,
12,
14,
12,
14,
11,
12,
12,
11,
12,
12,
11,
12,
12,
12,
12,
14,
12,
12,
14,
11,
12,
11,
11,
11,
12,
8,
11,
11,
11,
11,
12,
11,
12,
12,
12,
11,
12,
11,
11,
11,
9,
11,
9,
11,
9,
11,
11,
11,
11,
11,
11,
12,
12,
11,
11,
11,
9,
9,
11,
8,
9,
11,
8,
9,
11,
9,
9,
12,
9,
11,
11,
9,
8,
11,
8,
9,
9,
8,
9,
9,
9,
8,
11,
9,
9,
11,
9,
9,
9,
9,
9,
8,
9,
8,
9,
8,
8,
8,
9,
9,
8,
9,
9,
8,
9,
9,
8,
9,
8,
6,
8,
8,
8,
8,
6,
6,
8,
8,
6,
8,
6,
8,
8,
8,
8,
8,
8,
8,
8,
6,
6,
6,
5,
5,
5,
5,
6,
6,
6,
6,
8,
6,
8,
6,
6,
6,
8,
5,
6,
5,
5,
5,
5,
5,
6,
6,
6,
6,
6,
8,
5,
6,
5,
5,
3,
5,
3,
3,
5,
5,
3,
6,
5,
6,
6,
6,
3,
8,
5,
5,
0,
5,
5,
3,
2,
2,
3,
3,
2,
3,
3,
5,
5,
5,
3,
3,
5,
3,
3,
3,
2,
3,
3,
2,
3,
3,
3,
2,
3,
3,
3,
3,
2,
3,
3,
3,
2,
3,
2,
2,
2,
3,
0,
3,
0,
2,
2,
2,
0,
2,
3,
0,
3,
2,
3,
0,
3,
0,
3,
0,
0,
0,
0,
-1,
2,
0,
0,
0,
0,
2,
2,
2,
2,
2,
0,
0,
-1,
0,
0,
-1,
-3,
0,
-1,
0,
0,
0,
2,
2,
0,
0,
3,
0,
0,
2,
-4,
0,
-1,
-1,
-4,
0,
-3,
-1,
2,
0,
-1,
2,
-1,
-1,
2,
-1,
0,
0,
-1,
-1,
-1,
-3,
-3,
-1,
-1,
-1,
0,
-1,
-1,
-3,
0,
-1,
-1,
0,
-1,
-3,
-1,
-3,
-3,
-1,
-3,
-4,
-3,
-3,
-4,
-1,
-4,
-3,
-1,
-1,
-3,
-1,
-1,
-3,
-1,
-1,
-3,
-3,
-6,
-4,
-4,
-6,
-4,
-3,
-3,
-4,
-1,
-3,
-1,
-3,
-1,
-3,
-1,
-4,
-3,
-4,
-3,
-6,
-4,
-6,
-4,
-4,
-4,
-4,
-4,
-3,
-3,
-4,
-3,
-3,
-6,
-3,
-4,
-6,
-7,
-3,
-9,
-4,
-4,
-6,
-4,
-4,
-6,
-4,
-3,
-6,
-3,
-4,
-6,
-4,
-4,
-7,
-6,
-6,
-7,
-6,
-4,
-6,
-6,
-4,
-6,
-6,
-4,
-6,
-4,
-6,
-6,
-6,
-6,
-4,
-9,
-6,
-6,
-7,
-7,
-6,
-6,
-9,
-4,
-7,
-6,
-6,
-6,
-7,
-4,
-7,
-6,
-6,
-7,
-9,
-6,
-9,
-7,
-6,
-9,
-7,
-7,
-7,
-7,
-6,
-6,
-6,
-7,
-6,
-7,
-7,
-9,
-9,
-11,
-11,
-9,
-9,
-9,
-7,
-9,
-7,
-7,
-7,
-7,
-6,
-7,
-9,
-9,
-9,
-9,
-9,
-12,
-9,
-9,
-11,
-9,
-11,
-7,
-9,
-7,
-9,
-7,
-9,
-9,
-9,
-9,
-9,
-11,
-11,
-11,
-11,
-11,
-11,
-9,
-9,
-11,
-9,
-9,
-9,
-9,
-11,
-9,
-11,
-11,
-11,
-9,
-11,
-11,
-11,
-12,
-9,
-11,
-11,
-11,
-11,
-11,
-11,
-11,
-9,
-12,
-11,
-12,
-9,
-15,
-11,
-12,
-14,
-12,
-11,
-12,
-9,
-11,
-12,
-11,
-11,
-11,
-11,
-11,
-12,
-11,
-15,
-12,
-9,
-12,
-14,
-12,
-14,
-14,
-12,
-12,
-12,
-12,
-12,
-11,
-11,
-12,
-12,
-12,
-14,
-12,
-14,
-14,
-14,
-12,
-14,
-12,
-12,
-12,
-12,
-12,
-12,
-12,
-12,
-12,
-14,
-14,
-14,
-14,
-14,
-15,
-14,
-14,
-14,
-14,
-14,
-14,
-12,
-15,
-12,
-14,
-14,
-14,
-14,
-15,
-14,
-15,
-15,
-14,
-15,
-17,
-14,
-14,
-14,
-14,
-12,
-14,
-14,
-14,
-14,
-14,
-17,
-15,
-15,
-15,
-15,
-15,
-15,
-14,
-15,
-14,
-14,
-15,
-15,
-12,
-17,
-14,
-12,
-15,
-15,
-14,
-17,
-14,
-14,
-15,
-17,
-12,
-15,
-15,
-12,
-15,
-14,
-14,
-17,
-15,
-15,
-15,
-15,
-15,
-17,
-15,
-15,
-15,
-17,
-17,
-15,
-15,
-15,
-15,
-15,
-15,
-15,
-15,
-15,
-15,
-15,
-17,
-15,
-18,
-17,
-17,
-17,
-18,
-15,
-17,
-15,
-15,
-15,
-15,
-15,
-17,
-17,
-15,
-18,
-17,
-17,
-18,
-18,
-17,
-18,
-17,
-17,
-17,
-15,
-14,
-17,
-15,
-15,
-17,
-17,
-17,
-18,
-17,
-18,
-18,
-18,
-18,
-17,
-18,
-17,
-17,
-17,
-15,
-17,
-17,
-18,
-15,
-18,
-18,
-18,
-18,
-20,
-17,
-18,
-18,
-17,
-17,
-18,
-17,
-17,
-18,
-17,
-18,
-18,
-17,
-17,
-18,
-17,
-18,
-20,
-17,
-18,
-18,
-18,
-18,
-18,
-18,
-17,
-18,
-18,
-17,
-18,
-18,
-18,
-18,
-20,
-18,
-18,
-20,
-18,
-18,
-21,
-20,
-18,
-20,
-20,
-17,
-20,
-17,
-18,
-18,
-18,
-17,
-21,
-18,
-20,
-21,
-20,
-18,
-21,
-20,
-18,
-18,
-18,
-18,
-18,
-17,
-20,
-18,
-17,
-20,
-18,
-20,
-21,
-23,
-20,
-20,
-21,
-18,
-20,
-18,
-18,
-18,
-18,
-17,
-18,
-18,
-18,
-18,
-20,
-21,
-23,
-21,
-20,
-21,
-20,
-21,
-20,
-20,
-18,
-20,
-18,
-20,
-18,
-20,
-20,
-20,
-20,
-21,
-21,
-20,
-21,
-20,
-20,
-20,
-21,
-18,
-20,
-20,
-18,
-21,
-20,
-18,
-20,
-18,
-20,
-20,
-21,
-20,
-21,
-21,
-20,
-21,
-21,
-23,
-20,
-20,
-20,
-20,
-20,
-21,
-18,
-20,
-20,
-20,
-20,
-23,
-21,
-23,
-21,
-21,
-21,
-23,
-20,
-21,
-20,
-18,
-20,
-20,
-18,
-20,
-20,
-20,
-21,
-23,
-21,
-23,
-21,
-21,
-21,
-21,
-26,
-20,
-17,
-21,
-23,
-20,
-20,
-21,
-20,
-21,
-21,
-23,
-21,
-24,
-21,
-23,
-21,
-24,
-21,
-21,
-21,
-21,
-21,
-20,
-21,
-21,
-21,
-21,
-21,
-21,
-23,
-21,
-24,
-21,
-21,
-21,
-23,
-20,
-21,
-21,
-20,
-23,
-23,
-21,
-21,
-23,
-20,
-24,
-23,
-21,
-21,
-23,
-21,
-24,
-23,
-20,
-21,
-21,
-21,
-21,
-23,
-21,
-20,
-21,
-21,
-23,
-23,
-21,
-24,
-21,
-24,
-23,
-23,
-23,
-21,
-21,
-21,
-21,
-20,
-23,
-21,
-20,
-23,
-21,
-23,
-24,
-23,
-21,
-24,
-23,
-20,
-24,
-20,
-21,
-21,
-20,
-20,
-21,
-21,
-18,
-23,
-21,
-23,
-23,
-21,
-21,
-24,
-23,
-21,
-23,
-20,
-21,
-21,
-21,
-20,
-21,
-20,
-20,
-21,
-21,
-23,
-23,
-23,
-21,
-21,
-26,
-23,
-21,
-21,
-21,
-20,
-21,
-20,
-20,
-21,
-21,
-20,
-23,
-21,
-21,
-24,
-21,
-21,
-23,
-23,
-20,
-23,
-21,
-20,
-23,
-21,
-20,
-21,
-21,
-20,
-21,
-21,
-21,
-21,
-23,
-20,
-24,
-23,
-23,
-21,
-21,
-21,
-21,
-21,
-20,
-20,
-20,
-20,
-20,
-21,
-21,
-20,
-21,
-23,
-21,
-23,
-24,
-21,
-21,
-23,
-21,
-21,
-23,
-20,
-20,
-21,
-20,
-20,
-21,
-21,
-21,
-21,
-24,
-20,
-24,
-21,
-21,
-21,
-21,
-20,
-20,
-20,
-20,
-20,
-20,
-21,
-20,
-21,
-20,
-21,
-21,
-21,
-21,
-21,
-20,
-20,
-21,
-20,
-20,
-20,
-20,
-20,
-20,
-20,
-20,
-21,
-21,
-20,
-23,
-21,
-20,
-21,
-21,
-20,
-21,
-20,
-20,
-21,
-20,
-18,
-21,
-20,
-20,
-20,
-20,
-20,
-21,
-20,
-20,
-21,
-20,
-20,
-23,
-20,
-20,
-21,
-20,
-20,
-20,
-20,
-20,
-18,
-18,
-18,
-21,
-20,
-21,
-20,
-21,
-21,
-21,
-20,
-21,
-18,
-20,
-18,
-18,
-18,
-20,
-17,
-18,
-20,
-18,
-20,
-20,
-20,
-20,
-21,
-20,
-21,
-20,
-20,
-20,
-20,
-18,
-18,
-20,
-18,
-18,
-18,
-20,
-20,
-20,
-20,
-20,
-20,
-20,
-20,
-18,
-20,
-18,
-18,
-18,
-18,
-18,
-20,
-18,
-18,
-18,
-20,
-18,
-21,
-20,
-18,
-21,
-20,
-18,
-21,
-18,
-18,
-18,
-18,
-18,
-20,
-20,
-17,
-17,
-18,
-18,
-20,
-18,
-18,
-20,
-18,
-21,
-20,
-18,
-18,
-20,
-18,
-18,
-18,
-17,
-18,
-18,
-15,
-20,
-18,
-17,
-18,
-18,
-18,
-20,
-20,
-17,
-20,
-17,
-18,
-18,
-17,
-17,
-17,
-17,
-18,
-17,
-17,
-18,
-18,
-17,
-20,
-18,
-20,
-18,
-18,
-17,
-18,
-17,
-15,
-18,
-15,
-17,
-17,
-17,
-15,
-18,
-17,
-17,
-18,
-17,
-18,
-18,
-17,
-17,
-18,
-15,
-17,
-15,
-17,
-15,
-17,
-15,
-17,
-17,
-18,
-17,
-17,
-17,
-18,
-17,
-15,
-17,
-17,
-17,
-14,
-14,
-14,
-15,
-15,
-15,
-15,
-14,
-15,
-17,
-14,
-17,
-17,
-15,
-17,
-15,
-15,
-17,
-17,
-14,
-15,
-14,
-14,
-15,
-14,
-14,
-15,
-14,
-14,
-17,
-15,
-15,
-17,
-15,
-15,
-15,
-15,
-14,
-14,
-14,
-12,
-14,
-14,
-14,
-15,
-14,
-15,
-14,
-15,
-15,
-14,
-15,
-14,
-14,
-15,
-14,
-12,
-12,
-14,
-11,
-14,
-14,
-12,
-14,
-14,
-12,
-15,
-14,
-14,
-14,
-15,
-11,
-14,
-14,
-12,
-12,
-12,
-12,
-12,
-14,
-12,
-14,
-12,
-14,
-12,
-14,
-12,
-12,
-12,
-12,
-11,
-12,
-12,
-12,
-11,
-12,
-11,
-12,
-12,
-11,
-11,
-14,
-12,
-11,
-15,
-12,
-11,
-14,
-12,
-12,
-14,
-11,
-11,
-12,
-11,
-9,
-12,
-11,
-9,
-12,
-11,
-12,
-12,
-12,
-11,
-14,
-11,
-11,
-12,
-12,
-9,
-11,
-9,
-11,
-11,
-9,
-11,
-9,
-11,
-11,
-12,
-11,
-12,
-11,
-12,
-11,
-11,
-9,
-11,
-7,
-11,
-7,
-11,
-9,
-11,
-7,
-11,
-9,
-9,
-12,
-9,
-9,
-12,
-9,
-9,
-11,
-9,
-7,
-9,
-9,
-7,
-11,
-7,
-7,
-9,
-11,
-9,
-11,
-9,
-9,
-9,
-11,
-7,
-9,
-9,
-9,
-7,
-7,
-7,
-9,
-7,
-9,
-6,
-7,
-9,
-7,
-9,
-9,
-7,
-9,
-9,
-9,
-7,
-9,
-6,
-7,
-7,
-6,
-7,
-6,
-6,
-6,
-7,
-6,
-7,
-7,
-7,
-7,
-9,
-7,
-7,
-7,
-7,
-7,
-7,
-6,
-6,
-7,
-4,
-7,
-4,
-7,
-7,
-6,
-7,
-7,
-6,
-9,
-6,
-6,
-4,
-7,
-4,
-6,
-4,
-6,
-4,
-6,
-4,
-7,
-9,
-4,
-4,
-7,
-7,
-7,
-7,
-6,
-7,
-4,
-6,
-7,
-4,
-4,
-4,
-4,
-6,
-3,
-4,
-4,
-6,
-3,
-6,
-6,
-4,
-6,
-6,
-4,
-6,
-6,
-4,
-6,
-4,
-3,
-4,
-6,
-1,
-4,
-3,
-4,
-3,
-6,
-4,
-6,
-4,
-4,
-4,
-6,
-3,
-4,
-3,
-3,
-3,
-3,
-3,
-3,
-3,
-3,
-3,
-4,
-4,
-3,
-4,
-3,
-3,
-3,
-4,
-1,
-3,
-1,
-1,
-3,
-3,
0,
-3,
-1,
-1,
-3,
-3,
-1,
-4,
-3,
-3,
-4,
-3,
-1,
-3,
-1,
0,
0,
-3,
2,
-1,
0,
0,
-1,
0,
-1,
-1,
-3,
0,
-1,
-1,
-3,
-1,
-3,
-1,
-1,
0,
0,
2,
0,
0,
2,
0,
0,
2,
0,
-1,
0,
-1,
-3,
-1,
0,
-3,
2,
0,
-1,
2,
3,
0,
2,
2,
0,
2,
2,
0,
0,
0,
-1,
0,
0,
2,
-1,
3,
2,
2,
2,
2,
2,
2,
3,
2,
2,
2,
0,
2,
2,
0,
2,
3,
2,
2,
3,
2,
3,
3,
2,
2,
3,
2,
3,
3,
3,
3,
5,
0,
3,
2,
2,
2,
3,
2,
3,
3,
5,
5,
3,
3,
5,
5,
2,
5,
3,
3,
3,
3,
3,
3,
2,
3,
3,
5,
5,
5,
5,
5,
5,
5,
6,
3,
5,
3,
3,
3,
5,
2,
6,
5,
5,
5,
8,
6,
6,
5,
6,
5,
6,
3,
5,
5,
5,
5,
5,
5,
5,
6,
5,
6,
6,
6,
6,
6,
6,
6,
6,
8,
5,
6,
6,
6,
5,
6,
6,
5,
6,
6,
6,
8,
8,
6,
8,
8,
6,
8,
6,
5,
6,
6,
8,
6,
6,
5,
8,
6,
8,
8,
8,
9,
9,
8,
9,
9,
8,
8,
8,
6,
8,
6,
6,
8,
9,
6,
9,
8,
9,
9,
11,
8,
9,
9,
9,
8,
9,
8,
9,
8,
9,
6,
9,
9,
9,
9,
9,
9,
9,
11,
9,
9,
9,
9,
6,
11,
5,
9,
9,
9,
8,
11,
9,
11,
11,
9,
9,
11,
9,
9,
11,
8,
5,
11,
11,
9,
9,
9,
9,
11,
9,
9,
12,
9,
11,
11,
11,
9,
11,
9,
11,
9,
9,
9,
11,
11,
11,
9,
12,
11,
11,
12,
11,
11,
12,
14,
11,
12,
11,
11,
12,
11,
9,
11,
11,
9,
12,
11,
12,
14,
12,
12,
15,
14,
11,
12,
11,
11,
12,
12,
11,
12,
11,
12,
12,
12,
12,
14,
12,
12,
12,
14,
12,
14,
12,
12,
11,
14,
11,
12,
12,
12,
11,
14,
14,
12,
14,
14,
12,
14,
14,
15,
14,
15,
11,
14,
15,
11,
14,
14,
14,
14,
15,
14,
17,
15,
14,
14,
15,
15,
15,
15,
14,
14,
15,
14,
14,
14,
15,
14,
15,
15,
15,
15,
15,
15,
15,
17,
15,
15,
15,
15,
15,
15,
15,
14,
15,
14,
15,
15,
15,
15,
17,
17,
17,
17,
15,
17,
15,
17,
17,
15,
14,
17,
14,
15,
15,
17,
15,
17,
17,
17,
17,
18,
15,
17,
17,
15,
17,
17,
15,
17,
17,
15,
17,
15,
17,
17,
17,
17,
20,
18,
17,
18,
17,
18,
17,
18,
17,
17,
15,
17,
17,
17,
17,
17,
17,
17,
18,
18,
18,
17,
17,
17,
18,
17,
18,
17,
18,
17,
17,
17,
17,
17,
17,
17,
17,
18,
18,
18,
20,
20,
18,
20,
20,
17,
20,
18,
17,
18,
17,
15,
18,
18,
15,
20,
18,
18,
20,
20,
18,
20,
18,
20,
18,
20,
18,
18,
18,
18,
17,
20,
18,
20,
20,
20,
20,
20,
21,
18,
21,
20,
18,
20,
20,
18,
18,
21,
18,
20,
20,
18,
18,
21,
17,
18,
20,
20,
20,
21,
18,
20,
20,
20,
20,
20,
18,
20,
20,
20,
18,
20,
18,
20,
20,
20,
21,
20,
21,
20,
21,
21,
21,
20,
20,
18,
20,
18,
20,
18,
20,
20,
20,
21,
21,
21,
21,
21,
20,
21,
21,
21,
20,
20,
18,
21,
18,
20,
20,
20,
20,
21,
21,
21,
21,
21,
21,
21,
20,
21,
21,
17,
20,
23,
20,
20,
20,
20,
20,
21,
20,
21,
21,
21,
21,
21,
21,
21,
21,
20,
21,
20,
21,
21,
20,
20,
21,
20,
21,
21,
20,
21,
21,
21,
21,
21,
21,
21,
21,
20,
21,
21,
20,
21,
20,
20,
21,
20,
21,
20,
21,
21,
23,
21,
23,
23,
21,
21,
21,
20,
21,
21,
18,
20,
21,
21,
21,
23,
21,
23,
23,
21,
23,
21,
21,
21,
21,
21,
20,
20,
20,
20,
20,
21,
21,
21,
23,
21,
23,
23,
24,
23,
23,
23,
20,
24,
21,
20,
23,
21,
21,
23,
21,
21,
24,
23,
21,
23,
23,
21,
23,
23,
21,
23,
21,
21,
23,
21,
21,
23,
23,
23,
23,
23,
23,
23,
23,
23,
23,
23,
23,
21,
23,
21,
21,
21,
21,
20,
21,
21,
21,
23,
24,
23,
24,
23,
23,
23,
23,
23,
23,
23,
20,
23,
23,
20,
23,
23,
21,
23,
23,
23,
23,
24,
23,
24,
23,
21,
23,
21,
20,
21,
21,
21,
23,
23,
23,
23,
24,
23,
24,
23,
23,
23,
23,
23,
21,
23,
21,
21,
21,
23,
23,
23,
23,
21,
23,
24,
21,
21,
24,
21,
21,
24,
20,
21,
23,
20,
21,
23,
21,
21,
23,
21,
23,
23,
23,
23,
23,
23,
23,
23,
23,
23,
23,
21,
21,
20,
21,
21,
21,
21,
21,
23,
23,
23,
21,
23,
23,
23,
23,
23,
20,
23,
21,
21,
21,
23,
21,
21,
21,
23,
23,
23,
23,
23,
23,
23,
23,
21,
21,
21,
20,
21,
21,
21,
21,
23,
21,
23,
23,
23,
24,
23,
23,
23,
23,
21,
21,
20,
20,
21,
21,
21,
23,
21,
21,
23,
23,
23,
21,
23,
21,
23,
23,
21,
21,
21,
21,
21,
21,
21,
21,
21,
23,
21,
23,
21,
21,
21,
21,
21,
21,
23,
21,
20,
21,
18,
21,
21,
20,
21,
21,
20,
21,
23,
20,
21,
23,
21,
23,
23,
21,
21,
21,
20,
21,
21,
18,
20,
18,
20,
23,
21,
20,
21,
21,
21,
21,
21,
20,
20,
20,
20,
18,
20,
20,
18,
20,
20,
20,
20,
21,
20,
21,
23,
20,
20,
21,
18,
20,
21,
17,
20,
20,
18,
18,
21,
18,
20,
21,
20,
20,
20,
20,
20,
20,
18,
18,
20,
18,
18,
21,
18,
20,
20,
20,
20,
20,
20,
20,
18,
20,
20,
20,
20,
20,
18,
20,
18,
18,
18,
18,
17,
20,
18,
20,
20,
20,
18,
20,
20,
20,
20,
18,
20,
18,
18,
18,
21,
20,
18,
20,
17,
20,
18,
18,
20,
18,
20,
20,
20,
17,
20,
18,
17,
18,
17,
18,
18,
18,
17,
20,
18,
20,
20,
18,
20,
20,
18,
18,
17,
17,
17,
17,
17,
17,
17,
17,
20,
17,
20,
18,
20,
18,
20,
17,
18,
18,
17,
17,
18,
15,
17,
17,
17,
17,
17,
18,
17,
18,
17,
18,
18,
17,
18,
17,
17,
17,
17,
15,
18,
15,
15,
17,
17,
17,
17,
17,
17,
18,
17,
17,
17,
17,
17,
15,
17,
15,
17,
17,
15,
14,
15,
17,
17,
18,
17,
17,
17,
17,
15,
17,
17,
15,
17,
15,
14,
15,
17,
12,
14,
17,
14,
15,
17,
15,
17,
17,
15,
15,
17,
14,
14,
14,
14,
14,
15,
12,
14,
17,
15,
17,
15,
17,
15,
15,
15,
15,
14,
15,
14,
12,
14,
14,
12,
15,
14,
14,
15,
14,
14,
15,
14,
14,
15,
14,
14,
14,
14,
12,
14,
14,
12,
14,
14,
12,
14,
14,
15,
14,
14,
12,
14,
12,
14,
12,
14,
12,
14,
11,
12,
11,
12,
12,
12,
12,
14,
12,
12,
14,
12,
14,
12,
12,
12,
12,
11,
12,
11,
9,
12,
11,
11,
12,
12,
12,
14,
12,
12,
14,
12,
11,
11,
11,
9,
11,
11,
9,
11,
11,
11,
11,
12,
12,
12,
12,
11,
11,
11,
9,
9,
9,
9,
9,
9,
11,
9,
11,
11,
11,
11,
12,
9,
11,
11,
11,
11,
11,
8,
8,
11,
9,
9,
9,
9,
9,
11,
9,
11,
9,
9,
9,
11,
9,
9,
8,
8,
8,
8,
6,
9,
8,
9,
9,
9,
8,
11,
8,
9,
8,
8,
8,
9,
8,
8,
8,
6,
8,
8,
6,
6,
8,
6,
9,
8,
9,
8,
8,
8,
8,
8,
8,
6,
6,
6,
6,
5,
8,
6,
6,
6,
6,
6,
8,
9,
5,
8,
6,
8,
6,
8,
2,
6,
5,
5,
5,
6,
5,
6,
6,
6,
6,
6,
6,
6,
6,
6,
6,
6,
5,
3,
5,
6,
6,
5,
8,
5,
6,
5,
6,
5,
8,
5,
5,
6,
3,
5,
5,
3,
5,
5,
3,
5,
6,
3,
6,
6,
3,
6,
5,
5,
5,
5,
2,
5,
3,
2,
3,
5,
2,
5,
5,
3,
3,
5,
5,
5,
5,
3,
3,
5,
3,
3,
5,
2,
2,
3,
3,
2,
3,
3,
2,
3,
3,
3,
3,
5,
3,
3,
5,
0,
2,
2,
2,
0,
3,
2,
2,
3,
2,
2,
5,
2,
3,
3,
2,
3,
3,
2,
-1,
3,
0,
2,
2,
2,
0,
3,
2,
2,
2,
2,
2,
2,
2,
2,
2,
0,
-1,
-1,
0,
0,
0,
0,
2,
0,
2,
2,
2,
2,
2,
2,
0,
2,
-1,
0,
0,
-3,
0,
-1,
0,
-1,
0,
0,
2,
0,
0,
2,
0,
0,
0,
-1,
0,
0,
-3,
-1,
-1,
-3,
-1,
0,
-1,
-1,
0,
-1,
-1,
0,
-3,
0,
-1,
-1,
-3,
0,
-3,
-3,
-1,
-3,
-1,
-1,
-3,
-1,
-3,
-1,
-1,
-1,
-1,
-1,
-1,
-3,
-1,
-3,
-3,
-4,
-3,
-4,
-3,
-4,
-1,
-4,
-3,
-3,
-1,
-3,
-1,
-3,
-3,
-3,
-4,
-3,
-3,
-4,
-4,
-3,
-6,
-3,
-4,
-3,
-4,
-1,
-4,
-1,
-1,
-3,
-4,
-3,
-6,
-4,
-4,
-7,
-6,
-4,
-6,
-6,
-3,
-6,
-4,
-4,
-3,
-4,
-3,
-4,
-6,
-4,
-6,
-6,
-4,
-7,
-6,
-6,
-4,
-6,
-6,
-4,
-6,
-4,
-4,
-4,
-6,
-4,
-7,
-11,
-4,
-4,
-11,
-6,
-7,
-7,
-6,
-6,
-7,
-6,
-7,
-7,
-6,
-4,
-7,
-4,
-7,
-7,
-7,
-6,
-7,
-7,
-7,
-7,
-7,
-6,
-7,
-7,
-7,
-7,
-7,
-6,
-6,
-7,
-7,
-7,
-9,
-7,
-9,
-9,
-9,
-7,
-12,
-7,
-7,
-9,
-7,
-7,
-7,
-6,
-6,
-9,
-6,
-9,
-9,
-9,
-7,
-12,
-9,
-9,
-11,
-9,
-7,
-9,
-7,
-9,
-7,
-7,
-7,
-9,
-9,
-9,
-11,
-11,
-11,
-12,
-11,
-11,
-12,
-9,
-9,
-9,
-11,
-9,
-9,
-9,
-11,
-9,
-9,
-11,
-7,
-11,
-11,
-9,
-12,
-9,
-11,
-11,
-12,
-9,
-11,
-11,
-7,
-12,
-9,
-11,
-11,
-12,
-9,
-11,
-12,
-11,
-11,
-12,
-9,
-11,
-11,
-11,
-11,
-12,
-9,
-9,
-12,
-11,
-12,
-11,
-12,
-11,
-12,
-12,
-12,
-11,
-14,
-11,
-11,
-12,
-12,
-11,
-14,
-11,
-11,
-14,
-11,
-11,
-14,
-12,
-12,
-14,
-14,
-12,
-15,
-12,
-12,
-14,
-12,
-12,
-12,
-11,
-11,
-12,
-11,
-12,
-14,
-14,
-12,
-14,
-14,
-14,
-14,
-14,
-12,
-12,
-12,
-14,
-11,
-12,
-12,
-12,
-14,
-14,
-14,
-14,
-15,
-14,
-14,
-15,
-14,
-14,
-12,
-12,
-12,
-14,
-12,
-14,
-14,
-12,
-14,
-14,
-14,
-15,
-15,
-14,
-15,
-14,
-14,
-14,
-14,
-14,
-14,
-12,
-14,
-14,
-15,
-14,
-15,
-14,
-17,
-15,
-15,
-15,
-15,
-14,
-15,
-15,
-15,
-14,
-14,
-14,
-15,
-14,
-15,
-15,
-15,
-15,
-17,
-15,
-15,
-17,
-15,
-15,
-17,
-15,
-15,
-15,
-14,
-15,
-15,
-14,
-15,
-15,
-15,
-15,
-17,
-17,
-17,
-18,
-15,
-18,
-17,
-17,
-15,
-17,
-14,
-15,
-15,
-15,
-17,
-15,
-15,
-18,
-17,
-18,
-18,
-18,
-17,
-18,
-17,
-17,
-17,
-15,
-15,
-15,
-17,
-17,
-17,
-17,
-18,
-17,
-20,
-18,
-20,
-18,
-18,
-17,
-18,
-17,
-17,
-17,
-17,
-15,
-17,
-17,
-17,
-18,
-18,
-17,
-20,
-20,
-17,
-20,
-18,
-15,
-18,
-18,
-15,
-18,
-17,
-17,
-17,
-18,
-17,
-20,
-20,
-17,
-21,
-20,
-18,
-20,
-18,
-17,
-18,
-18,
-18,
-17,
-18,
-18,
-18,
-18,
-23,
-18,
-17,
-20,
-20,
-20,
-21,
-20,
-20,
-20,
-18,
-20,
-20,
-18,
-18,
-20,
-18,
-18,
-21,
-18,
-20,
-20,
-20,
-18,
-23,
-20,
-20,
-20,
-18,
