secound_exp/ALL0001/2.CSV

Format,1.0B,
Memory Length,10000,
IntpDistance,0,
Trigger Address,4999,
Trigger Level,-4.000E-01,
Source,CH2,
Vertical Units,V,
Vertical Units Div,0,
Vertical Units Extend Div,16,
Label, ,
Probe Type,0,
Probe Ratio,1.000E+00,
Vertical Scale,1.000E-01,
Vertical Position,-2.000E-01,
Horizontal Units,S,
Horizontal Scale,1.000E-03,
Horizontal Position,0.000E+00,
Horizontal Mode,Main,
SincET Mode,Real Time,
Sampling Period,1.000E-06,
Horizontal Old Scale,1.000E-03,
Horizontal Old Position,0.000E+00,
Firmware,V1.24,
Mode,Fast,
Waveform Data,
-7,
-7,
-6,
-6,
-7,
-7,
-7,
-7,
-7,
-7,
-7,
-7,
-7,
-7,
-7,
-7,
-7,
-7,
-7,
-7,
-7,
-7,
-7,
-9,
-9,
-9,
-9,
-9,
-9,
-9,
-9,
-9,
-9,
-9,
-9,
-9,
-10,
-9,
-9,
-9,
-9,
-9,
-10,
-9,
-9,
-10,
-10,
-10,
-10,
-10,
-12,
-10,
-10,
-10,
-10,
-10,
-9,
-10,
-10,
-10,
-12,
-12,
-12,
-12,
-12,
-12,
-12,
-12,
-12,
-12,
-12,
-12,
-12,
-12,
-12,
-12,
-12,
-13,
-12,
-12,
-12,
-12,
-12,
-12,
-12,
-12,
-12,
-12,
-12,
-12,
-10,
-12,
-12,
-12,
-13,
-13,
-15,
-13,
-13,
-13,
-13,
-15,
-13,
-13,
-15,
-15,
-15,
-15,
-15,
-15,
-15,
-15,
-15,
-15,
-16,
-15,
-15,
-15,
-15,
-15,
-15,
-15,
-15,
-15,
-15,
-15,
-16,
-16,
-16,
-16,
-16,
-16,
-16,
-15,
-16,
-16,
-15,
-16,
-16,
-16,
-16,
-16,
-16,
-17,
-17,
-17,
-16,
-17,
-17,
-17,
-17,
-17,
-16,
-17,
-16,
-16,
-17,
-17,
-16,
-17,
-16,
-17,
-17,
-16,
-17,
-19,
-17,
-19,
-17,
-17,
-17,
-17,
-17,
-19,
-19,
-17,
-19,
-19,
-19,
-19,
-19,
-19,
-19,
-20,
-20,
-20,
-19,
-19,
-19,
-19,
-19,
-19,
-19,
-20,
-20,
-19,
-19,
-20,
-20,
-20,
-20,
-20,
-20,
-20,
-20,
-20,
-20,
-20,
-20,
-20,
-20,
-20,
-20,
-20,
-22,
-20,
-20,
-20,
-22,
-22,
-22,
-22,
-22,
-22,
-22,
-22,
-22,
-22,
-22,
-22,
-22,
-22,
-22,
-22,
-22,
-23,
-23,
-22,
-23,
-23,
-23,
-23,
-22,
-22,
-22,
-22,
-22,
-22,
-23,
-22,
-25,
-23,
-23,
-23,
-23,
-23,
-23,
-23,
-25,
-23,
-23,
-25,
-23,
-23,
-25,
-25,
-25,
-25,
-25,
-25,
-25,
-25,
-23,
-23,
-25,
-25,
-25,
-25,
-25,
-23,
-25,
-25,
-25,
-25,
-25,
-25,
-25,
-25,
-26,
-26,
-25,
-25,
-26,
-25,
-25,
-26,
-26,
-25,
-26,
-25,
-26,
-26,
-26,
-26,
-26,
-26,
-26,
-26,
-26,
-28,
-26,
-26,
-26,
-28,
-26,
-26,
-28,
-26,
-26,
-28,
-28,
-28,
-26,
-28,
-26,
-26,
-28,
-28,
-28,
-28,
-28,
-28,
-28,
-28,
-28,
-28,
-28,
-28,
-28,
-28,
-28,
-29,
-28,
-28,
-28,
-28,
-28,
-28,
-26,
-26,
-26,
-26,
-26,
-26,
-26,
-28,
-28,
-28,
-28,
-29,
-29,
-29,
-29,
-29,
-28,
-29,
-29,
-31,
-29,
-29,
-31,
-31,
-29,
-31,
-29,
-29,
-29,
-29,
-29,
-29,
-31,
-29,
-29,
-29,
-31,
-29,
-31,
-31,
-31,
-31,
-31,
-32,
-31,
-31,
-31,
-31,
-31,
-31,
-31,
-29,
-31,
-31,
-31,
-31,
-31,
-31,
-31,
-31,
-31,
-31,
-31,
-31,
-31,
-31,
-31,
-32,
-31,
-31,
-32,
-32,
-31,
-32,
-32,
-32,
-32,
-32,
-32,
-32,
-32,
-31,
-31,
-31,
-32,
-32,
-32,
-32,
-32,
-32,
-32,
-32,
-34,
-34,
-32,
-32,
-32,
-32,
-32,
-32,
-32,
-34,
-32,
-32,
-34,
-32,
-34,
-34,
-32,
-32,
-34,
-32,
-32,
-34,
-34,
-34,
-34,
-34,
-32,
-34,
-34,
-34,
-32,
-34,
-34,
-34,
-34,
-34,
-32,
-34,
-34,
-34,
-34,
-34,
-34,
-34,
-35,
-34,
-34,
-34,
-34,
-34,
-35,
-34,
-34,
-34,
-35,
-34,
-35,
-34,
-34,
-35,
-34,
-34,
-34,
-34,
-34,
-35,
-35,
-34,
-35,
-34,
-35,
-35,
-35,
-34,
-34,
-34,
-34,
-35,
-34,
-34,
-35,
-35,
-35,
-35,
-35,
-35,
-35,
-35,
-35,
-35,
-35,
-34,
-35,
-35,
-35,
-35,
-35,
-34,
-34,
-35,
-35,
-34,
-35,
-35,
-35,
-35,
-35,
-35,
-37,
-35,
-35,
-35,
-35,
-37,
-35,
-35,
-37,
-37,
-37,
-37,
-35,
-37,
-38,
-37,
-37,
-37,
-37,
-35,
-35,
-37,
-37,
-37,
-37,
-35,
-37,
-37,
-37,
-37,
-37,
-37,
-35,
-37,
-37,
-37,
-37,
-37,
-37,
-37,
-37,
-37,
-35,
-37,
-37,
-37,
-37,
-38,
-37,
-37,
-35,
-37,
-35,
-37,
-37,
-37,
-37,
-37,
-37,
-37,
-37,
-37,
-37,
-37,
-37,
-37,
-37,
-35,
-37,
-37,
-37,
-37,
-37,
-37,
-37,
-37,
-37,
-37,
-37,
-38,
-37,
-38,
-37,
-37,
-37,
-38,
-38,
-37,
-37,
-37,
-38,
-38,
-37,
-38,
-37,
-37,
-37,
-37,
-37,
-37,
-37,
-37,
-37,
-38,
-38,
-37,
-37,
-37,
-37,
-37,
-37,
-37,
-38,
-37,
-38,
-38,
-38,
-38,
-37,
-37,
-37,
-37,
-38,
-37,
-38,
-37,
-37,
-37,
-38,
-37,
-37,
-37,
-37,
-37,
-38,
-38,
-38,
-37,
-38,
-37,
-37,
-37,
-38,
-37,
-38,
-37,
-37,
-37,
-38,
-38,
-37,
-37,
-38,
-38,
-37,
-38,
-38,
-38,
-37,
-37,
-37,
-37,
-37,
-37,
-37,
-37,
-37,
-38,
-37,
-37,
-38,
-37,
-38,
-37,
-38,
-38,
-38,
-38,
-37,
-37,
-37,
-37,
-38,
-37,
-37,
-37,
-37,
-38,
-37,
-38,
-37,
-37,
-37,
-38,
-38,
-37,
-38,
-37,
-37,
-37,
-37,
-37,
-37,
-38,
-38,
-37,
-37,
-37,
-37,
-37,
-35,
-37,
-37,
-38,
-37,
-37,
-37,
-37,
-37,
-37,
-37,
-37,
-37,
-37,
-35,
-35,
-35,
-37,
-37,
-35,
-37,
-37,
-37,
-37,
-37,
-38,
-38,
-38,
-38,
-38,
-37,
-37,
-37,
-35,
-35,
-35,
-35,
-35,
-35,
-37,
-35,
-37,
-37,
-37,
-37,
-38,
-37,
-37,
-37,
-37,
-38,
-38,
-37,
-35,
-35,
-35,
-35,
-35,
-35,
-37,
-37,
-37,
-37,
-37,
-37,
-35,
-35,
-35,
-37,
-37,
-35,
-35,
-35,
-35,
-35,
-37,
-37,
-35,
-35,
-35,
-37,
-35,
-37,
-35,
-35,
-35,
-35,
-35,
-35,
-35,
-35,
-35,
-37,
-35,
-35,
-35,
-35,
-35,
-35,
-35,
-35,
-35,
-35,
-34,
-35,
-35,
-35,
-35,
-35,
-34,
-35,
-35,
-35,
-35,
-37,
-35,
-35,
-35,
-35,
-35,
-35,
-35,
-35,
-35,
-37,
-35,
-35,
-35,
-35,
-35,
-34,
-35,
-34,
-34,
-35,
-35,
-34,
-34,
-35,
-34,
-34,
-34,
-34,
-35,
-35,
-35,
-34,
-35,
-35,
-35,
-35,
-34,
-34,
-34,
-34,
-34,
-34,
-35,
-34,
-34,
-34,
-34,
-34,
-34,
-34,
-32,
-32,
-32,
-32,
-32,
-32,
-34,
-34,
-34,
-34,
-34,
-34,
-32,
-34,
-34,
-34,
-34,
-34,
-32,
-34,
-32,
-32,
-32,
-32,
-32,
-32,
-32,
-32,
-32,
-32,
-32,
-34,
-32,
-32,
-32,
-32,
-32,
-34,
-31,
-32,
-32,
-32,
-31,
-32,
-31,
-32,
-32,
-31,
-32,
-34,
-32,
-32,
-32,
-32,
-32,
-31,
-31,
-31,
-31,
-31,
-31,
-31,
-31,
-31,
-31,
-32,
-32,
-31,
-31,
-31,
-31,
-31,
-31,
-31,
-29,
-31,
-31,
-32,
-31,
-32,
-31,
-31,
-29,
-31,
-31,
-31,
-29,
-29,
-31,
-29,
-29,
-31,
-31,
-31,
-31,
-29,
-29,
-29,
-29,
-29,
-29,
-29,
-31,
-29,
-29,
-29,
-31,
-29,
-29,
-28,
-29,
-29,
-29,
-28,
-29,
-29,
-29,
-29,
-29,
-28,
-28,
-29,
-28,
-29,
-28,
-28,
-28,
-28,
-29,
-28,
-28,
-28,
-26,
-28,
-28,
-29,
-28,
-28,
-26,
-26,
-28,
-28,
-28,
-28,
-28,
-26,
-26,
-28,
-28,
-28,
-28,
-28,
-28,
-28,
-26,
-26,
-26,
-26,
-28,
-28,
-28,
-28,
-26,
-26,
-26,
-25,
-25,
-25,
-26,
-26,
-28,
-28,
-28,
-26,
-26,
-26,
-26,
-25,
-25,
-25,
-25,
-25,
-25,
-23,
-25,
-26,
-26,
-28,
-26,
-28,
-26,
-26,
-26,
-26,
-25,
-25,
-25,
-26,
-23,
-25,
-23,
-23,
-23,
-23,
-23,
-23,
-23,
-23,
-25,
-23,
-25,
-23,
-23,
-23,
-25,
-23,
-23,
-23,
-23,
-23,
-23,
-23,
-23,
-23,
-25,
-23,
-25,
-23,
-22,
-20,
-20,
-20,
-20,
-20,
-22,
-22,
-22,
-23,
-23,
-23,
-23,
-23,
-23,
-23,
-22,
-20,
-20,
-20,
-20,
-22,
-22,
-22,
-23,
-22,
-22,
-20,
-20,
-20,
-20,
-20,
-20,
-22,
-22,
-22,
-20,
-20,
-19,
-20,
-20,
-20,
-22,
-20,
-19,
-19,
-19,
-19,
-20,
-20,
-20,
-19,
-19,
-19,
-20,
-20,
-20,
-20,
-19,
-19,
-19,
-20,
-19,
-19,
-19,
-19,
-19,
-20,
-20,
-19,
-19,
-17,
-19,
-17,
-17,
-17,
-17,
-19,
-17,
-17,
-17,
-17,
-19,
-19,
-17,
-17,
-17,
-19,
-17,
-17,
-17,
-17,
-17,
-16,
-17,
-17,
-17,
-16,
-16,
-17,
-16,
-16,
-16,
-17,
-16,
-16,
-17,
-16,
-16,
-16,
-16,
-16,
-15,
-16,
-16,
-15,
-15,
-16,
-16,
-17,
-16,
-16,
-15,
-15,
-15,
-16,
-15,
-15,
-15,
-15,
-15,
-15,
-15,
-15,
-15,
-13,
-15,
-15,
-13,
-15,
-15,
-15,
-13,
-15,
-13,
-13,
-13,
-13,
-13,
-13,
-13,
-13,
-15,
-13,
-15,
-13,
-13,
-13,
-13,
-12,
-12,
-12,
-12,
-12,
-12,
-12,
-12,
-12,
-13,
-12,
-12,
-12,
-12,
-12,
-13,
-12,
-12,
-12,
-12,
-10,
-12,
-10,
-12,
-10,
-10,
-10,
-12,
-12,
-12,
-12,
-12,
-12,
-10,
-10,
-10,
-10,
-10,
-10,
-10,
-9,
-9,
-9,
-10,
-9,
-10,
-9,
-10,
-9,
-9,
-9,
-9,
-9,
-9,
-9,
-9,
-9,
-9,
-9,
-9,
-9,
-9,
-9,
-9,
-9,
-9,
-9,
-7,
-7,
-7,
-9,
-7,
-7,
-7,
-7,
-7,
-7,
-6,
-7,
-7,
-6,
-6,
-7,
-6,
-7,
-7,
-7,
-7,
-6,
-6,
-6,
-6,
-6,
-6,
-6,
-6,
-6,
-6,
-6,
-6,
-6,
-4,
-6,
-4,
-6,
-6,
-4,
-4,
-6,
-4,
-4,
-4,
-4,
-6,
-4,
-4,
-4,
-3,
-3,
-4,
-4,
-4,
-4,
-4,
-3,
-3,
-3,
-4,
-4,
-4,
-4,
-3,
-3,
-3,
-3,
-1,
-3,
-3,
-3,
-3,
-3,
-3,
-1,
-3,
-3,
-1,
-1,
-1,
-1,
-1,
-1,
-1,
-1,
-1,
0,
0,
0,
0,
-1,
-1,
-1,
-3,
-3,
-3,
-3,
-1,
-1,
0,
0,
2,
2,
2,
0,
0,
2,
0,
0,
0,
0,
0,
0,
0,
0,
0,
0,
0,
0,
0,
2,
2,
2,
2,
2,
3,
2,
2,
2,
2,
2,
2,
2,
3,
2,
3,
2,
2,
2,
3,
3,
3,
3,
3,
2,
3,
3,
5,
3,
3,
3,
3,
5,
3,
3,
3,
3,
3,
5,
5,
5,
5,
5,
5,
5,
5,
5,
5,
5,
5,
5,
5,
6,
5,
5,
5,
6,
6,
6,
5,
6,
6,
6,
6,
6,
6,
6,
6,
6,
6,
6,
6,
6,
6,
6,
6,
6,
7,
7,
7,
7,
7,
7,
7,
7,
7,
6,
7,
7,
7,
7,
7,
7,
7,
7,
9,
7,
7,
7,
9,
9,
9,
9,
9,
9,
9,
9,
9,
9,
9,
9,
9,
9,
10,
10,
10,
10,
10,
9,
9,
9,
10,
10,
10,
10,
10,
10,
10,
12,
10,
10,
10,
10,
10,
10,
12,
10,
12,
12,
12,
12,
12,
12,
12,
12,
12,
12,
12,
12,
12,
12,
12,
10,
12,
10,
12,
12,
12,
12,
12,
13,
13,
13,
13,
13,
13,
13,
12,
13,
13,
13,
15,
13,
13,
13,
15,
13,
13,
15,
15,
15,
15,
15,
15,
13,
15,
15,
15,
15,
15,
15,
15,
15,
16,
15,
15,
15,
15,
15,
16,
15,
16,
15,
15,
16,
15,
16,
16,
16,
16,
16,
16,
16,
16,
16,
16,
16,
16,
16,
16,
16,
18,
16,
18,
16,
16,
18,
18,
18,
18,
18,
18,
18,
16,
18,
18,
16,
18,
18,
18,
18,
18,
19,
19,
19,
19,
19,
19,
19,
19,
19,
18,
19,
18,
18,
19,
18,
18,
19,
19,
19,
19,
19,
19,
21,
21,
19,
21,
19,
21,
21,
21,
21,
21,
21,
19,
19,
21,
19,
21,
21,
21,
21,
21,
22,
22,
22,
22,
21,
22,
22,
21,
21,
21,
21,
21,
21,
21,
21,
22,
22,
22,
22,
22,
22,
22,
22,
22,
22,
22,
22,
21,
24,
24,
22,
24,
24,
22,
22,
24,
24,
22,
24,
24,
24,
24,
24,
24,
24,
24,
24,
24,
24,
24,
24,
24,
24,
24,
24,
24,
24,
24,
24,
24,
24,
25,
25,
25,
25,
25,
24,
24,
25,
25,
25,
25,
25,
25,
25,
25,
25,
25,
25,
25,
25,
25,
25,
25,
25,
25,
27,
27,
27,
27,
27,
25,
27,
27,
27,
27,
27,
27,
25,
25,
27,
27,
27,
27,
27,
27,
27,
28,
27,
27,
28,
28,
28,
28,
28,
27,
27,
28,
27,
27,
28,
28,
28,
28,
28,
28,
27,
28,
27,
27,
27,
25,
27,
27,
25,
27,
28,
27,
27,
28,
29,
28,
29,
28,
28,
28,
29,
29,
28,
29,
29,
29,
29,
29,
29,
28,
29,
29,
29,
29,
29,
29,
29,
29,
29,
29,
29,
29,
29,
29,
29,
29,
29,
29,
29,
31,
29,
29,
31,
31,
29,
31,
31,
29,
29,
31,
29,
31,
31,
31,
31,
31,
31,
31,
31,
31,
31,
31,
31,
31,
31,
31,
31,
31,
31,
31,
31,
31,
31,
31,
31,
31,
32,
31,
31,
32,
31,
31,
32,
32,
32,
32,
32,
32,
32,
32,
32,
31,
32,
32,
32,
32,
32,
32,
32,
32,
32,
32,
32,
32,
32,
32,
32,
32,
32,
34,
32,
32,
34,
34,
34,
34,
32,
32,
32,
32,
32,
32,
34,
32,
32,
34,
32,
32,
34,
32,
34,
34,
32,
32,
34,
32,
32,
34,
32,
34,
34,
32,
32,
34,
34,
34,
34,
34,
34,
34,
34,
34,
34,
35,
34,
34,
34,
34,
34,
34,
34,
34,
34,
34,
34,
34,
35,
35,
35,
35,
35,
35,
35,
34,
34,
34,
34,
34,
34,
35,
35,
35,
34,
34,
34,
34,
34,
35,
34,
35,
34,
34,
34,
34,
34,
34,
34,
34,
34,
34,
35,
35,
35,
35,
35,
35,
35,
35,
35,
35,
35,
35,
34,
35,
35,
35,
35,
35,
35,
37,
35,
37,
35,
35,
35,
35,
35,
35,
35,
35,
35,
35,
35,
35,
35,
35,
35,
37,
37,
37,
37,
37,
37,
35,
35,
35,
35,
37,
37,
37,
37,
37,
37,
35,
35,
35,
35,
34,
35,
35,
35,
35,
35,
35,
35,
35,
35,
35,
35,
37,
35,
37,
37,
35,
37,
37,
37,
37,
37,
37,
37,
37,
37,
37,
37,
37,
37,
37,
35,
37,
35,
37,
37,
35,
37,
37,
37,
37,
37,
37,
37,
37,
37,
37,
37,
37,
37,
37,
37,
37,
37,
37,
37,
37,
37,
37,
35,
35,
37,
37,
37,
37,
37,
37,
37,
37,
37,
37,
37,
37,
37,
37,
37,
37,
37,
35,
37,
37,
37,
37,
37,
37,
37,
37,
37,
37,
37,
35,
37,
37,
37,
37,
35,
37,
37,
37,
35,
37,
37,
37,
37,
37,
37,
37,
37,
37,
37,
37,
37,
37,
37,
35,
37,
37,
37,
37,
37,
37,
37,
37,
37,
37,
37,
37,
37,
37,
37,
37,
37,
37,
35,
37,
35,
35,
37,
37,
37,
37,
37,
37,
37,
35,
35,
35,
37,
37,
37,
37,
37,
37,
37,
37,
37,
37,
35,
35,
35,
35,
34,
34,
34,
34,
35,
35,
35,
35,
37,
37,
37,
38,
37,
37,
37,
37,
35,
35,
35,
35,
35,
35,
35,
35,
35,
35,
35,
35,
35,
37,
37,
37,
37,
37,
37,
37,
37,
35,
35,
35,
35,
35,
35,
35,
35,
35,
37,
35,
35,
35,
35,
35,
35,
35,
35,
35,
35,
35,
35,
35,
35,
35,
35,
35,
35,
35,
35,
35,
35,
35,
35,
35,
34,
35,
35,
35,
35,
35,
35,
35,
35,
34,
35,
35,
35,
34,
34,
34,
35,
35,
34,
35,
34,
35,
34,
35,
34,
34,
34,
35,
34,
34,
35,
34,
34,
35,
34,
34,
34,
34,
34,
34,
34,
34,
34,
32,
32,
34,
34,
34,
34,
32,
34,
32,
34,
32,
34,
34,
34,
34,
34,
34,
34,
34,
34,
34,
32,
34,
32,
34,
32,
34,
34,
34,
34,
34,
34,
32,
32,
32,
32,
32,
32,
31,
32,
32,
32,
32,
34,
34,
32,
32,
32,
32,
32,
32,
32,
32,
31,
32,
32,
31,
31,
31,
32,
32,
32,
32,
32,
32,
32,
32,
32,
32,
32,
31,
32,
31,
31,
31,
31,
31,
31,
31,
31,
31,
31,
31,
31,
31,
31,
31,
31,
31,
31,
31,
31,
31,
31,
31,
31,
31,
31,
29,
31,
31,
29,
29,
31,
29,
29,
29,
31,
29,
29,
31,
31,
31,
31,
31,
31,
29,
29,
29,
29,
28,
28,
29,
29,
29,
29,
31,
29,
29,
29,
29,
29,
29,
28,
28,
29,
29,
29,
28,
28,
29,
28,
28,
28,
28,
28,
28,
29,
28,
29,
29,
29,
29,
28,
27,
28,
28,
28,
28,
28,
28,
28,
28,
28,
28,
28,
27,
27,
28,
28,
28,
27,
27,
27,
27,
28,
28,
27,
28,
27,
27,
27,
28,
28,
28,
28,
27,
27,
25,
25,
25,
27,
27,
27,
27,
27,
27,
27,
25,
25,
25,
24,
25,
27,
27,
27,
27,
27,
27,
25,
25,
25,
24,
24,
24,
24,
24,
24,
24,
25,
27,
27,
27,
27,
27,
25,
25,
25,
25,
24,
24,
24,
24,
24,
24,
24,
24,
24,
24,
24,
24,
24,
24,
24,
22,
24,
22,
24,
24,
24,
24,
24,
24,
24,
24,
24,
24,
24,
24,
24,
24,
22,
21,
21,
19,
21,
21,
21,
21,
21,
22,
22,
22,
22,
22,
24,
24,
22,
21,
21,
19,
19,
21,
21,
21,
22,
22,
22,
22,
22,
21,
21,
19,
21,
19,
21,
21,
21,
21,
19,
19,
21,
21,
21,
21,
21,
19,
19,
19,
19,
21,
19,
19,
19,
18,
19,
19,
19,
19,
19,
19,
18,
19,
19,
19,
18,
18,
18,
18,
18,
19,
18,
18,
18,
18,
18,
18,
16,
18,
18,
18,
18,
18,
18,
18,
16,
16,
16,
18,
18,
16,
16,
16,
18,
16,
16,
16,
16,
16,
16,
15,
16,
15,
15,
15,
16,
16,
15,
16,
16,
16,
16,
16,
15,
15,
15,
15,
15,
15,
15,
15,
13,
15,
15,
15,
13,
15,
15,
15,
15,
15,
15,
13,
15,
13,
13,
13,
13,
13,
13,
13,
13,
13,
13,
13,
13,
13,
12,
13,
13,
13,
13,
13,
13,
13,
12,
12,
12,
12,
12,
13,
12,
12,
12,
12,
12,
10,
12,
12,
10,
10,
12,
10,
12,
10,
10,
12,
10,
10,
10,
10,
10,
10,
10,
10,
10,
9,
9,
10,
9,
10,
10,
9,
10,
10,
10,
9,
9,
9,
9,
9,
9,
9,
9,
9,
9,
9,
9,
9,
7,
7,
7,
9,
7,
7,
9,
7,
9,
7,
7,
7,
7,
7,
7,
7,
9,
7,
7,
7,
9,
7,
7,
7,
7,
7,
7,
7,
7,
6,
6,
6,
6,
6,
6,
6,
6,
6,
7,
6,
6,
5,
6,
5,
5,
5,
5,
6,
5,
6,
6,
6,
5,
5,
5,
5,
5,
5,
5,
5,
5,
5,
3,
5,
3,
3,
5,
3,
3,
3,
3,
3,
3,
3,
3,
3,
3,
3,
3,
3,
3,
3,
3,
3,
3,
2,
2,
2,
2,
2,
2,
3,
3,
2,
2,
2,
2,
2,
2,
0,
2,
0,
0,
0,
0,
2,
0,
0,
0,
0,
0,
2,
2,
2,
2,
2,
2,
2,
0,
0,
0,
-1,
-1,
-1,
-1,
-1,
-1,
-1,
-1,
-1,
-1,
0,
0,
0,
-1,
0,
0,
-1,
0,
0,
-1,
-1,
-3,
-3,
-3,
-3,
-3,
-3,
-1,
-1,
-1,
-3,
-3,
-3,
-3,
-3,
-3,
-3,
-3,
-3,
-3,
-3,
-4,
-3,
-3,
-3,
-4,
-4,
-4,
-4,
-4,
-4,
-4,
-4,
-4,
-6,
-4,
-4,
-4,
-4,
-4,
-6,
-6,
-6,
-6,
-6,
-4,
-6,
-6,
-6,
-4,
-6,
-6,
-6,
-6,
-4,
-6,
-6,
-6,
-6,
-6,
-7,
-7,
-7,
-7,
-7,
-6,
-7,
-7,
-7,
-7,
-7,
-7,
-7,
-7,
-7,
-7,
-7,
-7,
-7,
-7,
-7,
-9,
-7,
-7,
-7,
-7,
-7,
-9,
-9,
-7,
-9,
-9,
-7,
-9,
-9,
-9,
-9,
-9,
-9,
-10,
-9,
-9,
-9,
-10,
-9,
-9,
-9,
-9,
-10,
-9,
-10,
-10,
-12,
-10,
-10,
-12,
-10,
-10,
-10,
-10,
-10,
-10,
-10,
-12,
-10,
-10,
-10,
-12,
-12,
-12,
-12,
-12,
-12,
-12,
-12,
-12,
-12,
-12,
-12,
-12,
-12,
-12,
-12,
-12,
-12,
-12,
-13,
-12,
-13,
-13,
-12,
-12,
-12,
-10,
-10,
-12,
-12,
-12,
-13,
-13,
-13,
-13,
-13,
-13,
-13,
-13,
-13,
-13,
-15,
-13,
-13,
-15,
-13,
-15,
-15,
-15,
-13,
-15,
-15,
-15,
-15,
-16,
-16,
-15,
-16,
-15,
-15,
-16,
-15,
-15,
-15,
-16,
-16,
-16,
-15,
-16,
-16,
-16,
-16,
-16,
-16,
-16,
-16,
-16,
-16,
-16,
-17,
-17,
-17,
-17,
-17,
-16,
-17,
-16,
-17,
-16,
-17,
-17,
-17,
-16,
-17,
-17,
-16,
-17,
-16,
-16,
-17,
-16,
-17,
-17,
-17,
-19,
-17,
-17,
-19,
-17,
-17,
-19,
-19,
-19,
-19,
-19,
-19,
-19,
-19,
-19,
-19,
-20,
-19,
-20,
-19,
-19,
-19,
-19,
-19,
-19,
-19,
-19,
-19,
-20,
-20,
-20,
-20,
-20,
-20,
-20,
-22,
-20,
-20,
-20,
-20,
-20,
-20,
-20,
-20,
-20,
-22,
-20,
-20,
-20,
-20,
-20,
-22,
-22,
-23,
-23,
-22,
-22,
-22,
-22,
-22,
-22,
-22,
-22,
-22,
-22,
-22,
-20,
-22,
-22,
-23,
-23,
-23,
-23,
-23,
-23,
-22,
-22,
-22,
-22,
-22,
-22,
-23,
-22,
-23,
-23,
-23,
-23,
-23,
-23,
-23,
-25,
-23,
-23,
-25,
-25,
-23,
-23,
-25,
-25,
-23,
-25,
-23,
-25,
-25,
-25,
-25,
-23,
-23,
-25,
-25,
-25,
-25,
-23,
-25,
-25,
-25,
-25,
-25,
-25,
-25,
-25,
-26,
-26,
-25,
-26,
-25,
-25,
-26,
-26,
-25,
-25,
-26,
-25,
-26,
-26,
-26,
-26,
-26,
-26,
-28,
-26,
-26,
-28,
-26,
-26,
-26,
-28,
-26,
-28,
-28,
-26,
-26,
-26,
-28,
-26,
-26,
-28,
-26,
-28,
-28,
-28,
-26,
-28,
-28,
-28,
-28,
-29,
-28,
-28,
-28,
-28,
-28,
-28,
-29,
-29,
-28,
-28,
-28,
-28,
-28,
-26,
-26,
-26,
-26,
-26,
-26,
-26,
-26,
-28,
-28,
-28,
-28,
-29,
-29,
-29,
-29,
-29,
-29,
-29,
-29,
-29,
-29,
-29,
-31,
-31,
-29,
-31,
-29,
-29,
-29,
-29,
-29,
-29,
-29,
-29,
-29,
-29,
-29,
-31,
-31,
-31,
-29,
-29,
-31,
-31,
-31,
-29,
-31,
-32,
-31,
-31,
-31,
-31,
-31,
-31,
-31,
-31,
-31,
-31,
-31,
-31,
-32,
-31,
-31,
-32,
-31,
-31,
-31,
-32,
-31,
-31,
-31,
-31,
-31,
-32,
-32,
-32,
-32,
-32,
-31,
-32,
-32,
-32,
-31,
-31,
-32,
-32,
-32,
-34,
-32,
-32,
-34,
-32,
-32,
-32,
-34,
-31,
-32,
-32,
-32,
-32,
-32,
-32,
-32,
-34,
-34,
-34,
-32,
-32,
-32,
-32,
-32,
-32,
-32,
-32,
-34,
-34,
-34,
-34,
-34,
-34,
-34,
-32,
-32,
-34,
-32,
-34,
-34,
-32,
-34,
-34,
-34,
-34,
-35,
-34,
-34,
-35,
-35,
-34,
-34,
-34,
-34,
-35,
-35,
-34,
-34,
-35,
-34,
-35,
-34,
-34,
-34,
-34,
-34,
-34,
-34,
-34,
-34,
-35,
-34,
-35,
-35,
-34,
-35,
-34,
-34,
-34,
-34,
-34,
-35,
-34,
-34,
-35,
-35,
-35,
-35,
-35,
-35,
-35,
-35,
-35,
-35,
-35,
-34,
-35,
-34,
-35,
-35,
-34,
-37,
-35,
-34,
-35,
-35,
-35,
-35,
-35,
-35,
-35,
-35,
-35,
-37,
-35,
-35,
-35,
-35,
-35,
-35,
-37,
-37,
-35,
-37,
-37,
-37,
-37,
-37,
-35,
-37,
-37,
-37,
-35,
-35,
-35,
-35,
-37,
-35,
-35,
-37,
-37,
-37,
-37,
-37,
-37,
-35,
-35,
-37,
-37,
-37,
-37,
-37,
-35,
-37,
-37,
-35,
-37,
-37,
-35,
-37,
-37,
-37,
-35,
-37,
-37,
-35,
-37,
-37,
-37,
-37,
-37,
-37,
-37,
-37,
-37,
-37,
-37,
-35,
-37,
-37,
-37,
-37,
-35,
-37,
-37,
-37,
-37,
-37,
-37,
-37,
-37,
-37,
-37,
-37,
-37,
-37,
-37,
-37,
-37,
-38,
-37,
-38,
-37,
-37,
-37,
-38,
-37,
-38,
-37,
-37,
-37,
-37,
-37,
-37,
-37,
-37,
-37,
-38,
-37,
-38,
-38,
-37,
-37,
-38,
-37,
-37,
-37,
-38,
-37,
-37,
-37,
-37,
-37,
-38,
-37,
-38,
-37,
-37,
-37,
-37,
-37,
-37,
-37,
-37,
-37,
-38,
-37,
-37,
-37,
-38,
-38,
-37,
-38,
-38,
-38,
-37,
-38,
-38,
-37,
-38,
-38,
-37,
-38,
-37,
-38,
-38,
-38,
-38,
-37,
-38,
-37,
-37,
-37,
-37,
-37,
-37,
-38,
-38,
-38,
-38,
-38,
-37,
-37,
-37,
-37,
-37,
-37,
-38,
-38,
-37,
-38,
-38,
-37,
-37,
-37,
-38,
-37,
-37,
-37,
-37,
-38,
-38,
-38,
-38,
-37,
-37,
-37,
-38,
-38,
-38,
-37,
-37,
-37,
-37,
-37,
-37,
-38,
-38,
-37,
-37,
-37,
-37,
-37,
-37,
-37,
-38,
-37,
-38,
-37,
-38,
-37,
-37,
-37,
-37,
-35,
-37,
-37,
-37,
-37,
-35,
-35,
-37,
-35,
-35,
-37,
-35,
-37,
-37,
-38,
-38,
-38,
-38,
-38,
-38,
-37,
-35,
-35,
-35,
-35,
-35,
-35,
-35,
-37,
-35,
-37,
-37,
-37,
-37,
-38,
-37,
-37,
-37,
-37,
-37,
-37,
-37,
-37,
-37,
-35,
-35,
-35,
-37,
-35,
-37,
-37,
-37,
-37,
-37,
-35,
-35,
-37,
-35,
-37,
-35,
-35,
-35,
-35,
-35,
-37,
-37,
-37,
-37,
-35,
-35,
-37,
-35,
-35,
-35,
-35,
-37,
-35,
-35,
-35,
-37,
-37,
-35,
-35,
-35,
-35,
-35,
-35,
-34,
-35,
-35,
-35,
-34,
-35,
-35,
-35,
-35,
-35,
-35,
-35,
-35,
-35,
-35,
-35,
-35,
-35,
-35,
-35,
-35,
-35,
-35,
-35,
-35,
-35,
-35,
-35,
-35,
-35,
-35,
-35,
-34,
-34,
-35,
-35,
-34,
-35,
-34,
-34,
-34,
-35,
-34,
-34,
-34,
-34,
-35,
-35,
-35,
-35,
-35,
-35,
-35,
-35,
-35,
-34,
-34,
-34,
-34,
-35,
-34,
-34,
-34,
-34,
-34,
-34,
-34,
-32,
-32,
-35,
-32,
-34,
-34,
-34,
-34,
-35,
-34,
-34,
-32,
-34,
-34,
-32,
-34,
-32,
-34,
-32,
-34,
-32,
-32,
-32,
-32,
-32,
-34,
-32,
-32,
-32,
-32,
-32,
-34,
-32,
-34,
-32,
-32,
-32,
-32,
-32,
-32,
-32,
-31,
-32,
-32,
-32,
-32,
-31,
-31,
-32,
-31,
-32,
-32,
-32,
-32,
-32,
-32,
-32,
-32,
-32,
-31,
-31,
-31,
-31,
-31,
-31,
-31,
-31,
-32,
-31,
-31,
-31,
-31,
-31,
-31,
-31,
-32,
-31,
-31,
-29,
-31,
-32,
-31,
-29,
-29,
-29,
-29,
-29,
-31,
-32,
-31,
-31,
-31,
-31,
-31,
-29,
-29,
-29,
-29,
-29,
-29,
-29,
-29,
-29,
-29,
-29,
-31,
-31,
-29,
-29,
-28,
-29,
-29,
-29,
-28,
-28,
-29,
-29,
-29,
-29,
-28,
-28,
-29,
-29,
-29,
-29,
-28,
-28,
-29,
-29,
-29,
-28,
-28,
-28,
-28,
-28,
-28,
-28,
-28,
-28,
-26,
-28,
-28,
-28,
-28,
-28,
-28,
-26,
-26,
-29,
-28,
-28,
-28,
-26,
-26,
-26,
-26,
-26,
-26,
-28,
-28,
-28,
-28,
-26,
-26,
-26,
-26,
-25,
-25,
-26,
-26,
-26,
-26,
-26,
-26,
-26,
-26,
-26,
-26,
-25,
-25,
-25,
-25,
-25,
-25,
-25,
-26,
-28,
-28,
-28,
-28,
-26,
-26,
-26,
-26,
-25,
-25,
-25,
-25,
-25,
-25,
-23,
-25,
-25,
-23,
-23,
-23,
-23,
-23,
-23,
-23,
-25,
-23,
-25,
-25,
-23,
-23,
-25,
-23,
-23,
-23,
-23,
-23,
-23,
-23,
-23,
-23,
-23,
-22,
-20,
-22,
-20,
-22,
-20,
-22,
-22,
-22,
-22,
-23,
-23,
-23,
-23,
-23,
-23,
-23,
-20,
-20,
-20,
-20,
-22,
-22,
-22,
-22,
-22,
-23,
-22,
-20,
-20,
-20,
-20,
-20,
-20,
-20,
-22,
-20,
-22,
-20,
-20,
-20,
-20,
-20,
-22,
-20,
