RLC_R_11.91/ALL0025/2.CSV

Format,1.0B,
Memory Length,10000,
IntpDistance,0,
Trigger Address,4999,
Trigger Level,0.000E+00,
Source,CH2,
Vertical Units,V,
Vertical Units Div,0,
Vertical Units Extend Div,16,
Label, ,
Probe Type,0,
Probe Ratio,1.000E+00,
Vertical Scale,1.000E-01,
Vertical Position,-1.960E-01,
Horizontal Units,S,
Horizontal Scale,5.000E-05,
Horizontal Position,0.000E+00,
Horizontal Mode,Main,
SincET Mode,Real Time,
Sampling Period,5.000E-08,
Horizontal Old Scale,5.000E-05,
Horizontal Old Position,0.000E+00,
Firmware,V1.24,
Mode,Fast,
Waveform Data,
2,
1,
1,
2,
1,
1,
2,
2,
2,
2,
2,
2,
2,
1,
1,
2,
1,
1,
1,
1,
1,
1,
1,
2,
2,
1,
2,
2,
1,
1,
1,
1,
1,
1,
1,
1,
-1,
1,
1,
1,
1,
1,
1,
2,
1,
1,
1,
1,
-1,
1,
1,
-1,
-1,
-1,
-1,
1,
1,
-1,
2,
1,
-1,
1,
1,
1,
1,
-1,
-1,
1,
-1,
-2,
1,
-1,
-1,
-1,
-1,
-1,
1,
-1,
-1,
1,
1,
-2,
1,
-1,
-1,
-1,
-1,
-1,
-1,
-2,
-1,
-1,
-1,
-2,
-1,
-1,
-1,
-1,
-1,
-1,
-2,
-1,
-1,
-2,
-2,
-2,
-2,
-2,
-2,
-2,
-1,
-1,
-2,
-1,
-1,
-1,
-1,
-1,
-2,
-1,
-2,
-2,
-2,
-4,
-2,
-2,
-2,
-2,
-1,
-4,
-1,
-1,
-1,
-2,
-2,
-4,
-2,
-4,
-2,
-4,
-2,
-5,
-2,
-2,
-2,
-2,
-2,
-2,
-2,
-2,
-4,
-2,
-4,
-4,
-4,
-4,
-5,
-4,
-5,
-4,
-4,
-4,
-2,
-2,
-2,
-4,
-2,
-4,
-4,
-2,
-5,
-4,
-4,
-5,
-4,
-4,
-4,
-5,
-2,
-4,
-2,
-2,
-4,
-4,
-2,
-5,
-4,
-4,
-5,
-7,
-4,
-5,
-5,
-4,
-4,
-5,
-4,
-4,
-4,
-4,
-4,
-5,
-4,
-4,
-5,
-5,
-5,
-5,
-5,
-5,
-5,
-5,
-4,
-7,
-4,
-5,
-4,
-4,
-5,
-5,
-5,
-5,
-7,
-5,
-5,
-7,
-5,
-5,
-7,
-5,
-5,
-7,
-4,
-5,
-5,
-5,
-5,
-7,
-4,
-5,
-7,
-5,
-5,
-7,
-5,
-7,
-8,
-5,
-5,
-7,
-5,
-7,
-7,
-7,
-5,
-7,
-5,
-7,
-5,
-7,
-7,
-8,
-5,
-8,
-7,
-8,
-7,
-7,
-7,
-8,
-7,
-7,
-7,
-5,
-5,
-7,
-7,
-7,
-8,
-7,
-8,
-8,
-8,
-8,
-8,
-8,
-7,
-7,
-7,
-7,
-7,
-7,
-7,
-7,
-8,
-7,
-8,
-10,
-8,
-8,
-10,
-8,
-8,
-8,
-7,
-8,
-7,
-7,
-7,
-8,
-7,
-7,
-8,
-7,
-7,
-10,
-8,
-10,
-10,
-8,
-8,
-10,
-7,
-7,
-8,
-8,
-8,
-8,
-7,
-8,
-10,
-7,
-8,
-10,
-8,
-8,
-10,
-8,
-8,
-10,
-8,
-10,
-8,
-8,
-8,
-8,
-7,
-8,
-8,
-10,
-8,
-10,
-8,
-10,
-8,
-8,
-10,
-11,
-10,
-8,
-8,
-10,
-8,
-8,
-8,
-8,
-8,
-10,
-8,
-10,
-10,
-8,
-10,
-11,
-10,
-11,
-11,
-11,
-10,
-10,
-10,
-10,
-8,
-10,
-10,
-10,
-10,
-10,
-10,
-11,
-11,
-11,
-10,
-11,
-10,
-11,
-10,
-11,
-10,
-11,
-8,
-10,
-10,
-10,
-10,
-11,
-10,
-10,
-11,
-10,
-11,
-13,
-10,
-11,
-11,
-10,
-10,
-11,
-10,
-10,
-11,
-10,
-11,
-11,
-10,
-11,
-11,
-11,
-11,
-11,
-11,
-11,
-11,
-10,
-11,
-11,
-10,
-11,
-11,
-10,
-11,
-11,
-11,
-13,
-11,
-11,
-11,
-13,
-11,
-11,
-11,
-11,
-11,
-11,
-11,
-11,
-11,
-11,
-11,
-13,
-11,
-11,
-13,
-13,
-11,
-13,
-13,
-13,
-13,
-13,
-11,
-13,
-11,
-11,
-11,
-11,
-11,
-13,
-11,
-13,
-13,
-13,
-11,
-13,
-11,
-13,
-13,
-13,
-11,
-13,
-11,
-13,
-13,
-13,
-13,
-13,
-11,
-13,
-14,
-13,
-14,
-14,
-13,
-14,
-13,
-11,
-13,
-13,
-11,
-14,
-13,
-11,
-14,
-13,
-13,
-14,
-14,
-14,
-14,
-13,
-13,
-13,
-13,
-13,
-13,
-13,
-11,
-13,
-14,
-13,
-14,
-14,
-14,
-14,
-16,
-14,
-14,
-14,
-13,
-13,
-14,
-13,
-13,
-14,
-13,
-14,
-14,
-14,
-14,
-16,
-14,
-14,
-16,
-14,
-16,
-16,
-11,
-14,
-14,
-14,
-13,
-16,
-13,
-14,
-16,
-14,
-14,
-16,
-14,
-14,
-16,
-14,
-14,
-14,
-13,
-14,
-16,
-13,
-14,
-16,
-14,
-14,
-17,
-16,
-16,
-16,
-14,
-14,
-16,
-14,
-14,
-14,
-14,
-14,
-14,
-14,
-14,
-16,
-14,
-16,
-16,
-16,
-16,
-16,
-16,
-16,
-16,
-17,
-14,
-16,
-16,
-14,
-16,
-16,
-16,
-16,
-16,
-16,
-16,
-16,
-16,
-16,
-16,
-16,
-16,
-14,
-16,
-16,
-14,
-16,
-16,
-14,
-16,
-17,
-16,
-16,
-16,
-16,
-17,
-17,
-16,
-16,
-16,
-16,
-14,
-16,
-13,
-16,
-14,
-14,
-14,
-17,
-14,
-16,
-17,
-16,
-17,
-17,
-16,
-16,
-16,
-14,
-16,
-16,
-14,
-16,
-16,
-16,
-16,
-17,
-16,
-17,
-17,
-16,
-17,
-17,
-16,
-16,
-16,
-14,
-16,
-16,
-16,
-16,
-16,
-16,
-17,
-18,
-16,
-17,
-17,
-17,
-16,
-17,
-16,
-16,
-16,
-16,
-16,
-17,
-16,
-16,
-17,
-17,
-16,
-17,
-17,
-16,
-17,
-17,
-16,
-16,
-16,
-14,
-17,
-16,
-16,
-17,
-17,
-16,
-17,
-16,
-17,
-17,
-17,
-17,
-17,
-17,
-16,
-17,
-16,
-17,
-16,
-16,
-16,
-17,
-16,
-17,
-17,
-17,
-17,
-18,
-16,
-17,
-16,
-16,
-17,
-17,
-17,
-17,
-17,
-16,
-16,
-17,
-16,
-17,
-17,
-16,
-18,
-17,
-17,
-17,
-17,
-17,
-17,
-17,
-16,
-16,
-17,
-16,
-17,
-17,
-16,
-17,
-17,
-17,
-17,
-18,
-17,
-18,
-17,
-17,
-17,
-17,
-16,
-17,
-17,
-16,
-17,
-17,
-16,
-17,
-17,
-17,
-17,
-18,
-17,
-18,
-18,
-17,
-17,
-18,
-16,
-16,
-17,
-16,
-16,
-17,
-16,
-17,
-17,
-17,
-17,
-20,
-17,
-17,
-18,
-17,
-17,
-17,
-16,
-17,
-17,
-16,
-16,
-18,
-16,
-17,
-17,
-17,
-17,
-18,
-17,
-18,
-17,
-17,
-17,
-17,
-16,
-17,
-17,
-17,
-17,
-17,
-17,
-18,
-17,
-17,
-17,
-17,
-17,
-17,
-17,
-17,
-17,
-18,
-17,
-18,
-17,
-17,
-17,
-17,
-16,
-17,
-17,
-17,
-16,
-17,
-17,
-18,
-18,
-18,
-17,
-18,
-17,
-17,
-18,
-17,
-17,
-17,
-16,
-17,
-17,
-17,
-17,
-17,
-17,
-18,
-18,
-17,
-18,
-18,
-17,
-20,
-17,
-16,
-17,
-18,
-16,
-17,
-17,
-16,
-17,
-18,
-17,
-20,
-20,
-17,
-17,
-20,
-17,
-18,
-18,
-16,
-17,
-18,
-16,
-18,
-17,
-16,
-17,
-18,
-16,
-17,
-20,
-17,
-18,
-18,
-17,
-18,
-18,
-17,
-17,
-18,
-16,
-17,
-17,
-17,
-17,
-18,
-17,
-18,
-18,
-17,
-17,
-20,
-17,
-18,
-17,
-18,
-17,
-17,
-17,
-17,
-17,
-17,
-17,
-17,
-17,
-17,
-17,
-18,
-17,
-18,
-17,
-18,
-18,
-18,
-17,
-18,
-17,
-17,
-17,
-17,
-17,
-17,
-17,
-17,
-18,
-17,
-17,
-18,
-17,
-17,
-17,
-17,
-17,
-17,
-16,
-16,
-17,
-16,
-17,
-17,
-16,
-17,
-17,
-17,
-17,
-18,
-17,
-18,
-17,
-17,
-18,
-17,
-16,
-16,
-16,
-16,
-17,
-16,
-16,
-18,
-17,
-17,
-17,
-17,
-17,
-18,
-17,
-17,
-17,
-17,
-16,
-17,
-16,
-16,
-17,
-17,
-16,
-17,
-17,
-17,
-17,
-17,
-16,
-18,
-17,
-16,
-16,
-17,
-16,
-16,
-16,
-16,
-16,
-18,
-16,
-17,
-18,
-17,
-16,
-18,
-17,
-16,
-18,
-16,
-16,
-17,
-16,
-16,
-17,
-16,
-16,
-17,
-16,
-16,
-17,
-17,
-17,
-17,
-17,
-16,
-18,
-16,
-16,
-17,
-14,
-16,
-16,
-16,
-16,
-17,
-16,
-17,
-17,
-16,
-16,
-18,
-16,
-16,
-17,
-16,
-16,
-16,
-16,
-16,
-17,
-14,
-16,
-16,
-16,
-16,
-16,
-16,
-17,
-17,
-17,
-17,
-17,
-16,
-16,
-16,
-14,
-14,
-14,
-16,
-16,
-16,
-16,
-16,
-16,
-16,
-17,
-16,
-16,
-16,
-16,
-16,
-16,
-16,
-14,
-16,
-16,
-16,
-16,
-16,
-16,
-16,
-16,
-16,
-16,
-17,
-16,
-16,
-16,
-14,
-16,
-16,
-14,
-14,
-16,
-14,
-16,
-16,
-16,
-16,
-17,
-16,
-16,
-17,
-14,
-16,
-16,
-14,
-16,
-16,
-14,
-16,
-16,
-14,
-16,
-16,
-14,
-16,
-16,
-16,
-16,
-16,
-14,
-14,
-16,
-13,
-16,
-14,
-14,
-14,
-14,
-14,
-16,
-16,
-14,
-16,
-17,
-14,
-16,
-16,
-14,
-14,
-16,
-14,
-14,
-14,
-14,
-14,
-16,
-14,
-14,
-17,
-16,
-14,
-16,
-16,
-14,
-16,
-14,
-14,
-14,
-14,
-14,
-16,
-14,
-14,
-14,
-14,
-14,
-14,
-16,
-14,
-16,
-14,
-16,
-14,
-14,
-14,
-14,
-14,
-14,
-14,
-14,
-14,
-14,
-14,
-14,
-14,
-14,
-16,
-14,
-16,
-14,
-16,
-14,
-14,
-14,
-13,
-14,
-14,
-13,
-14,
-13,
-14,
-14,
-14,
-13,
-14,
-16,
-14,
-14,
-16,
-13,
-14,
-13,
-13,
-13,
-13,
-13,
-13,
-13,
-13,
-14,
-13,
-13,
-13,
-13,
-14,
-16,
-13,
-13,
-14,
-14,
-11,
-13,
-13,
-13,
-13,
-11,
-11,
-14,
-13,
-13,
-14,
-14,
-13,
-14,
-14,
-13,
-13,
-13,
-11,
-13,
-11,
-11,
-11,
-14,
-11,
-13,
-14,
-13,
-13,
-14,
-13,
-13,
-11,
-11,
-11,
-13,
-10,
-11,
-13,
-10,
-11,
-11,
-11,
-13,
-13,
-13,
-13,
-14,
-11,
-11,
-14,
-11,
-11,
-11,
-11,
-11,
-11,
-10,
-11,
-11,
-11,
-11,
-13,
-11,
-11,
-13,
-11,
-13,
-11,
-11,
-13,
-11,
-10,
-11,
-13,
-11,
-10,
-11,
-10,
-13,
-11,
-11,
-13,
-11,
-11,
-11,
-13,
-11,
-10,
-10,
-10,
-11,
-10,
-10,
-11,
-10,
-10,
-11,
-11,
-11,
-11,
-10,
-10,
-11,
-10,
-11,
-13,
-10,
-10,
-10,
-10,
-8,
-10,
-10,
-10,
-10,
-10,
-10,
-11,
-11,
-10,
-10,
-13,
-10,
-10,
-10,
-10,
-10,
-10,
-8,
-10,
-10,
-8,
-10,
-11,
-8,
-10,
-10,
-10,
-10,
-11,
-8,
-10,
-11,
-8,
-8,
-10,
-8,
-8,
-10,
-7,
-8,
-8,
-8,
-10,
-11,
-8,
-10,
-10,
-10,
-8,
-10,
-8,
-8,
-8,
-8,
-8,
-8,
-8,
-8,
-10,
-8,
-8,
-10,
-8,
-10,
-8,
-8,
-8,
-8,
-7,
-8,
-8,
-8,
-7,
-8,
-8,
-8,
-8,
-8,
-8,
-10,
-8,
-8,
-10,
-8,
-7,
-8,
-7,
-7,
-7,
-7,
-7,
-7,
-7,
-7,
-8,
-7,
-7,
-8,
-8,
-7,
-8,
-7,
-8,
-7,
-7,
-7,
-8,
-7,
-7,
-7,
-7,
-7,
-7,
-5,
-8,
-7,
-7,
-7,
-8,
-5,
-7,
-7,
-5,
-7,
-5,
-5,
-7,
-7,
-5,
-7,
-7,
-5,
-7,
-7,
-7,
-7,
-7,
-5,
-8,
-7,
-5,
-5,
-7,
-5,
-5,
-7,
-4,
-5,
-5,
-5,
-7,
-7,
-5,
-5,
-8,
-7,
-5,
-7,
-5,
-5,
-5,
-5,
-5,
-7,
-5,
-5,
-7,
-7,
-5,
-7,
-5,
-5,
-7,
-5,
-5,
-5,
-4,
-4,
-7,
-4,
-4,
-7,
-5,
-5,
-5,
-5,
-7,
-7,
-5,
-4,
-7,
-4,
-5,
-5,
-4,
-4,
-4,
-2,
-4,
-4,
-4,
-5,
-5,
-5,
-4,
-7,
-5,
-4,
-4,
-2,
-5,
-4,
-4,
-4,
-4,
-4,
-4,
-4,
-5,
-4,
-4,
-4,
-5,
-4,
-4,
-2,
-4,
-2,
-2,
-2,
-4,
-2,
-2,
-4,
-4,
-5,
-4,
-4,
-5,
-4,
-4,
-4,
-4,
-2,
-2,
-2,
-2,
-2,
-2,
-2,
-2,
-4,
-2,
-4,
-4,
-4,
-2,
-2,
-2,
-2,
-1,
-1,
-2,
-1,
-2,
-1,
-1,
-2,
-1,
-2,
-2,
-4,
-1,
-2,
-4,
-1,
-2,
-2,
-1,
-2,
-1,
1,
-2,
-1,
1,
-2,
-2,
-1,
-1,
-2,
-1,
-2,
-1,
-1,
-2,
-2,
-1,
-1,
-1,
1,
-1,
-1,
-1,
-1,
-1,
-1,
-1,
-2,
-1,
-1,
-2,
-1,
-1,
-1,
-1,
1,
1,
-1,
1,
-1,
1,
1,
-1,
-1,
1,
-1,
-1,
1,
1,
1,
-1,
-1,
1,
1,
-1,
1,
1,
1,
1,
1,
1,
1,
1,
-1,
1,
1,
-2,
1,
1,
1,
1,
2,
1,
2,
1,
1,
1,
1,
-1,
2,
1,
-1,
-1,
1,
1,
1,
1,
1,
4,
2,
2,
2,
2,
2,
1,
1,
2,
1,
-1,
1,
2,
1,
2,
1,
2,
2,
2,
2,
2,
2,
2,
2,
2,
1,
2,
1,
1,
1,
2,
1,
2,
2,
2,
4,
2,
4,
2,
4,
2,
4,
2,
4,
2,
2,
1,
2,
2,
2,
2,
4,
4,
4,
4,
4,
4,
4,
4,
1,
4,
2,
2,
2,
4,
2,
4,
4,
4,
5,
4,
2,
5,
4,
4,
5,
4,
4,
4,
4,
4,
4,
2,
2,
4,
4,
2,
5,
4,
5,
4,
5,
4,
5,
2,
4,
4,
5,
2,
4,
4,
4,
4,
5,
4,
5,
5,
4,
5,
4,
5,
4,
6,
4,
4,
5,
4,
4,
4,
4,
4,
5,
4,
4,
5,
5,
4,
6,
5,
5,
5,
5,
5,
5,
5,
5,
5,
4,
4,
4,
5,
5,
5,
5,
6,
6,
5,
6,
6,
6,
5,
5,
5,
5,
4,
4,
5,
5,
5,
6,
5,
6,
6,
6,
6,
6,
5,
6,
6,
5,
4,
5,
5,
5,
5,
5,
6,
6,
5,
6,
6,
6,
8,
6,
6,
8,
6,
5,
6,
5,
5,
5,
6,
5,
6,
6,
6,
6,
6,
6,
8,
8,
6,
6,
6,
6,
5,
6,
6,
6,
6,
8,
6,
8,
8,
6,
8,
8,
6,
8,
8,
6,
6,
8,
6,
8,
8,
5,
8,
8,
6,
8,
9,
8,
8,
9,
8,
9,
8,
6,
8,
8,
6,
8,
8,
8,
8,
8,
8,
8,
8,
8,
9,
9,
8,
9,
9,
9,
9,
8,
9,
8,
8,
8,
8,
8,
8,
9,
9,
9,
9,
9,
9,
9,
9,
9,
9,
9,
8,
9,
9,
8,
8,
9,
9,
9,
9,
9,
9,
9,
11,
11,
9,
11,
9,
9,
9,
9,
8,
9,
9,
11,
9,
9,
9,
9,
11,
11,
11,
9,
9,
9,
9,
11,
9,
11,
9,
9,
9,
9,
11,
11,
11,
11,
11,
11,
9,
11,
11,
9,
11,
9,
9,
11,
9,
8,
11,
11,
9,
12,
12,
11,
12,
11,
12,
11,
11,
9,
12,
9,
9,
11,
11,
9,
12,
11,
12,
11,
12,
11,
12,
11,
11,
11,
11,
11,
11,
11,
11,
11,
11,
11,
11,
12,
12,
12,
12,
12,
12,
12,
12,
11,
12,
11,
11,
12,
11,
12,
12,
12,
11,
12,
12,
12,
12,
12,
12,
14,
11,
12,
12,
12,
12,
12,
11,
12,
12,
12,
11,
14,
12,
12,
14,
12,
12,
12,
12,
12,
12,
12,
12,
12,
12,
12,
14,
14,
12,
12,
14,
12,
12,
12,
14,
12,
12,
12,
12,
12,
12,
12,
14,
12,
12,
14,
14,
14,
14,
14,
14,
12,
14,
12,
14,
14,
11,
14,
12,
12,
14,
12,
14,
14,
14,
14,
14,
14,
14,
14,
14,
14,
14,
12,
14,
12,
14,
12,
14,
14,
14,
14,
15,
15,
14,
14,
14,
14,
14,
12,
12,
15,
12,
12,
14,
14,
12,
15,
14,
14,
15,
15,
14,
15,
14,
12,
14,
14,
11,
14,
14,
14,
14,
14,
14,
15,
14,
14,
15,
15,
14,
14,
14,
12,
14,
14,
14,
14,
14,
14,
15,
14,
14,
15,
15,
15,
14,
15,
14,
14,
14,
14,
14,
15,
14,
14,
15,
14,
15,
15,
15,
14,
15,
14,
15,
15,
14,
15,
15,
14,
14,
14,
15,
14,
15,
15,
15,
15,
15,
15,
15,
15,
15,
15,
14,
14,
14,
14,
14,
15,
15,
15,
15,
17,
15,
17,
15,
17,
15,
15,
15,
15,
14,
15,
14,
15,
15,
15,
15,
15,
15,
15,
17,
15,
17,
17,
15,
15,
15,
14,
15,
17,
14,
14,
15,
15,
15,
15,
15,
15,
17,
15,
15,
17,
15,
15,
15,
17,
15,
15,
15,
15,
15,
15,
15,
15,
15,
15,
15,
15,
17,
15,
17,
17,
15,
17,
15,
15,
15,
15,
15,
17,
15,
15,
17,
15,
15,
17,
17,
17,
17,
15,
15,
17,
15,
15,
15,
15,
15,
17,
15,
17,
17,
15,
17,
17,
17,
17,
17,
15,
15,
15,
15,
15,
15,
15,
15,
15,
17,
15,
17,
17,
17,
17,
17,
17,
17,
17,
17,
15,
17,
15,
15,
17,
15,
15,
17,
17,
17,
17,
18,
15,
18,
17,
15,
17,
15,
15,
17,
17,
15,
17,
17,
17,
17,
17,
17,
17,
17,
17,
17,
17,
17,
15,
17,
17,
15,
17,
17,
17,
17,
17,
17,
17,
17,
17,
17,
17,
17,
17,
17,
15,
15,
17,
15,
17,
17,
15,
17,
17,
17,
18,
17,
17,
17,
17,
17,
17,
17,
15,
17,
15,
17,
17,
17,
17,
17,
17,
17,
17,
17,
17,
17,
17,
17,
17,
17,
17,
15,
17,
17,
17,
17,
17,
17,
17,
17,
17,
17,
17,
17,
17,
17,
15,
17,
15,
15,
17,
17,
15,
17,
17,
15,
17,
17,
17,
17,
17,
17,
17,
17,
17,
17,
15,
17,
15,
17,
17,
17,
17,
17,
17,
17,
17,
17,
17,
17,
15,
15,
17,
17,
14,
17,
17,
15,
17,
17,
17,
18,
17,
17,
17,
17,
15,
17,
15,
15,
15,
15,
15,
15,
17,
17,
17,
17,
17,
17,
17,
17,
17,
15,
17,
15,
15,
15,
15,
15,
17,
17,
17,
17,
17,
17,
17,
17,
15,
17,
15,
17,
15,
15,
17,
15,
17,
15,
17,
15,
17,
17,
17,
17,
17,
17,
17,
15,
15,
17,
15,
15,
15,
15,
15,
17,
15,
17,
17,
17,
17,
17,
17,
15,
15,
15,
15,
15,
15,
15,
15,
15,
17,
17,
17,
17,
15,
17,
15,
17,
15,
17,
15,
15,
17,
15,
17,
15,
15,
17,
17,
15,
17,
17,
17,
17,
17,
15,
15,
15,
15,
17,
15,
15,
15,
15,
15,
17,
17,
17,
17,
17,
15,
15,
15,
17,
15,
15,
15,
15,
15,
15,
15,
15,
15,
15,
15,
17,
15,
15,
17,
15,
15,
15,
15,
15,
15,
14,
15,
15,
15,
15,
15,
15,
15,
15,
15,
15,
15,
14,
15,
15,
14,
15,
15,
14,
15,
15,
14,
15,
15,
15,
15,
17,
15,
15,
15,
14,
15,
15,
14,
14,
15,
14,
14,
15,
15,
15,
15,
15,
15,
15,
17,
14,
15,
15,
14,
14,
15,
14,
15,
15,
14,
15,
15,
15,
15,
17,
15,
15,
15,
14,
15,
14,
14,
14,
14,
14,
14,
15,
14,
15,
15,
15,
15,
14,
15,
15,
14,
14,
14,
14,
14,
14,
14,
14,
14,
14,
15,
15,
15,
15,
14,
14,
14,
14,
14,
14,
12,
12,
14,
14,
12,
15,
14,
14,
15,
14,
14,
15,
14,
12,
14,
14,
14,
14,
12,
12,
14,
14,
14,
14,
14,
14,
14,
14,
14,
14,
14,
14,
14,
14,
12,
12,
14,
12,
12,
14,
14,
14,
14,
14,
12,
14,
12,
12,
14,
12,
12,
14,
12,
12,
14,
12,
12,
14,
12,
12,
14,
14,
12,
14,
14,
12,
14,
12,
12,
12,
12,
12,
12,
12,
12,
12,
12,
12,
12,
12,
14,
12,
14,
12,
12,
12,
12,
12,
11,
12,
12,
9,
12,
12,
11,
12,
12,
12,
12,
12,
12,
12,
12,
12,
12,
11,
11,
11,
11,
11,
11,
11,
12,
11,
11,
12,
12,
11,
12,
12,
11,
12,
11,
11,
11,
11,
11,
11,
11,
11,
11,
11,
11,
12,
11,
12,
9,
11,
11,
11,
11,
11,
9,
9,
11,
9,
11,
11,
9,
11,
12,
9,
12,
11,
9,
9,
11,
9,
11,
11,
9,
9,
11,
9,
11,
11,
11,
11,
11,
11,
11,
11,
9,
11,
9,
9,
9,
9,
8,
9,
9,
9,
9,
12,
11,
11,
11,
9,
11,
11,
9,
9,
9,
9,
9,
9,
9,
9,
9,
11,
9,
9,
9,
9,
9,
11,
9,
9,
11,
9,
9,
9,
9,
9,
9,
8,
9,
9,
9,
9,
9,
9,
9,
9,
9,
9,
9,
8,
8,
9,
8,
8,
9,
8,
9,
8,
9,
8,
9,
9,
9,
9,
9,
9,
8,
8,
8,
6,
8,
8,
6,
8,
8,
8,
8,
9,
8,
9,
9,
6,
9,
8,
5,
8,
6,
8,
8,
8,
6,
8,
8,
8,
8,
8,
8,
8,
8,
8,
8,
8,
6,
6,
6,
6,
6,
6,
6,
8,
8,
8,
8,
8,
8,
8,
6,
6,
6,
6,
6,
6,
6,
6,
6,
6,
8,
6,
8,
6,
6,
6,
8,
6,
6,
6,
6,
6,
6,
6,
6,
5,
6,
6,
6,
6,
6,
6,
6,
6,
6,
6,
6,
5,
5,
5,
5,
6,
6,
5,
5,
6,
6,
6,
6,
6,
6,
6,
5,
5,
5,
5,
5,
5,
5,
5,
5,
5,
5,
5,
5,
6,
5,
5,
5,
5,
5,
4,
5,
4,
5,
4,
4,
5,
5,
5,
5,
5,
5,
5,
5,
5,
5,
4,
5,
4,
4,
4,
4,
4,
5,
4,
5,
5,
5,
5,
5,
5,
4,
5,
5,
4,
4,
4,
4,
4,
4,
4,
4,
5,
4,
4,
4,
4,
4,
4,
4,
4,
2,
4,
2,
4,
4,
1,
2,
4,
2,
4,
4,
2,
4,
4,
2,
4,
4,
2,
2,
4,
2,
2,
2,
-1,
2,
2,
2,
2,
4,
1,
4,
2,
2,
2,
2,
2,
1,
2,
1,
2,
2,
1,
2,
1,
2,
2,
2,
2,
1,
2,
2,
2,
1,
2,
1,
1,
2,
1,
1,
2,
1,
1,
1,
2,
2,
2,
2,
2,
2,
1,
1,
1,
1,
-1,
1,
1,
1,
-1,
1,
1,
2,
1,
2,
1,
1,
1,
1,
-1,
1,
-1,
1,
-1,
-1,
1,
1,
1,
1,
1,
1,
2,
1,
-1,
2,
1,
-1,
1,
-1,
-1,
-1,
-2,
-4,
1,
-1,
-1,
2,
2,
-1,
1,
-1,
1,
1,
-1,
-1,
-1,
-1,
-2,
-1,
-1,
-2,
-1,
-1,
1,
-1,
-1,
-1,
1,
-1,
-1,
-1,
-1,
-2,
-2,
-2,
-2,
-2,
-1,
-1,
-2,
-1,
-1,
-1,
-1,
-1,
-1,
-1,
-1,
-2,
-2,
-2,
-2,
-1,
-4,
-2,
-1,
-2,
-2,
-1,
-1,
-1,
-1,
-1,
-2,
-1,
-2,
-2,
-2,
-4,
-2,
-4,
-2,
-4,
-2,
-2,
-1,
-2,
-2,
-1,
-2,
-2,
-2,
-2,
-2,
-2,
-4,
-4,
-4,
-2,
-5,
-2,
-2,
-2,
-2,
-2,
-2,
-2,
-4,
-2,
-2,
-2,
-4,
-2,
-4,
-4,
-2,
-5,
-4,
-4,
-4,
-4,
-2,
-4,
-4,
-2,
-4,
-4,
-2,
-4,
-4,
-4,
-2,
-5,
-4,
-4,
-5,
-4,
-4,
-5,
-4,
-4,
-4,
-4,
-4,
-4,
-4,
-4,
-7,
-4,
-4,
-5,
-5,
-4,
-5,
-5,
-5,
-5,
-4,
-4,
-5,
-4,
-4,
-5,
-4,
-4,
-5,
-5,
-5,
-5,
-5,
-5,
-5,
-7,
-5,
-5,
-5,
-4,
-5,
-4,
-5,
-5,
-4,
-5,
-7,
-5,
-5,
-8,
-5,
-7,
-7,
-5,
-5,
-5,
-4,
-5,
-5,
-4,
-5,
-5,
-4,
-7,
-7,
-7,
-8,
-7,
-7,
-7,
-7,
-5,
-5,
-5,
-5,
-5,
-7,
-5,
-7,
-5,
-7,
-7,
-8,
-7,
-8,
-7,
-7,
-7,
-7,
-7,
-7,
-7,
-5,
-7,
-8,
-7,
-7,
-8,
-7,
-7,
-8,
-7,
-7,
-8,
-7,
-7,
-8,
-5,
-5,
-8,
-5,
-7,
-7,
-7,
-8,
-8,
-7,
-7,
-10,
-8,
-7,
-10,
-7,
-7,
-8,
-7,
-8,
-7,
-8,
-7,
-10,
-7,
-8,
-8,
-8,
-8,
-10,
-8,
-8,
-8,
-8,
-8,
-8,
-8,
-8,
-8,
-8,
-8,
-8,
-8,
-10,
-10,
-10,
-10,
-10,
-10,
-10,
-8,
-10,
-8,
-8,
-8,
-10,
-8,
-8,
-8,
-8,
-10,
-8,
-10,
-10,
-10,
-8,
-10,
-10,
-10,
-8,
-10,
-8,
-8,
-8,
-10,
-10,
-10,
-10,
-10,
-10,
-10,
-10,
-10,
-10,
-10,
-10,
-10,
-10,
-10,
-8,
-8,
-10,
-11,
-10,
-10,
-11,
-10,
-11,
-11,
-10,
-11,
-11,
-10,
-11,
-11,
-10,
-10,
-11,
-8,
-10,
-11,
-10,
-11,
-11,
-10,
-11,
-13,
-10,
-10,
-11,
-10,
-8,
-10,
-10,
-10,
-11,
-8,
-11,
-11,
-11,
-11,
-13,
-11,
-11,
-11,
-11,
-10,
-11,
-11,
-11,
-10,
-11,
-11,
-11,
-11,
-11,
-11,
-11,
-13,
-11,
-13,
-11,
-11,
-13,
-11,
-11,
-10,
-10,
-11,
-11,
-11,
-11,
-11,
-11,
-13,
-11,
-13,
-13,
-11,
-11,
-13,
-10,
-11,
-11,
-10,
-11,
-13,
-11,
-13,
-13,
-11,
-13,
-13,
-13,
-13,
-14,
-11,
-11,
-13,
-11,
-11,
-11,
-11,
-11,
-13,
-11,
-14,
-13,
-13,
-13,
-14,
-11,
-13,
-13,
-11,
-13,
-11,
-11,
-11,
-13,
-11,
-13,
-14,
-13,
-14,
-14,
-13,
-14,
-14,
-13,
-13,
-14,
-11,
-13,
-13,
-13,
-13,
-13,
-13,
-11,
-13,
-13,
-13,
-14,
-13,
-13,
-16,
-14,
-13,
-13,
-13,
-13,
-13,
-13,
-13,
-13,
-14,
-13,
-16,
-14,
-14,
-14,
-14,
-13,
-14,
-13,
-13,
-14,
-13,
-13,
-14,
-13,
-13,
-14,
-13,
-14,
-14,
-14,
-14,
-14,
-13,
-14,
-14,
-13,
-16,
-14,
-13,
-14,
-13,
-13,
-14,
-14,
-13,
-16,
-16,
-14,
-16,
-14,
-14,
-16,
-14,
-14,
-14,
-14,
-13,
-14,
-14,
-14,
-16,
-14,
-14,
-14,
-16,
-14,
-16,
-16,
-14,
-14,
-16,
-14,
-14,
-14,
-14,
-14,
-16,
-13,
-14,
-14,
-14,
-14,
-17,
-16,
-16,
-16,
-16,
-14,
-17,
-14,
-14,
-16,
-14,
-14,
-16,
-14,
-14,
-16,
-14,
-14,
-17,
-14,
-16,
-17,
-14,
-16,
-17,
-16,
-16,
-16,
-14,
-14,
-14,
-14,
-14,
-17,
-16,
-16,
-17,
-16,
-16,
-17,
-16,
-16,
-16,
-16,
-16,
-16,
-14,
-14,
-16,
-14,
-16,
-16,
-16,
-16,
-16,
-16,
-17,
-18,
-16,
-16,
-17,
-16,
-16,
-16,
-14,
-16,
-16,
-16,
-17,
-16,
-16,
-16,
-17,
-16,
-17,
-17,
-16,
-16,
-16,
-16,
-17,
-16,
-16,
-16,
-16,
-16,
-16,
-17,
-16,
-16,
-17,
-17,
-17,
-17,
-16,
-16,
-18,
-16,
-16,
-17,
-16,
-16,
-17,
-16,
-16,
-18,
-16,
-17,
-18,
-16,
-16,
-18,
-16,
-17,
-18,
-16,
-17,
-18,
-14,
-16,
-17,
-16,
-16,
-18,
-16,
-16,
-17,
-16,
-18,
-18,
-17,
-17,
-18,
-17,
-17,
-17,
-16,
-16,
-17,
-16,
-17,
-17,
-16,
-17,
-17,
-17,
-17,
-18,
-17,
-16,
-17,
-17,
-17,
-17,
-16,
-17,
-16,
-17,
-16,
-17,
-17,
-17,
-17,
-17,
-18,
-17,
-17,
-17,
-17,
-17,
-17,
-17,
-16,
-16,
-16,
-16,
-16,
-17,
-17,
-17,
-17,
-17,
-17,
-18,
-17,
-17,
-17,
-17,
-17,
-17,
-16,
-17,
-17,
-16,
-17,
-18,
-16,
-17,
-17,
-17,
-17,
-18,
-17,
-18,
-17,
-16,
-17,
-18,
-16,
-17,
-17,
-16,
-17,
-18,
-16,
-17,
-18,
-17,
-18,
-20,
-16,
-17,
-17,
-16,
-17,
-17,
-16,
-17,
-17,
-16,
-17,
-18,
-16,
-17,
-18,
-17,
-18,
-18,
-17,
-17,
-17,
-17,
-17,
-17,
-16,
-16,
-17,
-17,
-17,
-18,
-17,
-17,
-18,
-17,
-17,
-18,
-17,
-16,
-18,
-17,
-17,
-16,
-17,
-17,
-17,
-18,
-17,
-18,
-17,
-16,
-18,
-17,
-17,
-18,
-17,
-17,
-17,
-17,
-17,
-18,
-17,
-17,
-17,
-17,
-17,
-17,
-17,
-17,
-18,
-17,
-17,
-18,
-16,
-17,
-18,
-16,
-17,
-17,
-16,
-17,
-17,
-16,
-17,
-18,
-17,
-17,
-18,
-17,
-17,
-18,
-16,
-18,
-17,
-16,
-17,
-18,
-16,
-17,
-17,
-17,
-17,
-18,
-16,
-18,
-17,
-17,
-17,
-18,
-17,
-16,
-17,
-16,
-17,
-16,
-16,
-18,
-18,
-17,
-17,
-18,
-17,
-17,
-17,
-17,
-17,
-17,
-16,
-17,
-17,
-16,
-18,
-17,
-17,
-17,
-18,
-17,
-17,
-20,
-17,
-18,
-18,
-17,
-17,
-18,
-17,
-16,
-17,
-17,
-17,
-18,
-17,
-17,
-18,
-17,
-17,
-20,
-17,
-17,
-17,
-16,
-17,
-16,
-17,
-16,
-17,
-17,
-17,
-18,
-17,
-17,
-18,
-17,
-18,
-17,
-17,
-17,
-16,
-16,
-17,
-17,
-16,
-17,
-17,
-16,
-17,
-18,
-16,
-17,
-17,
-17,
-18,
-18,
-16,
-16,
-17,
-14,
-17,
-16,
-16,
-17,
-17,
-16,
-17,
-18,
-18,
-17,
-18,
-17,
-17,
-17,
-16,
-17,
-16,
-17,
-16,
-17,
-16,
-16,
-17,
-17,
-17,
-18,
-17,
-17,
-18,
-16,
-17,
-17,
-17,
-17,
-16,
-17,
-16,
-17,
-16,
-17,
-18,
-17,
-17,
-20,
-17,
-16,
-17,
-16,
-16,
-17,
-16,
-16,
-17,
-14,
-16,
-18,
-17,
-16,
-18,
-17,
-17,
-17,
-16,
-17,
-18,
-16,
-16,
-17,
-14,
-16,
-16,
-16,
-16,
-17,
-17,
-17,
-17,
-16,
-17,
-17,
-17,
-16,
-14,
-16,
-16,
-16,
-14,
-16,
-16,
-16,
-17,
-16,
-17,
-16,
-16,
-16,
-17,
-16,
-16,
-16,
-16,
-14,
-16,
-16,
-14,
-16,
-16,
-14,
-16,
-16,
-16,
-17,
-18,
-16,
-17,
-17,
-16,
-16,
-16,
-14,
-16,
-16,
-14,
-14,
-16,
-14,
-14,
-16,
-16,
-16,
-16,
-16,
-16,
-16,
-16,
-16,
-17,
-14,
-16,
-16,
-14,
-14,
-16,
-14,
-16,
-16,
-14,
-16,
-16,
-14,
-16,
-17,
-16,
-16,
-16,
-14,
-16,
-14,
-14,
-14,
-16,
-13,
-14,
-16,
-14,
-14,
-16,
-14,
-17,
-16,
-16,
-14,
-16,
-14,
-14,
-14,
-14,
-14,
-14,
-13,
-13,
-14,
-14,
-14,
-16,
-16,
-14,
-16,
-16,
-14,
-14,
-16,
-14,
-14,
-14,
-14,
-14,
-13,
-14,
-16,
-14,
-14,
-14,
-16,
-16,
-14,
-14,
