RLC_R_11.91/ALL0018/1.CSV

Format,1.0B,
Memory Length,10000,
IntpDistance,0,
Trigger Address,4999,
Trigger Level,-2.000E-01,
Source,CH1,
Vertical Units,V,
Vertical Units Div,0,
Vertical Units Extend Div,16,
Label, ,
Probe Type,0,
Probe Ratio,1.000E+00,
Vertical Scale,5.000E+00,
Vertical Position,1.040E+01,
Horizontal Units,S,
Horizontal Scale,5.000E-05,
Horizontal Position,0.000E+00,
Horizontal Mode,Main,
SincET Mode,Real Time,
Sampling Period,5.000E-08,
Horizontal Old Scale,5.000E-05,
Horizontal Old Position,0.000E+00,
Firmware,V1.24,
Mode,Fast,
Waveform Data,
-37,
-37,
-37,
-37,
-37,
-37,
-37,
-37,
-37,
-37,
-37,
-37,
-37,
-37,
-37,
-37,
-37,
-37,
-37,
-37,
-37,
-37,
-37,
-36,
-37,
-37,
-37,
-36,
-37,
-36,
-36,
-36,
-36,
-36,
-36,
-36,
-36,
-36,
-36,
-36,
-36,
-36,
-36,
-36,
-36,
-36,
-36,
-36,
-36,
-36,
-36,
-36,
-36,
-36,
-36,
-36,
-36,
-36,
-36,
-36,
-36,
-36,
-36,
-34,
-34,
-34,
-34,
-34,
-34,
-34,
-34,
-34,
-34,
-34,
-34,
-34,
-34,
-34,
-34,
-34,
-34,
-34,
-34,
-34,
-34,
-34,
-34,
-33,
-34,
-34,
-34,
-34,
-34,
-33,
-33,
-33,
-34,
-34,
-34,
-33,
-33,
-33,
-33,
-33,
-33,
-33,
-33,
-33,
-33,
-33,
-33,
-33,
-33,
-33,
-33,
-33,
-33,
-33,
-33,
-32,
-33,
-33,
-33,
-32,
-32,
-32,
-32,
-32,
-32,
-32,
-32,
-32,
-32,
-32,
-32,
-32,
-32,
-32,
-32,
-32,
-32,
-32,
-32,
-32,
-32,
-32,
-32,
-30,
-32,
-32,
-32,
-30,
-32,
-30,
-30,
-30,
-30,
-30,
-30,
-30,
-30,
-30,
-30,
-30,
-30,
-30,
-30,
-30,
-30,
-30,
-30,
-30,
-30,
-30,
-30,
-30,
-30,
-29,
-29,
-29,
-30,
-30,
-29,
-29,
-29,
-29,
-29,
-29,
-29,
-29,
-29,
-29,
-29,
-29,
-29,
-29,
-29,
-29,
-29,
-29,
-29,
-29,
-29,
-27,
-29,
-29,
-29,
-27,
-29,
-27,
-29,
-27,
-27,
-27,
-27,
-27,
-27,
-27,
-27,
-27,
-27,
-27,
-27,
-27,
-27,
-27,
-27,
-27,
-27,
-27,
-27,
-27,
-27,
-27,
-26,
-26,
-26,
-26,
-26,
-26,
-26,
-26,
-26,
-26,
-26,
-26,
-26,
-26,
-26,
-26,
-26,
-26,
-26,
-26,
-26,
-26,
-26,
-25,
-25,
-26,
-25,
-25,
-25,
-25,
-25,
-25,
-25,
-25,
-25,
-25,
-25,
-25,
-25,
-25,
-25,
-25,
-25,
-25,
-25,
-25,
-25,
-25,
-25,
-25,
-23,
-23,
-23,
-23,
-25,
-23,
-23,
-23,
-23,
-23,
-23,
-23,
-23,
-23,
-23,
-23,
-23,
-23,
-23,
-23,
-23,
-23,
-23,
-23,
-22,
-22,
-22,
-22,
-22,
-22,
-22,
-22,
-22,
-22,
-22,
-22,
-22,
-22,
-22,
-22,
-22,
-22,
-22,
-22,
-22,
-22,
-22,
-22,
-22,
-21,
-21,
-21,
-22,
-21,
-21,
-21,
-21,
-21,
-21,
-21,
-21,
-21,
-21,
-21,
-21,
-21,
-21,
-21,
-21,
-21,
-21,
-21,
-19,
-19,
-19,
-19,
-21,
-21,
-19,
-19,
-19,
-19,
-19,
-19,
-19,
-18,
-19,
-19,
-19,
-19,
-19,
-18,
-18,
-19,
-19,
-18,
-19,
-18,
-18,
-18,
-18,
-19,
-18,
-18,
-18,
-18,
-18,
-18,
-18,
-18,
-17,
-17,
-18,
-18,
-18,
-18,
-17,
-17,
-18,
-17,
-17,
-17,
-17,
-17,
-17,
-17,
-17,
-17,
-17,
-17,
-17,
-17,
-17,
-15,
-17,
-15,
-17,
-17,
-17,
-15,
-15,
-15,
-15,
-15,
-15,
-15,
-15,
-15,
-15,
-15,
-15,
-15,
-15,
-15,
-15,
-15,
-15,
-14,
-14,
-14,
-15,
-15,
-15,
-14,
-14,
-14,
-14,
-14,
-14,
-14,
-14,
-14,
-14,
-14,
-14,
-14,
-14,
-14,
-14,
-14,
-14,
-12,
-12,
-12,
-14,
-14,
-12,
-12,
-12,
-12,
-12,
-12,
-12,
-11,
-12,
-12,
-12,
-12,
-12,
-12,
-11,
-12,
-11,
-12,
-12,
-11,
-11,
-11,
-12,
-12,
-11,
-11,
-11,
-11,
-11,
-11,
-11,
-11,
-11,
-11,
-11,
-11,
-11,
-11,
-11,
-10,
-10,
-11,
-11,
-10,
-10,
-10,
-10,
-11,
-10,
-10,
-10,
-10,
-10,
-10,
-10,
-10,
-10,
-8,
-10,
-10,
-10,
-8,
-10,
-8,
-8,
-8,
-8,
-8,
-8,
-8,
-8,
-8,
-8,
-8,
-8,
-8,
-8,
-8,
-8,
-7,
-8,
-7,
-7,
-8,
-8,
-8,
-7,
-7,
-7,
-7,
-7,
-7,
-7,
-7,
-7,
-7,
-7,
-7,
-7,
-7,
-7,
-7,
-7,
-6,
-6,
-6,
-7,
-7,
-6,
-6,
-6,
-6,
-6,
-6,
-6,
-6,
-6,
-4,
-6,
-6,
-6,
-6,
-6,
-4,
-4,
-6,
-4,
-4,
-4,
-4,
-4,
-6,
-4,
-4,
-4,
-4,
-4,
-4,
-4,
-4,
-4,
-4,
-4,
-4,
-4,
-4,
-3,
-3,
-3,
-4,
-3,
-3,
-3,
-3,
-3,
-3,
-3,
-3,
-3,
-3,
-3,
-3,
-3,
-3,
-2,
-2,
-3,
-3,
-2,
-3,
-2,
-2,
-2,
-2,
-2,
-2,
-2,
-2,
-2,
-2,
-2,
-2,
-2,
-2,
-2,
-2,
-2,
0,
0,
0,
-2,
-2,
0,
0,
0,
0,
0,
0,
0,
0,
0,
0,
0,
0,
0,
0,
0,
1,
1,
0,
0,
1,
1,
1,
1,
1,
1,
1,
1,
1,
1,
1,
1,
1,
1,
1,
3,
1,
1,
3,
3,
3,
3,
1,
3,
3,
3,
3,
3,
3,
3,
3,
3,
3,
4,
3,
3,
3,
4,
4,
3,
3,
3,
4,
4,
4,
4,
4,
4,
4,
4,
4,
4,
4,
4,
4,
4,
5,
5,
4,
4,
5,
5,
5,
5,
4,
4,
5,
5,
5,
5,
5,
5,
5,
5,
5,
5,
5,
5,
5,
5,
5,
7,
5,
5,
7,
7,
7,
7,
5,
7,
7,
7,
7,
8,
7,
7,
7,
7,
7,
8,
7,
7,
7,
8,
8,
8,
7,
8,
8,
8,
8,
8,
8,
8,
8,
8,
8,
8,
8,
8,
9,
8,
8,
8,
8,
9,
9,
9,
9,
9,
8,
9,
9,
9,
9,
9,
9,
9,
9,
9,
11,
11,
9,
9,
11,
11,
11,
11,
9,
11,
11,
11,
11,
11,
9,
11,
11,
11,
11,
11,
11,
11,
11,
11,
12,
12,
11,
11,
12,
12,
12,
12,
11,
12,
12,
12,
12,
12,
12,
12,
13,
12,
12,
12,
12,
12,
13,
13,
13,
13,
12,
12,
13,
13,
13,
13,
13,
13,
13,
13,
13,
15,
13,
13,
15,
13,
13,
13,
13,
15,
13,
13,
15,
15,
13,
13,
15,
15,
15,
15,
15,
15,
15,
15,
16,
16,
15,
15,
15,
15,
16,
15,
15,
16,
15,
15,
16,
16,
15,
16,
16,
16,
16,
16,
16,
16,
16,
16,
16,
18,
16,
16,
18,
18,
18,
16,
16,
18,
18,
16,
18,
18,
18,
18,
18,
18,
18,
18,
18,
18,
18,
18,
19,
19,
18,
19,
19,
18,
18,
18,
18,
19,
19,
18,
19,
19,
18,
19,
19,
19,
19,
19,
19,
19,
19,
19,
20,
20,
19,
19,
20,
19,
19,
19,
19,
20,
20,
19,
20,
20,
19,
20,
20,
20,
20,
20,
20,
20,
20,
20,
22,
22,
20,
20,
22,
20,
22,
20,
20,
22,
22,
20,
22,
23,
20,
22,
22,
22,
22,
22,
22,
22,
22,
22,
23,
23,
20,
23,
23,
23,
23,
22,
22,
23,
23,
22,
23,
23,
22,
23,
23,
23,
23,
23,
23,
23,
23,
23,
23,
24,
23,
23,
24,
23,
24,
23,
23,
24,
23,
24,
24,
26,
23,
24,
24,
24,
24,
24,
24,
24,
24,
24,
26,
26,
24,
24,
26,
24,
26,
26,
24,
26,
26,
24,
26,
26,
24,
24,
26,
26,
26,
26,
24,
26,
26,
26,
26,
27,
26,
26,
26,
26,
26,
26,
26,
26,
26,
26,
27,
27,
26,
26,
27,
27,
27,
27,
26,
27,
27,
26,
27,
28,
27,
27,
27,
27,
27,
28,
27,
28,
27,
27,
28,
28,
27,
27,
28,
28,
28,
28,
27,
28,
28,
28,
28,
30,
28,
28,
28,
28,
28,
28,
28,
28,
28,
28,
30,
30,
27,
30,
28,
28,
28,
30,
28,
30,
30,
30,
30,
30,
28,
30,
30,
30,
30,
30,
30,
30,
30,
30,
30,
31,
30,
30,
30,
30,
30,
31,
30,
31,
31,
30,
31,
31,
30,
31,
31,
31,
31,
31,
30,
31,
31,
31,
31,
33,
30,
31,
31,
31,
31,
31,
31,
33,
31,
31,
33,
33,
31,
31,
33,
33,
31,
33,
31,
31,
33,
33,
33,
33,
31,
31,
33,
33,
33,
33,
33,
33,
33,
33,
33,
34,
33,
33,
33,
33,
33,
33,
33,
33,
34,
33,
34,
34,
33,
33,
34,
34,
34,
34,
33,
34,
34,
33,
34,
34,
33,
34,
34,
34,
34,
34,
33,
34,
34,
34,
34,
35,
33,
34,
35,
34,
34,
35,
34,
34,
35,
34,
35,
35,
34,
34,
35,
35,
35,
35,
34,
35,
35,
35,
35,
37,
34,
35,
37,
35,
35,
35,
34,
37,
37,
35,
35,
37,
35,
35,
37,
35,
37,
37,
34,
37,
37,
35,
35,
38,
35,
35,
37,
37,
37,
37,
35,
37,
37,
37,
37,
38,
35,
35,
37,
37,
37,
37,
35,
37,
37,
37,
37,
38,
35,
37,
37,
38,
38,
37,
35,
38,
38,
37,
37,
39,
37,
37,
38,
38,
38,
38,
37,
38,
38,
37,
38,
39,
37,
37,
38,
38,
38,
38,
37,
38,
38,
37,
38,
39,
38,
38,
38,
38,
38,
39,
37,
39,
39,
38,
38,
39,
38,
38,
38,
39,
38,
38,
38,
39,
39,
38,
38,
41,
38,
38,
39,
39,
39,
39,
38,
39,
39,
38,
39,
41,
39,
39,
39,
39,
39,
39,
38,
39,
41,
39,
39,
41,
38,
39,
41,
39,
39,
41,
39,
39,
39,
39,
39,
42,
39,
39,
41,
39,
39,
41,
39,
41,
41,
39,
39,
42,
39,
39,
41,
39,
41,
41,
39,
41,
41,
41,
39,
42,
39,
41,
41,
41,
41,
42,
39,
41,
41,
41,
41,
42,
39,
41,
42,
41,
41,
42,
39,
41,
42,
41,
41,
42,
39,
41,
42,
41,
42,
41,
39,
42,
42,
41,
42,
42,
41,
41,
42,
41,
41,
42,
41,
42,
42,
41,
42,
43,
41,
41,
42,
42,
42,
42,
41,
42,
42,
42,
42,
43,
41,
42,
42,
42,
42,
42,
41,
42,
42,
42,
42,
43,
41,
42,
43,
42,
42,
42,
41,
42,
42,
42,
42,
43,
41,
42,
43,
42,
43,
43,
41,
43,
43,
42,
42,
45,
42,
42,
43,
43,
43,
43,
42,
43,
43,
42,
43,
45,
42,
42,
43,
43,
43,
43,
42,
43,
43,
43,
43,
45,
42,
42,
43,
43,
43,
43,
42,
43,
43,
42,
43,
45,
42,
43,
43,
43,
43,
43,
42,
43,
43,
42,
43,
45,
42,
43,
43,
43,
43,
43,
42,
43,
43,
43,
43,
45,
43,
43,
43,
43,
43,
45,
42,
45,
43,
43,
43,
45,
43,
43,
43,
43,
43,
45,
42,
45,
45,
43,
43,
46,
43,
43,
45,
43,
43,
45,
42,
45,
45,
43,
43,
45,
43,
43,
45,
43,
45,
45,
42,
45,
45,
43,
45,
46,
43,
43,
45,
45,
45,
46,
42,
45,
45,
43,
43,
46,
43,
45,
45,
45,
45,
46,
43,
45,
45,
43,
45,
46,
43,
43,
45,
43,
45,
45,
43,
45,
45,
43,
45,
46,
43,
45,
45,
45,
45,
45,
43,
45,
45,
43,
45,
46,
43,
43,
45,
45,
45,
45,
43,
45,
45,
43,
45,
46,
43,
45,
45,
45,
45,
45,
43,
45,
45,
45,
45,
46,
43,
45,
45,
45,
45,
46,
43,
45,
45,
43,
45,
46,
43,
45,
45,
45,
45,
45,
43,
45,
45,
45,
45,
46,
43,
45,
45,
45,
45,
46,
43,
45,
45,
45,
45,
46,
43,
45,
45,
45,
45,
45,
43,
45,
45,
45,
45,
46,
43,
45,
45,
45,
45,
46,
43,
45,
45,
45,
45,
46,
43,
45,
45,
45,
45,
46,
43,
45,
45,
45,
45,
48,
43,
45,
45,
45,
45,
45,
43,
46,
45,
43,
45,
46,
43,
45,
45,
45,
45,
45,
43,
45,
45,
43,
45,
46,
43,
43,
45,
45,
45,
45,
43,
45,
45,
43,
45,
46,
43,
43,
45,
45,
45,
45,
43,
45,
45,
43,
45,
46,
43,
43,
45,
45,
43,
45,
43,
45,
45,
43,
45,
46,
43,
43,
45,
45,
43,
45,
42,
45,
45,
43,
45,
45,
43,
43,
45,
43,
43,
45,
42,
45,
45,
43,
43,
46,
43,
43,
45,
43,
43,
45,
42,
45,
45,
43,
43,
46,
43,
43,
45,
43,
43,
45,
42,
45,
45,
43,
43,
46,
42,
43,
43,
43,
43,
43,
42,
45,
43,
43,
43,
45,
42,
43,
43,
43,
43,
43,
42,
43,
43,
42,
43,
45,
42,
42,
43,
43,
43,
43,
42,
43,
43,
43,
43,
45,
42,
43,
43,
43,
43,
43,
42,
43,
43,
42,
43,
45,
42,
42,
43,
42,
42,
43,
42,
43,
42,
42,
42,
43,
42,
42,
43,
42,
42,
42,
41,
42,
43,
42,
43,
43,
41,
42,
42,
42,
42,
42,
41,
42,
42,
42,
42,
43,
41,
42,
42,
42,
42,
42,
41,
42,
42,
41,
42,
43,
41,
41,
42,
42,
42,
42,
41,
42,
42,
41,
42,
43,
41,
41,
42,
41,
41,
42,
41,
42,
42,
41,
41,
42,
41,
41,
42,
41,
41,
42,
39,
42,
41,
41,
41,
42,
39,
41,
41,
41,
41,
41,
39,
42,
41,
41,
41,
42,
39,
41,
41,
41,
41,
41,
39,
41,
41,
39,
41,
42,
39,
39,
41,
39,
41,
41,
39,
41,
41,
39,
39,
41,
39,
39,
41,
39,
39,
39,
38,
41,
41,
39,
39,
41,
38,
39,
39,
39,
39,
39,
38,
39,
39,
38,
39,
41,
38,
39,
39,
39,
38,
39,
38,
39,
39,
38,
38,
39,
38,
38,
39,
38,
38,
39,
37,
39,
39,
38,
38,
39,
38,
38,
39,
38,
38,
38,
37,
39,
38,
37,
38,
39,
37,
37,
38,
38,
38,
38,
37,
38,
38,
37,
38,
39,
37,
37,
38,
38,
38,
37,
37,
38,
38,
37,
37,
38,
37,
37,
38,
37,
37,
37,
35,
37,
37,
37,
37,
38,
35,
37,
37,
37,
37,
37,
35,
37,
37,
37,
37,
37,
35,
37,
37,
37,
37,
37,
34,
37,
35,
35,
35,
37,
34,
35,
37,
35,
37,
35,
34,
37,
37,
35,
35,
37,
34,
35,
35,
35,
35,
35,
34,
35,
35,
34,
35,
37,
34,
34,
35,
35,
35,
35,
33,
35,
34,
34,
34,
35,
33,
34,
34,
34,
34,
34,
33,
35,
34,
34,
34,
34,
33,
34,
34,
33,
33,
34,
33,
34,
34,
33,
34,
34,
33,
33,
34,
33,
33,
33,
31,
33,
33,
33,
33,
34,
31,
33,
33,
33,
33,
33,
31,
31,
33,
33,
33,
33,
31,
31,
33,
33,
31,
31,
31,
31,
31,
31,
33,
33,
31,
31,
31,
31,
31,
31,
31,
31,
31,
31,
31,
31,
30,
30,
31,
31,
31,
31,
30,
31,
31,
30,
31,
31,
30,
30,
30,
30,
30,
30,
30,
30,
30,
30,
30,
31,
28,
30,
30,
30,
30,
30,
28,
30,
30,
28,
30,
30,
28,
28,
28,
28,
28,
28,
28,
28,
28,
28,
28,
28,
27,
28,
28,
28,
28,
28,
27,
28,
27,
27,
28,
28,
27,
27,
27,
27,
27,
27,
27,
27,
27,
27,
27,
27,
27,
27,
27,
27,
27,
27,
26,
27,
27,
26,
27,
28,
26,
26,
27,
27,
27,
27,
26,
26,
26,
26,
27,
27,
26,
26,
27,
26,
26,
26,
24,
26,
26,
26,
26,
26,
24,
24,
26,
26,
26,
26,
24,
26,
24,
24,
24,
26,
24,
24,
24,
24,
24,
24,
23,
24,
24,
24,
24,
26,
23,
23,
24,
24,
24,
24,
23,
24,
23,
23,
24,
24,
23,
23,
24,
23,
23,
23,
22,
23,
23,
23,
23,
23,
22,
22,
23,
23,
22,
23,
22,
22,
22,
22,
23,
23,
22,
22,
22,
22,
22,
22,
22,
22,
22,
20,
22,
23,
20,
20,
22,
22,
22,
20,
20,
20,
20,
20,
22,
22,
20,
20,
22,
20,
20,
20,
20,
20,
20,
19,
20,
20,
19,
20,
20,
19,
19,
19,
19,
19,
20,
19,
20,
20,
19,
19,
19,
19,
19,
19,
19,
19,
19,
18,
19,
19,
18,
19,
19,
18,
18,
18,
18,
18,
18,
18,
18,
19,
18,
18,
18,
18,
18,
18,
18,
18,
18,
16,
18,
18,
16,
16,
18,
18,
18,
16,
16,
18,
16,
16,
18,
18,
16,
16,
16,
16,
16,
16,
16,
16,
16,
15,
16,
16,
15,
15,
16,
15,
16,
15,
15,
15,
15,
15,
15,
16,
13,
15,
15,
15,
15,
13,
13,
15,
15,
13,
15,
15,
13,
13,
15,
13,
13,
13,
13,
13,
13,
13,
13,
15,
13,
13,
13,
13,
13,
12,
12,
13,
13,
12,
13,
13,
12,
12,
13,
12,
12,
12,
12,
12,
12,
12,
12,
12,
12,
11,
12,
11,
12,
11,
11,
11,
11,
11,
11,
12,
11,
11,
11,
11,
11,
11,
9,
11,
11,
11,
11,
11,
9,
9,
11,
11,
9,
9,
9,
9,
9,
9,
9,
9,
9,
9,
9,
9,
9,
9,
8,
8,
9,
9,
9,
9,
8,
8,
8,
8,
8,
8,
8,
8,
8,
8,
8,
8,
8,
8,
8,
8,
8,
8,
7,
8,
8,
7,
8,
8,
7,
7,
8,
7,
7,
7,
7,
7,
7,
7,
7,
7,
5,
5,
7,
7,
7,
7,
5,
5,
5,
5,
5,
5,
5,
5,
7,
5,
5,
5,
4,
5,
5,
5,
5,
5,
4,
4,
5,
5,
5,
4,
4,
4,
4,
4,
4,
5,
4,
4,
4,
4,
4,
4,
3,
3,
4,
4,
4,
4,
3,
3,
4,
3,
4,
4,
3,
3,
3,
3,
3,
3,
3,
3,
3,
3,
3,
3,
1,
3,
3,
3,
3,
3,
1,
1,
3,
1,
1,
1,
1,
1,
1,
1,
1,
1,
1,
1,
1,
1,
1,
0,
0,
0,
0,
0,
1,
0,
0,
0,
0,
0,
0,
0,
0,
0,
0,
0,
0,
0,
-2,
-2,
0,
0,
0,
-2,
-2,
-2,
-2,
-2,
-2,
-2,
-2,
-2,
-2,
-2,
-2,
-2,
-2,
-2,
-2,
-2,
-2,
-2,
-3,
-3,
-2,
-3,
-3,
-3,
-3,
-3,
-3,
-3,
-3,
-3,
-3,
-3,
-3,
-3,
-3,
-3,
-3,
-3,
-3,
-4,
-3,
-4,
-4,
-4,
-3,
-4,
-4,
-4,
-4,
-4,
-4,
-4,
-4,
-4,
-4,
-4,
-4,
-4,
-4,
-6,
-6,
-6,
-6,
-6,
-6,
-6,
-6,
-6,
-6,
-6,
-6,
-6,
-6,
-6,
-6,
-6,
-6,
-6,
-6,
-7,
-6,
-6,
-6,
-7,
-7,
-7,
-7,
-7,
-7,
-7,
-7,
-7,
-7,
-7,
-7,
-8,
-7,
-8,
-7,
-7,
-7,
-7,
-8,
-8,
-8,
-8,
-8,
-8,
-8,
-8,
-8,
-8,
-8,
-8,
-8,
-8,
-8,
-8,
-8,
-10,
-10,
-10,
-8,
-8,
-8,
-8,
-10,
-10,
-8,
-10,
-10,
-10,
-10,
-10,
-10,
-10,
-10,
-10,
-10,
-10,
-10,
-10,
-10,
-11,
-11,
-11,
-11,
-11,
-11,
-11,
-11,
-11,
-11,
-11,
-11,
-11,
-11,
-11,
-11,
-11,
-11,
-11,
-11,
-11,
-11,
-11,
-11,
-12,
-12,
-12,
-12,
-12,
-12,
-12,
-12,
-12,
-12,
-12,
-12,
-12,
-12,
-12,
-12,
-12,
-12,
-12,
-14,
-14,
-12,
-12,
-14,
-14,
-14,
-14,
-14,
-14,
-14,
-14,
-14,
-14,
-14,
-14,
-14,
-14,
-15,
-14,
-14,
-14,
-14,
-14,
-15,
-15,
-14,
-15,
-15,
-15,
-15,
-15,
-15,
-15,
-15,
-15,
-15,
-15,
-15,
-15,
-15,
-15,
-15,
-17,
-17,
-17,
-17,
-15,
-17,
-17,
-15,
-17,
-15,
-17,
-17,
-17,
-17,
-17,
-17,
-17,
-17,
-17,
-17,
-17,
-17,
-18,
-18,
-17,
-17,
-17,
-18,
-18,
-18,
-18,
-17,
-18,
-18,
-18,
-18,
-18,
-18,
-18,
-18,
-18,
-18,
-18,
-18,
-18,
-18,
-18,
-19,
-19,
-18,
-18,
-19,
-18,
-19,
-19,
-19,
-19,
-19,
-19,
-19,
-19,
-19,
-19,
-19,
-19,
-19,
-19,
-19,
-19,
-19,
-21,
-21,
-21,
-21,
-21,
-21,
-21,
-21,
-21,
-21,
-21,
-21,
-21,
-21,
-21,
-21,
-21,
-21,
-21,
-21,
-21,
-21,
-21,
-21,
-21,
-22,
-22,
-22,
-22,
-22,
-22,
-22,
-22,
-22,
-22,
-22,
-22,
-22,
-22,
-22,
-22,
-22,
-22,
-22,
-22,
-22,
-22,
-22,
-23,
-22,
-23,
-23,
-23,
-23,
-23,
-23,
-23,
-23,
-23,
-23,
-23,
-23,
-23,
-23,
-23,
-23,
-23,
-23,
-23,
-23,
-23,
-23,
-23,
-25,
-23,
-25,
-23,
-23,
-25,
-25,
-25,
-25,
-25,
-25,
-25,
-25,
-25,
-25,
-25,
-25,
-25,
-25,
-25,
-25,
-25,
-25,
-25,
-25,
-25,
-25,
-25,
-26,
-26,
-26,
-26,
-25,
-26,
-26,
-26,
-26,
-26,
-26,
-26,
-26,
-26,
-26,
-26,
-26,
-26,
-26,
-26,
-26,
-26,
-27,
-26,
-27,
-26,
-27,
-26,
-26,
-26,
-27,
-27,
-27,
-27,
-27,
-27,
-27,
-27,
-27,
-27,
-27,
-27,
-27,
-27,
-27,
-27,
-27,
-27,
-27,
-27,
-27,
-27,
-27,
-27,
-27,
-29,
-29,
-29,
-29,
-29,
-29,
-29,
-29,
-29,
-29,
-29,
-29,
-29,
-29,
-29,
-29,
-29,
-29,
-29,
-29,
-29,
-29,
-29,
-29,
-30,
-29,
-30,
-29,
-30,
-30,
-30,
-30,
-30,
-30,
-30,
-30,
-30,
-30,
-30,
-30,
-30,
-30,
-30,
-30,
-30,
-30,
-30,
-30,
-30,
-30,
-30,
-30,
-30,
-30,
-30,
-30,
-30,
-30,
-30,
-30,
-32,
-32,
-32,
-30,
-32,
-32,
-32,
-32,
-32,
-32,
-32,
-32,
-32,
-32,
-32,
-32,
-32,
-32,
-32,
-32,
-32,
-32,
-32,
-32,
-32,
-33,
-32,
-32,
-32,
-33,
-33,
-33,
-32,
-33,
-32,
-33,
-33,
-33,
-33,
-33,
-33,
-33,
-33,
-33,
-33,
-33,
-33,
-33,
-33,
-33,
-33,
-33,
-33,
-33,
-33,
-33,
-33,
-33,
-33,
-33,
-34,
-34,
-34,
-33,
-34,
-34,
-34,
-34,
-34,
-34,
-34,
-34,
-34,
-34,
-34,
-34,
-34,
-34,
-34,
-34,
-34,
-34,
-34,
-34,
-34,
-34,
-34,
-34,
-34,
-34,
-34,
-34,
-34,
-34,
-34,
-34,
-36,
-36,
-36,
-36,
-36,
-36,
-36,
-36,
-36,
-36,
-36,
-36,
-36,
-36,
-36,
-36,
-36,
-36,
-36,
-36,
-36,
-36,
-36,
-36,
-36,
-36,
-36,
-36,
-36,
-36,
-36,
-36,
-36,
-36,
-36,
-36,
-37,
-37,
-37,
-36,
-37,
-37,
-37,
-37,
-37,
-37,
-37,
-37,
-37,
-37,
-37,
-37,
-37,
-37,
-37,
-37,
-37,
-37,
-37,
-37,
-37,
-37,
-37,
-37,
-37,
-37,
-37,
-37,
-37,
-37,
-37,
-37,
-37,
-37,
-38,
-37,
-38,
-37,
-38,
-37,
-38,
-37,
-38,
-37,
-38,
-38,
-38,
-38,
-38,
-38,
-38,
-38,
-38,
-38,
-38,
-38,
-38,
-38,
-38,
-38,
-38,
-38,
-38,
-38,
-38,
-38,
-38,
-38,
-38,
-38,
-38,
-38,
-38,
-38,
-38,
-38,
-38,
-38,
-38,
-38,
-40,
-40,
-38,
-38,
-38,
-40,
-40,
-40,
-40,
-40,
-38,
-40,
-40,
-40,
-40,
-40,
-40,
-40,
-40,
-40,
-40,
-40,
-40,
-40,
-40,
-40,
-40,
-40,
-40,
-40,
-40,
-40,
-40,
-40,
-40,
-40,
-40,
-40,
-40,
-40,
-40,
-40,
-40,
-40,
-40,
-40,
-40,
-40,
-41,
-41,
-41,
-40,
-41,
-41,
-41,
-40,
-41,
-41,
-41,
-40,
-41,
-41,
-41,
-41,
-41,
-41,
-41,
-41,
-41,
-41,
-41,
-41,
-41,
-41,
-41,
-41,
-41,
-41,
-41,
-41,
-41,
-41,
-41,
-41,
-41,
-41,
-41,
-41,
-41,
-41,
-41,
-41,
-41,
-41,
-41,
-41,
-41,
-41,
-41,
-41,
-41,
-41,
-41,
-41,
-41,
-41,
-41,
-41,
-42,
-42,
-42,
-41,
-42,
-42,
-42,
-41,
-42,
-42,
-42,
-42,
-42,
-42,
-42,
-42,
-42,
-42,
-42,
-42,
-42,
-42,
-42,
-42,
-42,
-42,
-42,
-42,
-42,
-42,
-42,
-42,
-42,
-42,
-42,
-42,
-42,
-42,
-42,
-42,
-42,
-42,
-42,
-42,
-42,
-42,
-42,
-42,
-42,
-42,
-42,
-42,
-42,
-42,
-42,
-42,
-42,
-42,
-42,
-42,
-42,
-42,
-42,
-42,
-44,
-42,
-44,
-42,
-42,
-42,
-42,
-42,
-44,
-44,
-44,
-44,
-42,
-44,
-42,
-44,
-42,
-44,
-44,
-44,
-44,
-44,
-44,
-44,
-44,
-44,
-44,
-44,
-44,
-44,
-44,
-44,
-44,
-44,
-44,
-44,
-44,
-44,
-44,
-44,
-44,
-44,
-44,
-44,
-44,
-44,
-44,
-44,
-44,
-44,
-44,
-44,
-44,
-44,
-44,
-44,
-44,
-44,
-44,
-44,
-44,
-44,
-44,
-44,
-44,
-44,
-44,
-44,
-44,
-44,
-44,
-44,
-44,
-44,
-44,
-44,
-44,
-44,
-44,
-44,
-44,
-44,
-44,
-44,
-44,
-44,
-44,
-44,
-44,
-44,
-44,
-44,
-44,
-44,
-44,
-44,
-44,
-44,
-44,
-44,
-44,
-44,
-44,
-44,
-44,
-44,
-45,
-44,
-44,
-44,
-44,
-44,
-44,
-45,
-44,
-44,
-45,
-44,
-44,
-44,
-44,
-45,
-44,
-44,
-44,
-44,
-44,
-44,
-45,
-45,
-45,
-44,
-45,
-45,
-45,
-44,
-45,
-45,
-45,
-44,
-45,
-45,
-45,
-45,
-45,
-45,
-45,
-45,
-45,
-45,
-45,
-44,
-45,
-45,
-45,
-45,
-45,
-45,
-45,
-45,
-45,
-45,
-45,
-45,
-45,
-45,
-44,
-45,
-45,
-45,
-45,
-45,
-45,
-45,
-44,
-45,
-45,
-45,
-45,
-45,
-45,
-45,
-45,
-45,
-45,
-45,
-45,
-45,
-45,
-45,
-45,
-45,
-45,
-45,
-45,
-44,
-45,
-45,
-45,
-45,
-45,
-45,
-45,
-45,
-45,
-45,
-45,
-45,
-45,
-45,
-45,
-45,
-45,
-45,
-45,
-45,
-45,
-45,
-45,
-45,
-45,
-45,
-45,
-45,
-45,
-45,
-45,
-45,
-45,
-45,
-45,
-45,
-45,
-45,
-45,
-45,
-45,
-45,
-45,
-45,
-45,
-45,
-45,
-44,
-45,
-45,
-45,
-44,
-45,
-45,
-45,
-45,
-45,
-44,
-45,
-44,
-45,
-45,
-45,
-44,
-45,
-44,
-45,
-44,
-45,
-44,
-45,
-44,
-45,
-45,
-44,
-44,
-45,
-45,
-45,
-44,
-44,
-45,
-44,
-44,
-44,
-44,
-44,
-44,
-44,
-45,
-44,
-44,
-44,
-44,
-44,
-44,
-44,
-44,
-44,
-44,
-44,
-45,
-44,
-44,
-44,
-44,
-44,
-44,
-44,
-44,
-44,
-44,
-44,
-44,
-44,
-44,
-44,
-44,
-44,
-44,
-44,
-44,
-44,
-44,
-44,
-44,
-44,
-44,
-44,
-44,
-44,
-44,
-44,
-44,
-44,
-44,
-44,
-44,
-44,
-44,
-44,
-44,
-44,
-44,
-44,
-44,
-44,
-44,
-44,
-44,
-44,
-44,
-44,
-44,
-44,
-44,
-44,
-44,
-44,
-44,
-44,
-44,
-44,
-44,
-44,
-44,
-44,
-44,
-44,
-44,
-44,
-42,
-44,
-44,
-44,
-42,
-44,
-42,
-44,
-42,
-42,
-42,
-44,
-42,
-44,
-42,
-44,
-42,
-42,
-42,
-44,
-42,
-42,
-42,
-42,
-42,
-42,
-42,
-42,
-42,
-42,
-42,
-42,
-42,
-42,
-42,
-42,
-42,
-42,
-42,
-42,
-42,
-42,
-42,
-42,
-42,
-42,
-42,
-42,
-42,
-42,
-42,
-42,
-42,
-42,
-42,
-42,
-42,
-42,
-42,
-42,
-42,
-42,
-42,
-42,
-42,
-42,
-42,
-42,
-42,
-42,
-42,
-42,
-41,
-42,
-42,
-42,
-41,
-42,
-41,
-42,
-41,
-42,
-41,
-41,
-41,
-41,
-41,
-41,
-41,
-41,
-41,
-41,
-41,
-41,
-41,
-41,
-41,
-41,
-41,
-41,
-41,
-41,
-41,
-41,
-41,
-41,
-41,
-41,
-41,
-41,
-41,
-41,
-41,
-41,
-41,
-41,
-41,
-41,
-41,
-41,
-41,
-41,
-41,
-41,
-41,
-41,
-41,
-41,
-40,
-40,
-41,
-40,
-40,
-40,
-40,
-40,
-40,
-40,
-40,
-41,
-40,
-40,
-40,
-40,
-40,
-40,
-40,
-40,
-40,
-40,
-40,
-40,
-40,
-40,
-40,
-40,
-40,
-40,
-40,
-40,
-40,
-40,
-40,
-40,
-40,
-40,
-40,
-38,
-38,
-40,
-40,
-40,
-38,
-38,
-38,
-38,
-38,
-38,
-38,
-38,
-38,
-38,
-38,
-38,
-38,
-38,
-38,
-38,
-38,
-38,
-38,
-38,
-38,
-38,
-38,
-38,
-38,
-38,
-38,
-38,
-38,
-38,
-38,
-38,
-37,
-38,
-38,
-38,
-38,
-38,
-38,
-38,
-37,
-37,
-37,
-37,
-37,
-37,
-37,
-37,
-37,
-37,
-37,
-37,
-37,
-37,
-37,
-37,
-37,
-37,
-37,
-37,
-37,
-37,
-37,
-37,
-37,
-37,
-37,
-37,
-37,
-37,
-37,
-37,
-37,
-37,
-36,
-37,
-36,
-36,
-36,
-36,
-36,
-36,
-36,
-36,
-36,
-36,
-36,
-36,
-36,
-36,
-36,
-36,
-36,
-36,
-36,
-36,
-36,
-36,
-36,
-36,
-36,
-36,
-36,
-36,
-34,
-36,
-36,
-36,
-36,
-36,
-34,
-36,
-34,
-34,
-34,
-34,
-34,
-34,
-34,
-34,
-34,
-34,
-34,
-34,
-34,
-34,
-34,
-34,
-34,
-34,
-34,
-34,
-34,
-34,
-34,
-34,
-34,
-34,
-34,
-33,
-33,
-34,
-34,
-34,
-33,
-33,
-33,
-33,
-33,
-33,
