RLC_R_11.91/ALL0019/2.CSV

Format,1.0B,
Memory Length,10000,
IntpDistance,0,
Trigger Address,4999,
Trigger Level,0.000E+00,
Source,CH2,
Vertical Units,V,
Vertical Units Div,0,
Vertical Units Extend Div,16,
Label, ,
Probe Type,0,
Probe Ratio,1.000E+00,
Vertical Scale,2.000E-01,
Vertical Position,-4.000E-01,
Horizontal Units,S,
Horizontal Scale,5.000E-05,
Horizontal Position,0.000E+00,
Horizontal Mode,Main,
SincET Mode,Real Time,
Sampling Period,5.000E-08,
Horizontal Old Scale,5.000E-05,
Horizontal Old Position,0.000E+00,
Firmware,V1.24,
Mode,Fast,
Waveform Data,
-36,
-36,
-35,
-37,
-36,
-35,
-35,
-36,
-35,
-35,
-35,
-36,
-35,
-36,
-35,
-36,
-36,
-35,
-35,
-36,
-33,
-36,
-33,
-33,
-35,
-35,
-36,
-36,
-33,
-33,
-35,
-36,
-35,
-35,
-35,
-35,
-35,
-33,
-33,
-36,
-36,
-33,
-35,
-36,
-32,
-33,
-33,
-35,
-33,
-35,
-35,
-35,
-35,
-33,
-35,
-36,
-33,
-35,
-36,
-33,
-33,
-33,
-33,
-35,
-36,
-32,
-33,
-36,
-32,
-33,
-33,
-35,
-33,
-35,
-33,
-33,
-33,
-33,
-33,
-35,
-33,
-33,
-36,
-32,
-33,
-32,
-33,
-36,
-35,
-32,
-33,
-36,
-32,
-32,
-33,
-33,
-33,
-33,
-33,
-33,
-33,
-32,
-33,
-36,
-33,
-32,
-33,
-33,
-32,
-32,
-32,
-33,
-33,
-32,
-32,
-33,
-31,
-32,
-32,
-32,
-32,
-32,
-31,
-33,
-32,
-31,
-32,
-33,
-31,
-32,
-32,
-32,
-33,
-33,
-30,
-32,
-32,
-31,
-32,
-33,
-30,
-31,
-32,
-31,
-32,
-32,
-31,
-32,
-32,
-31,
-32,
-33,
-30,
-32,
-32,
-31,
-31,
-30,
-29,
-32,
-32,
-29,
-31,
-33,
-29,
-30,
-31,
-31,
-32,
-31,
-30,
-32,
-30,
-31,
-30,
-32,
-31,
-30,
-31,
-30,
-31,
-30,
-29,
-31,
-31,
-31,
-31,
-31,
-29,
-30,
-30,
-31,
-31,
-30,
-30,
-31,
-30,
-30,
-30,
-31,
-30,
-30,
-30,
-30,
-30,
-30,
-29,
-30,
-32,
-29,
-30,
-32,
-29,
-29,
-30,
-29,
-30,
-30,
-29,
-30,
-28,
-29,
-29,
-32,
-30,
-30,
-30,
-29,
-29,
-30,
-28,
-29,
-30,
-28,
-29,
-32,
-28,
-30,
-29,
-28,
-29,
-30,
-28,
-31,
-29,
-29,
-29,
-31,
-29,
-29,
-29,
-28,
-29,
-28,
-28,
-29,
-30,
-28,
-28,
-31,
-28,
-28,
-29,
-29,
-30,
-28,
-29,
-29,
-28,
-28,
-28,
-29,
-28,
-28,
-28,
-28,
-28,
-28,
-28,
-28,
-28,
-28,
-28,
-30,
-28,
-26,
-28,
-26,
-28,
-26,
-28,
-26,
-28,
-26,
-26,
-28,
-28,
-25,
-28,
-26,
-26,
-26,
-26,
-28,
-28,
-25,
-28,
-30,
-25,
-26,
-25,
-25,
-29,
-26,
-25,
-26,
-28,
-24,
-25,
-28,
-25,
-25,
-26,
-25,
-25,
-26,
-25,
-28,
-28,
-24,
-26,
-26,
-25,
-24,
-25,
-25,
-26,
-25,
-25,
-26,
-28,
-23,
-25,
-28,
-25,
-25,
-25,
-24,
-24,
-25,
-24,
-25,
-26,
-23,
-25,
-24,
-24,
-24,
-24,
-24,
-26,
-23,
-23,
-25,
-26,
-24,
-24,
-26,
-24,
-25,
-25,
-23,
-24,
-23,
-24,
-24,
-26,
-23,
-23,
-26,
-23,
-23,
-25,
-25,
-24,
-24,
-23,
-24,
-26,
-23,
-23,
-23,
-24,
-23,
-24,
-23,
-24,
-24,
-23,
-23,
-25,
-22,
-24,
-24,
-22,
-23,
-23,
-22,
-22,
-23,
-22,
-23,
-23,
-22,
-20,
-23,
-23,
-23,
-23,
-22,
-23,
-22,
-19,
-23,
-23,
-19,
-22,
-22,
-22,
-22,
-22,
-20,
-22,
-22,
-20,
-22,
-22,
-20,
-20,
-22,
-22,
-22,
-22,
-22,
-22,
-22,
-20,
-22,
-23,
-19,
-20,
-22,
-20,
-20,
-20,
-19,
-20,
-22,
-20,
-20,
-20,
-19,
-19,
-22,
-20,
-22,
-22,
-19,
-20,
-19,
-19,
-19,
-22,
-18,
-20,
-20,
-18,
-19,
-20,
-19,
-20,
-20,
-19,
-19,
-20,
-17,
-19,
-20,
-19,
-19,
-19,
-19,
-18,
-18,
-17,
-18,
-20,
-17,
-18,
-18,
-18,
-18,
-19,
-18,
-20,
-18,
-18,
-18,
-19,
-16,
-17,
-18,
-17,
-17,
-17,
-17,
-18,
-17,
-16,
-19,
-19,
-16,
-18,
-18,
-17,
-17,
-16,
-17,
-18,
-17,
-16,
-18,
-16,
-16,
-18,
-17,
-18,
-17,
-18,
-17,
-18,
-16,
-17,
-17,
-18,
-16,
-16,
-16,
-16,
-16,
-16,
-16,
-18,
-16,
-16,
-17,
-17,
-14,
-14,
-17,
-16,
-16,
-16,
-16,
-16,
-14,
-13,
-16,
-18,
-14,
-14,
-16,
-13,
-14,
-16,
-14,
-16,
-16,
-16,
-16,
-17,
-14,
-14,
-16,
-14,
-13,
-14,
-13,
-14,
-14,
-12,
-14,
-16,
-13,
-16,
-14,
-14,
-13,
-13,
-14,
-16,
-13,
-13,
-13,
-14,
-12,
-12,
-14,
-13,
-13,
-14,
-13,
-12,
-12,
-13,
-13,
-16,
-12,
-13,
-14,
-12,
-12,
-12,
-13,
-14,
-13,
-12,
-13,
-14,
-11,
-13,
-12,
-12,
-12,
-13,
-11,
-13,
-12,
-12,
-12,
-14,
-10,
-13,
-12,
-11,
-11,
-11,
-10,
-13,
-11,
-11,
-12,
-12,
-8,
-11,
-12,
-12,
-11,
-12,
-11,
-11,
-10,
-10,
-11,
-13,
-10,
-10,
-10,
-10,
-10,
-10,
-11,
-12,
-11,
-10,
-11,
-11,
-10,
-10,
-11,
-10,
-10,
-10,
-10,
-8,
-10,
-10,
-10,
-11,
-10,
-10,
-10,
-10,
-8,
-10,
-10,
-11,
-8,
-10,
-10,
-8,
-7,
-7,
-10,
-10,
-8,
-10,
-8,
-8,
-7,
-8,
-8,
-10,
-7,
-8,
-10,
-7,
-7,
-8,
-8,
-8,
-8,
-7,
-7,
-7,
-7,
-7,
-8,
-7,
-7,
-8,
-7,
-8,
-8,
-5,
-8,
-8,
-5,
-7,
-8,
-5,
-6,
-6,
-6,
-6,
-6,
-6,
-8,
-7,
-5,
-7,
-7,
-6,
-6,
-6,
-5,
-6,
-6,
-4,
-7,
-6,
-5,
-6,
-7,
-5,
-5,
-5,
-5,
-7,
-6,
-5,
-5,
-5,
-4,
-5,
-6,
-5,
-5,
-5,
-5,
-4,
-5,
-4,
-6,
-6,
-5,
-4,
-7,
-2,
-4,
-4,
-5,
-4,
-4,
-5,
-5,
-4,
-2,
-4,
-4,
-4,
-2,
-2,
-4,
-2,
-4,
-2,
-4,
-5,
-4,
-4,
-4,
-1,
-2,
-1,
-4,
-2,
-2,
-2,
-2,
-2,
-1,
-2,
-4,
-2,
-2,
-4,
-2,
-2,
-2,
0,
-4,
-2,
0,
-2,
-2,
-1,
-1,
0,
-1,
-1,
-1,
-1,
-2,
-1,
0,
-1,
-2,
-1,
-1,
-1,
-1,
-1,
1,
0,
-1,
0,
-1,
-1,
0,
1,
0,
0,
-1,
-1,
0,
1,
-1,
0,
1,
0,
-1,
0,
0,
0,
0,
1,
2,
1,
1,
0,
1,
-1,
0,
1,
1,
1,
2,
0,
1,
0,
0,
1,
2,
1,
1,
1,
2,
1,
1,
2,
2,
2,
0,
1,
2,
2,
0,
2,
1,
2,
2,
1,
2,
2,
1,
2,
3,
2,
2,
2,
2,
2,
3,
3,
3,
2,
1,
1,
3,
2,
1,
5,
3,
3,
2,
2,
5,
2,
3,
3,
5,
3,
2,
3,
3,
3,
3,
3,
5,
3,
3,
3,
5,
3,
3,
5,
6,
3,
3,
3,
5,
5,
3,
5,
6,
5,
2,
5,
5,
6,
5,
6,
6,
7,
5,
3,
5,
5,
3,
7,
6,
5,
5,
5,
6,
6,
5,
6,
7,
6,
6,
5,
7,
6,
7,
6,
7,
7,
6,
5,
7,
6,
5,
7,
7,
6,
7,
7,
6,
7,
5,
8,
8,
8,
6,
7,
7,
8,
7,
8,
8,
8,
7,
7,
8,
8,
7,
8,
8,
8,
8,
7,
8,
8,
7,
9,
8,
9,
7,
8,
8,
8,
8,
8,
8,
8,
8,
7,
7,
9,
8,
9,
9,
9,
8,
9,
9,
9,
8,
9,
9,
9,
8,
8,
9,
8,
11,
9,
9,
11,
9,
9,
11,
11,
9,
11,
12,
9,
11,
9,
11,
11,
9,
9,
12,
9,
9,
11,
11,
11,
11,
11,
12,
13,
9,
12,
13,
12,
9,
12,
12,
12,
12,
11,
12,
12,
11,
9,
13,
12,
12,
12,
12,
12,
12,
12,
12,
13,
12,
9,
13,
12,
11,
13,
13,
13,
12,
13,
13,
13,
13,
14,
14,
13,
13,
12,
13,
13,
13,
13,
14,
13,
12,
12,
14,
13,
12,
13,
14,
14,
13,
13,
13,
14,
14,
14,
14,
14,
12,
14,
13,
14,
14,
14,
14,
15,
13,
14,
15,
14,
13,
15,
15,
15,
14,
14,
14,
14,
13,
15,
17,
14,
14,
14,
14,
15,
15,
15,
14,
15,
15,
14,
17,
15,
14,
17,
17,
15,
15,
14,
15,
17,
15,
15,
17,
17,
15,
17,
17,
15,
15,
15,
17,
17,
15,
15,
17,
15,
15,
17,
18,
18,
17,
15,
18,
17,
17,
18,
18,
17,
15,
17,
17,
17,
17,
18,
18,
18,
17,
15,
18,
18,
17,
17,
19,
19,
18,
18,
18,
17,
18,
18,
19,
18,
17,
17,
19,
18,
18,
18,
19,
18,
18,
18,
20,
18,
18,
19,
19,
19,
19,
19,
18,
19,
18,
18,
19,
19,
18,
19,
18,
19,
20,
20,
20,
20,
20,
18,
20,
20,
19,
20,
20,
20,
20,
18,
19,
19,
20,
19,
21,
19,
20,
20,
21,
20,
20,
21,
20,
20,
19,
20,
21,
20,
18,
20,
21,
21,
20,
20,
20,
21,
20,
21,
21,
21,
20,
20,
21,
21,
21,
21,
20,
21,
21,
20,
23,
21,
20,
21,
21,
23,
23,
20,
21,
21,
21,
21,
23,
23,
20,
21,
21,
21,
21,
21,
24,
23,
20,
21,
24,
23,
21,
23,
23,
24,
23,
21,
21,
23,
21,
24,
24,
23,
20,
23,
23,
23,
23,
24,
24,
24,
21,
21,
25,
23,
23,
23,
24,
23,
24,
21,
23,
24,
24,
23,
25,
24,
24,
23,
24,
24,
25,
24,
24,
24,
24,
21,
25,
24,
24,
25,
25,
25,
24,
24,
25,
24,
26,
24,
24,
25,
24,
25,
25,
25,
24,
24,
25,
25,
25,
23,
25,
25,
24,
25,
25,
26,
25,
24,
25,
25,
25,
25,
26,
25,
25,
25,
25,
25,
25,
24,
26,
26,
25,
24,
29,
25,
25,
26,
26,
26,
26,
25,
26,
26,
24,
26,
26,
26,
24,
26,
26,
26,
26,
26,
26,
27,
25,
26,
26,
26,
26,
26,
26,
26,
26,
26,
26,
26,
26,
27,
27,
26,
26,
26,
26,
27,
27,
27,
27,
26,
26,
24,
27,
27,
26,
27,
27,
27,
27,
26,
29,
27,
27,
27,
27,
29,
26,
27,
27,
27,
27,
27,
27,
29,
27,
26,
29,
27,
27,
29,
27,
29,
29,
29,
26,
27,
27,
29,
27,
27,
26,
27,
27,
27,
29,
29,
30,
29,
29,
26,
29,
29,
29,
29,
30,
29,
29,
27,
29,
27,
29,
27,
31,
29,
29,
29,
29,
29,
29,
29,
30,
30,
29,
27,
30,
30,
27,
29,
30,
30,
29,
29,
30,
30,
29,
30,
31,
30,
29,
30,
29,
30,
29,
29,
29,
30,
30,
27,
30,
30,
29,
30,
30,
30,
31,
29,
30,
30,
29,
30,
30,
30,
30,
30,
31,
30,
30,
30,
30,
31,
30,
30,
31,
31,
27,
30,
31,
30,
30,
30,
29,
31,
30,
30,
31,
31,
30,
31,
31,
30,
30,
31,
31,
31,
30,
29,
31,
31,
30,
31,
30,
31,
30,
29,
31,
30,
31,
31,
31,
30,
30,
31,
31,
31,
32,
31,
32,
31,
30,
30,
31,
30,
30,
31,
32,
31,
31,
30,
31,
31,
31,
32,
32,
31,
31,
31,
31,
31,
31,
31,
31,
31,
30,
31,
31,
32,
31,
32,
32,
32,
32,
31,
31,
31,
30,
32,
31,
31,
27,
32,
31,
32,
31,
32,
32,
32,
31,
30,
32,
31,
31,
32,
32,
32,
32,
31,
31,
32,
31,
31,
32,
31,
32,
31,
32,
32,
32,
32,
32,
32,
32,
30,
32,
31,
31,
32,
32,
32,
32,
31,
32,
32,
32,
33,
32,
33,
32,
32,
32,
32,
32,
32,
32,
31,
32,
32,
31,
32,
32,
33,
32,
33,
32,
32,
32,
32,
31,
33,
32,
32,
32,
32,
32,
32,
32,
32,
32,
33,
32,
32,
33,
32,
32,
34,
33,
32,
32,
32,
32,
32,
32,
33,
34,
32,
31,
32,
32,
32,
32,
32,
33,
33,
32,
32,
33,
32,
33,
33,
33,
33,
33,
32,
32,
32,
32,
32,
33,
32,
32,
32,
32,
32,
32,
33,
33,
32,
32,
32,
32,
32,
32,
32,
33,
33,
32,
32,
32,
32,
32,
33,
33,
34,
33,
32,
33,
33,
32,
33,
31,
32,
32,
32,
32,
33,
32,
32,
33,
33,
33,
32,
33,
33,
32,
33,
33,
32,
32,
32,
32,
32,
33,
32,
34,
32,
32,
32,
34,
32,
33,
33,
32,
32,
33,
30,
32,
33,
31,
33,
32,
32,
33,
32,
32,
32,
32,
32,
32,
33,
32,
32,
32,
33,
33,
32,
33,
32,
32,
32,
32,
32,
32,
32,
32,
32,
32,
32,
32,
32,
32,
32,
32,
33,
32,
31,
32,
32,
32,
32,
33,
32,
32,
31,
32,
32,
32,
31,
33,
32,
32,
32,
32,
32,
32,
31,
32,
32,
32,
31,
32,
32,
31,
32,
33,
32,
32,
31,
32,
32,
32,
32,
32,
32,
32,
32,
32,
32,
32,
32,
32,
32,
30,
32,
32,
32,
32,
32,
31,
32,
31,
30,
31,
32,
32,
32,
32,
31,
32,
32,
32,
32,
32,
32,
32,
31,
32,
32,
32,
32,
32,
32,
32,
32,
31,
30,
31,
32,
31,
31,
32,
32,
31,
31,
31,
31,
31,
32,
31,
32,
32,
29,
31,
31,
31,
32,
32,
32,
31,
31,
31,
31,
31,
30,
31,
31,
30,
32,
31,
31,
31,
31,
32,
32,
31,
30,
32,
31,
30,
31,
31,
31,
31,
30,
31,
31,
30,
31,
32,
31,
30,
30,
32,
31,
31,
31,
32,
31,
31,
30,
31,
30,
30,
32,
30,
31,
30,
30,
30,
30,
30,
30,
31,
31,
31,
30,
31,
31,
30,
31,
31,
31,
30,
30,
29,
30,
30,
31,
30,
32,
30,
30,
30,
30,
30,
30,
31,
31,
30,
30,
30,
30,
30,
29,
30,
30,
30,
29,
30,
30,
29,
30,
30,
30,
29,
29,
30,
30,
29,
27,
30,
30,
29,
30,
30,
29,
30,
30,
30,
31,
29,
27,
31,
29,
27,
30,
30,
30,
29,
27,
27,
29,
27,
30,
29,
30,
27,
30,
29,
29,
30,
30,
30,
29,
27,
26,
29,
29,
27,
29,
29,
29,
29,
27,
27,
27,
29,
27,
29,
29,
27,
29,
27,
27,
27,
29,
29,
29,
27,
26,
27,
27,
27,
29,
29,
27,
29,
27,
27,
29,
27,
27,
27,
29,
27,
26,
27,
27,
27,
26,
29,
27,
26,
26,
27,
26,
26,
29,
29,
27,
27,
26,
27,
29,
27,
27,
26,
26,
26,
26,
27,
26,
27,
26,
26,
27,
27,
25,
29,
27,
25,
27,
26,
26,
26,
26,
26,
25,
26,
25,
26,
26,
26,
26,
27,
25,
26,
26,
26,
26,
26,
25,
26,
25,
25,
26,
27,
26,
25,
24,
26,
25,
24,
26,
26,
26,
25,
25,
25,
26,
26,
25,
26,
25,
26,
24,
25,
24,
24,
25,
25,
25,
25,
24,
25,
24,
24,
26,
25,
25,
23,
25,
24,
25,
24,
24,
25,
26,
24,
24,
24,
24,
24,
25,
25,
24,
24,
24,
24,
25,
23,
24,
24,
24,
23,
24,
24,
24,
24,
24,
24,
25,
23,
21,
24,
24,
20,
23,
24,
24,
23,
21,
21,
23,
23,
23,
24,
24,
23,
23,
23,
23,
23,
23,
21,
23,
23,
21,
21,
21,
21,
23,
23,
23,
23,
21,
21,
21,
21,
21,
23,
23,
23,
21,
21,
23,
21,
23,
21,
21,
21,
20,
21,
20,
20,
21,
21,
21,
20,
21,
21,
20,
21,
21,
23,
21,
21,
20,
20,
20,
20,
20,
21,
21,
20,
20,
21,
20,
20,
20,
21,
20,
20,
20,
20,
20,
20,
20,
20,
21,
20,
20,
21,
20,
20,
20,
20,
20,
20,
18,
21,
19,
20,
20,
20,
20,
19,
18,
20,
19,
20,
18,
20,
20,
19,
20,
19,
19,
19,
19,
20,
20,
18,
19,
19,
18,
18,
20,
20,
19,
17,
18,
18,
19,
19,
19,
18,
19,
18,
18,
18,
18,
18,
18,
18,
18,
17,
18,
18,
17,
18,
19,
18,
18,
18,
18,
18,
18,
18,
19,
18,
18,
15,
18,
17,
18,
17,
18,
18,
18,
17,
15,
19,
17,
15,
18,
18,
18,
18,
15,
15,
17,
14,
17,
18,
17,
15,
15,
17,
15,
17,
15,
17,
18,
15,
15,
17,
15,
14,
17,
15,
14,
15,
14,
15,
15,
15,
15,
17,
15,
14,
14,
14,
15,
15,
14,
15,
14,
14,
14,
14,
14,
14,
17,
15,
14,
14,
14,
14,
15,
14,
14,
14,
14,
12,
13,
14,
14,
14,
15,
14,
14,
13,
13,
14,
13,
14,
14,
14,
14,
14,
14,
13,
13,
13,
13,
13,
13,
12,
13,
13,
13,
14,
14,
13,
14,
13,
12,
13,
12,
12,
13,
13,
12,
12,
12,
12,
12,
13,
12,
13,
12,
12,
12,
12,
11,
13,
12,
12,
12,
12,
9,
13,
12,
11,
12,
12,
12,
11,
9,
11,
12,
11,
9,
12,
11,
9,
9,
9,
11,
11,
11,
11,
11,
9,
9,
11,
9,
9,
11,
11,
11,
11,
11,
9,
9,
9,
9,
9,
9,
8,
8,
9,
9,
9,
9,
9,
11,
9,
8,
11,
9,
8,
11,
9,
9,
9,
8,
7,
8,
9,
8,
8,
8,
8,
8,
8,
8,
8,
9,
9,
9,
7,
6,
9,
8,
6,
8,
7,
8,
8,
6,
7,
7,
7,
7,
7,
7,
7,
8,
7,
7,
7,
7,
7,
8,
7,
5,
7,
6,
6,
8,
7,
6,
7,
5,
7,
7,
6,
7,
7,
6,
6,
6,
6,
6,
5,
6,
7,
7,
5,
5,
6,
6,
6,
7,
6,
7,
3,
3,
6,
5,
3,
5,
6,
5,
3,
5,
5,
5,
5,
5,
5,
5,
5,
3,
6,
5,
3,
5,
5,
3,
3,
3,
3,
3,
3,
3,
5,
3,
3,
3,
3,
3,
5,
3,
3,
3,
3,
2,
5,
2,
1,
2,
2,
3,
3,
2,
2,
2,
2,
3,
2,
2,
3,
2,
2,
2,
2,
2,
3,
2,
2,
1,
2,
0,
2,
3,
2,
2,
2,
1,
2,
2,
1,
2,
1,
1,
1,
1,
1,
1,
1,
1,
2,
1,
1,
0,
2,
0,
0,
2,
1,
1,
1,
0,
0,
0,
0,
0,
1,
1,
-2,
0,
1,
0,
0,
0,
0,
1,
0,
-2,
0,
-1,
-1,
0,
0,
0,
-1,
-2,
-1,
-1,
0,
-2,
-1,
-1,
-2,
0,
-1,
-2,
-1,
-1,
-1,
0,
-2,
-4,
-1,
-2,
-4,
-1,
-1,
-1,
-1,
-2,
-2,
-1,
-2,
-1,
-1,
-1,
-4,
-2,
-2,
-4,
-4,
-2,
-4,
-2,
-2,
-4,
-4,
-2,
-4,
-4,
-2,
-4,
-1,
-4,
-2,
-4,
-4,
-4,
-4,
-4,
-4,
-4,
-4,
-4,
-4,
-4,
-4,
-4,
-5,
-4,
-4,
-4,
-5,
-4,
-4,
-4,
-4,
-5,
-6,
-4,
-6,
-6,
-4,
-5,
-6,
-5,
-5,
-6,
-4,
-5,
-6,
-4,
-5,
-6,
-4,
-5,
-6,
-4,
-6,
-5,
-5,
-6,
-6,
-5,
-7,
-6,
-5,
-6,
-7,
-5,
-5,
-6,
-7,
-5,
-6,
-6,
-8,
-8,
-7,
-6,
-8,
-5,
-6,
-6,
-7,
-8,
-7,
-7,
-8,
-6,
-6,
-6,
-7,
-8,
-7,
-8,
-8,
-8,
-6,
-8,
-8,
-10,
-6,
-8,
-10,
-6,
-7,
-7,
-8,
-10,
-8,
-7,
-10,
-8,
-7,
-8,
-8,
-8,
-10,
-10,
-8,
-8,
-10,
-10,
-10,
-10,
-8,
-8,
-10,
-7,
-8,
-10,
-8,
-11,
-10,
-10,
-10,
-10,
-10,
-10,
-10,
-10,
-10,
-10,
-10,
-10,
-10,
-10,
-10,
-11,
-10,
-11,
-11,
-10,
-11,
-11,
-11,
-11,
-11,
-10,
-12,
-12,
-8,
-10,
-12,
-11,
-11,
-11,
-11,
-11,
-11,
-11,
-12,
-12,
-11,
-12,
-12,
-11,
-11,
-12,
-12,
-14,
-12,
-11,
-13,
-11,
-11,
-11,
-12,
-13,
-12,
-12,
-13,
-12,
-12,
-12,
-13,
-14,
-13,
-13,
-12,
-12,
-13,
-12,
-13,
-14,
-12,
-13,
-13,
-13,
-12,
-14,
-14,
-14,
-16,
-14,
-13,
-13,
-14,
-12,
-13,
-14,
-13,
-14,
-14,
-13,
-12,
-14,
-14,
-14,
-16,
-14,
-14,
-16,
-13,
-14,
-16,
-14,
-14,
-16,
-14,
-14,
-14,
-12,
-14,
-16,
-13,
-14,
-16,
-13,
-14,
-16,
-16,
-16,
-16,
-16,
-17,
-16,
-14,
-16,
-17,
-16,
-16,
-17,
-16,
-16,
-14,
-14,
-17,
-17,
-17,
-16,
-18,
-16,
-16,
-16,
-17,
-16,
-16,
-17,
-17,
-16,
-16,
-16,
-18,
-17,
-17,
-18,
-17,
-17,
-16,
-17,
-17,
-18,
-16,
-17,
-18,
-16,
-17,
-17,
-18,
-17,
-17,
-18,
-18,
-17,
-17,
-18,
-20,
-19,
-17,
-18,
-18,
-19,
-18,
-17,
-18,
-19,
-17,
-18,
-20,
-17,
-17,
-19,
-17,
-20,
-18,
-19,
-19,
-20,
-17,
-20,
-20,
-18,
-19,
-19,
-19,
-18,
-19,
-17,
-19,
-20,
-18,
-18,
-20,
-17,
-19,
-20,
-19,
-20,
-20,
-19,
-20,
-20,
-18,
-19,
-20,
-19,
-19,
-20,
-19,
-20,
-19,
-20,
-20,
-23,
-19,
-22,
-20,
-19,
-20,
-20,
-22,
-22,
-20,
-22,
-22,
-20,
-19,
-22,
-20,
-20,
-20,
-22,
-22,
-20,
-20,
-22,
-23,
-20,
-22,
-22,
-23,
-20,
-20,
-22,
-23,
-22,
-22,
-22,
-23,
-22,
-22,
-22,
-24,
-22,
-23,
-23,
-23,
-22,
-22,
-22,
-24,
-24,
-22,
-23,
-24,
-19,
-23,
-22,
-23,
-23,
-23,
-23,
-24,
-24,
-22,
-24,
-24,
-23,
-23,
-24,
-23,
-23,
-23,
-23,
-24,
-24,
-22,
-24,
-25,
-23,
-24,
-24,
-24,
-24,
-24,
-23,
-25,
-24,
-23,
-24,
-25,
-22,
-25,
-26,
-25,
-24,
-25,
-24,
-25,
-26,
-24,
-25,
-26,
-24,
-24,
-24,
-24,
-26,
-24,
-25,
-25,
-25,
-24,
-25,
-26,
-25,
-25,
-26,
-25,
-25,
-25,
-25,
-26,
-26,
-25,
-26,
-26,
-24,
-25,
-25,
-26,
-26,
-26,
-25,
-26,
-26,
-25,
-26,
-28,
-28,
-25,
-28,
-26,
-26,
-25,
-28,
-28,
-29,
-25,
-28,
-30,
-25,
-25,
-28,
-28,
-26,
-26,
-28,
-29,
-28,
-26,
-28,
-30,
-26,
-28,
-28,
-26,
-26,
-28,
-25,
-28,
-28,
-26,
-28,
-30,
-28,
-29,
-26,
-28,
-28,
-28,
-28,
-28,
-26,
-28,
-28,
-29,
-26,
-29,
-28,
-28,
-28,
-28,
-28,
-29,
-29,
-28,
-28,
-30,
-28,
-28,
-28,
-29,
-28,
-28,
-29,
-28,
-29,
-28,
-28,
-29,
-29,
-29,
-30,
-29,
-29,
-29,
-28,
-30,
-30,
-29,
-29,
-30,
-29,
-29,
-28,
-29,
-30,
-29,
-29,
-30,
-29,
-30,
-30,
-31,
-29,
-29,
-30,
-30,
-29,
-30,
-29,
-29,
-30,
-29,
-30,
-32,
-28,
-30,
-29,
-29,
-31,
-31,
-29,
-30,
-31,
-28,
-30,
-30,
-29,
-30,
-30,
-29,
-30,
-30,
-29,
-30,
-32,
-29,
-31,
-32,
-29,
-31,
-30,
-31,
-32,
-31,
-30,
-31,
-31,
-31,
-31,
-32,
-31,
-32,
-31,
-31,
-30,
-31,
-30,
-32,
-32,
-31,
-32,
-33,
-30,
-30,
-31,
-31,
-32,
-31,
-31,
-31,
-31,
-31,
-31,
-32,
-32,
-31,
-32,
-33,
-32,
-32,
-31,
-32,
-33,
-31,
-31,
-33,
-30,
-30,
-32,
-32,
-33,
-32,
-32,
-32,
-32,
-32,
-31,
-35,
-32,
-32,
-32,
-32,
-31,
-33,
-30,
-33,
-32,
-32,
-32,
-33,
-31,
-31,
-32,
-32,
-32,
-33,
-32,
-33,
-32,
-31,
-32,
-35,
-31,
-33,
-32,
-32,
-33,
-33,
-32,
-33,
-36,
-31,
-35,
-33,
-31,
-33,
-33,
-32,
-35,
-32,
-32,
-33,
-35,
-32,
-33,
-35,
-33,
-32,
-35,
-33,
-33,
-32,
-33,
-36,
-35,
-33,
-35,
-36,
-32,
-33,
-33,
-33,
-36,
-33,
-33,
-35,
-33,
-33,
-35,
-36,
-35,
-35,
-33,
-36,
-33,
-33,
-33,
-35,
-35,
-35,
-35,
-35,
-33,
-33,
-35,
-35,
-36,
-37,
-35,
-36,
-36,
-33,
-35,
-36,
-35,
-33,
-36,
-35,
-33,
-35,
-35,
-36,
-36,
-33,
-35,
-37,
-33,
-35,
-36,
-35,
-35,
-36,
-35,
-36,
-33,
-33,
-35,
-36,
-35,
-36,
-35,
-35,
-35,
-36,
-33,
-36,
-36,
-35,
-36,
-37,
-33,
-36,
-35,
-33,
-35,
-36,
-35,
-36,
-36,
-35,
-36,
-36,
-36,
-36,
-36,
-35,
-36,
-37,
-35,
-36,
-38,
-35,
-35,
-37,
-33,
-33,
-36,
-36,
-36,
-37,
-36,
-36,
-36,
-36,
-35,
-37,
-36,
-36,
-37,
-37,
-35,
-36,
-35,
-36,
-38,
-35,
-37,
-38,
-35,
-36,
-37,
-37,
-36,
-37,
-35,
-37,
-36,
-37,
-36,
-37,
-35,
-36,
-36,
-36,
-36,
-36,
-37,
-38,
-38,
-35,
-37,
-38,
-35,
-38,
-36,
-37,
-37,
-36,
-37,
-37,
-36,
-35,
-36,
-38,
-36,
-37,
-38,
-36,
-36,
-37,
-35,
-37,
-37,
-37,
-37,
-38,
-37,
-36,
-36,
-37,
-38,
-37,
-36,
-38,
-36,
-36,
-36,
-39,
-37,
-38,
-38,
-37,
-36,
-37,
-35,
-37,
-38,
-35,
-37,
-38,
-37,
-37,
-37,
-36,
-37,
-38,
-36,
-37,
-37,
-36,
-36,
-38,
-36,
-37,
-38,
-37,
-37,
-38,
-35,
-37,
-38,
-37,
-37,
-39,
-35,
-38,
-38,
-37,
-38,
-38,
-37,
-37,
-37,
-36,
-36,
-38,
-37,
-38,
-38,
-37,
-37,
-38,
-36,
-38,
-39,
-36,
-38,
-38,
-36,
-39,
-37,
-37,
-38,
-37,
-36,
-39,
-37,
-37,
-37,
-39,
-39,
-37,
-38,
-37,
-37,
-36,
-36,
-37,
-38,
-36,
-38,
-38,
-35,
-36,
-37,
-37,
-38,
-37,
-36,
-38,
-38,
-36,
-37,
-39,
-37,
-38,
-38,
-36,
-37,
-38,
-35,
-37,
-38,
-36,
-37,
-39,
-36,
-38,
-38,
-37,
-38,
-37,
-37,
-38,
-38,
-36,
-37,
-39,
-37,
-37,
-37,
-36,
-37,
-37,
-35,
-38,
-39,
-36,
-38,
-38,
-36,
-37,
-37,
-37,
-37,
-37,
-36,
-38,
-38,
-37,
-37,
-38,
-37,
-38,
-38,
-38,
-37,
-38,
-36,
-37,
-38,
-37,
-37,
-37,
-35,
-38,
-36,
-37,
-38,
-37,
-38,
-38,
-37,
-37,
-37,
-38,
-38,
-37,
-37,
-37,
-37,
-37,
-36,
-38,
-39,
-35,
-37,
-38,
-36,
-38,
-37,
-37,
-38,
-38,
-37,
-37,
-37,
-36,
-37,
-38,
-37,
-38,
-38,
-35,
-37,
-37,
-36,
-37,
-39,
-35,
-37,
-38,
-37,
-37,
-36,
-36,
-38,
-37,
-36,
-38,
-37,
-35,
-36,
-38,
-37,
-37,
-37,
-36,
-37,
-37,
-35,
-38,
-38,
-37,
-37,
-39,
-35,
-37,
-36,
-36,
-38,
-36,
-35,
-38,
-36,
-35,
-37,
-38,
-36,
-37,
-38,
-37,
-36,
-37,
-36,
-36,
-38,
-37,
-37,
-39,
-33,
-37,
-36,
-37,
-37,
-37,
-36,
-38,
-36,
-35,
-35,
-38,
-37,
-36,
-36,
-36,
-36,
-38,
-35,
-37,
-38,
-36,
-37,
-39,
-35,
-36,
-36,
-37,
-36,
-36,
-35,
-38,
-36,
-35,
-36,
-38,
-36,
-36,
-36,
-36,
-35,
-36,
-33,
-38,
-37,
-35,
-37,
-39,
-35,
-36,
-36,
-36,
-36,
-36,
-35,
-37,
-36,
-35,
-35,
-38,
-35,
-36,
-36,
-36,
-35,
-36,
-35,
-37,
-37,
-33,
-36,
-37,
-33,
-35,
-36,
-35,
-35,
-36,
-35,
-35,
-35,
-33,
-35,
-37,
-35,
-35,
-36,
-35,
-33,
-35,
-33,
-36,
-36,
-35,
-35,
-37,
-32,
-33,
-33,
-35,
-35,
-36,
-35,
-36,
-35,
-33,
-35,
-36,
-35,
-33,
-33,
-33,
-35,
-35,
-33,
-33,
-36,
-32,
-35,
-36,
-32,
-33,
-33,
-35,
-35,
-35,
-35,
-33,
-33,
-33,
-33,
-33,
-33,
-33,
-36,
-33,
-33,
-33,
-33,
-35,
-36,
-33,
-33,
-36,
-31,
-33,
-33,
-33,
-33,
-33,
-33,
-35,
-32,
-32,
-33,
-35,
-33,
-32,
-33,
-33,
-33,
-33,
-31,
-35,
-33,
-32,
-35,
-33,
-31,
-32,
-33,
-33,
-33,
-32,
-33,
-33,
-32,
-31,
-33,
-35,
-32,
-32,
-33,
-33,
-33,
-33,
-31,
-32,
-33,
-31,
-32,
-35,
-31,
-31,
-32,
-32,
-33,
-32,
-32,
-32,
-32,
-31,
-32,
-32,
-32,
-31,
-32,
-33,
-31,
-31,
-31,
-32,
-33,
-33,
-32,
-33,
-31,
-32,
-32,
-31,
-32,
-31,
-31,
-32,
-31,
-29,
-30,
-33,
-31,
-30,
-32,
-32,
-31,
-31,
-30,
-32,
-32,
-29,
-31,
-32,
-29,
-30,
-31,
-31,
-31,
-31,
-30,
-33,
-31,
-29,
-32,
-33,
-30,
-32,
-30,
-31,
-31,
-30,
-29,
-31,
-32,
-29,
-31,
-32,
-28,
-30,
-30,
-30,
-30,
-30,
-30,
-30,
-30,
-29,
-30,
-32,
-30,
-29,
-30,
-29,
-30,
-29,
-29,
-30,
-32,
-29,
-30,
-31,
-28,
-29,
-30,
-30,
-30,
-32,
-29,
-29,
-29,
-28,
-28,
-31,
-29,
-29,
-30,
-29,
-30,
-28,
-29,
-30,
-30,
-29,
-29,
-30,
-28,
-28,
-28,
-28,
-29,
-28,
-28,
-28,
-29,
-28,
-28,
-30,
-28,
-29,
-29,
-28,
-29,
-26,
-26,
-29,
-28,
-25,
-29,
-30,
-28,
-28,
-28,
-28,
-29,
-28,
-28,
-30,
-28,
-26,
-28,
-29,
