RLC_R_11.91/ALL0029/2.CSV

Format,1.0B,
Memory Length,10000,
IntpDistance,0,
Trigger Address,4999,
Trigger Level,-2.000E-03,
Source,CH2,
Vertical Units,V,
Vertical Units Div,0,
Vertical Units Extend Div,16,
Label, ,
Probe Type,0,
Probe Ratio,1.000E+00,
Vertical Scale,5.000E-02,
Vertical Position,-9.600E-02,
Horizontal Units,S,
Horizontal Scale,5.000E-05,
Horizontal Position,0.000E+00,
Horizontal Mode,Main,
SincET Mode,Real Time,
Sampling Period,5.000E-08,
Horizontal Old Scale,5.000E-05,
Horizontal Old Position,0.000E+00,
Firmware,V1.24,
Mode,Fast,
Waveform Data,
21,
24,
24,
21,
24,
24,
22,
24,
24,
22,
24,
24,
24,
25,
24,
22,
24,
21,
22,
22,
22,
21,
24,
24,
22,
22,
25,
27,
22,
24,
22,
24,
24,
22,
21,
22,
22,
21,
22,
24,
22,
24,
24,
24,
24,
24,
22,
22,
24,
21,
22,
24,
21,
22,
22,
21,
22,
24,
22,
24,
24,
22,
24,
24,
22,
22,
22,
22,
22,
22,
22,
22,
22,
22,
22,
22,
24,
22,
22,
24,
22,
22,
24,
22,
19,
24,
22,
22,
24,
22,
21,
24,
22,
21,
24,
22,
21,
22,
24,
21,
24,
22,
21,
21,
22,
19,
21,
22,
22,
21,
22,
22,
22,
25,
22,
24,
24,
24,
22,
22,
22,
21,
22,
22,
22,
22,
22,
24,
21,
24,
22,
22,
22,
22,
22,
22,
19,
21,
22,
19,
21,
22,
21,
22,
24,
22,
22,
24,
22,
21,
22,
21,
21,
21,
19,
21,
21,
21,
21,
22,
22,
22,
22,
22,
22,
22,
21,
21,
21,
21,
21,
19,
21,
21,
19,
22,
21,
21,
21,
22,
21,
21,
22,
21,
21,
21,
18,
21,
21,
19,
21,
21,
21,
22,
21,
21,
22,
22,
19,
21,
21,
21,
21,
21,
18,
21,
21,
19,
19,
21,
19,
19,
21,
21,
21,
21,
21,
19,
21,
21,
19,
19,
21,
18,
21,
19,
19,
19,
21,
19,
21,
21,
19,
19,
21,
19,
19,
19,
19,
18,
21,
16,
18,
19,
18,
19,
19,
21,
18,
22,
19,
21,
19,
19,
18,
19,
16,
18,
18,
19,
18,
18,
21,
19,
19,
19,
19,
19,
19,
19,
18,
18,
18,
15,
19,
18,
18,
18,
19,
18,
19,
19,
18,
19,
18,
16,
18,
18,
15,
16,
18,
15,
18,
18,
18,
18,
19,
16,
19,
18,
18,
18,
16,
18,
18,
16,
18,
16,
16,
16,
16,
18,
16,
18,
16,
18,
16,
18,
16,
16,
16,
16,
15,
16,
16,
16,
16,
18,
15,
16,
18,
16,
16,
18,
16,
15,
18,
15,
15,
16,
16,
15,
16,
15,
15,
15,
16,
15,
16,
15,
15,
15,
16,
15,
15,
15,
16,
13,
15,
15,
15,
12,
15,
16,
16,
15,
15,
16,
15,
13,
16,
13,
12,
15,
13,
12,
13,
15,
12,
15,
13,
12,
15,
15,
13,
15,
15,
13,
13,
13,
12,
12,
13,
12,
13,
13,
13,
13,
13,
13,
13,
15,
13,
13,
12,
13,
10,
12,
10,
10,
10,
13,
10,
12,
13,
13,
12,
15,
12,
13,
12,
12,
10,
12,
10,
12,
12,
12,
10,
12,
12,
12,
13,
12,
12,
12,
12,
10,
12,
10,
10,
10,
10,
10,
12,
10,
12,
10,
12,
12,
13,
12,
15,
9,
12,
10,
10,
12,
10,
10,
10,
10,
10,
10,
12,
9,
12,
10,
12,
10,
12,
9,
12,
9,
10,
10,
10,
7,
10,
9,
10,
10,
10,
10,
10,
10,
9,
10,
10,
9,
9,
9,
9,
9,
9,
9,
7,
9,
9,
9,
9,
10,
9,
9,
10,
9,
7,
9,
6,
7,
9,
6,
7,
7,
7,
7,
9,
9,
9,
9,
9,
7,
9,
7,
7,
9,
6,
6,
6,
7,
6,
9,
7,
9,
7,
9,
9,
7,
9,
9,
6,
7,
6,
4,
4,
7,
3,
7,
7,
6,
7,
9,
4,
7,
9,
6,
7,
7,
4,
6,
7,
4,
6,
6,
4,
6,
7,
6,
6,
6,
7,
6,
6,
4,
4,
4,
6,
4,
4,
6,
3,
4,
4,
4,
4,
7,
4,
4,
4,
6,
3,
6,
4,
3,
4,
4,
3,
4,
4,
3,
4,
3,
3,
6,
4,
3,
4,
4,
3,
4,
3,
3,
3,
1,
3,
3,
3,
3,
3,
3,
4,
3,
4,
3,
1,
3,
4,
1,
3,
3,
0,
1,
1,
0,
3,
3,
1,
3,
4,
3,
3,
3,
1,
1,
1,
1,
1,
3,
-2,
1,
0,
1,
1,
3,
1,
3,
1,
3,
1,
3,
0,
0,
0,
0,
-2,
0,
0,
-2,
0,
1,
1,
1,
3,
0,
1,
1,
1,
-2,
0,
-3,
-2,
0,
-2,
-2,
1,
-2,
0,
1,
1,
-2,
1,
-2,
-2,
1,
-2,
0,
-2,
-3,
-5,
1,
-2,
-3,
-3,
0,
-3,
0,
-2,
1,
-3,
0,
-3,
-3,
-2,
-2,
-3,
-3,
-2,
-5,
-2,
-2,
-3,
-3,
0,
-5,
-2,
-2,
-3,
-3,
-2,
-5,
-3,
-2,
-5,
-3,
-3,
-5,
-5,
-2,
-5,
-2,
-5,
-3,
-3,
0,
-3,
-3,
-5,
-3,
-3,
-3,
-3,
-6,
-5,
-5,
-5,
-5,
-3,
-5,
-5,
-3,
-3,
-5,
-3,
-5,
-5,
-5,
-5,
-6,
-5,
-6,
-6,
-5,
-5,
-6,
-3,
-5,
-5,
-5,
-5,
-6,
-5,
-6,
-6,
-6,
-8,
-6,
-3,
-5,
-6,
-5,
-8,
-3,
-6,
-3,
-6,
-3,
-6,
-6,
-6,
-6,
-8,
-8,
-8,
-6,
-6,
-8,
-6,
-6,
-6,
-5,
-6,
-5,
-5,
-6,
-6,
-6,
-8,
-9,
-6,
-9,
-8,
-6,
-8,
-5,
-6,
-8,
-6,
-5,
-8,
-6,
-5,
-9,
-8,
-8,
-8,
-8,
-6,
-11,
-9,
-8,
-8,
-8,
-6,
-8,
-8,
-6,
-8,
-8,
-8,
-8,
-11,
-8,
-9,
-9,
-9,
-9,
-9,
-9,
-8,
-8,
-9,
-8,
-9,
-8,
-9,
-8,
-11,
-8,
-9,
-11,
-9,
-8,
-11,
-9,
-9,
-11,
-9,
-9,
-11,
-9,
-9,
-11,
-9,
-8,
-9,
-9,
-9,
-11,
-9,
-14,
-9,
-11,
-11,
-13,
-9,
-11,
-9,
-11,
-9,
-9,
-9,
-11,
-9,
-11,
-11,
-13,
-11,
-13,
-11,
-13,
-13,
-11,
-11,
-11,
-9,
-11,
-11,
-9,
-11,
-11,
-11,
-11,
-13,
-11,
-14,
-13,
-13,
-13,
-14,
-11,
-13,
-9,
-8,
-11,
-11,
-11,
-11,
-13,
-11,
-13,
-13,
-11,
-16,
-14,
-14,
-13,
-14,
-13,
-13,
-13,
-9,
-13,
-13,
-13,
-11,
-13,
-13,
-13,
-14,
-14,
-14,
-16,
-14,
-13,
-13,
-14,
-13,
-13,
-14,
-13,
-13,
-14,
-13,
-14,
-14,
-13,
-14,
-14,
-14,
-14,
-16,
-14,
-14,
-16,
-14,
-16,
-14,
-14,
-14,
-14,
-16,
-13,
-16,
-14,
-16,
-14,
-16,
-16,
-17,
-14,
-17,
-14,
-16,
-16,
-14,
-14,
-16,
-13,
-16,
-16,
-14,
-14,
-17,
-14,
-16,
-17,
-16,
-17,
-17,
-16,
-14,
-17,
-14,
-16,
-16,
-14,
-16,
-16,
-14,
-16,
-17,
-17,
-17,
-19,
-20,
-17,
-14,
-16,
-17,
-16,
-16,
-17,
-14,
-16,
-16,
-16,
-17,
-17,
-16,
-17,
-17,
-19,
-19,
-19,
-16,
-19,
-17,
-17,
-17,
-17,
-16,
-17,
-17,
-17,
-19,
-17,
-17,
-19,
-19,
-19,
-19,
-17,
-19,
-17,
-17,
-17,
-19,
-16,
-17,
-17,
-19,
-17,
-19,
-16,
-20,
-17,
-19,
-19,
-20,
-19,
-20,
-19,
-19,
-19,
-19,
-17,
-19,
-16,
-19,
-17,
-17,
-19,
-19,
-19,
-19,
-20,
-19,
-20,
-20,
-19,
-19,
-20,
-17,
-20,
-17,
-17,
-17,
-19,
-19,
-20,
-20,
-19,
-20,
-19,
-19,
-19,
-20,
-17,
-19,
-19,
-19,
-20,
-16,
-19,
-19,
-19,
-19,
-19,
-19,
-20,
-20,
-20,
-20,
-20,
-20,
-20,
-19,
-19,
-20,
-19,
-19,
-19,
-19,
-17,
-22,
-19,
-20,
-20,
-20,
-20,
-22,
-20,
-20,
-20,
-20,
-19,
-20,
-19,
-20,
-19,
-20,
-20,
-20,
-20,
-20,
-20,
-20,
-20,
-22,
-20,
-22,
-19,
-20,
-20,
-20,
-20,
-20,
-20,
-19,
-20,
-20,
-20,
-20,
-22,
-20,
-22,
-20,
-22,
-22,
-22,
-20,
-22,
-20,
-20,
-22,
-20,
-20,
-20,
-20,
-22,
-20,
-20,
-23,
-20,
-22,
-23,
-23,
-22,
-22,
-22,
-20,
-22,
-20,
-20,
-20,
-20,
-20,
-22,
-22,
-22,
-22,
-22,
-22,
-23,
-23,
-22,
-22,
-20,
-22,
-20,
-22,
-20,
-20,
-20,
-22,
-22,
-22,
-22,
-22,
-22,
-23,
-22,
-25,
-22,
-22,
-20,
-22,
-20,
-22,
-22,
-20,
-20,
-23,
-22,
-23,
-22,
-22,
-23,
-23,
-22,
-23,
-23,
-22,
-22,
-22,
-22,
-22,
-23,
-22,
-23,
-20,
-23,
-23,
-22,
-23,
-23,
-22,
-23,
-23,
-23,
-23,
-23,
-22,
-23,
-23,
-22,
-23,
-22,
-20,
-22,
-23,
-22,
-23,
-22,
-23,
-25,
-23,
-23,
-25,
-25,
-23,
-23,
-23,
-23,
-22,
-22,
-20,
-22,
-22,
-23,
-22,
-23,
-23,
-25,
-23,
-25,
-23,
-23,
-23,
-23,
-22,
-23,
-23,
-20,
-22,
-22,
-22,
-22,
-23,
-22,
-25,
-23,
-25,
-23,
-25,
-25,
-23,
-23,
-23,
-23,
-23,
-23,
-22,
-22,
-23,
-23,
-23,
-23,
-23,
-23,
-25,
-23,
-23,
-26,
-25,
-23,
-23,
-23,
-23,
-25,
-25,
-25,
-22,
-20,
-23,
-23,
-22,
-23,
-23,
-25,
-25,
-25,
-25,
-25,
-25,
-25,
-25,
-23,
-23,
-23,
-23,
-22,
-23,
-23,
-22,
-23,
-23,
-23,
-23,
-26,
-23,
-26,
-25,
-25,
-25,
-26,
-23,
-23,
-22,
-23,
-23,
-22,
-22,
-22,
-23,
-22,
-25,
-25,
-26,
-23,
-25,
-25,
-23,
-23,
-25,
-23,
-23,
-23,
-23,
-23,
-23,
-22,
-22,
-23,
-23,
-25,
-25,
-25,
-23,
-25,
-23,
-25,
-25,
-23,
-23,
-23,
-23,
-23,
-23,
-23,
-25,
-23,
-23,
-25,
-23,
-23,
-23,
-23,
-23,
-25,
-22,
-23,
-22,
-23,
-23,
-23,
-22,
-20,
-23,
-20,
-23,
-22,
-22,
-23,
-23,
-23,
-25,
-26,
-23,
-25,
-25,
-23,
-25,
-25,
-22,
-23,
-22,
-22,
-22,
-22,
-22,
-23,
-22,
-23,
-23,
-25,
-25,
-25,
-23,
-23,
-25,
-23,
-23,
-22,
-22,
-22,
-22,
-22,
-22,
-22,
-22,
-22,
-23,
-25,
-23,
-23,
-22,
-22,
-22,
-25,
-23,
-22,
-22,
-23,
-22,
-22,
-22,
-20,
-22,
-22,
-20,
-23,
-23,
-22,
-23,
-22,
-22,
-25,
-23,
-22,
-23,
-22,
-22,
-22,
-22,
-22,
-22,
-22,
-22,
-22,
-22,
-22,
-22,
-22,
-23,
-23,
-23,
-23,
-23,
-22,
-23,
-23,
-22,
-22,
-20,
-19,
-20,
-20,
-20,
-22,
-22,
-20,
-23,
-23,
-22,
-23,
-22,
-22,
-23,
-20,
-22,
-20,
-22,
-19,
-20,
-20,
-20,
-20,
-22,
-22,
-22,
-20,
-22,
-22,
-23,
-22,
-22,
-20,
-22,
-20,
-20,
-22,
-20,
-20,
-20,
-20,
-22,
-20,
-20,
-22,
-20,
-22,
-20,
-22,
-20,
-20,
-22,
-20,
-23,
-20,
-20,
-20,
-20,
-19,
-22,
-19,
-20,
-20,
-20,
-19,
-22,
-19,
-20,
-22,
-22,
-20,
-22,
-22,
-20,
-20,
-19,
-20,
-19,
-17,
-19,
-19,
-19,
-20,
-20,
-20,
-20,
-20,
-20,
-23,
-22,
-20,
-20,
-19,
-20,
-19,
-19,
-17,
-19,
-17,
-19,
-20,
-19,
-19,
-20,
-19,
-20,
-20,
-20,
-20,
-20,
-19,
-20,
-19,
-19,
-17,
-17,
-17,
-19,
-19,
-17,
-20,
-19,
-19,
-19,
-19,
-20,
-20,
-19,
-20,
-19,
-19,
-19,
-20,
-17,
-19,
-17,
-19,
-19,
-17,
-17,
-19,
-19,
-17,
-19,
-19,
-19,
-20,
-20,
-17,
-19,
-20,
-19,
-17,
-17,
-17,
-17,
-16,
-17,
-17,
-17,
-17,
-19,
-17,
-20,
-19,
-19,
-19,
-19,
-19,
-19,
-17,
-16,
-19,
-17,
-16,
-17,
-16,
-16,
-17,
-17,
-17,
-20,
-17,
-17,
-19,
-19,
-19,
-17,
-17,
-16,
-17,
-16,
-16,
-17,
-16,
-17,
-17,
-16,
-17,
-16,
-17,
-16,
-17,
-17,
-17,
-17,
-17,
-16,
-17,
-17,
-17,
-16,
-16,
-17,
-14,
-16,
-16,
-17,
-14,
-17,
-14,
-17,
-16,
-16,
-19,
-16,
-16,
-19,
-16,
-16,
-16,
-16,
-14,
-16,
-14,
-14,
-13,
-14,
-13,
-16,
-14,
-14,
-17,
-14,
-17,
-14,
-17,
-13,
-16,
-11,
-14,
-14,
-14,
-14,
-13,
-13,
-14,
-14,
-14,
-16,
-16,
-14,
-16,
-16,
-14,
-16,
-11,
-14,
-13,
-13,
-13,
-14,
-11,
-13,
-13,
-13,
-14,
-16,
-11,
-14,
-14,
-13,
-14,
-16,
-14,
-14,
-13,
-13,
-13,
-14,
-11,
-13,
-11,
-13,
-11,
-13,
-11,
-13,
-11,
-13,
-13,
-13,
-14,
-13,
-13,
-14,
-13,
-11,
-14,
-11,
-9,
-13,
-11,
-11,
-13,
-11,
-11,
-13,
-13,
-11,
-14,
-11,
-11,
-13,
-13,
-11,
-13,
-9,
-11,
-9,
-9,
-9,
-11,
-9,
-11,
-9,
-11,
-11,
-13,
-11,
-13,
-11,
-11,
-11,
-9,
-11,
-9,
-9,
-9,
-11,
-9,
-11,
-9,
-8,
-9,
-11,
-9,
-11,
-9,
-9,
-9,
-11,
-8,
-9,
-11,
-9,
-9,
-9,
-8,
-9,
-8,
-6,
-9,
-8,
-8,
-8,
-9,
-8,
-9,
-9,
-11,
-9,
-9,
-8,
-8,
-8,
-8,
-8,
-8,
-6,
-6,
-8,
-8,
-6,
-8,
-8,
-9,
-8,
-11,
-6,
-11,
-9,
-8,
-6,
-9,
-6,
-6,
-8,
-6,
-6,
-8,
-6,
-6,
-9,
-6,
-6,
-9,
-8,
-6,
-9,
-8,
-6,
-8,
-6,
-6,
-6,
-5,
-5,
-6,
-8,
-5,
-6,
-6,
-6,
-5,
-8,
-6,
-5,
-6,
-8,
-6,
-8,
-6,
-6,
-5,
-6,
-3,
-6,
-5,
-3,
-3,
-6,
-5,
-6,
-5,
-6,
-5,
-8,
-5,
-6,
-9,
-5,
-5,
-5,
-3,
-5,
-5,
-3,
-3,
-3,
-5,
-3,
-5,
-5,
-5,
-5,
-6,
-5,
-6,
-5,
-5,
-3,
-3,
-3,
-3,
-3,
-2,
-3,
-8,
-3,
-2,
-5,
-5,
-3,
-5,
-3,
-5,
-8,
-3,
-3,
-5,
-5,
-2,
-5,
-2,
-2,
-3,
-2,
-2,
-3,
-2,
-2,
-3,
-3,
-2,
-5,
-3,
-2,
-3,
-3,
-3,
-3,
-3,
0,
-2,
-2,
-2,
0,
-2,
0,
-2,
-2,
-5,
-2,
-3,
-3,
-3,
-2,
-5,
0,
-2,
0,
1,
-2,
0,
0,
1,
-2,
1,
-3,
0,
0,
0,
-2,
1,
-2,
-3,
-2,
0,
0,
0,
0,
0,
0,
1,
0,
1,
0,
1,
-2,
1,
0,
-2,
0,
1,
-2,
1,
4,
0,
1,
1,
-2,
3,
1,
1,
3,
4,
1,
1,
3,
1,
3,
1,
0,
1,
1,
-2,
1,
1,
1,
1,
3,
3,
4,
3,
3,
3,
3,
3,
3,
3,
3,
1,
1,
3,
3,
1,
3,
4,
1,
4,
4,
3,
6,
4,
3,
6,
3,
3,
3,
3,
3,
4,
4,
3,
4,
3,
4,
4,
4,
3,
6,
4,
4,
4,
6,
4,
6,
4,
4,
6,
4,
4,
3,
4,
4,
4,
4,
6,
4,
6,
6,
6,
6,
7,
6,
6,
6,
4,
6,
6,
4,
6,
6,
4,
6,
6,
4,
7,
7,
6,
7,
9,
7,
7,
7,
6,
6,
7,
6,
6,
7,
4,
7,
4,
7,
6,
9,
7,
9,
7,
9,
7,
9,
7,
7,
7,
9,
7,
6,
9,
7,
6,
6,
7,
6,
9,
6,
9,
9,
9,
7,
12,
9,
9,
9,
9,
7,
9,
7,
9,
7,
9,
7,
9,
9,
9,
9,
10,
10,
9,
12,
10,
10,
9,
10,
6,
10,
9,
6,
9,
10,
6,
10,
10,
10,
10,
10,
10,
12,
12,
10,
10,
10,
7,
10,
10,
9,
10,
10,
9,
9,
10,
9,
10,
10,
10,
10,
12,
12,
10,
10,
12,
12,
12,
12,
12,
10,
10,
10,
10,
12,
10,
9,
12,
10,
12,
12,
12,
10,
13,
12,
13,
13,
12,
10,
13,
10,
12,
12,
12,
10,
12,
12,
12,
15,
12,
13,
12,
13,
13,
13,
12,
13,
12,
13,
12,
13,
9,
13,
13,
13,
12,
12,
13,
12,
12,
13,
13,
13,
13,
13,
12,
15,
13,
13,
15,
13,
10,
13,
13,
10,
13,
13,
10,
15,
13,
13,
15,
15,
13,
16,
15,
15,
15,
15,
13,
13,
13,
13,
13,
13,
13,
13,
15,
15,
15,
15,
16,
13,
16,
15,
15,
13,
18,
12,
16,
15,
13,
13,
16,
13,
15,
16,
15,
13,
16,
15,
16,
16,
15,
16,
16,
15,
15,
16,
15,
15,
15,
15,
15,
15,
15,
15,
15,
16,
15,
16,
19,
18,
16,
16,
18,
16,
19,
18,
16,
18,
15,
15,
15,
16,
13,
18,
15,
16,
16,
18,
16,
19,
18,
18,
18,
18,
16,
18,
16,
18,
18,
16,
16,
18,
16,
18,
16,
18,
18,
18,
18,
18,
18,
18,
19,
18,
19,
18,
18,
19,
18,
16,
19,
18,
16,
18,
19,
16,
19,
18,
18,
19,
19,
18,
19,
19,
19,
21,
19,
18,
18,
19,
18,
18,
18,
18,
18,
19,
19,
19,
19,
19,
19,
21,
21,
21,
19,
19,
19,
19,
21,
18,
19,
19,
18,
16,
19,
18,
19,
19,
19,
18,
22,
21,
19,
22,
19,
21,
21,
19,
19,
21,
19,
18,
21,
19,
19,
19,
19,
19,
21,
21,
21,
19,
22,
19,
21,
21,
22,
19,
21,
19,
19,
21,
19,
18,
21,
19,
18,
22,
21,
21,
21,
22,
21,
22,
22,
21,
21,
22,
21,
21,
21,
21,
19,
21,
21,
21,
21,
21,
21,
21,
22,
21,
22,
22,
21,
21,
24,
21,
22,
21,
22,
19,
22,
21,
21,
21,
19,
19,
22,
21,
21,
22,
21,
22,
22,
22,
22,
22,
22,
22,
22,
22,
22,
22,
19,
21,
21,
21,
22,
22,
22,
22,
22,
24,
22,
22,
24,
22,
21,
24,
22,
22,
22,
22,
19,
22,
22,
21,
24,
22,
21,
24,
22,
22,
22,
22,
22,
22,
24,
22,
24,
22,
22,
22,
22,
22,
22,
21,
22,
22,
24,
21,
24,
22,
22,
22,
24,
27,
22,
21,
24,
24,
22,
21,
21,
21,
22,
22,
22,
24,
19,
24,
24,
22,
24,
27,
22,
24,
24,
24,
22,
24,
21,
22,
22,
22,
21,
22,
22,
22,
22,
24,
24,
22,
25,
22,
24,
24,
24,
22,
24,
22,
22,
24,
24,
21,
24,
21,
21,
22,
24,
21,
24,
22,
22,
25,
24,
24,
24,
24,
22,
24,
24,
22,
24,
24,
21,
22,
22,
22,
22,
22,
24,
22,
24,
24,
24,
24,
25,
24,
25,
24,
24,
22,
22,
21,
22,
24,
24,
24,
22,
24,
22,
27,
24,
24,
25,
24,
25,
24,
24,
25,
24,
24,
24,
24,
22,
24,
24,
22,
24,
24,
24,
24,
24,
24,
24,
24,
25,
24,
25,
25,
24,
25,
24,
24,
24,
24,
22,
24,
24,
21,
24,
25,
22,
24,
25,
24,
24,
27,
24,
24,
25,
24,
24,
25,
22,
24,
25,
24,
22,
24,
24,
22,
25,
24,
24,
25,
25,
24,
25,
25,
24,
24,
24,
24,
24,
24,
24,
22,
25,
24,
22,
25,
24,
22,
24,
24,
22,
25,
24,
24,
25,
25,
24,
25,
24,
22,
24,
24,
21,
24,
24,
22,
24,
24,
24,
24,
25,
24,
25,
25,
25,
24,
25,
24,
24,
24,
24,
24,
22,
24,
22,
24,
24,
24,
24,
25,
24,
25,
25,
24,
24,
25,
22,
22,
25,
22,
24,
24,
22,
24,
24,
22,
24,
24,
22,
24,
25,
24,
25,
24,
24,
24,
24,
24,
24,
24,
24,
22,
24,
22,
22,
24,
22,
22,
24,
24,
24,
24,
24,
24,
24,
24,
24,
24,
24,
22,
22,
24,
22,
22,
22,
21,
21,
24,
24,
22,
24,
24,
24,
25,
24,
22,
27,
22,
24,
24,
24,
22,
22,
22,
21,
24,
22,
22,
24,
22,
24,
22,
22,
24,
22,
24,
22,
22,
24,
24,
22,
22,
22,
21,
22,
22,
21,
22,
22,
21,
22,
24,
22,
22,
24,
22,
24,
24,
22,
22,
24,
22,
22,
22,
21,
22,
21,
21,
21,
22,
21,
22,
18,
24,
25,
22,
22,
22,
21,
22,
21,
21,
21,
21,
21,
21,
21,
19,
22,
21,
21,
22,
22,
21,
24,
21,
22,
21,
21,
21,
21,
19,
19,
21,
21,
21,
21,
21,
21,
21,
21,
21,
21,
21,
21,
21,
21,
21,
21,
21,
21,
21,
19,
21,
19,
19,
19,
19,
19,
21,
21,
21,
21,
19,
21,
19,
21,
19,
21,
18,
21,
19,
19,
19,
19,
16,
19,
18,
19,
19,
19,
18,
21,
21,
19,
22,
18,
19,
19,
21,
18,
22,
19,
19,
19,
18,
21,
18,
19,
19,
19,
19,
21,
19,
21,
19,
19,
19,
21,
19,
19,
19,
19,
18,
19,
18,
18,
19,
18,
19,
19,
18,
19,
19,
19,
18,
21,
18,
19,
19,
19,
19,
19,
18,
19,
16,
18,
18,
18,
18,
18,
18,
19,
19,
18,
18,
19,
18,
19,
19,
18,
18,
18,
16,
16,
18,
16,
18,
18,
15,
18,
19,
18,
19,
18,
18,
18,
18,
16,
18,
16,
16,
16,
16,
16,
16,
15,
13,
16,
16,
18,
16,
16,
16,
18,
16,
18,
16,
18,
16,
18,
16,
18,
15,
18,
15,
16,
15,
16,
15,
15,
16,
15,
15,
18,
15,
16,
16,
16,
16,
16,
15,
16,
15,
13,
15,
15,
13,
15,
15,
13,
16,
15,
16,
15,
16,
15,
18,
15,
16,
15,
15,
13,
15,
13,
13,
13,
13,
15,
15,
15,
15,
15,
13,
15,
15,
13,
16,
15,
15,
15,
13,
13,
15,
15,
12,
15,
13,
12,
13,
12,
13,
13,
12,
12,
13,
13,
15,
13,
13,
15,
13,
13,
13,
13,
12,
13,
12,
12,
12,
12,
12,
12,
12,
12,
13,
13,
12,
13,
12,
13,
13,
12,
13,
12,
12,
12,
10,
10,
10,
10,
10,
12,
10,
12,
12,
12,
12,
12,
12,
12,
12,
12,
10,
12,
10,
10,
12,
10,
10,
10,
10,
9,
10,
9,
10,
10,
12,
10,
12,
10,
12,
10,
10,
10,
10,
9,
10,
7,
10,
9,
7,
9,
6,
9,
13,
9,
9,
10,
12,
10,
10,
10,
9,
9,
9,
9,
10,
10,
7,
9,
7,
9,
9,
9,
9,
9,
9,
9,
9,
9,
9,
10,
7,
9,
7,
9,
7,
7,
6,
9,
6,
7,
7,
7,
7,
9,
7,
9,
9,
9,
7,
9,
7,
9,
7,
7,
7,
6,
7,
4,
6,
3,
7,
4,
6,
6,
6,
6,
7,
7,
7,
6,
7,
6,
7,
4,
6,
6,
3,
4,
6,
4,
6,
4,
6,
6,
4,
6,
6,
7,
6,
9,
6,
7,
7,
4,
6,
4,
6,
4,
6,
4,
3,
4,
4,
6,
6,
4,
4,
6,
4,
6,
6,
6,
4,
6,
4,
6,
4,
4,
3,
3,
3,
4,
3,
4,
4,
3,
4,
6,
4,
4,
6,
3,
4,
4,
3,
4,
3,
0,
3,
3,
3,
3,
3,
3,
3,
3,
4,
4,
4,
3,
4,
3,
4,
1,
3,
1,
3,
0,
3,
1,
3,
3,
1,
1,
3,
3,
1,
4,
0,
3,
1,
4,
1,
3,
1,
1,
3,
0,
1,
0,
1,
0,
1,
1,
1,
1,
1,
1,
1,
3,
1,
3,
1,
1,
0,
1,
0,
0,
0,
0,
-2,
0,
0,
0,
0,
1,
0,
1,
1,
0,
0,
1,
0,
-2,
1,
-3,
0,
-2,
-2,
-2,
0,
-2,
0,
-2,
0,
-2,
0,
0,
-2,
0,
0,
0,
-2,
0,
-2,
-2,
-2,
0,
-2,
-2,
-3,
-2,
-2,
0,
-3,
-2,
-3,
-2,
-2,
-2,
-2,
-2,
-3,
-2,
0,
-3,
-2,
-3,
-3,
-5,
-2,
-5,
-2,
-3,
-3,
-3,
-2,
-3,
-2,
-2,
-2,
-3,
-2,
-3,
-3,
-3,
-5,
-5,
-5,
-3,
-5,
-3,
-5,
-3,
-5,
-3,
-5,
-3,
-5,
-3,
-6,
-2,
-5,
-5,
-3,
-5,
-5,
-5,
-5,
-6,
-5,
-6,
-6,
-5,
-5,
-8,
-3,
-6,
-5,
-5,
-3,
-5,
-3,
-5,
-5,
-5,
-5,
-6,
-5,
-6,
-6,
-6,
-6,
-6,
-8,
-8,
-6,
-6,
-5,
-6,
-5,
-6,
-5,
-6,
-6,
-5,
-8,
-6,
-8,
-8,
-8,
-11,
-9,
-5,
-6,
-9,
-6,
-6,
-8,
-6,
-8,
-8,
-6,
-6,
-8,
-8,
-8,
-8,
-8,
-8,
-8,
-9,
-9,
-9,
-9,
-9,
-8,
-8,
-9,
-8,
-8,
-8,
-8,
-8,
-8,
-8,
-8,
-9,
-6,
-9,
-11,
-9,
-9,
-11,
-9,
-13,
-9,
-9,
-9,
-9,
-5,
-9,
-9,
-8,
-9,
-9,
-8,
-11,
-11,
-9,
-11,
-13,
-9,
-11,
-11,
-9,
-11,
-9,
-9,
-9,
-11,
-9,
-11,
-9,
-11,
-9,
-11,
-11,
-11,
-11,
-13,
-11,
-13,
-11,
-11,
-13,
-13,
-11,
-13,
-13,
-8,
-8,
-11,
-8,
-13,
-9,
-11,
-9,
-13,
-9,
-13,
-13,
-13,
-11,
-13,
-13,
-13,
-13,
-11,
-11,
-11,
-11,
-11,
-9,
-13,
-9,
-11,
-11,
-13,
-13,
-16,
-14,
-11,
-14,
-13,
-13,
-13,
-14,
-9,
-14,
-13,
-11,
-13,
-13,
-11,
-13,
-13,
-13,
-14,
-14,
-13,
-14,
-14,
-13,
-16,
-14,
-14,
-13,
-14,
-13,
-14,
-14,
-14,
-13,
-14,
-13,
-13,
-13,
-14,
-13,
-14,
-16,
-14,
-14,
-16,
-14,
-16,
-17,
-14,
-13,
-16,
-13,
-14,
-13,
-14,
-13,
-16,
-13,
-16,
-16,
-14,
-17,
-16,
-16,
-16,
-17,
-14,
-16,
-16,
-14,
-13,
-16,
-14,
-16,
-14,
-14,
-14,
-16,
-16,
-17,
-16,
-17,
-16,
-17,
-16,
-17,
-16,
-16,
-16,
-16,
-16,
-16,
-14,
-16,
-14,
-16,
-17,
-17,
-14,
-16,
-17,
-16,
-19,
-17,
-17,
-17,
-17,
-16,
-17,
-14,
-17,
-14,
-16,
-14,
-17,
-17,
-14,
-16,
-17,
-16,
-19,
-19,
-17,
-19,
-19,
-17,
-17,
-17,
-17,
-17,
-16,
-16,
-16,
-16,
-17,
-16,
-19,
-17,
-17,
-19,
-19,
-16,
-20,
-19,
-17,
-17,
-20,
-16,
-19,
-19,
-17,
-19,
-19,
-17,
-17,
-19,
-17,
-17,
-19,
-17,
-19,
-19,
-17,
-20,
-20,
-19,
-19,
-19,
-19,
-19,
-19,
-19,
-17,
-17,
-17,
-19,
-20,
-19,
-19,
-19,
-20,
-20,
-19,
-22,
-20,
-19,
-20,
-20,
-19,
-19,
-17,
-17,
-19,
-17,
-19,
-20,
-20,
-19,
-22,
-20,
-20,
-22,
-20,
-19,
-20,
-20,
-20,
-20,
-19,
-17,
-19,
-19,
-19,
-19,
-19,
-20,
-20,
-20,
-20,
-20,
-20,
-20,
-23,
-22,
-17,
-19,
-23,
-20,
-19,
-20,
-20,
-20,
-20,
-19,
-19,
-20,
-20,
-20,
-22,
-22,
-20,
-23,
-22,
-20,
-22,
-20,
-20,
-22,
-22,
-20,
-20,
-20,
-19,
-20,
-22,
-20,
-23,
-22,
-22,
-23,
-23,
-23,
-23,
-22,
-22,
-20,
-22,
-20,
-20,
-20,
-20,
-20,
-20,
-22,
-22,
-22,
-23,
-22,
-23,
-25,
-22,
-22,
-22,
-22,
-22,
-23,
-22,
-20,
-22,
-20,
-20,
-23,
-20,
-22,
-22,
-22,
-20,
-23,
-22,
-22,
-23,
-22,
-22,
-23,
-22,
-22,
-22,
-22,
-22,
-22,
-22,
-20,
-19,
-20,
-23,
-20,
-23,
-22,
-23,
-22,
-23,
-22,
-23,
-22,
-22,
-20,
-20,
-22,
-20,
-22,
-20,
-22,
-22,
-22,
-25,
-23,
-23,
-23,
-23,
-22,
-25,
-22,
-22,
-22,
-22,
-22,
-22,
-20,
-22,
-23,
-20,
-23,
-22,
-22,
-23,
-23,
-23,
-23,
-25,
-22,
-23,
-23,
-22,
-23,
-22,
-22,
-22,
-20,
-20,
-22,
-22,
-22,
-23,
-23,
-23,
-23,
-23,
-23,
-23,
-22,
-23,
-23,
-23,
-22,
-23,
-20,
-20,
-22,
-22,
-23,
-23,
-22,
-23,
-25,
-23,
-23,
-23,
-23,
-23,
-23,
-22,
-23,
-22,
-22,
-22,
-22,
-22,
-23,
-22,
-23,
-22,
-23,
-23,
-23,
-22,
-23,
-23,
-22,
-23,
-23,
-23,
-22,
-23,
-22,
-22,
-23,
-22,
-22,
-23,
-22,
-25,
-23,
-25,
-23,
-23,
-23,
-25,
-23,
-23,
-23,
-22,
-23,
-22,
-20,
-23,
-23,
-20,
-23,
-23,
-23,
-23,
-25,
-23,
-26,
-26,
-23,
-23,
-23,
-20,
-23,
-23,
-20,
-22,
-22,
-22,
-22,
-23,
-23,
-23,
-25,
-23,
-23,
-23,
-23,
-22,
-23,
-23,
-22,
-23,
-22,
-22,
-23,
-22,
-22,
-22,
-23,
-22,
-23,
-23,
-23,
-23,
-23,
-23,
-23,
-23,
-22,
-23,
-23,
-22,
-22,
-22,
-22,
-22,
-23,
-23,
-22,
-23,
-22,
-23,
-25,
-23,
-23,
-25,
-23,
-23,
-23,
-22,
-22,
-20,
-22,
-22,
-22,
-23,
-23,
-22,
-23,
-23,
-25,
-23,
-26,
-22,
-25,
-22,
-23,
-23,
-22,
-20,
-22,
-22,
-20,
-23,
-23,
-22,
-23,
-23,
-22,
-26,
-23,
-23,
-25,
-23,
-22,
-23,
-22,
-20,
-23,
-22,
-22,
-23,
-22,
-22,
-23,
-23,
-23,
-23,
-25,
-22,
-23,
-23,
-23,
-23,
-23,
-25,
-23,
-20,
-20,
-23,
-23,
-22,
-20,
-22,
-25,
-22,
-23,
-25,
-22,
-25,
-23,
-22,
-23,
-23,
-22,
-23,
-23,
-20,
-22,
-23,
-20,
-22,
-23,
-23,
-23,
-23,
-22,
-23,
-25,
-25,
-23,
-23,
-22,
-22,
-22,
-22,
-22,
-22,
-22,
-20,
-22,
-23,
-22,
-23,
-23,
-23,
-23,
-25,
-23,
-22,
-23,
-22,
-22,
-23,
-20,
-22,
-23,
-22,
-20,
-22,
-23,
-22,
-22,
-22,
-22,
-25,
-23,
-22,
-22,
-22,
-22,
-22,
-22,
-22,
-20,
-22,
-22,
-22,
-22,
-22,
-22,
-25,
-22,
-23,
-23,
-22,
-19,
-22,
-20,
-22,
-22,
-20,
-20,
-20,
-20,
-19,
-22,
-22,
-20,
-22,
-20,
-22,
-23,
-22,
-20,
-22,
-22,
-19,
-23,
-20,
-20,
-20,
-19,
-19,
-20,
-20,
-20,
-22,
-22,
-22,
-23,
-22,
-20,
-22,
-22,
-20,
