RLC_R_11.91/ALL0008/2.CSV

Format,1.0B,
Memory Length,10000,
IntpDistance,0,
Trigger Address,4999,
Trigger Level,-4.000E-01,
Source,CH2,
Vertical Units,V,
Vertical Units Div,0,
Vertical Units Extend Div,16,
Label, ,
Probe Type,0,
Probe Ratio,1.000E+00,
Vertical Scale,5.000E-02,
Vertical Position,-9.800E-02,
Horizontal Units,S,
Horizontal Scale,1.000E-04,
Horizontal Position,0.000E+00,
Horizontal Mode,Main,
SincET Mode,Real Time,
Sampling Period,1.000E-07,
Horizontal Old Scale,1.000E-04,
Horizontal Old Position,0.000E+00,
Firmware,V1.24,
Mode,Fast,
Waveform Data,
-8,
-5,
-5,
-7,
-5,
-7,
-7,
-5,
-7,
-7,
-7,
-7,
-4,
-5,
-5,
-5,
-5,
-4,
-5,
-5,
-2,
-5,
-4,
-5,
-4,
-5,
-5,
-2,
-5,
-8,
-5,
-5,
-4,
-4,
-5,
-4,
-8,
-7,
-4,
-5,
-4,
-7,
-7,
-5,
-5,
-4,
-2,
-5,
-4,
-4,
-4,
-4,
-7,
-5,
-4,
-5,
-2,
-7,
-4,
-4,
-5,
-2,
-2,
-2,
-5,
-5,
-4,
-4,
-2,
-4,
-5,
-4,
-5,
-4,
-4,
-5,
-4,
-4,
-4,
-4,
-5,
-5,
-7,
-4,
-4,
-4,
-4,
-4,
-4,
-4,
-7,
-4,
-4,
-7,
-5,
-16,
-8,
-4,
1,
1,
-4,
-4,
-4,
-4,
-2,
-5,
-5,
-2,
-4,
-4,
-1,
-7,
-4,
-5,
-4,
-1,
-4,
-2,
-5,
-5,
-2,
-4,
-1,
-2,
-4,
-4,
-5,
-5,
-2,
-4,
-2,
-4,
-5,
-4,
-4,
-2,
-5,
-4,
-2,
-2,
-2,
-1,
-2,
-2,
-4,
-2,
-2,
-4,
-2,
-1,
-1,
-1,
-5,
-2,
-5,
-2,
1,
-2,
-1,
-4,
-2,
-1,
-2,
-1,
-2,
-4,
-1,
-2,
1,
-1,
-2,
2,
-1,
-1,
-1,
-4,
-1,
-1,
-1,
-1,
-5,
-2,
-4,
-1,
1,
-2,
-1,
-1,
-2,
-1,
2,
-2,
-2,
-1,
-1,
1,
1,
-1,
-4,
-1,
-2,
-1,
-4,
-4,
-1,
-1,
1,
1,
-2,
-1,
-2,
2,
1,
-1,
1,
-1,
-2,
-1,
-2,
1,
-2,
-2,
4,
1,
-2,
-1,
-2,
4,
2,
-5,
1,
-2,
-1,
1,
-1,
-1,
-2,
-1,
1,
1,
2,
1,
1,
2,
1,
2,
-1,
1,
-1,
1,
1,
-1,
2,
1,
-1,
1,
-2,
-1,
2,
1,
1,
1,
-2,
1,
-1,
1,
1,
-2,
1,
-1,
1,
2,
-1,
1,
13,
7,
-2,
-4,
-2,
-1,
2,
5,
1,
2,
1,
-1,
2,
1,
1,
4,
-1,
2,
1,
-2,
1,
-1,
1,
1,
1,
1,
1,
1,
1,
1,
2,
2,
2,
1,
-1,
1,
2,
2,
2,
1,
1,
2,
4,
2,
-1,
4,
1,
2,
2,
2,
2,
4,
-1,
5,
1,
1,
4,
2,
5,
2,
1,
4,
1,
4,
2,
1,
1,
2,
2,
4,
2,
2,
1,
2,
2,
2,
4,
2,
2,
2,
2,
2,
2,
2,
2,
2,
4,
-1,
2,
4,
2,
2,
-1,
5,
7,
4,
2,
2,
2,
4,
4,
4,
5,
4,
4,
5,
5,
5,
2,
4,
4,
2,
5,
1,
4,
5,
2,
4,
2,
4,
4,
4,
4,
4,
4,
5,
4,
4,
4,
4,
5,
5,
4,
5,
4,
7,
5,
5,
5,
4,
5,
5,
7,
4,
4,
4,
4,
5,
7,
2,
5,
4,
4,
5,
4,
4,
4,
2,
5,
2,
4,
7,
4,
5,
7,
4,
5,
4,
4,
7,
5,
5,
4,
4,
4,
4,
7,
7,
-4,
4,
10,
13,
11,
4,
1,
1,
5,
7,
5,
5,
5,
5,
5,
5,
7,
4,
5,
7,
5,
7,
4,
4,
8,
4,
8,
5,
7,
5,
5,
7,
7,
5,
7,
5,
5,
7,
7,
8,
5,
7,
8,
7,
7,
5,
7,
8,
10,
8,
8,
4,
7,
4,
7,
7,
7,
7,
5,
5,
7,
7,
8,
7,
8,
8,
8,
7,
8,
7,
8,
8,
8,
7,
8,
5,
5,
8,
8,
5,
7,
7,
8,
10,
8,
8,
8,
7,
7,
5,
10,
8,
5,
10,
5,
8,
7,
8,
8,
7,
8,
7,
7,
8,
8,
8,
8,
7,
8,
7,
8,
10,
8,
10,
7,
5,
8,
8,
10,
10,
8,
10,
7,
8,
8,
7,
10,
8,
10,
8,
8,
8,
8,
8,
7,
8,
8,
8,
8,
10,
7,
8,
8,
7,
10,
5,
8,
8,
5,
10,
10,
8,
8,
8,
11,
10,
8,
10,
7,
10,
10,
8,
10,
8,
10,
10,
11,
11,
8,
8,
8,
8,
10,
10,
8,
8,
8,
8,
10,
8,
8,
22,
14,
8,
4,
5,
7,
8,
8,
8,
10,
8,
8,
10,
8,
8,
8,
10,
11,
8,
10,
10,
8,
10,
7,
10,
10,
8,
11,
10,
10,
10,
10,
10,
8,
8,
10,
8,
10,
10,
7,
10,
10,
10,
10,
11,
13,
11,
11,
10,
10,
11,
10,
11,
11,
10,
11,
10,
13,
13,
11,
11,
10,
11,
13,
10,
13,
11,
5,
11,
13,
13,
13,
8,
11,
10,
10,
11,
8,
11,
10,
7,
11,
10,
11,
11,
11,
11,
10,
10,
11,
11,
11,
11,
11,
13,
11,
13,
11,
11,
11,
11,
13,
13,
11,
11,
11,
11,
13,
11,
11,
13,
13,
13,
11,
13,
11,
13,
13,
13,
13,
11,
10,
13,
13,
13,
10,
10,
13,
10,
13,
13,
10,
13,
11,
11,
13,
11,
13,
13,
11,
11,
13,
11,
11,
11,
11,
11,
14,
11,
14,
14,
10,
13,
11,
11,
13,
11,
14,
13,
13,
14,
11,
13,
14,
11,
14,
11,
10,
13,
13,
14,
11,
13,
13,
11,
13,
13,
11,
14,
19,
22,
19,
13,
10,
7,
13,
14,
13,
14,
11,
13,
13,
13,
11,
13,
14,
14,
13,
13,
13,
13,
14,
11,
14,
13,
11,
16,
14,
14,
13,
11,
14,
13,
13,
14,
11,
13,
13,
10,
14,
11,
13,
13,
14,
14,
11,
17,
14,
11,
16,
11,
11,
14,
13,
14,
14,
14,
14,
13,
14,
13,
14,
16,
14,
13,
14,
14,
13,
13,
14,
14,
13,
14,
13,
14,
13,
13,
14,
14,
16,
14,
11,
14,
14,
14,
16,
14,
16,
13,
14,
16,
14,
16,
13,
14,
16,
14,
16,
14,
14,
14,
14,
13,
16,
14,
14,
13,
13,
14,
14,
16,
16,
13,
16,
13,
16,
14,
14,
14,
14,
14,
16,
13,
14,
16,
16,
16,
16,
14,
13,
16,
17,
14,
16,
13,
14,
16,
14,
14,
14,
13,
16,
14,
16,
17,
14,
17,
13,
13,
16,
14,
16,
16,
13,
14,
16,
16,
16,
13,
16,
14,
14,
16,
14,
16,
14,
14,
16,
14,
16,
16,
16,
17,
16,
16,
16,
14,
8,
4,
11,
20,
19,
16,
14,
13,
14,
13,
16,
16,
16,
16,
13,
16,
16,
13,
13,
14,
14,
16,
16,
16,
16,
14,
14,
13,
16,
16,
16,
16,
14,
16,
14,
14,
16,
14,
16,
17,
16,
16,
14,
14,
16,
16,
16,
17,
14,
14,
14,
17,
16,
17,
17,
14,
16,
16,
17,
16,
14,
16,
16,
14,
17,
16,
16,
17,
14,
19,
16,
13,
16,
16,
17,
17,
16,
14,
16,
16,
17,
14,
16,
16,
17,
17,
17,
19,
14,
14,
16,
17,
17,
17,
17,
16,
13,
16,
17,
17,
19,
14,
16,
16,
16,
17,
16,
16,
16,
14,
17,
17,
16,
16,
14,
17,
16,
14,
17,
16,
17,
17,
14,
17,
14,
16,
17,
16,
16,
16,
17,
19,
17,
17,
16,
14,
16,
16,
17,
16,
16,
17,
16,
16,
16,
16,
17,
17,
17,
17,
16,
17,
16,
14,
17,
16,
17,
16,
16,
16,
16,
16,
16,
17,
19,
14,
17,
17,
16,
20,
16,
14,
17,
16,
19,
17,
16,
17,
16,
11,
10,
17,
23,
20,
17,
14,
16,
14,
14,
16,
17,
16,
17,
19,
17,
16,
14,
16,
17,
17,
16,
16,
17,
17,
16,
16,
16,
16,
16,
16,
17,
14,
14,
17,
16,
16,
16,
16,
16,
16,
17,
17,
16,
16,
16,
16,
17,
16,
16,
17,
17,
19,
16,
17,
16,
16,
17,
16,
16,
17,
17,
17,
17,
17,
16,
16,
16,
17,
17,
17,
14,
17,
16,
17,
17,
17,
17,
17,
17,
17,
16,
19,
16,
16,
17,
14,
17,
17,
17,
17,
16,
16,
17,
14,
19,
19,
16,
17,
16,
16,
17,
16,
19,
17,
16,
19,
16,
17,
17,
14,
17,
16,
17,
17,
16,
17,
17,
16,
16,
17,
16,
17,
17,
16,
17,
17,
16,
17,
16,
13,
19,
17,
17,
19,
16,
16,
16,
16,
19,
16,
16,
17,
16,
17,
17,
17,
16,
16,
17,
17,
16,
17,
17,
17,
17,
14,
17,
17,
19,
17,
16,
17,
16,
17,
16,
16,
17,
16,
19,
17,
16,
17,
13,
14,
16,
14,
17,
10,
13,
20,
19,
20,
16,
13,
14,
13,
14,
17,
19,
19,
16,
16,
16,
16,
16,
16,
16,
14,
16,
17,
14,
13,
14,
14,
17,
16,
16,
14,
14,
19,
16,
14,
17,
16,
16,
17,
14,
16,
14,
16,
16,
16,
16,
14,
17,
17,
19,
20,
16,
16,
17,
13,
17,
17,
17,
17,
16,
16,
16,
14,
17,
16,
17,
16,
14,
16,
16,
16,
17,
16,
16,
16,
16,
17,
16,
19,
16,
16,
16,
16,
17,
16,
17,
17,
16,
14,
14,
14,
17,
16,
16,
16,
13,
16,
13,
16,
17,
16,
16,
14,
16,
19,
16,
17,
16,
14,
17,
16,
19,
17,
16,
16,
16,
16,
17,
17,
13,
14,
17,
17,
17,
17,
14,
14,
16,
14,
16,
17,
14,
16,
13,
13,
16,
14,
16,
16,
14,
16,
14,
14,
14,
14,
17,
17,
16,
14,
14,
16,
16,
16,
16,
13,
14,
14,
16,
17,
14,
16,
14,
14,
16,
14,
16,
16,
13,
16,
16,
14,
16,
14,
16,
14,
13,
16,
13,
14,
14,
23,
14,
11,
10,
13,
13,
16,
14,
13,
14,
13,
13,
14,
14,
14,
11,
14,
14,
14,
16,
13,
16,
14,
13,
14,
13,
11,
14,
13,
16,
13,
13,
16,
13,
14,
16,
13,
16,
14,
13,
14,
14,
14,
11,
14,
16,
13,
16,
13,
13,
14,
16,
14,
13,
11,
14,
13,
14,
16,
13,
14,
13,
13,
14,
13,
14,
14,
16,
14,
14,
14,
13,
14,
16,
13,
14,
14,
14,
14,
13,
14,
13,
13,
14,
14,
16,
13,
13,
14,
11,
11,
14,
11,
14,
13,
11,
13,
11,
13,
16,
11,
13,
13,
13,
14,
13,
13,
11,
11,
14,
11,
13,
14,
13,
14,
14,
13,
14,
14,
14,
14,
14,
13,
13,
14,
13,
13,
13,
11,
13,
14,
13,
13,
13,
13,
11,
13,
14,
11,
13,
13,
13,
14,
11,
13,
13,
13,
16,
14,
13,
11,
10,
13,
16,
13,
14,
10,
11,
11,
13,
13,
11,
11,
11,
11,
13,
11,
11,
13,
11,
14,
13,
10,
11,
11,
14,
14,
11,
10,
16,
19,
20,
14,
13,
10,
10,
13,
11,
14,
13,
13,
10,
8,
11,
13,
13,
11,
11,
11,
11,
11,
14,
13,
11,
11,
10,
11,
11,
10,
10,
10,
11,
11,
10,
11,
8,
10,
11,
4,
11,
13,
11,
11,
7,
10,
11,
13,
13,
10,
10,
11,
8,
11,
11,
10,
10,
10,
13,
11,
10,
13,
11,
13,
11,
11,
11,
11,
11,
13,
11,
11,
8,
8,
10,
13,
13,
8,
10,
8,
11,
10,
10,
10,
11,
10,
11,
10,
8,
11,
8,
11,
10,
10,
13,
11,
10,
10,
8,
11,
11,
11,
10,
7,
10,
10,
8,
11,
7,
10,
10,
10,
11,
11,
11,
13,
10,
11,
7,
8,
10,
10,
11,
8,
8,
8,
7,
10,
10,
10,
8,
7,
8,
10,
10,
10,
10,
10,
8,
8,
11,
10,
11,
10,
8,
11,
10,
8,
10,
8,
10,
8,
8,
11,
8,
10,
8,
8,
11,
8,
8,
8,
5,
10,
8,
7,
8,
8,
8,
8,
7,
10,
10,
11,
8,
8,
7,
16,
8,
2,
2,
5,
7,
10,
8,
5,
7,
5,
5,
8,
5,
8,
8,
7,
8,
5,
8,
8,
7,
7,
5,
7,
7,
7,
8,
7,
5,
8,
5,
7,
7,
4,
7,
7,
7,
7,
5,
7,
7,
8,
8,
7,
7,
5,
10,
4,
5,
7,
7,
7,
10,
8,
8,
8,
8,
7,
7,
8,
8,
7,
8,
7,
7,
8,
7,
8,
7,
5,
8,
7,
8,
7,
4,
7,
5,
5,
7,
5,
7,
7,
5,
7,
5,
7,
5,
5,
7,
5,
7,
5,
7,
8,
5,
5,
4,
1,
5,
5,
8,
5,
5,
7,
5,
7,
7,
7,
8,
5,
7,
7,
7,
7,
5,
4,
7,
4,
8,
8,
7,
8,
2,
5,
7,
5,
7,
5,
5,
7,
5,
7,
5,
5,
5,
2,
5,
5,
5,
7,
2,
4,
4,
2,
7,
5,
7,
5,
5,
5,
2,
5,
7,
4,
5,
8,
5,
5,
4,
2,
4,
4,
2,
4,
4,
2,
2,
5,
4,
4,
5,
4,
5,
4,
5,
7,
-2,
1,
8,
7,
8,
4,
2,
4,
2,
5,
4,
2,
5,
2,
4,
4,
2,
4,
-1,
2,
2,
2,
4,
2,
4,
4,
2,
2,
2,
7,
7,
2,
4,
2,
4,
2,
1,
4,
4,
4,
5,
1,
2,
4,
2,
4,
2,
1,
5,
4,
5,
2,
2,
1,
1,
2,
2,
1,
4,
2,
4,
5,
1,
4,
1,
2,
2,
2,
4,
2,
2,
4,
1,
2,
1,
-1,
2,
2,
-1,
1,
1,
4,
2,
1,
2,
1,
4,
2,
2,
4,
1,
2,
2,
-1,
2,
1,
2,
2,
1,
2,
-1,
1,
4,
2,
4,
1,
2,
2,
-1,
2,
2,
-1,
2,
-1,
2,
-1,
-1,
2,
1,
4,
4,
-1,
2,
1,
-1,
1,
-1,
1,
-2,
-1,
2,
1,
1,
1,
-1,
2,
1,
1,
1,
-1,
2,
2,
2,
2,
1,
-1,
1,
1,
1,
-1,
1,
-2,
-1,
1,
-1,
1,
-2,
-1,
2,
1,
1,
1,
-1,
2,
1,
-1,
2,
-1,
2,
-1,
1,
1,
-2,
-1,
-4,
-2,
-1,
-4,
-2,
8,
2,
-4,
-7,
-1,
2,
1,
1,
-1,
-1,
1,
-1,
-1,
-4,
-2,
-1,
1,
-1,
-1,
-2,
-1,
-1,
1,
-2,
-2,
-1,
-2,
1,
-1,
-2,
-1,
-4,
-2,
-2,
-4,
-1,
-2,
-4,
-2,
-5,
-2,
-2,
-2,
-1,
-2,
-2,
-1,
-2,
4,
2,
-1,
-1,
-2,
-2,
-4,
-2,
-1,
-2,
-1,
-4,
-5,
-4,
-2,
-1,
-1,
-1,
-1,
-2,
-1,
-2,
-1,
-1,
-2,
-1,
-2,
-2,
-1,
-4,
-1,
-2,
-4,
-2,
-4,
-2,
-1,
-2,
-2,
-5,
-5,
-2,
-4,
-2,
-4,
-4,
-2,
-4,
-2,
-2,
-7,
-2,
-5,
-2,
-2,
-4,
-1,
-4,
-4,
-1,
-4,
-4,
-1,
-2,
-2,
-5,
-4,
-5,
-7,
-2,
-4,
-2,
-4,
-4,
-4,
-1,
-5,
-2,
-4,
-2,
-4,
-4,
-4,
-5,
2,
-4,
-4,
-7,
-7,
-4,
-5,
-4,
-4,
-8,
-5,
-4,
-7,
-4,
-7,
-4,
-4,
-5,
-4,
-7,
-4,
-4,
-7,
-4,
-5,
-5,
-4,
-4,
-1,
-5,
-5,
-4,
-7,
-4,
-2,
-4,
-4,
-7,
-8,
-4,
-8,
-4,
-4,
-5,
-5,
-8,
-8,
1,
-7,
-13,
-12,
-5,
-7,
-4,
-2,
-5,
-5,
-8,
-10,
-5,
-8,
-5,
-5,
-8,
-5,
-7,
-5,
-7,
-7,
-4,
-4,
-7,
-5,
-7,
-5,
-5,
-7,
-5,
-10,
-5,
-5,
-5,
-5,
-10,
-7,
-8,
-8,
-4,
-7,
-7,
-4,
-10,
-5,
-7,
-8,
-4,
-10,
-7,
-5,
-7,
-4,
-5,
-5,
-8,
-8,
-5,
-5,
-5,
-8,
-7,
-5,
-8,
-7,
-5,
-10,
-8,
-7,
-4,
-5,
-8,
-5,
-7,
-7,
-5,
-8,
-8,
-7,
-7,
-4,
-7,
-7,
-7,
-8,
-7,
-7,
-7,
-8,
-10,
-7,
-7,
-8,
-7,
-10,
-7,
-8,
-8,
-7,
-8,
-7,
-8,
-10,
-8,
-10,
-8,
-7,
-7,
-7,
-8,
-5,
-7,
-7,
-7,
-8,
-8,
-8,
-8,
-7,
-10,
-8,
-4,
-8,
-7,
-7,
-10,
-5,
-8,
-7,
-5,
-8,
-8,
-8,
-8,
-7,
-8,
-8,
-8,
-8,
-5,
-8,
-8,
-7,
-8,
-7,
-7,
-8,
-7,
-10,
-7,
-8,
-8,
-7,
-8,
-8,
-10,
-10,
-10,
-10,
-5,
-8,
-10,
-8,
-10,
-8,
-8,
-10,
-10,
-10,
-10,
-10,
-12,
-8,
-10,
-10,
-8,
-13,
-18,
-13,
-12,
-5,
-8,
-8,
-7,
-12,
-8,
-10,
-12,
-8,
-12,
-10,
-8,
-10,
-10,
-12,
-8,
-8,
-10,
-8,
-10,
-8,
-10,
-12,
-8,
-10,
-10,
-8,
-12,
-12,
-13,
-13,
-10,
-12,
-12,
-10,
-13,
-10,
-12,
-10,
-12,
-12,
-10,
-13,
-8,
-7,
-7,
-8,
-10,
-12,
-10,
-15,
-12,
-10,
-8,
-8,
-10,
-12,
-12,
-10,
-7,
-8,
-10,
-8,
-12,
-8,
-8,
-13,
-8,
-12,
-10,
-10,
-13,
-8,
-13,
-13,
-12,
-15,
-10,
-8,
-8,
-12,
-12,
-12,
-10,
-10,
-10,
-13,
-12,
-12,
-12,
-10,
-12,
-12,
-12,
-12,
-7,
-10,
-12,
-10,
-12,
-10,
-10,
-12,
-10,
-12,
-12,
-8,
-10,
-12,
-13,
-12,
-10,
-10,
-10,
-10,
-15,
-10,
-13,
-10,
-13,
-13,
-12,
-13,
-10,
-12,
-12,
-8,
-12,
-10,
-12,
-13,
-10,
-12,
-13,
-13,
-15,
-12,
-10,
-13,
-12,
-12,
-8,
-12,
-10,
-12,
-12,
-10,
-13,
-12,
-10,
-13,
-12,
-12,
-12,
-12,
-13,
-13,
-12,
-12,
-12,
-12,
-13,
-15,
-16,
-13,
-12,
-13,
-12,
-13,
-12,
-12,
-13,
-12,
-16,
-7,
-19,
-21,
-15,
-13,
-10,
-8,
-13,
-16,
-15,
-15,
-13,
-13,
-12,
-13,
-16,
-13,
-15,
-13,
-13,
-15,
-13,
-15,
-13,
-13,
-13,
-13,
-15,
-13,
-13,
-18,
-13,
-13,
-13,
-13,
-16,
-13,
-13,
-15,
-12,
-15,
-13,
-13,
-15,
-12,
-13,
-12,
-15,
-12,
-10,
-15,
-12,
-13,
-15,
-13,
-15,
-15,
-13,
-13,
-12,
-13,
-16,
-13,
-15,
-12,
-13,
-15,
-15,
-15,
-13,
-10,
-13,
-12,
-16,
-15,
-13,
-13,
-13,
-13,
-15,
-15,
-15,
-15,
-15,
-15,
-13,
-13,
-13,
-15,
-13,
-12,
-15,
-13,
-13,
-15,
-12,
-13,
-13,
-12,
-15,
-13,
-15,
-15,
-13,
-16,
-13,
-13,
-16,
-15,
-18,
-15,
-12,
-16,
-15,
-15,
-16,
-13,
-13,
-13,
-15,
-16,
-15,
-16,
-12,
-15,
-15,
-13,
-16,
-13,
-13,
-16,
-15,
-13,
-13,
-12,
-15,
-15,
-15,
-15,
-13,
-15,
-15,
-15,
-15,
-13,
-15,
-13,
-15,
-16,
-13,
-16,
-13,
-15,
-15,
-15,
-16,
-15,
-13,
-13,
-13,
-16,
-15,
-13,
-15,
-13,
-13,
-16,
-13,
-15,
-13,
-13,
-15,
-15,
-16,
-13,
-15,
-16,
-15,
-12,
-25,
-19,
-16,
-13,
-15,
-13,
-13,
-16,
-15,
-16,
-15,
-15,
-16,
-15,
-18,
-16,
-15,
-18,
-15,
-13,
-16,
-13,
-18,
-16,
-16,
-15,
-13,
-15,
-18,
-15,
-16,
-15,
-16,
-16,
-16,
-18,
-15,
-13,
-16,
-15,
-16,
-16,
-16,
-16,
-15,
-16,
-13,
-15,
-16,
-13,
-16,
-18,
-15,
-13,
-15,
-15,
-16,
-13,
-15,
-13,
-15,
-16,
-15,
-19,
-15,
-13,
-16,
-15,
-16,
-16,
-16,
-16,
-15,
-16,
-18,
-16,
-15,
-15,
-15,
-18,
-15,
-16,
-15,
-16,
-13,
-15,
-15,
-16,
-15,
-18,
-15,
-15,
-15,
-13,
-16,
-15,
-16,
-16,
-18,
-15,
-13,
-15,
-15,
-16,
-16,
-15,
-15,
-18,
-13,
-15,
-13,
-13,
-16,
-15,
-16,
-16,
-15,
-18,
-16,
-15,
-18,
-15,
-15,
-18,
-15,
-16,
-15,
-15,
-15,
-16,
-18,
-15,
-16,
-15,
-16,
-16,
-13,
-16,
-15,
-15,
-15,
-16,
-16,
-16,
-15,
-16,
-15,
-13,
-18,
-16,
-18,
-16,
-12,
-15,
-15,
-16,
-16,
-15,
-16,
-15,
-16,
-16,
-15,
-15,
-16,
-15,
-16,
-15,
-16,
-18,
-15,
-16,
-16,
-16,
-18,
-4,
-18,
-19,
-21,
-21,
-15,
-15,
-15,
-15,
-18,
-16,
-18,
-16,
-16,
-16,
-15,
-16,
-16,
-13,
-18,
-18,
-18,
-15,
-15,
-15,
-18,
-16,
-18,
-16,
-16,
-16,
-15,
-18,
-15,
-16,
-16,
-15,
-18,
-15,
-16,
-19,
-13,
-16,
-13,
-13,
-19,
-16,
-13,
-19,
-12,
-18,
-16,
-18,
-16,
-12,
-16,
-16,
-16,
-16,
-15,
-16,
-16,
-13,
-16,
-15,
-16,
-16,
-16,
-16,
-15,
-13,
-15,
-15,
-16,
-16,
-16,
-15,
-13,
-16,
-16,
-16,
-16,
-13,
-15,
-16,
-15,
-18,
-16,
-15,
-18,
-15,
-16,
-15,
-16,
-18,
-15,
-16,
-16,
-15,
-16,
-15,
-16,
-16,
-15,
-16,
-15,
-15,
-16,
-15,
-16,
-15,
-15,
-15,
-15,
-16,
-15,
-15,
-15,
-13,
-16,
-19,
-16,
-16,
-15,
-15,
-15,
-15,
-16,
-15,
-15,
-16,
-15,
-16,
-15,
-15,
-15,
-15,
-15,
-15,
-15,
-16,
-16,
-15,
-15,
-15,
-18,
-16,
-16,
-16,
-15,
-15,
-16,
-16,
-15,
-15,
-16,
-16,
-15,
-15,
-15,
-16,
-15,
-15,
-16,
-15,
-16,
-18,
-16,
-18,
-12,
-12,
-18,
-16,
-18,
-15,
-13,
-7,
-5,
-12,
-15,
-18,
-18,
-16,
-16,
-15,
-13,
-18,
-15,
-15,
-16,
-13,
-16,
-18,
-15,
-16,
-13,
-15,
-15,
-16,
-16,
-16,
-15,
-16,
-15,
-16,
-15,
-18,
-13,
-13,
-18,
-16,
-15,
-16,
-15,
-16,
-16,
-15,
-16,
-16,
-18,
-18,
-15,
-16,
-10,
-13,
-15,
-13,
-15,
-16,
-15,
-16,
-15,
-15,
-13,
-15,
-16,
-15,
-16,
-13,
-15,
-21,
-13,
-12,
-15,
-13,
-19,
-15,
-12,
-15,
-12,
-13,
-15,
-15,
-16,
-13,
-12,
-15,
-15,
-16,
-15,
-15,
-15,
-13,
-15,
-15,
-18,
-15,
-15,
-13,
-15,
-15,
-13,
-15,
-16,
-13,
-15,
-15,
-13,
-13,
-13,
-13,
-15,
-15,
-16,
-13,
-13,
-16,
-15,
-15,
-13,
-12,
-15,
-15,
-13,
-15,
-12,
-13,
-13,
-13,
-15,
-12,
-13,
-15,
-13,
-13,
-13,
-15,
-12,
-13,
-15,
-13,
-15,
-16,
-13,
-15,
-13,
-15,
-13,
-13,
-16,
-15,
-13,
-13,
-13,
-16,
-15,
-12,
-15,
-13,
-13,
-15,
-13,
-15,
-13,
-12,
-13,
-10,
-13,
-15,
-13,
-15,
-12,
-12,
-13,
-13,
-15,
-13,
-13,
-15,
-13,
-13,
-13,
-2,
-10,
-18,
-21,
-15,
-13,
-12,
-12,
-15,
-15,
-15,
-16,
-12,
-15,
-15,
-12,
-13,
-12,
-13,
-13,
-12,
-16,
-13,
-13,
-16,
-12,
-13,
-15,
-13,
-13,
-12,
-13,
-13,
-13,
-15,
-13,
-15,
-13,
-12,
-13,
-15,
-15,
-15,
-13,
-12,
-15,
-13,
-13,
-15,
-13,
-12,
-10,
-16,
-10,
-12,
-12,
-10,
-12,
-12,
-13,
-13,
-10,
-13,
-12,
-13,
-13,
-12,
-13,
-15,
-13,
-15,
-12,
-12,
-12,
-12,
-16,
-13,
-12,
-13,
-12,
-13,
-13,
-12,
-12,
-10,
-12,
-12,
-12,
-13,
-12,
-10,
-10,
-12,
-12,
-12,
-13,
-13,
-12,
-13,
-10,
-10,
-12,
-12,
-15,
-12,
-12,
-13,
-12,
-12,
-13,
-12,
-12,
-10,
-12,
-10,
-12,
-12,
-10,
-10,
-10,
-10,
-12,
-12,
-13,
-12,
-8,
-12,
-12,
-12,
-12,
-8,
-12,
-10,
-12,
-12,
-10,
-10,
-10,
-10,
-15,
-10,
-13,
-12,
-10,
-12,
-10,
-10,
-15,
-10,
-12,
-12,
-10,
-12,
-10,
-12,
-12,
-8,
-8,
-10,
-10,
-13,
-12,
-10,
-10,
-10,
-12,
-10,
-10,
-10,
-10,
-10,
-10,
-10,
-10,
-10,
-12,
1,
-12,
-16,
-12,
-8,
-8,
-8,
-13,
-12,
-12,
-12,
-12,
-12,
-12,
-13,
-10,
-8,
-13,
-8,
-13,
-12,
-7,
-10,
-8,
-8,
-12,
-8,
-10,
-12,
-10,
-10,
-8,
-10,
-10,
-10,
-12,
-8,
-10,
-10,
-10,
-12,
-10,
-10,
-13,
-8,
-13,
-12,
-8,
-13,
-10,
-8,
-8,
-8,
-8,
-10,
-10,
-10,
-7,
-7,
-12,
-8,
-8,
-7,
-8,
-10,
-8,
-10,
-8,
-7,
-7,
-8,
-12,
-7,
-8,
-10,
-8,
-8,
-7,
-8,
-10,
-8,
-8,
-8,
-8,
-10,
-7,
-7,
-8,
-7,
-10,
-8,
-8,
-12,
-8,
-10,
-8,
-7,
-8,
-7,
-10,
-8,
-8,
-7,
-5,
-5,
-8,
-8,
-8,
-8,
-5,
-7,
-7,
-10,
-7,
-7,
-7,
-8,
-10,
-10,
-8,
-7,
-7,
-10,
-7,
-7,
-8,
-7,
-8,
-8,
-7,
-7,
-5,
-7,
-7,
-7,
-7,
-8,
-7,
-7,
-8,
-8,
-7,
-5,
-8,
-5,
-7,
-7,
-5,
-7,
-5,
-4,
-7,
-7,
-7,
-8,
-5,
-5,
-5,
-7,
-8,
-5,
-7,
-5,
-5,
-7,
-7,
-7,
-5,
-7,
-7,
-5,
-7,
-7,
-5,
-7,
-5,
-13,
-15,
-8,
-4,
-4,
-4,
-7,
-8,
-10,
-8,
-7,
-7,
-5,
-8,
-8,
-8,
-7,
-5,
-5,
-5,
-4,
-7,
-7,
-8,
-7,
-4,
-5,
-5,
-5,
-7,
-4,
-7,
-5,
-5,
-7,
-4,
-5,
-5,
-4,
-7,
-5,
-5,
-5,
-4,
-4,
-5,
-4,
-8,
-4,
-4,
-4,
-4,
-7,
-5,
-5,
-5,
-4,
-7,
-7,
-7,
-7,
-4,
-4,
-4,
-2,
-5,
-4,
-5,
-2,
-4,
-4,
-4,
-4,
-5,
-2,
-4,
-4,
-5,
-5,
-4,
-5,
-4,
-5,
-7,
-4,
-5,
-4,
-4,
-5,
-2,
-2,
-4,
-2,
-4,
-4,
-2,
-4,
-2,
-4,
-4,
-4,
-4,
-4,
-4,
-5,
-4,
-4,
-4,
-2,
-4,
-1,
-4,
-5,
-5,
-5,
-4,
-4,
-4,
-4,
-5,
-1,
-4,
-4,
-2,
-4,
-2,
-2,
-4,
-2,
-4,
-2,
-4,
-4,
-1,
-2,
-2,
-2,
-5,
-2,
-2,
-2,
-1,
-2,
-4,
-1,
-1,
-2,
-2,
-4,
-4,
-2,
-2,
-2,
-4,
-1,
-2,
-4,
-4,
-4,
-2,
-2,
-2,
-4,
-4,
-1,
-4,
-1,
-2,
-4,
-1,
-2,
1,
1,
-4,
-2,
-2,
-12,
-8,
-5,
2,
2,
-1,
-1,
-7,
-2,
-2,
-2,
-2,
-4,
-2,
-1,
-2,
-4,
-5,
-4,
-2,
-2,
-1,
-2,
-2,
1,
-2,
1,
-2,
-4,
-1,
-2,
-1,
-1,
-1,
-2,
-7,
-1,
-1,
-2,
1,
-4,
-2,
1,
-1,
-1,
-2,
-2,
-4,
-2,
-1,
-1,
-1,
-1,
-2,
-1,
-1,
-1,
-1,
-1,
1,
-1,
-1,
-1,
-2,
-1,
1,
-1,
4,
1,
1,
2,
-2,
1,
1,
1,
1,
-1,
1,
-1,
-1,
2,
-1,
1,
-1,
-2,
1,
1,
1,
4,
2,
2,
-1,
1,
1,
1,
1,
-1,
1,
1,
1,
1,
-1,
1,
1,
-1,
1,
2,
-1,
1,
1,
1,
2,
1,
2,
2,
2,
2,
2,
4,
2,
1,
1,
-1,
4,
2,
1,
1,
-1,
1,
2,
2,
1,
1,
1,
2,
1,
4,
-1,
1,
2,
1,
4,
2,
2,
2,
2,
2,
2,
4,
5,
2,
1,
2,
1,
4,
2,
1,
2,
1,
2,
2,
4,
2,
1,
2,
2,
1,
2,
2,
1,
2,
-1,
2,
1,
1,
2,
4,
14,
5,
-2,
-2,
1,
5,
5,
4,
4,
1,
4,
4,
2,
5,
2,
2,
4,
2,
5,
4,
2,
4,
1,
4,
4,
4,
4,
2,
2,
5,
2,
5,
2,
2,
2,
1,
2,
4,
2,
2,
2,
1,
2,
2,
5,
4,
5,
5,
2,
4,
4,
4,
5,
2,
4,
4,
4,
4,
1,
5,
5,
4,
5,
4,
5,
7,
2,
4,
2,
4,
5,
5,
4,
4,
2,
5,
4,
4,
4,
4,
5,
4,
5,
5,
5,
5,
5,
5,
5,
4,
7,
7,
4,
5,
1,
5,
5,
5,
7,
5,
4,
4,
4,
7,
5,
4,
4,
2,
7,
5,
4,
5,
4,
4,
5,
4,
5,
5,
5,
7,
4,
5,
4,
4,
7,
4,
7,
5,
5,
5,
5,
5,
7,
7,
5,
5,
7,
7,
5,
7,
4,
4,
7,
8,
8,
7,
5,
7,
7,
8,
7,
7,
7,
7,
5,
7,
5,
7,
8,
4,
7,
7,
8,
8,
7,
7,
4,
7,
7,
7,
7,
7,
5,
8,
7,
-1,
5,
13,
11,
8,
7,
4,
5,
8,
8,
8,
8,
5,
7,
7,
8,
8,
7,
10,
7,
5,
8,
5,
7,
7,
7,
7,
7,
7,
8,
7,
5,
5,
7,
8,
8,
8,
7,
4,
5,
7,
8,
7,
8,
7,
5,
7,
10,
11,
10,
7,
7,
7,
8,
11,
8,
8,
10,
7,
10,
8,
8,
8,
5,
8,
8,
5,
8,
7,
10,
10,
8,
8,
7,
8,
8,
8,
10,
8,
8,
8,
10,
10,
8,
8,
10,
8,
8,
10,
8,
11,
8,
8,
10,
10,
10,
10,
10,
8,
10,
11,
10,
8,
8,
7,
10,
10,
10,
10,
7,
10,
8,
7,
10,
7,
8,
10,
8,
10,
10,
8,
10,
8,
8,
8,
8,
10,
10,
10,
10,
8,
10,
11,
10,
10,
11,
13,
10,
10,
10,
10,
11,
11,
11,
10,
10,
11,
11,
11,
11,
10,
10,
10,
10,
10,
8,
11,
10,
10,
11,
8,
10,
11,
8,
11,
10,
8,
11,
10,
11,
11,
8,
11,
11,
7,
10,
16,
16,
14,
11,
10,
8,
10,
11,
11,
11,
8,
11,
11,
11,
10,
10,
11,
11,
11,
13,
10,
10,
10,
11,
11,
11,
10,
11,
10,
11,
8,
13,
11,
10,
14,
8,
7,
11,
10,
13,
13,
10,
11,
10,
11,
13,
14,
14,
13,
11,
10,
8,
13,
11,
11,
13,
11,
13,
10,
11,
13,
13,
13,
11,
11,
11,
11,
13,
11,
13,
14,
8,
11,
11,
10,
13,
11,
11,
14,
11,
13,
13,
14,
16,
13,
13,
13,
11,
13,
14,
13,
11,
10,
11,
13,
13,
14,
11,
13,
11,
11,
14,
13,
13,
13,
10,
13,
11,
13,
13,
11,
13,
13,
14,
14,
14,
13,
11,
13,
14,
11,
14,
13,
14,
14,
10,
14,
13,
13,
14,
13,
13,
13,
13,
13,
13,
13,
13,
13,
13,
11,
14,
14,
14,
13,
11,
11,
14,
14,
14,
14,
11,
14,
13,
14,
14,
11,
14,
14,
14,
14,
14,
16,
13,
11,
14,
13,
14,
16,
13,
14,
13,
13,
8,
5,
11,
16,
16,
16,
10,
11,
11,
11,
13,
13,
14,
14,
13,
14,
11,
11,
13,
11,
14,
14,
13,
16,
13,
13,
14,
13,
16,
14,
14,
14,
13,
13,
13,
14,
14,
13,
16,
14,
14,
14,
13,
13,
14,
11,
14,
14,
11,
14,
13,
16,
14,
16,
16,
14,
16,
14,
13,
14,
14,
14,
14,
14,
14,
14,
16,
14,
13,
14,
14,
13,
14,
13,
16,
16,
14,
16,
14,
16,
16,
14,
16,
14,
14,
16,
14,
16,
14,
14,
16,
14,
16,
17,
13,
16,
14,
13,
16,
14,
14,
16,
14,
16,
14,
16,
14,
16,
16,
14,
16,
16,
16,
16,
14,
16,
16,
14,
17,
14,
16,
17,
14,
16,
16,
14,
16,
16,
17,
14,
14,
16,
14,
17,
16,
14,
16,
14,
16,
17,
14,
16,
14,
14,
17,
14,
16,
16,
16,
17,
14,
16,
14,
16,
17,
16,
16,
16,
14,
16,
16,
16,
16,
14,
17,
16,
