RLC_R_2200/ALL0085/2.CSV

Format,1.0B,
Memory Length,10000,
IntpDistance,0,
Trigger Address,4999,
Trigger Level,0.000E+00,
Source,CH2,
Vertical Units,V,
Vertical Units Div,0,
Vertical Units Extend Div,16,
Label, ,
Probe Type,0,
Probe Ratio,1.000E+00,
Vertical Scale,5.000E+00,
Vertical Position,-1.000E+01,
Horizontal Units,S,
Horizontal Scale,1.000E-05,
Horizontal Position,0.000E+00,
Horizontal Mode,Main,
SincET Mode,Real Time,
Sampling Period,1.000E-08,
Horizontal Old Scale,1.000E-05,
Horizontal Old Position,0.000E+00,
Firmware,V1.24,
Mode,Fast,
Waveform Data,
32,
32,
32,
32,
32,
32,
32,
32,
32,
32,
32,
32,
32,
32,
32,
32,
32,
32,
32,
32,
32,
32,
32,
32,
31,
31,
31,
31,
31,
31,
31,
31,
31,
31,
31,
31,
31,
31,
31,
31,
31,
31,
31,
29,
29,
31,
31,
29,
29,
29,
29,
29,
29,
29,
29,
29,
29,
29,
29,
29,
29,
29,
29,
29,
29,
29,
29,
28,
28,
28,
28,
28,
28,
28,
28,
28,
28,
28,
28,
28,
28,
28,
28,
28,
28,
28,
28,
27,
28,
27,
28,
27,
27,
27,
27,
27,
27,
27,
27,
27,
27,
27,
27,
27,
27,
25,
25,
27,
27,
25,
25,
25,
25,
25,
25,
25,
25,
25,
25,
25,
25,
25,
25,
25,
25,
25,
25,
25,
25,
25,
24,
25,
24,
24,
24,
24,
24,
24,
24,
24,
24,
24,
24,
24,
24,
24,
24,
24,
24,
22,
24,
24,
22,
22,
22,
22,
22,
22,
22,
22,
22,
22,
22,
22,
22,
22,
21,
22,
21,
22,
21,
21,
21,
21,
21,
21,
21,
21,
21,
21,
21,
21,
21,
21,
21,
19,
21,
21,
21,
19,
19,
19,
19,
19,
19,
19,
19,
19,
19,
19,
19,
19,
19,
19,
19,
19,
18,
18,
18,
18,
18,
18,
18,
18,
18,
18,
18,
18,
18,
18,
18,
18,
18,
18,
16,
18,
16,
18,
16,
16,
16,
16,
16,
16,
16,
16,
16,
16,
16,
16,
15,
16,
16,
15,
15,
15,
15,
15,
15,
15,
15,
15,
15,
15,
15,
15,
15,
13,
15,
15,
15,
15,
13,
13,
13,
13,
13,
13,
13,
13,
13,
13,
13,
13,
13,
13,
13,
13,
13,
13,
12,
12,
12,
12,
12,
12,
12,
12,
12,
12,
12,
12,
12,
12,
12,
12,
10,
12,
10,
10,
10,
10,
10,
10,
10,
10,
10,
10,
10,
10,
10,
10,
10,
10,
10,
10,
9,
9,
9,
9,
9,
9,
9,
9,
9,
9,
9,
9,
9,
7,
7,
9,
7,
7,
7,
7,
7,
7,
7,
7,
7,
7,
7,
7,
7,
7,
6,
7,
7,
6,
6,
7,
6,
6,
6,
6,
6,
6,
6,
6,
6,
6,
6,
6,
6,
5,
6,
5,
6,
5,
5,
5,
5,
5,
5,
5,
5,
5,
5,
5,
5,
5,
5,
5,
5,
5,
3,
3,
3,
3,
3,
3,
3,
3,
3,
3,
3,
3,
3,
3,
3,
2,
2,
2,
2,
2,
2,
2,
2,
2,
2,
2,
2,
2,
2,
2,
0,
2,
0,
0,
0,
0,
0,
0,
0,
0,
0,
0,
0,
0,
0,
0,
0,
0,
-1,
0,
0,
-1,
-1,
-1,
-1,
-1,
-1,
-1,
-1,
-1,
-1,
-1,
-1,
-3,
-1,
-1,
-3,
-1,
-3,
-3,
-3,
-3,
-3,
-3,
-3,
-3,
-3,
-3,
-3,
-3,
-3,
-3,
-3,
-3,
-4,
-3,
-3,
-4,
-4,
-4,
-4,
-4,
-4,
-4,
-4,
-4,
-4,
-4,
-4,
-6,
-4,
-4,
-6,
-4,
-6,
-6,
-6,
-4,
-6,
-6,
-6,
-7,
-6,
-6,
-7,
-6,
-6,
-7,
-7,
-6,
-7,
-6,
-7,
-7,
-7,
-7,
-7,
-7,
-7,
-7,
-7,
-7,
-7,
-7,
-7,
-9,
-7,
-7,
-9,
-9,
-7,
-9,
-9,
-9,
-9,
-9,
-9,
-9,
-9,
-9,
-10,
-9,
-9,
-10,
-10,
-9,
-10,
-9,
-10,
-10,
-10,
-10,
-10,
-10,
-10,
-12,
-12,
-10,
-10,
-10,
-12,
-12,
-10,
-10,
-12,
-12,
-12,
-12,
-12,
-10,
-12,
-12,
-12,
-13,
-12,
-12,
-13,
-12,
-12,
-13,
-13,
-12,
-13,
-13,
-13,
-13,
-13,
-13,
-15,
-13,
-13,
-13,
-13,
-13,
-15,
-13,
-13,
-15,
-15,
-13,
-16,
-15,
-13,
-15,
-15,
-15,
-15,
-15,
-15,
-15,
-15,
-15,
-16,
-15,
-15,
-16,
-16,
-15,
-16,
-16,
-16,
-16,
-16,
-16,
-17,
-16,
-16,
-16,
-17,
-16,
-17,
-17,
-16,
-17,
-16,
-16,
-19,
-16,
-17,
-17,
-17,
-16,
-17,
-17,
-17,
-19,
-17,
-17,
-19,
-17,
-17,
-19,
-19,
-17,
-19,
-19,
-19,
-19,
-19,
-17,
-20,
-19,
-19,
-19,
-19,
-19,
-20,
-19,
-19,
-20,
-19,
-19,
-22,
-20,
-19,
-20,
-20,
-19,
-20,
-20,
-20,
-20,
-20,
-20,
-22,
-20,
-20,
-20,
-22,
-20,
-22,
-22,
-20,
-22,
-22,
-20,
-23,
-22,
-20,
-22,
-22,
-20,
-22,
-22,
-22,
-23,
-22,
-22,
-23,
-22,
-22,
-23,
-23,
-22,
-23,
-23,
-23,
-23,
-23,
-23,
-25,
-23,
-23,
-25,
-23,
-23,
-25,
-23,
-23,
-25,
-23,
-23,
-25,
-25,
-23,
-25,
-25,
-23,
-25,
-25,
-25,
-26,
-25,
-25,
-26,
-25,
-25,
-26,
-26,
-25,
-26,
-26,
-25,
-26,
-26,
-26,
-28,
-26,
-25,
-28,
-26,
-26,
-26,
-28,
-26,
-28,
-26,
-26,
-28,
-26,
-26,
-28,
-28,
-26,
-28,
-28,
-28,
-28,
-28,
-28,
-29,
-28,
-28,
-28,
-29,
-26,
-29,
-28,
-28,
-29,
-29,
-28,
-31,
-28,
-28,
-29,
-29,
-28,
-29,
-29,
-29,
-29,
-29,
-29,
-31,
-29,
-29,
-31,
-31,
-29,
-31,
-31,
-29,
-31,
-31,
-29,
-32,
-31,
-29,
-31,
-31,
-29,
-31,
-31,
-31,
-31,
-31,
-31,
-32,
-31,
-31,
-31,
-32,
-31,
-32,
-32,
-31,
-32,
-32,
-31,
-34,
-32,
-31,
-34,
-34,
-31,
-34,
-32,
-32,
-34,
-32,
-32,
-34,
-32,
-32,
-34,
-34,
-31,
-32,
-34,
-32,
-34,
-34,
-32,
-35,
-34,
-32,
-34,
-34,
-32,
-34,
-34,
-34,
-34,
-34,
-34,
-35,
-34,
-34,
-35,
-35,
-34,
-34,
-35,
-34,
-35,
-35,
-34,
-37,
-34,
-34,
-35,
-35,
-34,
-35,
-35,
-35,
-35,
-35,
-35,
-37,
-35,
-35,
-37,
-37,
-35,
-37,
-37,
-35,
-37,
-35,
-35,
-37,
-37,
-35,
-37,
-37,
-35,
-37,
-37,
-37,
-37,
-37,
-37,
-38,
-37,
-37,
-37,
-37,
-35,
-38,
-37,
-37,
-38,
-37,
-37,
-39,
-37,
-37,
-38,
-38,
-37,
-38,
-38,
-37,
-38,
-38,
-37,
-38,
-38,
-38,
-39,
-39,
-38,
-39,
-38,
-38,
-39,
-38,
-38,
-39,
-38,
-38,
-39,
-39,
-38,
-39,
-39,
-38,
-39,
-39,
-38,
-39,
-39,
-38,
-39,
-39,
-38,
-41,
-39,
-39,
-41,
-39,
-38,
-41,
-39,
-39,
-41,
-39,
-38,
-41,
-39,
-39,
-41,
-39,
-39,
-41,
-39,
-39,
-41,
-41,
-39,
-41,
-41,
-39,
-42,
-41,
-39,
-41,
-41,
-39,
-41,
-41,
-39,
-42,
-41,
-39,
-42,
-41,
-41,
-42,
-41,
-41,
-42,
-41,
-41,
-42,
-41,
-41,
-42,
-41,
-41,
-42,
-42,
-41,
-42,
-42,
-41,
-42,
-42,
-42,
-42,
-42,
-41,
-44,
-42,
-41,
-42,
-42,
-41,
-44,
-42,
-41,
-44,
-42,
-42,
-44,
-42,
-42,
-44,
-42,
-42,
-44,
-42,
-42,
-44,
-44,
-42,
-44,
-42,
-42,
-44,
-44,
-42,
-44,
-44,
-42,
-44,
-44,
-42,
-45,
-44,
-42,
-44,
-44,
-42,
-45,
-44,
-44,
-45,
-44,
-42,
-45,
-44,
-44,
-44,
-44,
-42,
-45,
-44,
-44,
-45,
-44,
-42,
-45,
-44,
-44,
-44,
-44,
-44,
-45,
-45,
-44,
-45,
-44,
-44,
-45,
-44,
-44,
-45,
-44,
-44,
-45,
-45,
-44,
-45,
-45,
-44,
-45,
-45,
-44,
-45,
-45,
-44,
-47,
-45,
-44,
-45,
-45,
-44,
-45,
-45,
-44,
-45,
-45,
-44,
-47,
-45,
-44,
-47,
-45,
-45,
-45,
-45,
-44,
-47,
-45,
-44,
-47,
-45,
-45,
-47,
-47,
-45,
-47,
-45,
-45,
-45,
-47,
-45,
-47,
-47,
-44,
-47,
-47,
-45,
-47,
-45,
-45,
-47,
-47,
-45,
-47,
-47,
-45,
-47,
-47,
-45,
-47,
-47,
-45,
-47,
-47,
-45,
-47,
-47,
-45,
-47,
-47,
-45,
-48,
-47,
-45,
-47,
-47,
-45,
-47,
-47,
-45,
-47,
-47,
-47,
-47,
-47,
-47,
-47,
-47,
-45,
-48,
-47,
-45,
-48,
-47,
-45,
-48,
-47,
-45,
-47,
-47,
-45,
-48,
-47,
-45,
-48,
-47,
-45,
-48,
-47,
-47,
-47,
-48,
-45,
-48,
-47,
-45,
-48,
-47,
-45,
-48,
-48,
-45,
-47,
-47,
-45,
-48,
-47,
-45,
-48,
-47,
-47,
-48,
-48,
-47,
-47,
-48,
-45,
-48,
-47,
-45,
-48,
-48,
-45,
-48,
-47,
-45,
-47,
-48,
-45,
-48,
-47,
-47,
-48,
-48,
-45,
-48,
-48,
-47,
-47,
-48,
-45,
-48,
-47,
-47,
-48,
-47,
-47,
-48,
-47,
-45,
-47,
-48,
-45,
-48,
-47,
-47,
-48,
-47,
-47,
-48,
-47,
-47,
-47,
-47,
-45,
-48,
-47,
-47,
-48,
-47,
-47,
-48,
-47,
-45,
-47,
-47,
-45,
-48,
-47,
-47,
-48,
-47,
-45,
-48,
-47,
-47,
-48,
-48,
-45,
-48,
-47,
-47,
-48,
-47,
-45,
-48,
-47,
-45,
-47,
-47,
-45,
-47,
-47,
-45,
-48,
-47,
-47,
-48,
-47,
-47,
-47,
-47,
-45,
-47,
-47,
-45,
-48,
-47,
-45,
-48,
-47,
-45,
-48,
-47,
-45,
-47,
-47,
-45,
-47,
-47,
-45,
-48,
-47,
-45,
-47,
-47,
-45,
-48,
-47,
-45,
-47,
-47,
-45,
-48,
-47,
-45,
-47,
-48,
-45,
-48,
-47,
-45,
-47,
-45,
-45,
-48,
-47,
-45,
-47,
-47,
-45,
-47,
-47,
-45,
-47,
-47,
-45,
-48,
-45,
-45,
-47,
-47,
-44,
-47,
-45,
-45,
-47,
-47,
-45,
-48,
-45,
-45,
-45,
-47,
-44,
-47,
-45,
-45,
-45,
-45,
-44,
-47,
-45,
-44,
-45,
-47,
-44,
-47,
-45,
-45,
-45,
-45,
-44,
-47,
-45,
-45,
-45,
-45,
-44,
-47,
-45,
-44,
-45,
-45,
-44,
-47,
-44,
-44,
-45,
-45,
-42,
-45,
-45,
-44,
-45,
-45,
-44,
-47,
-45,
-44,
-45,
-45,
-42,
-45,
-45,
-44,
-45,
-45,
-44,
-45,
-44,
-44,
-45,
-44,
-42,
-45,
-44,
-44,
-44,
-44,
-44,
-45,
-44,
-42,
-44,
-44,
-42,
-45,
-44,
-42,
-45,
-44,
-42,
-45,
-42,
-42,
-44,
-45,
-42,
-44,
-44,
-42,
-44,
-44,
-42,
-45,
-42,
-44,
-44,
-44,
-42,
-44,
-42,
-42,
-44,
-44,
-41,
-44,
-42,
-42,
-44,
-44,
-41,
-44,
-42,
-42,
-42,
-42,
-41,
-44,
-42,
-41,
-42,
-42,
-41,
-44,
-42,
-41,
-42,
-42,
-41,
-44,
-42,
-41,
-42,
-42,
-41,
-44,
-42,
-41,
-42,
-41,
-41,
-42,
-41,
-41,
-41,
-42,
-39,
-42,
-41,
-39,
-42,
-41,
-39,
-42,
-41,
-39,
-41,
-42,
-39,
-42,
-41,
-39,
-41,
-41,
-39,
-41,
-39,
-39,
-41,
-41,
-39,
-41,
-39,
-39,
-41,
-39,
-38,
-41,
-39,
-39,
-41,
-39,
-38,
-41,
-39,
-39,
-41,
-39,
-38,
-41,
-39,
-38,
-39,
-39,
-38,
-41,
-39,
-38,
-39,
-39,
-38,
-39,
-38,
-38,
-39,
-39,
-37,
-39,
-38,
-38,
-39,
-38,
-38,
-39,
-38,
-38,
-38,
-38,
-37,
-38,
-38,
-37,
-38,
-38,
-37,
-39,
-37,
-37,
-38,
-38,
-37,
-38,
-38,
-37,
-38,
-37,
-37,
-38,
-37,
-37,
-37,
-37,
-37,
-38,
-35,
-35,
-37,
-37,
-35,
-37,
-37,
-35,
-37,
-37,
-35,
-37,
-35,
-35,
-38,
-35,
-35,
-37,
-37,
-35,
-37,
-35,
-35,
-35,
-35,
-34,
-37,
-35,
-34,
-37,
-35,
-34,
-35,
-35,
-34,
-35,
-34,
-34,
-37,
-34,
-34,
-35,
-34,
-34,
-35,
-34,
-34,
-34,
-34,
-32,
-35,
-34,
-32,
-34,
-34,
-32,
-34,
-34,
-32,
-34,
-34,
-32,
-34,
-32,
-32,
-34,
-34,
-32,
-32,
-34,
-32,
-32,
-32,
-32,
-34,
-32,
-31,
-32,
-32,
-31,
-32,
-32,
-31,
-32,
-32,
-31,
-32,
-31,
-31,
-32,
-31,
-31,
-31,
-31,
-31,
-31,
-31,
-29,
-32,
-31,
-31,
-32,
-31,
-29,
-31,
-31,
-29,
-31,
-29,
-29,
-31,
-29,
-29,
-31,
-29,
-29,
-29,
-29,
-29,
-29,
-29,
-28,
-31,
-29,
-29,
-31,
-29,
-28,
-29,
-28,
-28,
-28,
-28,
-28,
-29,
-28,
-28,
-29,
-28,
-28,
-28,
-28,
-28,
-28,
-28,
-26,
-29,
-28,
-26,
-28,
-28,
-26,
-28,
-28,
-26,
-28,
-26,
-26,
-28,
-26,
-26,
-28,
-26,
-26,
-26,
-26,
-25,
-26,
-25,
-25,
-28,
-25,
-25,
-26,
-26,
-25,
-26,
-25,
-25,
-25,
-25,
-25,
-26,
-25,
-23,
-26,
-25,
-23,
-25,
-25,
-23,
-23,
-23,
-23,
-26,
-23,
-23,
-25,
-23,
-22,
-23,
-23,
-23,
-23,
-23,
-23,
-25,
-23,
-23,
-23,
-23,
-22,
-23,
-22,
-22,
-22,
-22,
-22,
-23,
-22,
-22,
-22,
-22,
-20,
-22,
-22,
-20,
-22,
-20,
-22,
-22,
-20,
-20,
-22,
-22,
-20,
-20,
-20,
-20,
-20,
-20,
-20,
-22,
-20,
-20,
-20,
-20,
-19,
-20,
-20,
-19,
-20,
-19,
-19,
-20,
-19,
-19,
-19,
-19,
-19,
-19,
-19,
-17,
-19,
-19,
-17,
-20,
-19,
-17,
-19,
-17,
-17,
-19,
-17,
-17,
-17,
-17,
-17,
-19,
-17,
-17,
-19,
-17,
-16,
-17,
-17,
-16,
-16,
-16,
-16,
-19,
-16,
-16,
-16,
-16,
-16,
-16,
-16,
-15,
-16,
-16,
-15,
-16,
-15,
-15,
-16,
-15,
-15,
-16,
-16,
-15,
-15,
-15,
-15,
-16,
-15,
-15,
-16,
-15,
-13,
-15,
-15,
-13,
-15,
-13,
-13,
-15,
-13,
-13,
-15,
-13,
-13,
-13,
-13,
-13,
-13,
-13,
-12,
-13,
-13,
-12,
-13,
-12,
-12,
-13,
-13,
-12,
-12,
-12,
-12,
-12,
-12,
-10,
-13,
-12,
-10,
-12,
-12,
-10,
-12,
-10,
-10,
-12,
-10,
-10,
-12,
-10,
-10,
-10,
-10,
-10,
-10,
-9,
-10,
-10,
-9,
-9,
-10,
-9,
-9,
-9,
-10,
-9,
-9,
-9,
-9,
-9,
-9,
-9,
-9,
-7,
-7,
-9,
-9,
-7,
-7,
-7,
-7,
-9,
-7,
-7,
-7,
-7,
-7,
-7,
-7,
-7,
-7,
-6,
-7,
-7,
-7,
-6,
-7,
-6,
-6,
-6,
-7,
-6,
-6,
-6,
-6,
-6,
-6,
-6,
-6,
-4,
-4,
-6,
-6,
-4,
-4,
-4,
-4,
-4,
-4,
-4,
-4,
-4,
-3,
-4,
-4,
-3,
-4,
-3,
-3,
-4,
-3,
-3,
-4,
-3,
-3,
-3,
-3,
-3,
-3,
-3,
-3,
-3,
-3,
-3,
-3,
-1,
-1,
-1,
-1,
-1,
-1,
-1,
-1,
-1,
-1,
-1,
-1,
-1,
-1,
-1,
-1,
0,
0,
-1,
0,
-1,
0,
0,
-1,
0,
0,
0,
0,
0,
0,
0,
0,
0,
2,
0,
0,
2,
2,
0,
0,
2,
2,
2,
2,
2,
2,
2,
2,
2,
2,
2,
2,
3,
2,
3,
3,
3,
3,
3,
2,
3,
3,
3,
3,
3,
3,
5,
3,
3,
3,
5,
3,
5,
5,
5,
5,
5,
5,
5,
5,
5,
5,
5,
5,
5,
5,
5,
5,
6,
6,
6,
6,
6,
6,
6,
6,
6,
6,
6,
6,
6,
6,
6,
6,
6,
6,
7,
6,
7,
7,
7,
7,
7,
7,
7,
7,
7,
7,
7,
7,
7,
9,
7,
7,
9,
9,
9,
9,
9,
9,
9,
9,
9,
9,
9,
9,
9,
9,
10,
9,
9,
9,
10,
9,
10,
10,
10,
10,
10,
10,
10,
10,
10,
10,
10,
10,
12,
10,
12,
10,
12,
12,
12,
12,
12,
12,
12,
12,
12,
12,
12,
12,
12,
13,
13,
12,
12,
13,
13,
12,
13,
13,
13,
13,
13,
13,
13,
13,
13,
15,
13,
13,
15,
15,
13,
13,
15,
15,
15,
15,
15,
15,
15,
15,
15,
15,
15,
15,
15,
15,
15,
16,
15,
16,
16,
16,
16,
16,
16,
16,
16,
16,
16,
16,
16,
16,
16,
16,
18,
16,
18,
16,
18,
18,
18,
18,
18,
18,
18,
18,
18,
18,
18,
18,
18,
18,
19,
19,
18,
19,
19,
18,
19,
19,
19,
19,
19,
19,
19,
19,
19,
19,
19,
19,
21,
19,
21,
21,
19,
21,
21,
21,
21,
21,
21,
21,
21,
21,
21,
21,
21,
21,
21,
21,
21,
22,
22,
22,
22,
22,
22,
22,
22,
22,
22,
22,
22,
22,
22,
22,
22,
22,
24,
22,
22,
24,
24,
24,
22,
24,
24,
24,
24,
24,
24,
24,
24,
24,
24,
24,
24,
24,
24,
24,
25,
24,
25,
25,
25,
25,
25,
25,
25,
25,
25,
25,
25,
25,
25,
25,
25,
25,
25,
25,
25,
25,
27,
25,
27,
25,
27,
27,
27,
27,
27,
27,
27,
27,
27,
27,
27,
27,
28,
27,
27,
27,
27,
28,
28,
28,
28,
28,
28,
28,
28,
28,
28,
28,
28,
28,
28,
28,
28,
28,
29,
28,
29,
28,
28,
29,
28,
29,
29,
29,
29,
29,
29,
29,
29,
29,
29,
29,
29,
29,
29,
29,
29,
29,
31,
29,
31,
31,
31,
31,
31,
31,
31,
31,
31,
31,
31,
31,
31,
31,
31,
31,
31,
31,
31,
32,
31,
31,
32,
31,
32,
32,
32,
32,
32,
32,
32,
32,
32,
32,
32,
32,
32,
32,
32,
32,
32,
32,
32,
32,
32,
32,
34,
32,
34,
32,
32,
34,
32,
34,
34,
34,
34,
34,
34,
34,
34,
34,
34,
34,
34,
34,
34,
35,
35,
35,
35,
34,
35,
35,
34,
35,
35,
35,
35,
35,
35,
35,
35,
35,
35,
35,
35,
35,
35,
35,
35,
35,
35,
35,
37,
35,
37,
35,
37,
37,
37,
37,
37,
37,
37,
37,
37,
37,
37,
37,
37,
37,
37,
37,
37,
37,
37,
37,
37,
37,
37,
37,
37,
38,
37,
37,
37,
38,
38,
37,
38,
38,
38,
38,
38,
38,
38,
38,
38,
38,
38,
38,
38,
38,
38,
38,
38,
38,
38,
38,
38,
38,
40,
38,
40,
38,
40,
40,
40,
40,
40,
40,
40,
40,
40,
40,
40,
40,
40,
40,
40,
40,
40,
40,
40,
40,
40,
40,
40,
40,
40,
40,
40,
40,
40,
40,
40,
41,
41,
41,
41,
41,
41,
41,
41,
41,
41,
41,
41,
41,
41,
41,
41,
41,
41,
41,
41,
41,
41,
41,
41,
41,
41,
41,
41,
41,
41,
41,
41,
43,
41,
41,
43,
43,
43,
43,
43,
43,
43,
43,
43,
43,
43,
43,
43,
43,
43,
43,
43,
43,
43,
43,
43,
43,
43,
43,
43,
43,
43,
43,
43,
43,
43,
43,
43,
43,
43,
43,
43,
43,
43,
43,
44,
43,
44,
44,
44,
44,
44,
44,
44,
44,
44,
44,
44,
44,
44,
44,
44,
44,
44,
44,
44,
44,
44,
44,
44,
44,
44,
44,
44,
44,
44,
44,
44,
44,
44,
44,
44,
44,
44,
44,
44,
44,
44,
44,
44,
44,
44,
44,
44,
44,
44,
44,
46,
46,
46,
46,
46,
46,
46,
46,
46,
46,
46,
46,
46,
46,
46,
46,
46,
46,
46,
46,
46,
46,
46,
46,
46,
46,
46,
46,
46,
46,
46,
46,
46,
46,
46,
46,
46,
46,
46,
46,
46,
46,
46,
46,
46,
46,
46,
46,
46,
46,
46,
46,
46,
46,
46,
46,
46,
46,
46,
46,
46,
46,
46,
46,
46,
46,
46,
46,
46,
46,
46,
46,
46,
46,
47,
46,
47,
47,
47,
46,
46,
47,
47,
46,
47,
46,
47,
47,
47,
47,
47,
47,
47,
46,
47,
47,
47,
47,
47,
47,
47,
47,
47,
47,
47,
47,
47,
47,
47,
47,
47,
47,
47,
47,
47,
47,
47,
47,
47,
47,
47,
47,
47,
47,
47,
47,
47,
47,
47,
47,
47,
47,
47,
47,
47,
47,
47,
47,
47,
47,
47,
47,
47,
47,
47,
47,
47,
47,
47,
47,
47,
47,
47,
47,
47,
47,
47,
47,
47,
47,
47,
47,
47,
47,
47,
47,
47,
47,
47,
47,
47,
47,
47,
47,
47,
47,
47,
47,
47,
47,
47,
47,
47,
47,
47,
47,
47,
47,
47,
47,
47,
47,
47,
47,
47,
47,
47,
47,
47,
47,
47,
47,
47,
47,
47,
47,
47,
47,
47,
47,
47,
47,
47,
47,
47,
47,
47,
47,
47,
47,
47,
47,
47,
47,
47,
47,
47,
47,
47,
47,
47,
47,
46,
47,
47,
47,
47,
46,
47,
46,
47,
46,
46,
46,
46,
46,
47,
46,
46,
46,
46,
46,
46,
46,
46,
46,
46,
46,
46,
46,
46,
46,
46,
46,
46,
46,
46,
46,
46,
46,
46,
46,
46,
46,
46,
46,
46,
46,
46,
46,
46,
46,
46,
46,
46,
46,
46,
46,
46,
46,
46,
46,
46,
46,
46,
46,
46,
46,
46,
46,
46,
46,
46,
46,
46,
46,
46,
46,
46,
46,
46,
46,
46,
46,
46,
46,
46,
46,
46,
46,
44,
44,
44,
44,
44,
44,
44,
44,
44,
44,
44,
44,
44,
44,
44,
44,
44,
44,
44,
44,
44,
44,
44,
44,
44,
44,
44,
44,
44,
44,
44,
44,
44,
44,
44,
44,
44,
44,
44,
44,
44,
44,
44,
44,
44,
44,
44,
44,
43,
44,
44,
43,
43,
43,
43,
43,
43,
43,
43,
43,
43,
43,
43,
43,
43,
43,
43,
43,
43,
43,
43,
43,
43,
43,
43,
43,
43,
43,
43,
43,
43,
43,
43,
43,
43,
43,
43,
43,
43,
43,
41,
43,
43,
43,
43,
43,
43,
41,
43,
41,
41,
41,
41,
41,
41,
41,
41,
41,
41,
41,
41,
41,
41,
41,
41,
41,
41,
41,
41,
41,
41,
41,
41,
41,
41,
41,
41,
41,
40,
41,
40,
40,
40,
40,
40,
40,
40,
40,
40,
40,
40,
40,
40,
40,
40,
40,
40,
40,
40,
40,
40,
40,
40,
40,
40,
40,
40,
40,
40,
40,
40,
40,
38,
38,
38,
38,
38,
38,
38,
38,
38,
38,
38,
38,
38,
38,
38,
38,
38,
38,
38,
38,
38,
38,
38,
38,
38,
38,
38,
38,
38,
37,
38,
37,
38,
37,
37,
37,
37,
37,
37,
37,
37,
37,
37,
37,
37,
37,
37,
37,
37,
37,
37,
37,
37,
37,
37,
37,
35,
35,
35,
37,
35,
35,
35,
35,
35,
35,
35,
35,
35,
35,
35,
35,
35,
35,
35,
35,
35,
35,
35,
35,
35,
35,
34,
35,
35,
35,
34,
34,
34,
34,
34,
34,
34,
34,
34,
34,
34,
34,
34,
34,
34,
34,
34,
34,
34,
34,
32,
34,
32,
34,
32,
32,
32,
32,
32,
32,
32,
32,
32,
32,
32,
32,
32,
32,
32,
32,
32,
32,
32,
32,
32,
31,
31,
31,
31,
31,
31,
31,
31,
31,
31,
31,
31,
31,
31,
31,
31,
31,
31,
31,
31,
31,
31,
31,
29,
29,
29,
29,
29,
29,
29,
29,
29,
29,
29,
29,
29,
29,
29,
29,
29,
29,
29,
28,
29,
29,
29,
29,
28,
28,
28,
28,
28,
28,
28,
28,
28,
28,
28,
28,
28,
28,
28,
28,
28,
28,
27,
27,
27,
27,
27,
27,
27,
27,
27,
27,
27,
27,
27,
27,
27,
27,
27,
27,
27,
27,
27,
27,
25,
25,
27,
25,
25,
25,
25,
25,
25,
25,
25,
25,
25,
25,
25,
25,
25,
25,
25,
25,
25,
24,
24,
24,
24,
24,
24,
24,
24,
24,
24,
24,
24,
24,
24,
24,
24,
24,
24,
24,
22,
22,
22,
22,
22,
22,
22,
22,
22,
22,
22,
22,
22,
22,
22,
22,
22,
22,
22,
22,
21,
22,
21,
21,
21,
21,
21,
21,
21,
21,
21,
21,
21,
21,
21,
21,
21,
19,
21,
19,
21,
19,
19,
19,
19,
19,
19,
19,
19,
19,
19,
19,
19,
19,
19,
19,
18,
19,
19,
18,
18,
18,
18,
18,
18,
18,
18,
18,
18,
18,
18,
18,
18,
18,
18,
16,
16,
18,
16,
16,
16,
16,
16,
16,
16,
16,
16,
16,
16,
16,
16,
16,
15,
16,
15,
15,
15,
15,
15,
15,
15,
15,
15,
15,
15,
15,
15,
15,
15,
15,
15,
13,
15,
13,
13,
13,
13,
13,
13,
13,
13,
13,
13,
13,
13,
13,
13,
13,
13,
12,
13,
12,
13,
12,
12,
12,
12,
12,
12,
12,
12,
12,
12,
12,
12,
12,
12,
10,
12,
10,
10,
10,
10,
10,
10,
10,
10,
10,
10,
10,
10,
10,
9,
10,
9,
9,
9,
9,
9,
9,
9,
9,
9,
9,
9,
9,
9,
9,
9,
9,
9,
9,
7,
7,
9,
7,
7,
7,
7,
7,
7,
7,
7,
7,
7,
7,
7,
7,
7,
7,
6,
6,
6,
6,
6,
6,
6,
6,
6,
6,
6,
6,
6,
6,
6,
6,
5,
6,
6,
5,
5,
5,
5,
5,
5,
5,
5,
5,
5,
5,
5,
5,
5,
3,
5,
5,
3,
5,
3,
3,
3,
3,
3,
3,
3,
3,
3,
3,
2,
3,
3,
2,
2,
3,
2,
2,
2,
2,
2,
2,
2,
2,
2,
2,
2,
2,
2,
2,
2,
2,
2,
2,
0,
0,
0,
0,
0,
0,
0,
0,
0,
0,
0,
0,
-1,
0,
0,
-1,
0,
0,
-1,
-1,
-1,
-1,
-1,
-1,
-1,
-1,
-1,
-1,
-1,
-1,
-1,
-1,
-1,
-3,
-3,
-3,
-3,
-3,
-3,
-3,
-3,
-3,
-3,
-3,
-3,
-4,
-3,
-3,
-4,
-3,
-3,
-4,
-4,
-4,
-4,
-4,
-4,
-4,
-4,
-4,
-6,
-4,
-4,
-6,
-4,
-4,
-6,
-4,
-4,
-6,
-6,
-6,
-6,
-6,
-6,
-6,
-6,
-6,
-7,
-6,
-6,
-7,
-6,
-6,
-7,
-6,
-7,
-7,
-7,
-7,
-7,
-7,
-7,
-7,
-7,
-7,
-7,
-7,
-7,
-9,
-9,
-7,
-9,
-9,
-7,
-9,
-9,
-9,
-9,
-9,
-9,
-9,
-9,
-9,
-9,
-9,
-9,
-10,
-9,
-9,
-10,
-9,
-9,
-12,
-10,
-9,
-10,
-10,
-9,
-10,
-10,
-10,
-12,
-10,
-10,
-12,
-10,
-10,
-12,
-12,
-10,
-12,
-12,
-12,
-12,
-12,
-12,
-13,
-12,
-12,
-13,
-12,
-12,
-13,
-13,
-12,
-13,
-12,
-13,
-13,
-13,
-13,
-13,
-13,
-13,
-13,
-13,
-13,
-15,
-13,
-13,
-15,
-15,
-13,
-15,
-15,
-13,
-15,
-15,
-15,
-15,
-15,
-15,
-16,
-15,
-15,
-16,
-16,
-15,
-16,
-15,
-15,
-16,
-16,
-15,
-16,
-16,
-15,
-16,
-16,
-15,
-16,
-16,
-16,
-17,
-16,
-16,
-17,
-17,
-16,
-17,
-17,
-16,
-17,
-17,
-17,
-17,
-17,
-17,
-19,
-17,
-17,
-19,
-19,
-17,
-19,
-19,
-17,
-19,
-17,
-17,
-19,
-19,
-17,
-19,
-19,
-17,
-19,
-19,
-19,
-19,
-19,
-19,
-20,
-19,
-19,
-20,
-20,
-19,
-20,
-20,
-20,
-20,
-20,
-19,
-22,
-20,
-19,
-22,
-20,
-20,
-22,
-20,
-20,
-22,
-20,
-20,
-23,
-22,
-20,
-22,
-22,
-20,
-22,
-22,
-22,
-23,
-22,
-22,
-23,
-22,
-22,
-23,
-22,
-22,
-23,
-23,
-22,
-23,
-22,
-23,
-25,
-23,
-22,
-23,
-23,
-22,
-25,
-23,
-23,
-25,
-23,
-23,
-25,
-23,
-23,
-25,
-25,
-23,
-25,
-25,
-25,
-25,
-25,
-25,
-26,
-25,
-25,
-26,
-26,
-25,
-26,
-25,
-25,
-26,
-25,
-25,
-26,
-26,
-25,
-26,
-26,
-26,
-26,
-26,
-26,
-28,
-26,
-26,
-28,
-26,
-26,
-28,
-28,
-26,
-28,
-28,
-26,
-28,
-26,
-26,
-29,
-28,
-26,
-28,
-28,
-28,
-28,
-28,
-28,
-29,
-28,
-28,
-29,
-28,
-28,
-29,
-29,
-28,
-29,
-29,
-28,
-29,
-28,
-28,
-31,
-29,
-28,
-31,
-29,
-29,
-31,
-31,
-29,
-31,
-29,
-29,
-31,
-29,
-29,
-31,
-31,
-29,
-31,
-31,
-29,
-31,
-31,
-31,
-32,
-31,
-29,
-32,
-31,
-29,
-32,
-31,
-31,
-32,
-31,
-31,
-34,
-32,
-31,
-32,
-32,
-31,
-32,
-32,
-31,
-34,
-32,
-32,
-34,
-32,
-31,
-34,
-34,
-32,
-32,
-34,
-32,
-34,
-32,
-32,
-34,
-34,
-32,
-34,
-34,
-32,
-34,
-34,
-32,
-34,
-34,
-34,
-35,
-34,
-32,
-35,
-34,
-32,
-35,
-35,
-34,
-35,
-34,
-34,
-35,
-34,
-34,
-35,
-35,
-34,
-35,
-35,
-35,
-37,
-35,
-35,
-37,
-35,
-34,
-35,
-37,
-35,
-37,
-35,
-35,
-37,
-35,
-35,
-37,
-35,
-35,
-37,
-37,
-35,
-37,
-37,
-35,
-37,
-37,
-35,
-38,
-37,
-35,
-38,
-37,
-35,
-37,
-37,
-37,
-38,
-37,
-37,
-39,
-37,
-37,
-38,
-38,
-37,
-38,
-38,
-37,
-38,
-38,
-37,
-38,
-37,
-37,
-39,
-38,
-37,
-38,
-38,
-38,
-39,
-38,
-38,
-39,
-38,
-38,
-39,
-39,
-38,
-39,
-38,
-38,
-39,
-38,
-38,
-39,
-38,
-38,
-39,
-39,
-38,
-39,
-39,
-38,
-41,
-39,
-38,
-41,
-39,
-39,
-41,
-39,
-38,
-41,
-39,
-39,
-41,
-39,
-39,
-41,
-41,
-39,
-41,
-41,
-39,
-42,
-39,
-39,
-42,
-41,
-39,
-41,
-41,
-39,
-41,
-41,
-39,
-42,
-41,
-41,
-42,
-41,
-41,
-42,
-41,
