RC/A0000CH2.CSV

Memory Length,4000,
Trigger Level,1.60000e+02,
Source,CH2,
Probe,1.0X,
Vertical Units,V,
Vertical Scale,2.00000e+00,
Vertical Position,0.00000e+00,
Horizontal Units,S,
Horizontal Scale,2.50000e-03,
Horizontal Position,0.0000000e+00,
Horizontal Mode,XY Mode,
Sampling Period,1.00000e-05,
Firmware,V1.01,
Time, ,
Mode,Detail,
Waveform Data,
-2.000000e-2,-2.40e-1,
-1.999000e-2,-2.40e-1,
-1.998000e-2,-3.20e-1,
-1.997000e-2,-3.20e-1,
-1.996000e-2,-2.40e-1,
-1.995000e-2,-2.40e-1,
-1.994000e-2,-1.60e-1,
-1.993000e-2,-2.40e-1,
-1.992000e-2,-1.60e-1,
-1.991000e-2,-2.40e-1,
-1.990000e-2,-1.60e-1,
-1.989000e-2,-8.00e-2,
-1.988000e-2,-1.60e-1,
-1.987000e-2,-8.00e-2,
-1.986000e-2,-8.00e-2,
-1.985000e-2,-8.00e-2,
-1.984000e-2,-8.00e-2,
-1.983000e-2,0.00e+0,
-1.982000e-2,-8.00e-2,
-1.981000e-2,0.00e+0,
-1.980000e-2,8.00e-2,
-1.979000e-2,8.00e-2,
-1.978000e-2,8.00e-2,
-1.977000e-2,1.60e-1,
-1.976000e-2,1.60e-1,
-1.975000e-2,1.60e-1,
-1.974000e-2,1.60e-1,
-1.973000e-2,1.60e-1,
-1.972000e-2,1.60e-1,
-1.971000e-2,2.40e-1,
-1.970000e-2,1.60e-1,
-1.969000e-2,2.40e-1,
-1.968000e-2,2.40e-1,
-1.967000e-2,2.40e-1,
-1.966000e-2,2.40e-1,
-1.965000e-2,3.20e-1,
-1.964000e-2,3.20e-1,
-1.963000e-2,4.00e-1,
-1.962000e-2,3.20e-1,
-1.961000e-2,3.20e-1,
-1.960000e-2,3.20e-1,
-1.959000e-2,4.00e-1,
-1.958000e-2,4.00e-1,
-1.957000e-2,4.00e-1,
-1.956000e-2,4.80e-1,
-1.955000e-2,4.80e-1,
-1.954000e-2,4.80e-1,
-1.953000e-2,5.60e-1,
-1.952000e-2,4.80e-1,
-1.951000e-2,4.80e-1,
-1.950000e-2,4.80e-1,
-1.949000e-2,5.60e-1,
-1.948000e-2,6.40e-1,
-1.947000e-2,5.60e-1,
-1.946000e-2,5.60e-1,
-1.945000e-2,6.40e-1,
-1.944000e-2,6.40e-1,
-1.943000e-2,7.20e-1,
-1.942000e-2,7.20e-1,
-1.941000e-2,7.20e-1,
-1.940000e-2,7.20e-1,
-1.939000e-2,7.20e-1,
-1.938000e-2,7.20e-1,
-1.937000e-2,8.00e-1,
-1.936000e-2,8.00e-1,
-1.935000e-2,8.00e-1,
-1.934000e-2,8.80e-1,
-1.933000e-2,8.80e-1,
-1.932000e-2,8.80e-1,
-1.931000e-2,8.80e-1,
-1.930000e-2,8.80e-1,
-1.929000e-2,8.80e-1,
-1.928000e-2,9.60e-1,
-1.927000e-2,9.60e-1,
-1.926000e-2,1.04e+0,
-1.925000e-2,9.60e-1,
-1.924000e-2,9.60e-1,
-1.923000e-2,1.04e+0,
-1.922000e-2,9.60e-1,
-1.921000e-2,1.04e+0,
-1.920000e-2,9.60e-1,
-1.919000e-2,1.04e+0,
-1.918000e-2,1.12e+0,
-1.917000e-2,1.20e+0,
-1.916000e-2,1.12e+0,
-1.915000e-2,1.12e+0,
-1.914000e-2,1.12e+0,
-1.913000e-2,1.12e+0,
-1.912000e-2,1.20e+0,
-1.911000e-2,1.20e+0,
-1.910000e-2,1.20e+0,
-1.909000e-2,1.28e+0,
-1.908000e-2,1.20e+0,
-1.907000e-2,1.20e+0,
-1.906000e-2,1.28e+0,
-1.905000e-2,1.36e+0,
-1.904000e-2,1.28e+0,
-1.903000e-2,1.36e+0,
-1.902000e-2,1.28e+0,
-1.901000e-2,1.36e+0,
-1.900000e-2,1.36e+0,
-1.899000e-2,1.44e+0,
-1.898000e-2,1.36e+0,
-1.897000e-2,1.44e+0,
-1.896000e-2,1.44e+0,
-1.895000e-2,1.44e+0,
-1.894000e-2,1.52e+0,
-1.893000e-2,1.44e+0,
-1.892000e-2,1.44e+0,
-1.891000e-2,1.52e+0,
-1.890000e-2,1.60e+0,
-1.889000e-2,1.52e+0,
-1.888000e-2,1.52e+0,
-1.887000e-2,1.52e+0,
-1.886000e-2,1.60e+0,
-1.885000e-2,1.60e+0,
-1.884000e-2,1.60e+0,
-1.883000e-2,1.60e+0,
-1.882000e-2,1.60e+0,
-1.881000e-2,1.68e+0,
-1.880000e-2,1.60e+0,
-1.879000e-2,1.68e+0,
-1.878000e-2,1.76e+0,
-1.877000e-2,1.76e+0,
-1.876000e-2,1.76e+0,
-1.875000e-2,1.76e+0,
-1.874000e-2,1.76e+0,
-1.873000e-2,1.76e+0,
-1.872000e-2,1.84e+0,
-1.871000e-2,1.84e+0,
-1.870000e-2,1.84e+0,
-1.869000e-2,1.76e+0,
-1.868000e-2,1.76e+0,
-1.867000e-2,1.84e+0,
-1.866000e-2,1.84e+0,
-1.865000e-2,1.84e+0,
-1.864000e-2,1.84e+0,
-1.863000e-2,1.92e+0,
-1.862000e-2,1.84e+0,
-1.861000e-2,1.92e+0,
-1.860000e-2,1.84e+0,
-1.859000e-2,2.00e+0,
-1.858000e-2,2.08e+0,
-1.857000e-2,2.00e+0,
-1.856000e-2,2.00e+0,
-1.855000e-2,2.00e+0,
-1.854000e-2,2.00e+0,
-1.853000e-2,2.00e+0,
-1.852000e-2,2.08e+0,
-1.851000e-2,2.00e+0,
-1.850000e-2,2.08e+0,
-1.849000e-2,2.08e+0,
-1.848000e-2,2.08e+0,
-1.847000e-2,2.16e+0,
-1.846000e-2,2.16e+0,
-1.845000e-2,2.16e+0,
-1.844000e-2,2.16e+0,
-1.843000e-2,2.16e+0,
-1.842000e-2,2.24e+0,
-1.841000e-2,2.16e+0,
-1.840000e-2,2.24e+0,
-1.839000e-2,2.16e+0,
-1.838000e-2,2.32e+0,
-1.837000e-2,2.16e+0,
-1.836000e-2,2.24e+0,
-1.835000e-2,2.24e+0,
-1.834000e-2,2.24e+0,
-1.833000e-2,2.24e+0,
-1.832000e-2,2.24e+0,
-1.831000e-2,2.24e+0,
-1.830000e-2,2.32e+0,
-1.829000e-2,2.32e+0,
-1.828000e-2,2.32e+0,
-1.827000e-2,2.32e+0,
-1.826000e-2,2.24e+0,
-1.825000e-2,2.32e+0,
-1.824000e-2,2.32e+0,
-1.823000e-2,2.40e+0,
-1.822000e-2,2.32e+0,
-1.821000e-2,2.40e+0,
-1.820000e-2,2.32e+0,
-1.819000e-2,2.40e+0,
-1.818000e-2,2.40e+0,
-1.817000e-2,2.40e+0,
-1.816000e-2,2.40e+0,
-1.815000e-2,2.48e+0,
-1.814000e-2,2.48e+0,
-1.813000e-2,2.48e+0,
-1.812000e-2,2.48e+0,
-1.811000e-2,2.40e+0,
-1.810000e-2,2.48e+0,
-1.809000e-2,2.48e+0,
-1.808000e-2,2.48e+0,
-1.807000e-2,2.56e+0,
-1.806000e-2,2.48e+0,
-1.805000e-2,2.56e+0,
-1.804000e-2,2.48e+0,
-1.803000e-2,2.48e+0,
-1.802000e-2,2.56e+0,
-1.801000e-2,2.48e+0,
-1.800000e-2,2.56e+0,
-1.799000e-2,2.56e+0,
-1.798000e-2,2.56e+0,
-1.797000e-2,2.56e+0,
-1.796000e-2,2.56e+0,
-1.795000e-2,2.64e+0,
-1.794000e-2,2.64e+0,
-1.793000e-2,2.64e+0,
-1.792000e-2,2.64e+0,
-1.791000e-2,2.64e+0,
-1.790000e-2,2.64e+0,
-1.789000e-2,2.64e+0,
-1.788000e-2,2.64e+0,
-1.787000e-2,2.72e+0,
-1.786000e-2,2.72e+0,
-1.785000e-2,2.64e+0,
-1.784000e-2,2.72e+0,
-1.783000e-2,2.72e+0,
-1.782000e-2,2.64e+0,
-1.781000e-2,2.72e+0,
-1.780000e-2,2.80e+0,
-1.779000e-2,2.72e+0,
-1.778000e-2,2.72e+0,
-1.777000e-2,2.72e+0,
-1.776000e-2,2.80e+0,
-1.775000e-2,2.72e+0,
-1.774000e-2,2.72e+0,
-1.773000e-2,2.72e+0,
-1.772000e-2,2.72e+0,
-1.771000e-2,2.72e+0,
-1.770000e-2,2.72e+0,
-1.769000e-2,2.72e+0,
-1.768000e-2,2.72e+0,
-1.767000e-2,2.72e+0,
-1.766000e-2,2.72e+0,
-1.765000e-2,2.80e+0,
-1.764000e-2,2.80e+0,
-1.763000e-2,2.80e+0,
-1.762000e-2,2.80e+0,
-1.761000e-2,2.72e+0,
-1.760000e-2,2.80e+0,
-1.759000e-2,2.80e+0,
-1.758000e-2,2.80e+0,
-1.757000e-2,2.80e+0,
-1.756000e-2,2.80e+0,
-1.755000e-2,2.80e+0,
-1.754000e-2,2.80e+0,
-1.753000e-2,2.80e+0,
-1.752000e-2,2.80e+0,
-1.751000e-2,2.88e+0,
-1.750000e-2,2.80e+0,
-1.749000e-2,2.88e+0,
-1.748000e-2,2.80e+0,
-1.747000e-2,2.80e+0,
-1.746000e-2,2.88e+0,
-1.745000e-2,2.88e+0,
-1.744000e-2,2.80e+0,
-1.743000e-2,2.80e+0,
-1.742000e-2,2.80e+0,
-1.741000e-2,2.80e+0,
-1.740000e-2,2.88e+0,
-1.739000e-2,2.80e+0,
-1.738000e-2,2.80e+0,
-1.737000e-2,2.80e+0,
-1.736000e-2,2.88e+0,
-1.735000e-2,2.80e+0,
-1.734000e-2,2.80e+0,
-1.733000e-2,2.80e+0,
-1.732000e-2,2.80e+0,
-1.731000e-2,2.80e+0,
-1.730000e-2,2.80e+0,
-1.729000e-2,2.88e+0,
-1.728000e-2,2.88e+0,
-1.727000e-2,2.80e+0,
-1.726000e-2,2.80e+0,
-1.725000e-2,2.80e+0,
-1.724000e-2,2.80e+0,
-1.723000e-2,2.88e+0,
-1.722000e-2,2.80e+0,
-1.721000e-2,2.88e+0,
-1.720000e-2,2.80e+0,
-1.719000e-2,2.80e+0,
-1.718000e-2,2.88e+0,
-1.717000e-2,2.80e+0,
-1.716000e-2,2.80e+0,
-1.715000e-2,2.80e+0,
-1.714000e-2,2.80e+0,
-1.713000e-2,2.80e+0,
-1.712000e-2,2.80e+0,
-1.711000e-2,2.80e+0,
-1.710000e-2,2.80e+0,
-1.709000e-2,2.80e+0,
-1.708000e-2,2.80e+0,
-1.707000e-2,2.80e+0,
-1.706000e-2,2.80e+0,
-1.705000e-2,2.80e+0,
-1.704000e-2,2.80e+0,
-1.703000e-2,2.80e+0,
-1.702000e-2,2.80e+0,
-1.701000e-2,2.80e+0,
-1.700000e-2,2.72e+0,
-1.699000e-2,2.80e+0,
-1.698000e-2,2.80e+0,
-1.697000e-2,2.72e+0,
-1.696000e-2,2.72e+0,
-1.695000e-2,2.80e+0,
-1.694000e-2,2.80e+0,
-1.693000e-2,2.72e+0,
-1.692000e-2,2.64e+0,
-1.691000e-2,2.72e+0,
-1.690000e-2,2.72e+0,
-1.689000e-2,2.72e+0,
-1.688000e-2,2.72e+0,
-1.687000e-2,2.72e+0,
-1.686000e-2,2.72e+0,
-1.685000e-2,2.72e+0,
-1.684000e-2,2.72e+0,
-1.683000e-2,2.72e+0,
-1.682000e-2,2.72e+0,
-1.681000e-2,2.72e+0,
-1.680000e-2,2.72e+0,
-1.679000e-2,2.64e+0,
-1.678000e-2,2.72e+0,
-1.677000e-2,2.64e+0,
-1.676000e-2,2.64e+0,
-1.675000e-2,2.64e+0,
-1.674000e-2,2.64e+0,
-1.673000e-2,2.64e+0,
-1.672000e-2,2.64e+0,
-1.671000e-2,2.72e+0,
-1.670000e-2,2.64e+0,
-1.669000e-2,2.64e+0,
-1.668000e-2,2.64e+0,
-1.667000e-2,2.56e+0,
-1.666000e-2,2.56e+0,
-1.665000e-2,2.64e+0,
-1.664000e-2,2.64e+0,
-1.663000e-2,2.56e+0,
-1.662000e-2,2.56e+0,
-1.661000e-2,2.48e+0,
-1.660000e-2,2.48e+0,
-1.659000e-2,2.56e+0,
-1.658000e-2,2.48e+0,
-1.657000e-2,2.48e+0,
-1.656000e-2,2.48e+0,
-1.655000e-2,2.48e+0,
-1.654000e-2,2.48e+0,
-1.653000e-2,2.48e+0,
-1.652000e-2,2.48e+0,
-1.651000e-2,2.48e+0,
-1.650000e-2,2.48e+0,
-1.649000e-2,2.40e+0,
-1.648000e-2,2.48e+0,
-1.647000e-2,2.40e+0,
-1.646000e-2,2.48e+0,
-1.645000e-2,2.40e+0,
-1.644000e-2,2.40e+0,
-1.643000e-2,2.40e+0,
-1.642000e-2,2.32e+0,
-1.641000e-2,2.40e+0,
-1.640000e-2,2.40e+0,
-1.639000e-2,2.40e+0,
-1.638000e-2,2.32e+0,
-1.637000e-2,2.40e+0,
-1.636000e-2,2.32e+0,
-1.635000e-2,2.32e+0,
-1.634000e-2,2.32e+0,
-1.633000e-2,2.24e+0,
-1.632000e-2,2.32e+0,
-1.631000e-2,2.32e+0,
-1.630000e-2,2.24e+0,
-1.629000e-2,2.24e+0,
-1.628000e-2,2.24e+0,
-1.627000e-2,2.24e+0,
-1.626000e-2,2.32e+0,
-1.625000e-2,2.16e+0,
-1.624000e-2,2.24e+0,
-1.623000e-2,2.32e+0,
-1.622000e-2,2.16e+0,
-1.621000e-2,2.16e+0,
-1.620000e-2,2.16e+0,
-1.619000e-2,2.16e+0,
-1.618000e-2,2.16e+0,
-1.617000e-2,2.16e+0,
-1.616000e-2,2.16e+0,
-1.615000e-2,2.08e+0,
-1.614000e-2,2.08e+0,
-1.613000e-2,2.00e+0,
-1.612000e-2,2.00e+0,
-1.611000e-2,2.08e+0,
-1.610000e-2,2.00e+0,
-1.609000e-2,2.00e+0,
-1.608000e-2,2.00e+0,
-1.607000e-2,2.00e+0,
-1.606000e-2,1.92e+0,
-1.605000e-2,2.00e+0,
-1.604000e-2,2.00e+0,
-1.603000e-2,2.00e+0,
-1.602000e-2,2.00e+0,
-1.601000e-2,1.92e+0,
-1.600000e-2,1.84e+0,
-1.599000e-2,1.84e+0,
-1.598000e-2,1.84e+0,
-1.597000e-2,1.84e+0,
-1.596000e-2,1.84e+0,
-1.595000e-2,1.84e+0,
-1.594000e-2,1.84e+0,
-1.593000e-2,1.84e+0,
-1.592000e-2,1.84e+0,
-1.591000e-2,1.76e+0,
-1.590000e-2,1.76e+0,
-1.589000e-2,1.76e+0,
-1.588000e-2,1.76e+0,
-1.587000e-2,1.68e+0,
-1.586000e-2,1.68e+0,
-1.585000e-2,1.76e+0,
-1.584000e-2,1.76e+0,
-1.583000e-2,1.68e+0,
-1.582000e-2,1.76e+0,
-1.581000e-2,1.68e+0,
-1.580000e-2,1.68e+0,
-1.579000e-2,1.60e+0,
-1.578000e-2,1.52e+0,
-1.577000e-2,1.60e+0,
-1.576000e-2,1.60e+0,
-1.575000e-2,1.52e+0,
-1.574000e-2,1.52e+0,
-1.573000e-2,1.52e+0,
-1.572000e-2,1.52e+0,
-1.571000e-2,1.52e+0,
-1.570000e-2,1.52e+0,
-1.569000e-2,1.44e+0,
-1.568000e-2,1.36e+0,
-1.567000e-2,1.44e+0,
-1.566000e-2,1.44e+0,
-1.565000e-2,1.44e+0,
-1.564000e-2,1.44e+0,
-1.563000e-2,1.36e+0,
-1.562000e-2,1.36e+0,
-1.561000e-2,1.36e+0,
-1.560000e-2,1.36e+0,
-1.559000e-2,1.28e+0,
-1.558000e-2,1.28e+0,
-1.557000e-2,1.20e+0,
-1.556000e-2,1.28e+0,
-1.555000e-2,1.28e+0,
-1.554000e-2,1.20e+0,
-1.553000e-2,1.20e+0,
-1.552000e-2,1.12e+0,
-1.551000e-2,1.12e+0,
-1.550000e-2,1.20e+0,
-1.549000e-2,1.20e+0,
-1.548000e-2,1.12e+0,
-1.547000e-2,1.04e+0,
-1.546000e-2,1.12e+0,
-1.545000e-2,1.04e+0,
-1.544000e-2,1.04e+0,
-1.543000e-2,1.04e+0,
-1.542000e-2,9.60e-1,
-1.541000e-2,1.04e+0,
-1.540000e-2,9.60e-1,
-1.539000e-2,1.04e+0,
-1.538000e-2,9.60e-1,
-1.537000e-2,9.60e-1,
-1.536000e-2,8.80e-1,
-1.535000e-2,8.80e-1,
-1.534000e-2,8.80e-1,
-1.533000e-2,8.80e-1,
-1.532000e-2,8.80e-1,
-1.531000e-2,8.80e-1,
-1.530000e-2,8.00e-1,
-1.529000e-2,8.80e-1,
-1.528000e-2,7.20e-1,
-1.527000e-2,7.20e-1,
-1.526000e-2,8.00e-1,
-1.525000e-2,8.00e-1,
-1.524000e-2,7.20e-1,
-1.523000e-2,8.00e-1,
-1.522000e-2,8.00e-1,
-1.521000e-2,6.40e-1,
-1.520000e-2,7.20e-1,
-1.519000e-2,6.40e-1,
-1.518000e-2,6.40e-1,
-1.517000e-2,5.60e-1,
-1.516000e-2,5.60e-1,
-1.515000e-2,5.60e-1,
-1.514000e-2,5.60e-1,
-1.513000e-2,5.60e-1,
-1.512000e-2,5.60e-1,
-1.511000e-2,5.60e-1,
-1.510000e-2,4.80e-1,
-1.509000e-2,4.80e-1,
-1.508000e-2,4.00e-1,
-1.507000e-2,4.00e-1,
-1.506000e-2,4.00e-1,
-1.505000e-2,4.00e-1,
-1.504000e-2,4.00e-1,
-1.503000e-2,4.00e-1,
-1.502000e-2,3.20e-1,
-1.501000e-2,3.20e-1,
-1.500000e-2,3.20e-1,
-1.499000e-2,2.40e-1,
-1.498000e-2,2.40e-1,
-1.497000e-2,4.80e-1,
-1.496000e-2,1.60e-1,
-1.495000e-2,2.40e-1,
-1.494000e-2,2.40e-1,
-1.493000e-2,2.40e-1,
-1.492000e-2,1.60e-1,
-1.491000e-2,1.60e-1,
-1.490000e-2,8.00e-2,
-1.489000e-2,1.60e-1,
-1.488000e-2,8.00e-2,
-1.487000e-2,8.00e-2,
-1.486000e-2,8.00e-2,
-1.485000e-2,0.00e+0,
-1.484000e-2,8.00e-2,
-1.483000e-2,0.00e+0,
-1.482000e-2,0.00e+0,
-1.481000e-2,0.00e+0,
-1.480000e-2,0.00e+0,
-1.479000e-2,8.00e-2,
-1.478000e-2,-8.00e-2,
-1.477000e-2,-8.00e-2,
-1.476000e-2,-1.60e-1,
-1.475000e-2,-1.60e-1,
-1.474000e-2,-8.00e-2,
-1.473000e-2,-1.60e-1,
-1.472000e-2,-2.40e-1,
-1.471000e-2,-2.40e-1,
-1.470000e-2,-1.60e-1,
-1.469000e-2,-2.40e-1,
-1.468000e-2,-2.40e-1,
-1.467000e-2,-2.40e-1,
-1.466000e-2,-2.40e-1,
-1.465000e-2,-3.20e-1,
-1.464000e-2,-3.20e-1,
-1.463000e-2,-3.20e-1,
-1.462000e-2,-4.00e-1,
-1.461000e-2,-3.20e-1,
-1.460000e-2,-4.00e-1,
-1.459000e-2,-4.00e-1,
-1.458000e-2,-4.00e-1,
-1.457000e-2,-4.80e-1,
-1.456000e-2,-4.80e-1,
-1.455000e-2,-4.80e-1,
-1.454000e-2,-4.80e-1,
-1.453000e-2,-5.60e-1,
-1.452000e-2,-5.60e-1,
-1.451000e-2,-5.60e-1,
-1.450000e-2,-5.60e-1,
-1.449000e-2,-4.80e-1,
-1.448000e-2,-5.60e-1,
-1.447000e-2,-5.60e-1,
-1.446000e-2,-7.20e-1,
-1.445000e-2,-7.20e-1,
-1.444000e-2,-7.20e-1,
-1.443000e-2,-7.20e-1,
-1.442000e-2,-7.20e-1,
-1.441000e-2,-7.20e-1,
-1.440000e-2,-8.00e-1,
-1.439000e-2,-8.00e-1,
-1.438000e-2,-8.00e-1,
-1.437000e-2,-8.00e-1,
-1.436000e-2,-8.00e-1,
-1.435000e-2,-8.00e-1,
-1.434000e-2,-8.80e-1,
-1.433000e-2,-8.00e-1,
-1.432000e-2,-8.80e-1,
-1.431000e-2,-8.80e-1,
-1.430000e-2,-9.60e-1,
-1.429000e-2,-9.60e-1,
-1.428000e-2,-9.60e-1,
-1.427000e-2,-8.80e-1,
-1.426000e-2,-9.60e-1,
-1.425000e-2,-8.80e-1,
-1.424000e-2,-9.60e-1,
-1.423000e-2,-1.04e+0,
-1.422000e-2,-1.04e+0,
-1.421000e-2,-1.04e+0,
-1.420000e-2,-1.04e+0,
-1.419000e-2,-1.12e+0,
-1.418000e-2,-1.12e+0,
-1.417000e-2,-1.12e+0,
-1.416000e-2,-1.12e+0,
-1.415000e-2,-1.12e+0,
-1.414000e-2,-1.12e+0,
-1.413000e-2,-1.20e+0,
-1.412000e-2,-1.12e+0,
-1.411000e-2,-1.20e+0,
-1.410000e-2,-1.20e+0,
-1.409000e-2,-1.28e+0,
-1.408000e-2,-1.20e+0,
-1.407000e-2,-1.36e+0,
-1.406000e-2,-1.28e+0,
-1.405000e-2,-1.28e+0,
-1.404000e-2,-1.36e+0,
-1.403000e-2,-1.44e+0,
-1.402000e-2,-1.36e+0,
-1.401000e-2,-1.44e+0,
-1.400000e-2,-1.44e+0,
-1.399000e-2,-1.44e+0,
-1.398000e-2,-1.44e+0,
-1.397000e-2,-1.44e+0,
-1.396000e-2,-1.44e+0,
-1.395000e-2,-1.52e+0,
-1.394000e-2,-1.52e+0,
-1.393000e-2,-1.52e+0,
-1.392000e-2,-1.60e+0,
-1.391000e-2,-1.52e+0,
-1.390000e-2,-1.52e+0,
-1.389000e-2,-1.52e+0,
-1.388000e-2,-1.60e+0,
-1.387000e-2,-1.60e+0,
-1.386000e-2,-1.60e+0,
-1.385000e-2,-1.60e+0,
-1.384000e-2,-1.68e+0,
-1.383000e-2,-1.68e+0,
-1.382000e-2,-1.68e+0,
-1.381000e-2,-1.68e+0,
-1.380000e-2,-1.68e+0,
-1.379000e-2,-1.76e+0,
-1.378000e-2,-1.76e+0,
-1.377000e-2,-1.76e+0,
-1.376000e-2,-1.76e+0,
-1.375000e-2,-1.76e+0,
-1.374000e-2,-1.84e+0,
-1.373000e-2,-1.76e+0,
-1.372000e-2,-1.76e+0,
-1.371000e-2,-1.76e+0,
-1.370000e-2,-1.92e+0,
-1.369000e-2,-1.84e+0,
-1.368000e-2,-1.84e+0,
-1.367000e-2,-1.92e+0,
-1.366000e-2,-1.92e+0,
-1.365000e-2,-1.84e+0,
-1.364000e-2,-2.00e+0,
-1.363000e-2,-1.92e+0,
-1.362000e-2,-1.92e+0,
-1.361000e-2,-2.00e+0,
-1.360000e-2,-1.92e+0,
-1.359000e-2,-2.00e+0,
-1.358000e-2,-2.00e+0,
-1.357000e-2,-2.00e+0,
-1.356000e-2,-2.00e+0,
-1.355000e-2,-2.00e+0,
-1.354000e-2,-2.00e+0,
-1.353000e-2,-2.08e+0,
-1.352000e-2,-2.08e+0,
-1.351000e-2,-2.08e+0,
-1.350000e-2,-2.08e+0,
-1.349000e-2,-2.16e+0,
-1.348000e-2,-2.08e+0,
-1.347000e-2,-2.08e+0,
-1.346000e-2,-2.08e+0,
-1.345000e-2,-2.16e+0,
-1.344000e-2,-2.16e+0,
-1.343000e-2,-2.16e+0,
-1.342000e-2,-2.24e+0,
-1.341000e-2,-2.16e+0,
-1.340000e-2,-2.24e+0,
-1.339000e-2,-2.24e+0,
-1.338000e-2,-2.24e+0,
-1.337000e-2,-2.24e+0,
-1.336000e-2,-2.32e+0,
-1.335000e-2,-2.32e+0,
-1.334000e-2,-2.32e+0,
-1.333000e-2,-2.32e+0,
-1.332000e-2,-2.32e+0,
-1.331000e-2,-2.32e+0,
-1.330000e-2,-2.32e+0,
-1.329000e-2,-2.40e+0,
-1.328000e-2,-2.32e+0,
-1.327000e-2,-2.32e+0,
-1.326000e-2,-2.40e+0,
-1.325000e-2,-2.32e+0,
-1.324000e-2,-2.40e+0,
-1.323000e-2,-2.40e+0,
-1.322000e-2,-2.40e+0,
-1.321000e-2,-2.40e+0,
-1.320000e-2,-2.32e+0,
-1.319000e-2,-2.40e+0,
-1.318000e-2,-2.48e+0,
-1.317000e-2,-2.40e+0,
-1.316000e-2,-2.48e+0,
-1.315000e-2,-2.40e+0,
-1.314000e-2,-2.48e+0,
-1.313000e-2,-2.40e+0,
-1.312000e-2,-2.40e+0,
-1.311000e-2,-2.48e+0,
-1.310000e-2,-2.48e+0,
-1.309000e-2,-2.40e+0,
-1.308000e-2,-2.48e+0,
-1.307000e-2,-2.48e+0,
-1.306000e-2,-2.56e+0,
-1.305000e-2,-2.56e+0,
-1.304000e-2,-2.56e+0,
-1.303000e-2,-2.56e+0,
-1.302000e-2,-2.56e+0,
-1.301000e-2,-2.56e+0,
-1.300000e-2,-2.64e+0,
-1.299000e-2,-2.64e+0,
-1.298000e-2,-2.64e+0,
-1.297000e-2,-2.64e+0,
-1.296000e-2,-2.56e+0,
-1.295000e-2,-2.64e+0,
-1.294000e-2,-2.64e+0,
-1.293000e-2,-2.64e+0,
-1.292000e-2,-2.72e+0,
-1.291000e-2,-2.64e+0,
-1.290000e-2,-2.72e+0,
-1.289000e-2,-2.64e+0,
-1.288000e-2,-2.72e+0,
-1.287000e-2,-2.72e+0,
-1.286000e-2,-2.64e+0,
-1.285000e-2,-2.72e+0,
-1.284000e-2,-2.64e+0,
-1.283000e-2,-2.72e+0,
-1.282000e-2,-2.72e+0,
-1.281000e-2,-2.72e+0,
-1.280000e-2,-2.72e+0,
-1.279000e-2,-2.72e+0,
-1.278000e-2,-2.72e+0,
-1.277000e-2,-2.72e+0,
-1.276000e-2,-2.72e+0,
-1.275000e-2,-2.80e+0,
-1.274000e-2,-2.72e+0,
-1.273000e-2,-2.72e+0,
-1.272000e-2,-2.72e+0,
-1.271000e-2,-2.80e+0,
-1.270000e-2,-2.72e+0,
-1.269000e-2,-2.72e+0,
-1.268000e-2,-2.72e+0,
-1.267000e-2,-2.80e+0,
-1.266000e-2,-2.80e+0,
-1.265000e-2,-2.80e+0,
-1.264000e-2,-2.72e+0,
-1.263000e-2,-2.80e+0,
-1.262000e-2,-2.80e+0,
-1.261000e-2,-2.80e+0,
-1.260000e-2,-2.80e+0,
-1.259000e-2,-2.80e+0,
-1.258000e-2,-2.80e+0,
-1.257000e-2,-2.80e+0,
-1.256000e-2,-2.80e+0,
-1.255000e-2,-2.80e+0,
-1.254000e-2,-2.80e+0,
-1.253000e-2,-2.80e+0,
-1.252000e-2,-2.80e+0,
-1.251000e-2,-2.80e+0,
-1.250000e-2,-2.80e+0,
-1.249000e-2,-2.88e+0,
-1.248000e-2,-2.80e+0,
-1.247000e-2,-2.80e+0,
-1.246000e-2,-2.80e+0,
-1.245000e-2,-2.80e+0,
-1.244000e-2,-2.80e+0,
-1.243000e-2,-2.88e+0,
-1.242000e-2,-2.88e+0,
-1.241000e-2,-2.88e+0,
-1.240000e-2,-2.88e+0,
-1.239000e-2,-2.80e+0,
-1.238000e-2,-2.88e+0,
-1.237000e-2,-2.88e+0,
-1.236000e-2,-2.88e+0,
-1.235000e-2,-2.80e+0,
-1.234000e-2,-2.88e+0,
-1.233000e-2,-2.88e+0,
-1.232000e-2,-2.88e+0,
-1.231000e-2,-2.80e+0,
-1.230000e-2,-2.80e+0,
-1.229000e-2,-2.88e+0,
-1.228000e-2,-2.80e+0,
-1.227000e-2,-2.80e+0,
-1.226000e-2,-2.80e+0,
-1.225000e-2,-2.88e+0,
-1.224000e-2,-2.88e+0,
-1.223000e-2,-2.80e+0,
-1.222000e-2,-2.80e+0,
-1.221000e-2,-2.88e+0,
-1.220000e-2,-2.80e+0,
-1.219000e-2,-2.88e+0,
-1.218000e-2,-2.80e+0,
-1.217000e-2,-2.80e+0,
-1.216000e-2,-2.88e+0,
-1.215000e-2,-2.80e+0,
-1.214000e-2,-2.80e+0,
-1.213000e-2,-2.80e+0,
-1.212000e-2,-2.80e+0,
-1.211000e-2,-2.80e+0,
-1.210000e-2,-2.80e+0,
-1.209000e-2,-2.80e+0,
-1.208000e-2,-2.88e+0,
-1.207000e-2,-2.80e+0,
-1.206000e-2,-2.80e+0,
-1.205000e-2,-2.80e+0,
-1.204000e-2,-2.80e+0,
-1.203000e-2,-2.80e+0,
-1.202000e-2,-2.80e+0,
-1.201000e-2,-2.80e+0,
-1.200000e-2,-2.80e+0,
-1.199000e-2,-2.80e+0,
-1.198000e-2,-2.72e+0,
-1.197000e-2,-2.80e+0,
-1.196000e-2,-2.80e+0,
-1.195000e-2,-2.72e+0,
-1.194000e-2,-2.72e+0,
-1.193000e-2,-2.72e+0,
-1.192000e-2,-2.80e+0,
-1.191000e-2,-2.80e+0,
-1.190000e-2,-2.72e+0,
-1.189000e-2,-2.72e+0,
-1.188000e-2,-2.72e+0,
-1.187000e-2,-2.72e+0,
-1.186000e-2,-2.72e+0,
-1.185000e-2,-2.72e+0,
-1.184000e-2,-2.72e+0,
-1.183000e-2,-2.72e+0,
-1.182000e-2,-2.72e+0,
-1.181000e-2,-2.72e+0,
-1.180000e-2,-2.72e+0,
-1.179000e-2,-2.72e+0,
-1.178000e-2,-2.72e+0,
-1.177000e-2,-2.64e+0,
-1.176000e-2,-2.72e+0,
-1.175000e-2,-2.64e+0,
-1.174000e-2,-2.72e+0,
-1.173000e-2,-2.64e+0,
-1.172000e-2,-2.64e+0,
-1.171000e-2,-2.64e+0,
-1.170000e-2,-2.56e+0,
-1.169000e-2,-2.64e+0,
-1.168000e-2,-2.64e+0,
-1.167000e-2,-2.56e+0,
-1.166000e-2,-2.56e+0,
-1.165000e-2,-2.56e+0,
-1.164000e-2,-2.64e+0,
-1.163000e-2,-2.56e+0,
-1.162000e-2,-2.56e+0,
-1.161000e-2,-2.56e+0,
-1.160000e-2,-2.56e+0,
-1.159000e-2,-2.56e+0,
-1.158000e-2,-2.48e+0,
-1.157000e-2,-2.56e+0,
-1.156000e-2,-2.56e+0,
-1.155000e-2,-2.48e+0,
-1.154000e-2,-2.48e+0,
-1.153000e-2,-2.40e+0,
-1.152000e-2,-2.48e+0,
-1.151000e-2,-2.48e+0,
-1.150000e-2,-2.40e+0,
-1.149000e-2,-2.48e+0,
-1.148000e-2,-2.40e+0,
-1.147000e-2,-2.40e+0,
-1.146000e-2,-2.40e+0,
-1.145000e-2,-2.40e+0,
-1.144000e-2,-2.40e+0,
-1.143000e-2,-2.40e+0,
-1.142000e-2,-2.40e+0,
-1.141000e-2,-2.40e+0,
-1.140000e-2,-2.32e+0,
-1.139000e-2,-2.32e+0,
-1.138000e-2,-2.32e+0,
-1.137000e-2,-2.40e+0,
-1.136000e-2,-2.32e+0,
-1.135000e-2,-2.32e+0,
-1.134000e-2,-2.32e+0,
-1.133000e-2,-2.32e+0,
-1.132000e-2,-2.32e+0,
-1.131000e-2,-2.32e+0,
-1.130000e-2,-2.24e+0,
-1.129000e-2,-2.32e+0,
-1.128000e-2,-2.32e+0,
-1.127000e-2,-2.32e+0,
-1.126000e-2,-2.24e+0,
-1.125000e-2,-2.24e+0,
