RLC_R_11.91/ALL0016/2.CSV

Format,1.0B,
Memory Length,10000,
IntpDistance,0,
Trigger Address,4999,
Trigger Level,0.000E+00,
Source,CH2,
Vertical Units,V,
Vertical Units Div,0,
Vertical Units Extend Div,16,
Label, ,
Probe Type,0,
Probe Ratio,1.000E+00,
Vertical Scale,2.000E-01,
Vertical Position,-3.920E-01,
Horizontal Units,S,
Horizontal Scale,1.000E-04,
Horizontal Position,0.000E+00,
Horizontal Mode,Main,
SincET Mode,Real Time,
Sampling Period,1.000E-07,
Horizontal Old Scale,1.000E-04,
Horizontal Old Position,0.000E+00,
Firmware,V1.24,
Mode,Fast,
Waveform Data,
-19,
-18,
-18,
-18,
-18,
-20,
-19,
-18,
-20,
-18,
-17,
-17,
-17,
-18,
-18,
-18,
-17,
-17,
-17,
-18,
-18,
-17,
-17,
-17,
-18,
-17,
-17,
-17,
-17,
-18,
-18,
-15,
-15,
-17,
-18,
-17,
-19,
-15,
-15,
-17,
-15,
-17,
-17,
-15,
-15,
-13,
-14,
-14,
-14,
-15,
-15,
-14,
-14,
-15,
-15,
-14,
-14,
-15,
-15,
-15,
-15,
-15,
-15,
-15,
-12,
-15,
-15,
-15,
-14,
-14,
-13,
-13,
-14,
-14,
-12,
-12,
-14,
-12,
-14,
-13,
-14,
-12,
-13,
-13,
-13,
-13,
-12,
-14,
-14,
-13,
-13,
-13,
-12,
-12,
-11,
-13,
-12,
-12,
-13,
-11,
-11,
-13,
-12,
-12,
-12,
-13,
-12,
-12,
-11,
-11,
-12,
-13,
-11,
-12,
-11,
-11,
-11,
-11,
-11,
-9,
-9,
-9,
-9,
-11,
-9,
-11,
-11,
-8,
-9,
-9,
-8,
-12,
-11,
-9,
-8,
-11,
-11,
-9,
-11,
-11,
-8,
-11,
-8,
-9,
-8,
-7,
-9,
-11,
-8,
-9,
-9,
-8,
-9,
-9,
-7,
-8,
-9,
-9,
-8,
-8,
-8,
-8,
-7,
-9,
-9,
-9,
-7,
-7,
-7,
-7,
-8,
-7,
-6,
-7,
-6,
-7,
-7,
-9,
-8,
-7,
-7,
-8,
-9,
-7,
-6,
-7,
-6,
-7,
-7,
-6,
-6,
-6,
-7,
-6,
-5,
-6,
-7,
-5,
-6,
-5,
-5,
-5,
-5,
-5,
-3,
-5,
-5,
-5,
-6,
-5,
-3,
-5,
-5,
-6,
-5,
-3,
-5,
-2,
-5,
-5,
-3,
-3,
-2,
-3,
-5,
-3,
-5,
-5,
-3,
-5,
-5,
-3,
-5,
-3,
-3,
-2,
-2,
-2,
-3,
-3,
-3,
-2,
-2,
-3,
-2,
-2,
-1,
-3,
-2,
0,
-2,
-1,
0,
-2,
-3,
-1,
-1,
-1,
-1,
-3,
-2,
-1,
-1,
-1,
-1,
1,
-1,
-1,
0,
0,
0,
-2,
0,
-1,
-1,
0,
-1,
0,
0,
-1,
0,
1,
0,
0,
0,
0,
0,
-1,
1,
0,
1,
0,
2,
1,
1,
1,
1,
1,
1,
1,
1,
2,
1,
1,
1,
2,
2,
1,
1,
1,
2,
2,
1,
1,
1,
1,
4,
4,
2,
2,
2,
1,
2,
4,
4,
2,
2,
4,
4,
4,
4,
5,
5,
6,
4,
4,
5,
4,
4,
5,
4,
4,
4,
2,
5,
5,
5,
4,
5,
6,
4,
5,
6,
4,
6,
4,
4,
6,
5,
6,
5,
6,
6,
6,
6,
6,
6,
5,
5,
5,
7,
5,
6,
7,
6,
7,
5,
7,
7,
6,
8,
5,
7,
6,
8,
7,
7,
7,
7,
8,
7,
8,
7,
8,
8,
8,
7,
8,
7,
7,
7,
8,
7,
8,
7,
10,
8,
8,
8,
10,
8,
8,
7,
10,
10,
10,
8,
10,
10,
7,
8,
10,
10,
10,
8,
11,
10,
10,
8,
10,
10,
10,
11,
8,
10,
10,
10,
12,
10,
11,
11,
11,
12,
11,
11,
11,
11,
12,
10,
11,
11,
12,
12,
11,
11,
11,
11,
11,
11,
13,
13,
12,
11,
12,
13,
12,
12,
12,
11,
13,
12,
12,
13,
12,
13,
13,
13,
13,
12,
13,
13,
13,
13,
13,
13,
14,
13,
13,
13,
13,
13,
13,
13,
13,
14,
13,
13,
13,
14,
14,
14,
13,
13,
12,
14,
14,
16,
13,
16,
14,
14,
14,
14,
16,
16,
13,
14,
13,
14,
16,
14,
16,
14,
16,
16,
17,
16,
16,
17,
16,
16,
16,
16,
16,
16,
16,
16,
16,
14,
18,
16,
17,
14,
16,
16,
17,
16,
17,
17,
16,
16,
17,
17,
17,
16,
17,
18,
17,
17,
17,
17,
17,
16,
19,
19,
18,
17,
17,
18,
18,
17,
18,
17,
18,
18,
17,
18,
18,
19,
18,
18,
19,
18,
19,
19,
17,
19,
19,
18,
19,
19,
19,
19,
18,
19,
19,
19,
19,
19,
19,
18,
19,
20,
19,
22,
19,
19,
19,
19,
19,
19,
19,
18,
19,
19,
19,
20,
19,
19,
19,
20,
20,
20,
19,
20,
19,
20,
22,
20,
19,
19,
20,
19,
19,
19,
20,
19,
20,
20,
19,
19,
20,
19,
19,
19,
22,
19,
20,
22,
20,
22,
20,
20,
20,
20,
22,
22,
23,
20,
20,
20,
20,
22,
22,
22,
20,
19,
22,
23,
20,
20,
22,
22,
20,
20,
23,
22,
23,
22,
22,
24,
22,
22,
22,
22,
23,
23,
22,
23,
22,
20,
23,
23,
24,
23,
23,
23,
22,
22,
22,
23,
23,
22,
23,
23,
24,
23,
22,
22,
23,
23,
23,
22,
23,
23,
22,
24,
23,
22,
23,
23,
23,
23,
23,
23,
23,
23,
22,
23,
23,
23,
24,
23,
24,
24,
23,
23,
23,
23,
24,
23,
24,
24,
23,
24,
23,
23,
24,
23,
24,
23,
24,
24,
25,
24,
23,
23,
24,
23,
23,
24,
24,
24,
24,
24,
25,
23,
24,
24,
25,
24,
24,
25,
23,
24,
23,
23,
24,
25,
25,
24,
24,
24,
24,
24,
23,
23,
24,
24,
24,
23,
24,
24,
24,
25,
24,
24,
23,
24,
24,
25,
25,
24,
25,
24,
23,
23,
24,
24,
24,
23,
24,
24,
25,
24,
23,
24,
24,
24,
24,
24,
24,
25,
24,
25,
24,
24,
25,
25,
25,
24,
24,
25,
24,
24,
23,
24,
23,
23,
24,
24,
24,
25,
23,
25,
25,
24,
23,
23,
25,
24,
24,
24,
24,
24,
24,
25,
24,
24,
25,
25,
24,
24,
24,
25,
25,
25,
23,
25,
25,
25,
25,
26,
24,
24,
25,
24,
24,
23,
22,
23,
24,
25,
24,
25,
24,
25,
24,
24,
24,
25,
24,
23,
24,
24,
24,
23,
24,
24,
24,
24,
24,
24,
24,
23,
24,
25,
24,
24,
24,
24,
25,
25,
24,
24,
25,
25,
25,
23,
24,
23,
24,
24,
25,
24,
24,
25,
24,
24,
24,
25,
24,
24,
23,
23,
24,
24,
24,
23,
24,
23,
24,
25,
24,
24,
23,
22,
24,
24,
24,
23,
24,
25,
23,
24,
23,
23,
23,
23,
24,
24,
23,
24,
24,
22,
23,
24,
22,
23,
23,
23,
22,
23,
23,
23,
23,
23,
23,
23,
23,
20,
22,
22,
24,
23,
22,
23,
20,
20,
22,
22,
22,
20,
22,
22,
22,
22,
20,
22,
20,
20,
20,
23,
22,
20,
22,
23,
22,
23,
22,
23,
22,
22,
22,
22,
22,
22,
22,
20,
22,
22,
22,
22,
20,
20,
22,
20,
22,
20,
22,
22,
20,
22,
20,
20,
20,
22,
20,
19,
20,
20,
20,
22,
20,
20,
19,
18,
20,
20,
20,
20,
20,
20,
20,
20,
20,
19,
19,
20,
19,
19,
20,
19,
19,
20,
19,
19,
19,
19,
19,
19,
17,
19,
19,
19,
19,
19,
19,
19,
18,
19,
19,
19,
18,
18,
19,
19,
18,
18,
19,
17,
19,
19,
19,
19,
18,
17,
18,
18,
17,
19,
18,
18,
18,
19,
18,
18,
18,
18,
18,
18,
18,
17,
18,
17,
17,
17,
18,
17,
18,
18,
17,
17,
19,
18,
17,
18,
17,
17,
17,
17,
17,
14,
17,
14,
17,
17,
16,
16,
16,
16,
17,
14,
16,
14,
17,
16,
16,
18,
16,
16,
17,
14,
17,
14,
16,
16,
16,
14,
14,
13,
17,
13,
14,
14,
13,
14,
13,
14,
14,
14,
14,
14,
14,
13,
13,
14,
14,
13,
13,
14,
12,
13,
14,
16,
13,
13,
13,
13,
13,
13,
13,
13,
13,
11,
13,
13,
13,
11,
13,
13,
12,
13,
13,
12,
13,
11,
12,
13,
11,
12,
12,
12,
12,
12,
12,
12,
12,
12,
11,
12,
12,
11,
11,
11,
11,
11,
11,
12,
11,
12,
12,
11,
11,
10,
10,
10,
10,
11,
10,
11,
11,
10,
11,
12,
11,
10,
10,
10,
11,
10,
11,
10,
10,
11,
10,
10,
10,
8,
10,
8,
10,
10,
10,
10,
10,
10,
8,
10,
10,
8,
7,
8,
8,
8,
7,
7,
8,
7,
7,
7,
7,
7,
7,
7,
7,
7,
7,
6,
7,
7,
7,
7,
8,
7,
7,
7,
7,
7,
6,
7,
6,
7,
6,
5,
6,
6,
5,
6,
5,
4,
6,
6,
6,
7,
6,
6,
5,
6,
5,
5,
5,
5,
6,
5,
5,
6,
5,
6,
5,
4,
5,
4,
4,
5,
4,
4,
5,
5,
4,
6,
4,
4,
4,
6,
5,
2,
4,
2,
4,
4,
2,
1,
2,
4,
4,
2,
1,
4,
1,
1,
4,
4,
1,
1,
2,
2,
1,
1,
2,
4,
-1,
2,
1,
1,
1,
1,
1,
1,
1,
2,
1,
1,
1,
1,
0,
2,
1,
-1,
0,
0,
1,
1,
1,
1,
0,
0,
-1,
-1,
0,
0,
0,
0,
0,
0,
-1,
0,
0,
0,
1,
0,
-1,
0,
0,
-1,
-2,
-3,
-1,
-1,
0,
-1,
0,
0,
-3,
0,
-3,
-3,
-1,
-1,
-1,
-2,
-2,
-2,
-2,
-2,
-1,
-5,
-2,
-2,
-1,
-3,
-3,
-3,
-2,
-2,
-2,
-3,
-3,
-3,
-2,
-5,
-3,
-3,
-3,
-3,
-5,
-3,
-5,
-3,
-2,
-3,
-5,
-3,
-3,
-5,
-3,
-5,
-5,
-5,
-5,
-5,
-6,
-6,
-5,
-7,
-5,
-5,
-6,
-5,
-6,
-6,
-6,
-7,
-7,
-7,
-6,
-6,
-5,
-7,
-5,
-6,
-5,
-7,
-7,
-6,
-6,
-5,
-6,
-6,
-7,
-7,
-6,
-6,
-9,
-9,
-6,
-6,
-9,
-8,
-7,
-7,
-7,
-7,
-8,
-7,
-11,
-8,
-8,
-8,
-9,
-9,
-8,
-8,
-7,
-8,
-8,
-8,
-9,
-11,
-9,
-9,
-9,
-9,
-9,
-9,
-11,
-7,
-8,
-9,
-11,
-9,
-9,
-9,
-9,
-11,
-11,
-11,
-9,
-11,
-8,
-8,
-11,
-11,
-11,
-11,
-11,
-8,
-11,
-9,
-12,
-11,
-11,
-12,
-11,
-11,
-12,
-11,
-11,
-11,
-12,
-12,
-13,
-12,
-12,
-13,
-14,
-13,
-12,
-12,
-13,
-13,
-11,
-12,
-12,
-12,
-12,
-12,
-12,
-12,
-12,
-13,
-14,
-14,
-13,
-11,
-12,
-12,
-13,
-13,
-13,
-14,
-14,
-13,
-14,
-14,
-14,
-15,
-13,
-15,
-14,
-13,
-14,
-15,
-17,
-13,
-14,
-14,
-15,
-17,
-14,
-15,
-15,
-14,
-17,
-13,
-17,
-14,
-14,
-14,
-15,
-17,
-17,
-14,
-15,
-17,
-14,
-14,
-17,
-15,
-17,
-15,
-17,
-17,
-17,
-15,
-15,
-18,
-17,
-17,
-18,
-15,
-15,
-17,
-17,
-17,
-15,
-15,
-18,
-18,
-18,
-17,
-17,
-18,
-18,
-18,
-18,
-18,
-18,
-20,
-19,
-19,
-17,
-17,
-17,
-18,
-18,
-18,
-19,
-19,
-18,
-20,
-18,
-18,
-17,
-18,
-17,
-18,
-19,
-18,
-20,
-17,
-20,
-20,
-19,
-19,
-19,
-18,
-23,
-19,
-19,
-19,
-18,
-20,
-20,
-18,
-20,
-19,
-20,
-21,
-19,
-19,
-21,
-19,
-20,
-19,
-20,
-21,
-21,
-20,
-20,
-20,
-19,
-20,
-21,
-21,
-21,
-21,
-19,
-20,
-23,
-21,
-20,
-20,
-24,
-23,
-20,
-21,
-20,
-21,
-20,
-20,
-21,
-21,
-20,
-21,
-21,
-21,
-21,
-21,
-23,
-23,
-24,
-23,
-23,
-23,
-24,
-23,
-23,
-23,
-24,
-25,
-21,
-21,
-23,
-24,
-24,
-23,
-23,
-23,
-24,
-23,
-25,
-20,
-24,
-24,
-25,
-25,
-24,
-24,
-24,
-23,
-23,
-23,
-23,
-24,
-24,
-23,
-25,
-23,
-24,
-21,
-24,
-23,
-24,
-24,
-23,
-23,
-24,
-23,
-23,
-24,
-25,
-25,
-24,
-23,
-23,
-25,
-23,
-25,
-25,
-24,
-23,
-25,
-25,
-25,
-24,
-24,
-25,
-24,
-24,
-25,
-25,
-24,
-25,
-25,
-23,
-23,
-25,
-25,
-25,
-24,
-24,
-26,
-24,
-26,
-24,
-25,
-24,
-26,
-26,
-25,
-25,
-25,
-26,
-25,
-26,
-25,
-26,
-25,
-25,
-24,
-26,
-26,
-27,
-25,
-26,
-25,
-25,
-24,
-24,
-26,
-24,
-26,
-26,
-26,
-25,
-26,
-26,
-26,
-26,
-25,
-27,
-26,
-26,
-25,
-26,
-27,
-27,
-27,
-26,
-26,
-29,
-27,
-27,
-26,
-27,
-29,
-27,
-27,
-31,
-26,
-29,
-27,
-26,
-27,
-25,
-26,
-27,
-27,
-29,
-27,
-26,
-26,
-27,
-27,
-26,
-26,
-27,
-29,
-26,
-26,
-27,
-29,
-29,
-30,
-29,
-26,
-29,
-27,
-29,
-27,
-29,
-29,
-27,
-27,
-27,
-27,
-26,
-29,
-30,
-29,
-29,
-27,
-29,
-27,
-26,
-27,
-27,
-29,
-29,
-30,
-29,
-27,
-29,
-29,
-30,
-29,
-29,
-27,
-29,
-27,
-26,
-29,
-27,
-29,
-27,
-29,
-29,
-27,
-30,
-29,
-27,
-29,
-29,
-29,
-29,
-26,
-30,
-29,
-29,
-29,
-27,
-27,
-29,
-29,
-29,
-29,
-30,
-27,
-30,
-30,
-29,
-27,
-29,
-29,
-30,
-29,
-29,
-27,
-29,
-31,
-27,
-27,
-29,
-27,
-30,
-29,
-29,
-29,
-29,
-31,
-29,
-29,
-29,
-29,
-29,
-30,
-27,
-29,
-29,
-29,
-29,
-29,
-29,
-29,
-30,
-29,
-29,
-29,
-30,
-29,
-30,
-31,
-29,
-29,
-29,
-30,
-31,
-32,
-30,
-29,
-30,
-30,
-29,
-30,
-30,
-29,
-27,
-29,
-29,
-29,
-29,
-29,
-29,
-29,
-32,
-29,
-29,
-30,
-27,
-29,
-30,
-30,
-29,
-29,
-29,
-29,
-29,
-30,
-30,
-31,
-27,
-29,
-30,
-29,
-29,
-29,
-27,
-29,
-29,
-30,
-29,
-29,
-27,
-29,
-29,
-29,
-29,
-29,
-29,
-29,
-31,
-30,
-29,
-27,
-31,
-27,
-29,
-29,
-27,
-27,
-29,
-29,
-31,
-30,
-29,
-29,
-29,
-27,
-29,
-29,
-29,
-29,
-30,
-29,
-30,
-29,
-27,
-27,
-31,
-26,
-30,
-29,
-27,
-27,
-27,
-27,
-27,
-29,
-29,
-27,
-29,
-29,
-29,
-26,
-29,
-27,
-27,
-27,
-30,
-27,
-29,
-29,
-26,
-27,
-27,
-29,
-29,
-29,
-29,
-26,
-27,
-27,
-29,
-27,
-27,
-27,
-27,
-26,
-29,
-29,
-27,
-27,
-27,
-27,
-27,
-25,
-27,
-29,
-29,
-29,
-25,
-27,
-27,
-27,
-27,
-26,
-24,
-30,
-26,
-26,
-27,
-27,
-26,
-26,
-29,
-26,
-27,
-26,
-26,
-25,
-27,
-27,
-26,
-26,
-25,
-25,
-26,
-26,
-26,
-27,
-27,
-27,
-27,
-26,
-26,
-26,
-27,
-27,
-26,
-25,
-25,
-26,
-26,
-26,
-27,
-27,
-26,
-26,
-26,
-26,
-26,
-26,
-29,
-25,
-27,
-27,
-26,
-26,
-24,
-24,
-25,
-27,
-25,
-25,
-25,
-25,
-25,
-24,
-26,
-26,
-25,
-24,
-24,
-25,
-27,
-24,
-25,
-25,
-25,
-27,
-23,
-26,
-24,
-21,
-25,
-24,
-25,
-25,
-25,
-25,
-24,
-25,
-25,
-25,
-24,
-25,
-24,
-24,
-24,
-25,
-25,
-25,
-23,
-24,
-25,
-24,
-25,
-25,
-23,
-23,
-24,
-23,
-23,
-23,
-24,
-23,
-23,
-23,
-24,
-25,
-23,
-23,
-24,
-25,
-23,
-23,
-24,
-23,
-23,
-23,
-23,
-21,
-23,
-23,
-23,
-21,
-21,
-20,
-24,
-21,
-23,
-23,
-20,
-23,
-23,
-20,
-23,
-21,
-23,
-23,
-23,
-23,
-21,
-23,
-23,
-20,
-21,
-21,
-23,
-23,
-21,
-23,
-21,
-20,
-20,
-23,
-23,
-20,
-20,
-21,
-20,
-21,
-19,
-20,
-20,
-20,
-23,
-19,
-20,
-20,
-18,
-19,
-19,
-21,
-19,
-20,
-21,
-20,
-19,
-19,
-21,
-19,
-18,
-18,
-21,
-20,
-20,
-20,
-20,
-20,
-19,
-20,
-19,
-18,
-17,
-21,
-18,
-18,
-18,
-19,
-18,
-18,
-18,
-18,
-19,
-19,
-17,
-17,
-18,
-18,
-18,
-17,
-18,
-18,
-18,
-18,
-18,
-17,
-19,
-18,
-18,
-18,
-19,
-19,
-18,
-19,
-18,
-19,
-17,
-15,
-18,
-14,
-18,
-17,
-19,
-18,
-17,
-17,
-17,
-18,
-17,
-17,
-17,
-18,
-14,
-14,
-17,
-15,
-15,
-17,
-15,
-17,
-17,
-17,
-17,
-17,
-15,
-15,
-15,
-14,
-14,
-15,
-14,
-15,
-13,
-14,
-17,
-15,
-15,
-14,
-15,
-14,
-15,
-14,
-14,
-13,
-15,
-15,
-13,
-15,
-13,
-14,
-14,
-13,
-14,
-13,
-14,
-13,
-12,
-12,
-14,
-13,
-14,
-14,
-14,
-13,
-13,
-13,
-12,
-14,
-11,
-13,
-14,
-14,
-13,
-13,
-12,
-11,
-12,
-11,
-13,
-11,
-13,
-12,
-13,
-13,
-11,
-11,
-11,
-11,
-11,
-11,
-13,
-13,
-11,
-11,
-11,
-11,
-11,
-11,
-11,
-11,
-11,
-11,
-12,
-11,
-9,
-7,
-9,
-8,
-9,
-9,
-9,
-9,
-11,
-11,
-9,
-11,
-8,
-8,
-9,
-9,
-8,
-9,
-8,
-8,
-8,
-8,
-8,
-9,
-8,
-8,
-6,
-8,
-8,
-7,
-8,
-9,
-6,
-8,
-8,
-8,
-7,
-7,
-7,
-7,
-7,
-5,
-6,
-8,
-6,
-6,
-7,
-7,
-7,
-7,
-6,
-7,
-6,
-6,
-7,
-6,
-6,
-6,
-6,
-6,
-7,
-6,
-6,
-6,
-7,
-6,
-6,
-6,
-6,
-6,
-6,
-7,
-6,
-5,
-5,
-5,
-5,
-5,
-5,
-6,
-5,
-3,
-6,
-5,
-6,
-3,
-5,
-3,
-5,
-5,
-5,
-5,
-3,
-3,
-3,
-3,
-5,
-5,
-2,
-3,
-5,
-2,
-3,
-3,
-3,
-5,
-3,
-3,
-3,
-5,
-3,
-3,
-2,
-2,
-3,
-2,
-2,
-2,
-2,
-2,
-1,
-2,
-2,
-2,
-1,
-3,
-2,
-3,
0,
-1,
-1,
-1,
-3,
-2,
-1,
-1,
-1,
-1,
0,
0,
-1,
0,
-1,
-1,
0,
0,
0,
1,
-1,
-1,
0,
0,
1,
0,
2,
0,
0,
-1,
0,
0,
0,
1,
1,
1,
1,
1,
1,
0,
1,
1,
1,
1,
2,
1,
1,
1,
1,
1,
1,
1,
2,
1,
2,
1,
1,
1,
2,
2,
2,
2,
2,
5,
2,
2,
4,
2,
2,
2,
4,
5,
4,
2,
4,
2,
2,
5,
5,
5,
4,
4,
2,
2,
4,
5,
5,
5,
5,
4,
5,
5,
5,
5,
5,
5,
5,
5,
5,
6,
5,
5,
5,
7,
5,
6,
6,
6,
6,
6,
5,
5,
6,
5,
7,
6,
7,
6,
5,
6,
7,
7,
7,
5,
8,
6,
7,
7,
6,
7,
7,
7,
7,
7,
7,
7,
10,
8,
8,
8,
7,
8,
8,
8,
7,
8,
8,
8,
8,
7,
8,
8,
8,
8,
8,
8,
8,
10,
10,
8,
8,
8,
8,
10,
7,
8,
10,
8,
8,
11,
10,
10,
8,
12,
10,
10,
10,
11,
11,
8,
11,
12,
11,
11,
11,
10,
11,
8,
11,
11,
11,
11,
12,
11,
11,
11,
8,
13,
12,
12,
11,
12,
11,
11,
12,
11,
12,
12,
13,
12,
12,
12,
11,
12,
12,
11,
13,
13,
12,
13,
13,
12,
13,
13,
14,
13,
13,
13,
13,
13,
13,
13,
13,
13,
14,
13,
13,
13,
13,
13,
13,
13,
14,
13,
14,
16,
14,
14,
14,
14,
13,
14,
14,
13,
16,
14,
14,
16,
14,
14,
16,
16,
14,
16,
13,
14,
16,
16,
14,
14,
17,
16,
14,
16,
17,
17,
16,
17,
16,
17,
14,
14,
17,
14,
18,
17,
16,
17,
17,
17,
17,
17,
18,
18,
17,
18,
16,
18,
17,
18,
18,
18,
18,
17,
18,
17,
18,
18,
17,
17,
18,
17,
18,
17,
18,
16,
18,
18,
17,
17,
18,
18,
18,
18,
19,
19,
18,
19,
18,
17,
19,
19,
19,
19,
18,
18,
19,
19,
18,
18,
19,
19,
19,
18,
19,
19,
19,
19,
19,
19,
20,
19,
19,
19,
19,
20,
19,
19,
20,
19,
19,
19,
19,
20,
19,
19,
18,
20,
19,
19,
20,
20,
19,
22,
19,
20,
20,
20,
20,
20,
22,
22,
22,
20,
20,
20,
19,
22,
20,
22,
20,
24,
20,
20,
20,
20,
20,
20,
23,
22,
22,
22,
22,
20,
22,
20,
22,
20,
23,
22,
20,
22,
22,
22,
22,
22,
22,
23,
22,
22,
23,
20,
20,
22,
20,
23,
22,
22,
23,
23,
22,
23,
22,
23,
23,
23,
22,
23,
23,
22,
23,
24,
23,
23,
23,
22,
24,
23,
23,
23,
23,
23,
23,
23,
24,
24,
23,
24,
24,
23,
23,
23,
23,
23,
23,
22,
23,
23,
23,
23,
23,
23,
23,
24,
23,
23,
23,
23,
23,
24,
24,
23,
24,
24,
24,
23,
24,
24,
23,
24,
24,
24,
24,
23,
24,
24,
23,
23,
24,
24,
23,
23,
24,
24,
23,
23,
24,
24,
24,
24,
24,
24,
24,
24,
24,
24,
24,
23,
24,
24,
23,
23,
24,
24,
23,
23,
24,
24,
24,
24,
25,
23,
24,
25,
24,
24,
25,
25,
23,
24,
25,
25,
25,
24,
25,
24,
25,
25,
24,
25,
25,
24,
24,
25,
24,
24,
25,
25,
23,
24,
25,
24,
25,
24,
24,
25,
25,
25,
23,
24,
25,
24,
23,
23,
24,
25,
25,
25,
25,
25,
25,
24,
24,
25,
24,
24,
25,
24,
25,
24,
24,
25,
23,
25,
24,
24,
23,
24,
25,
24,
24,
25,
24,
25,
24,
25,
25,
25,
25,
25,
25,
25,
24,
24,
25,
25,
25,
25,
24,
23,
24,
25,
23,
24,
23,
23,
24,
23,
25,
23,
24,
24,
23,
24,
24,
24,
25,
24,
24,
24,
25,
24,
24,
25,
24,
23,
24,
24,
24,
23,
25,
24,
24,
24,
24,
24,
24,
24,
24,
24,
24,
24,
23,
23,
24,
23,
24,
25,
23,
23,
24,
23,
24,
24,
25,
23,
24,
23,
24,
24,
24,
23,
24,
23,
24,
23,
24,
23,
23,
24,
22,
23,
23,
23,
20,
23,
23,
23,
23,
24,
23,
23,
22,
24,
24,
23,
23,
25,
23,
24,
23,
23,
22,
22,
24,
23,
24,
23,
22,
24,
22,
23,
23,
23,
23,
23,
23,
22,
22,
22,
20,
22,
23,
23,
22,
23,
23,
23,
20,
22,
22,
23,
22,
22,
22,
23,
22,
23,
22,
22,
22,
20,
22,
22,
23,
22,
20,
22,
22,
22,
20,
23,
20,
20,
22,
20,
22,
20,
20,
20,
22,
20,
20,
20,
20,
22,
22,
20,
22,
20,
22,
20,
19,
19,
19,
20,
20,
19,
20,
20,
20,
22,
22,
20,
20,
20,
20,
20,
20,
22,
20,
19,
20,
22,
19,
19,
20,
19,
20,
19,
20,
19,
19,
20,
19,
20,
20,
19,
19,
19,
20,
20,
20,
19,
19,
19,
18,
19,
19,
19,
17,
19,
19,
18,
18,
19,
18,
20,
19,
18,
18,
19,
18,
18,
18,
18,
19,
18,
14,
19,
18,
19,
18,
17,
18,
17,
19,
18,
17,
17,
17,
17,
17,
16,
18,
16,
17,
17,
17,
17,
17,
17,
17,
17,
17,
18,
17,
17,
16,
17,
17,
16,
14,
14,
16,
17,
14,
17,
14,
16,
17,
16,
17,
16,
17,
16,
17,
16,
14,
14,
16,
16,
17,
16,
14,
17,
16,
14,
16,
16,
16,
14,
14,
14,
14,
16,
14,
14,
13,
14,
14,
14,
16,
14,
13,
14,
13,
11,
14,
13,
14,
13,
13,
13,
12,
14,
13,
13,
14,
13,
13,
16,
13,
13,
13,
12,
12,
14,
13,
13,
13,
12,
12,
13,
13,
12,
13,
12,
11,
13,
11,
13,
11,
12,
13,
12,
13,
12,
12,
12,
11,
12,
11,
13,
11,
11,
11,
10,
10,
11,
11,
12,
12,
11,
11,
10,
10,
10,
11,
12,
8,
8,
10,
10,
10,
11,
10,
10,
8,
10,
8,
10,
10,
8,
8,
10,
8,
8,
10,
8,
7,
8,
7,
8,
8,
8,
10,
10,
7,
10,
7,
8,
7,
7,
7,
7,
7,
8,
7,
8,
10,
7,
7,
7,
7,
8,
7,
7,
6,
7,
7,
7,
7,
7,
6,
7,
7,
7,
6,
6,
5,
7,
6,
6,
6,
7,
5,
6,
7,
6,
6,
6,
6,
5,
6,
6,
2,
6,
5,
6,
6,
5,
7,
5,
2,
6,
5,
6,
2,
6,
5,
5,
5,
5,
4,
5,
4,
5,
6,
5,
4,
5,
2,
2,
2,
5,
4,
4,
5,
2,
4,
4,
4,
5,
2,
4,
4,
2,
2,
4,
2,
2,
2,
2,
2,
1,
1,
2,
2,
2,
1,
1,
1,
1,
1,
1,
1,
-1,
1,
1,
1,
1,
1,
0,
1,
1,
1,
1,
1,
0,
0,
0,
1,
0,
1,
0,
1,
0,
0,
0,
-1,
-1,
1,
-1,
-1,
0,
-1,
-1,
-1,
-1,
-1,
-1,
-1,
-1,
-2,
-3,
-1,
-1,
-1,
-1,
-2,
-3,
-1,
-1,
-3,
-1,
-2,
-1,
-2,
-2,
0,
-2,
-1,
-3,
-2,
-2,
-3,
-3,
-3,
-2,
-3,
-3,
-2,
-3,
-2,
-3,
-2,
-1,
-3,
-5,
-5,
-5,
-3,
-3,
-3,
-3,
-5,
-5,
-5,
-5,
-5,
-5,
-6,
-5,
-6,
-5,
-6,
-6,
-5,
-5,
-5,
-5,
-5,
-5,
-5,
-5,
-5,
-3,
-7,
-5,
-7,
-6,
-7,
-6,
-6,
-6,
-6,
-6,
-6,
-5,
-5,
-6,
-6,
-6,
-7,
-7,
-7,
-7,
-7,
-6,
-7,
-7,
-6,
-8,
-7,
-7,
-7,
-8,
-8,
-9,
-7,
-7,
-7,
-7,
-7,
-6,
-7,
-8,
-7,
-9,
-8,
-8,
-8,
-8,
-9,
-8,
-9,
-8,
-9,
-8,
-7,
-8,
-9,
-9,
-8,
-7,
-9,
-9,
-9,
-8,
-8,
-9,
-9,
-11,
-8,
-8,
-9,
-8,
-9,
-11,
-11,
-11,
-8,
-9,
-11,
-11,
-11,
-11,
-11,
-11,
-12,
-12,
-11,
-11,
-12,
-12,
-11,
-11,
-12,
-12,
-12,
-12,
-11,
-12,
-13,
-13,
-12,
-13,
-13,
-12,
-13,
-13,
-12,
-12,
-13,
-13,
-12,
-11,
-14,
-13,
-13,
-15,
-13,
-14,
-12,
-12,
-14,
-15,
-14,
-12,
-13,
-13,
-12,
-13,
-15,
-15,
-13,
-14,
-15,
-13,
-15,
-14,
-14,
-14,
-15,
-14,
-17,
-15,
-14,
-14,
-15,
-13,
-14,
-14,
-15,
-15,
-15,
-15,
-17,
-14,
-14,
-14,
-17,
-17,
-17,
-15,
-15,
-17,
-15,
-17,
-17,
-17,
-17,
-17,
-17,
-18,
-17,
-17,
-14,
-17,
-17,
-17,
-17,
-18,
-18,
-17,
-18,
-17,
-17,
-18,
-17,
-18,
-18,
-18,
-18,
-17,
-18,
-19,
-17,
-19,
-17,
-18,
-17,
-18,
-18,
-18,
-18,
-19,
-19,
-19,
-17,
-18,
-19,
-18,
-18,
-17,
-21,
-21,
-19,
-19,
-19,
-20,
-19,
-19,
-19,
-20,
-18,
-19,
-19,
-18,
-18,
-20,
-20,
-18,
-19,
-19,
-20,
-19,
-18,
-23,
-20,
-21,
-21,
-20,
-20,
-18,
-21,
-20,
-20,
-20,
-20,
-21,
-20,
-19,
-21,
-20,
-21,
-23,
-20,
-20,
-21,
-21,
-20,
-20,
-21,
-20,
-19,
-20,
-23,
-23,
-20,
-21,
-23,
-20,
-23,
-21,
-20,
-20,
-23,
-23,
-21,
-21,
-21,
-21,
-23,
-24,
-20,
-21,
-24,
-21,
-23,
-23,
-21,
-23,
-23,
-20,
-21,
-21,
-21,
-23,
-23,
-20,
-25,
-23,
-23,
-23,
-23,
-21,
-23,
-24,
-24,
-23,
-24,
-23,
-25,
-21,
-26,
-24,
-24,
-23,
-25,
-25,
-25,
-24,
-23,
-26,
-23,
-23,
-24,
-24,
-25,
-24,
-24,
-24,
-25,
-24,
-23,
-23,
-24,
-24,
-25,
-24,
-24,
-25,
-25,
-24,
-23,
-24,
-25,
-25,
-24,
-25,
-23,
-24,
-25,
-24,
-25,
-25,
-25,
-25,
-25,
-25,
-26,
-27,
-26,
-25,
-24,
-25,
-26,
-25,
-26,
-27,
-24,
-24,
-26,
-26,
-26,
-26,
-26,
-25,
-25,
-25,
-27,
-25,
-26,
-26,
-26,
-24,
-26,
-26,
-25,
-27,
-25,
-26,
-26,
-25,
-27,
-27,
-26,
-27,
-24,
-27,
-26,
-26,
-27,
-26,
-27,
-29,
-26,
-29,
-24,
-26,
-26,
-27,
-27,
-27,
-26,
-27,
-29,
-29,
-26,
-26,
-27,
-27,
-26,
-24,
-29,
-27,
-27,
-26,
-27,
-29,
-29,
-27,
-26,
-26,
-27,
-27,
-27,
-27,
-27,
-27,
-26,
-26,
-27,
-29,
-29,
-27,
-29,
-27,
-27,
-27,
-27,
-27,
-29,
-29,
-27,
-27,
-27,
-27,
-29,
-27,
-27,
-29,
-26,
-26,
-29,
-27,
-29,
-27,
-29,
-27,
-27,
-26,
-27,
-27,
-29,
-29,
-30,
-29,
-29,
-27,
-31,
-27,
-29,
-29,
-27,
-27,
-29,
-29,
-27,
-27,
-29,
-29,
-29,
-29,
-27,
-27,
-29,
-29,
-29,
-29,
-29,
-26,
-30,
-29,
-29,
-30,
-29,
-29,
-29,
-27,
-26,
-29,
-29,
-29,
-27,
-30,
-29,
-29,
-31,
-29,
-29,
-29,
-26,
-27,
-30,
-29,
-30,
-29,
-29,
-29,
-29,
-29,
-30,
-31,
-26,
-27,
-30,
-29,
-30,
-30,
-29,
-29,
-29,
-29,
-30,
-27,
-27,
-26,
-29,
-30,
-29,
-29,
-31,
-30,
-30,
-29,
-29,
-30,
-29,
-29,
-30,
-29,
-29,
-27,
-29,
-29,
-29,
-29,
-29,
-29,
-29,
-27,
-29,
-29,
-29,
-30,
-29,
-29,
-29,
-30,
-30,
-27,
-29,
-27,
-31,
-29,
-29,
-30,
-29,
-29,
-29,
-27,
-29,
-29,
-27,
-27,
-29,
-29,
-29,
-29,
-29,
-29,
-29,
-29,
-30,
-31,
-29,
-29,
-29,
-29,
-29,
-29,
-29,
-27,
-27,
-29,
-29,
-27,
-29,
-29,
-26,
-29,
-29,
-27,
-29,
-29,
-29,
-29,
-29,
-29,
-29,
-30,
-29,
-27,
-27,
-27,
-29,
-29,
-27,
-27,
-29,
-29,
-27,
-29,
-29,
-29,
-29,
-27,
-29,
-29,
-27,
-29,
-29,
-29,
-29,
-29,
-29,
-26,
-29,
-29,
-27,
-29,
-27,
-29,
-26,
-27,
-29,
-29,
-29,
-29,
-29,
-29,
-29,
-29,
-27,
-27,
-27,
-26,
-27,
-29,
-27,
-29,
-29,
-27,
-29,
-27,
-26,
-30,
-26,
-27,
-26,
-29,
-27,
-26,
-29,
-25,
-27,
-26,
-27,
-26,
-27,
-27,
-26,
-27,
-27,
-29,
-26,
-27,
-26,
-26,
-26,
-26,
-27,
-26,
-27,
-27,
-25,
-26,
-26,
-26,
-27,
