RLC_R_993.9/ALL0068/2.CSV

Format,1.0B,
Memory Length,10000,
IntpDistance,0,
Trigger Address,4999,
Trigger Level,0.000E+00,
Source,CH2,
Vertical Units,V,
Vertical Units Div,0,
Vertical Units Extend Div,16,
Label, ,
Probe Type,0,
Probe Ratio,1.000E+00,
Vertical Scale,2.000E+00,
Vertical Position,-4.000E+00,
Horizontal Units,S,
Horizontal Scale,5.000E-05,
Horizontal Position,0.000E+00,
Horizontal Mode,Main,
SincET Mode,Real Time,
Sampling Period,5.000E-08,
Horizontal Old Scale,5.000E-05,
Horizontal Old Position,0.000E+00,
Firmware,V1.24,
Mode,Fast,
Waveform Data,
-19,
-18,
-18,
-18,
-18,
-18,
-18,
-17,
-18,
-18,
-17,
-18,
-19,
-17,
-17,
-18,
-17,
-17,
-17,
-17,
-17,
-18,
-15,
-17,
-18,
-15,
-15,
-17,
-17,
-17,
-17,
-15,
-15,
-17,
-15,
-15,
-18,
-15,
-15,
-17,
-15,
-15,
-15,
-14,
-15,
-15,
-14,
-15,
-17,
-14,
-14,
-15,
-14,
-15,
-14,
-14,
-14,
-14,
-13,
-14,
-17,
-13,
-13,
-14,
-14,
-13,
-13,
-13,
-14,
-14,
-13,
-13,
-14,
-12,
-13,
-13,
-13,
-13,
-13,
-12,
-13,
-13,
-12,
-12,
-13,
-12,
-12,
-13,
-12,
-12,
-12,
-12,
-13,
-12,
-11,
-12,
-12,
-11,
-11,
-12,
-12,
-11,
-11,
-11,
-11,
-12,
-10,
-11,
-12,
-11,
-11,
-12,
-11,
-10,
-11,
-10,
-11,
-11,
-10,
-11,
-11,
-10,
-10,
-11,
-10,
-10,
-10,
-10,
-10,
-10,
-8,
-10,
-11,
-8,
-8,
-10,
-8,
-8,
-8,
-8,
-8,
-8,
-7,
-8,
-10,
-7,
-7,
-8,
-8,
-7,
-8,
-7,
-8,
-8,
-6,
-7,
-8,
-7,
-7,
-7,
-7,
-7,
-6,
-6,
-7,
-7,
-6,
-7,
-8,
-6,
-6,
-7,
-6,
-6,
-6,
-6,
-6,
-6,
-5,
-6,
-7,
-5,
-5,
-6,
-5,
-5,
-5,
-5,
-6,
-6,
-4,
-5,
-6,
-4,
-4,
-5,
-5,
-4,
-5,
-4,
-5,
-5,
-4,
-4,
-5,
-4,
-4,
-5,
-4,
-4,
-4,
-2,
-4,
-4,
-2,
-4,
-4,
-2,
-2,
-4,
-2,
-2,
-2,
-1,
-2,
-2,
-1,
-1,
-4,
-2,
-1,
-2,
-1,
-1,
-1,
-1,
-1,
-1,
0,
-1,
-2,
-1,
0,
-1,
-1,
0,
0,
0,
-1,
0,
0,
0,
-1,
0,
0,
0,
0,
1,
1,
1,
0,
0,
1,
1,
0,
1,
1,
1,
1,
1,
1,
2,
1,
1,
2,
2,
1,
2,
2,
1,
2,
2,
2,
2,
2,
2,
4,
2,
2,
4,
4,
4,
2,
4,
4,
4,
2,
4,
4,
4,
2,
4,
4,
4,
4,
5,
5,
5,
4,
4,
5,
5,
4,
5,
5,
5,
5,
5,
5,
6,
5,
5,
6,
6,
5,
6,
6,
6,
6,
6,
6,
6,
6,
6,
6,
6,
6,
7,
7,
6,
6,
7,
7,
7,
7,
6,
7,
7,
7,
7,
7,
7,
7,
8,
8,
8,
7,
7,
8,
8,
7,
8,
8,
8,
8,
8,
8,
8,
8,
8,
10,
10,
8,
10,
10,
10,
10,
10,
10,
10,
10,
10,
10,
10,
10,
11,
11,
10,
11,
11,
11,
11,
11,
11,
11,
11,
10,
11,
11,
11,
11,
12,
12,
12,
11,
11,
12,
12,
11,
12,
12,
12,
12,
12,
12,
12,
12,
12,
13,
13,
12,
12,
13,
13,
13,
13,
13,
13,
13,
13,
13,
13,
13,
13,
13,
13,
13,
14,
14,
14,
14,
13,
14,
14,
13,
14,
14,
14,
14,
14,
14,
14,
14,
14,
15,
15,
14,
14,
15,
15,
15,
15,
15,
15,
15,
15,
15,
15,
15,
15,
15,
15,
17,
17,
17,
17,
15,
17,
17,
17,
17,
17,
17,
17,
17,
17,
17,
17,
17,
17,
18,
18,
17,
17,
17,
17,
18,
18,
18,
18,
18,
18,
18,
18,
18,
18,
18,
18,
18,
19,
19,
19,
18,
19,
19,
19,
18,
19,
19,
19,
19,
19,
19,
19,
19,
19,
19,
19,
19,
19,
19,
19,
19,
20,
20,
20,
20,
20,
20,
20,
19,
20,
20,
20,
20,
20,
20,
20,
20,
20,
20,
20,
20,
21,
20,
21,
21,
21,
21,
21,
21,
21,
21,
21,
21,
21,
21,
21,
21,
23,
21,
21,
21,
21,
21,
23,
21,
21,
23,
23,
23,
23,
23,
23,
23,
23,
23,
23,
23,
23,
23,
23,
23,
24,
23,
23,
23,
23,
23,
23,
23,
23,
24,
24,
24,
24,
24,
24,
24,
24,
24,
24,
24,
24,
24,
24,
24,
25,
24,
24,
24,
24,
24,
24,
24,
25,
25,
25,
25,
25,
25,
25,
25,
25,
25,
25,
25,
25,
25,
25,
25,
25,
25,
25,
25,
25,
25,
25,
25,
25,
26,
25,
25,
25,
26,
26,
25,
26,
26,
26,
25,
26,
26,
26,
26,
26,
26,
26,
26,
26,
26,
26,
26,
26,
26,
26,
26,
26,
26,
26,
26,
26,
26,
26,
26,
26,
27,
27,
27,
27,
27,
27,
27,
27,
27,
27,
26,
27,
27,
27,
27,
27,
27,
27,
27,
27,
27,
27,
27,
27,
27,
27,
27,
27,
27,
27,
27,
27,
27,
27,
27,
27,
29,
29,
27,
29,
27,
29,
29,
29,
29,
29,
27,
29,
29,
29,
29,
29,
29,
29,
29,
29,
29,
29,
29,
29,
29,
29,
29,
29,
29,
29,
29,
29,
29,
29,
29,
29,
29,
29,
29,
29,
29,
29,
29,
29,
29,
29,
29,
29,
30,
29,
29,
29,
29,
30,
29,
29,
29,
29,
29,
30,
30,
30,
30,
30,
29,
30,
29,
29,
29,
29,
30,
30,
30,
30,
30,
30,
30,
30,
30,
30,
30,
30,
30,
30,
30,
30,
30,
30,
30,
30,
30,
30,
30,
30,
30,
30,
30,
30,
30,
30,
30,
30,
30,
30,
30,
30,
30,
30,
30,
30,
30,
30,
30,
30,
30,
30,
30,
30,
30,
30,
30,
30,
30,
30,
30,
30,
30,
30,
30,
30,
30,
30,
30,
30,
30,
30,
30,
30,
30,
30,
30,
30,
30,
30,
30,
30,
30,
30,
30,
30,
30,
30,
30,
30,
30,
30,
30,
30,
30,
30,
30,
30,
30,
30,
30,
30,
30,
30,
30,
30,
30,
30,
30,
30,
30,
30,
30,
30,
30,
30,
30,
30,
30,
30,
30,
30,
30,
30,
30,
30,
30,
30,
30,
30,
30,
30,
30,
30,
30,
30,
30,
29,
29,
30,
30,
30,
30,
30,
30,
30,
29,
30,
30,
29,
29,
29,
29,
29,
29,
29,
29,
29,
29,
29,
29,
29,
29,
29,
29,
29,
29,
29,
29,
29,
29,
29,
29,
29,
29,
29,
29,
29,
29,
29,
29,
29,
29,
29,
29,
29,
29,
29,
29,
29,
29,
29,
29,
29,
29,
29,
27,
27,
29,
27,
29,
27,
27,
27,
27,
27,
27,
27,
27,
27,
27,
27,
27,
27,
27,
27,
27,
27,
27,
27,
27,
27,
27,
27,
27,
27,
27,
27,
27,
27,
27,
27,
27,
26,
26,
26,
27,
26,
27,
27,
26,
26,
26,
26,
26,
26,
26,
26,
26,
26,
26,
26,
26,
26,
26,
26,
26,
26,
26,
26,
26,
26,
26,
26,
26,
26,
26,
25,
25,
25,
25,
25,
25,
25,
25,
25,
25,
25,
25,
25,
25,
25,
25,
25,
25,
25,
25,
25,
25,
25,
25,
25,
25,
24,
24,
24,
25,
24,
25,
24,
24,
24,
25,
24,
24,
24,
24,
24,
24,
24,
24,
24,
24,
24,
24,
24,
24,
23,
24,
23,
24,
23,
23,
24,
23,
23,
23,
23,
23,
23,
23,
23,
23,
23,
23,
23,
23,
23,
23,
23,
23,
23,
23,
21,
21,
21,
23,
21,
21,
21,
21,
21,
21,
21,
21,
21,
21,
21,
21,
21,
21,
21,
21,
20,
21,
20,
21,
20,
21,
20,
20,
20,
20,
20,
20,
20,
20,
20,
20,
20,
20,
20,
20,
20,
20,
19,
20,
19,
19,
19,
19,
19,
19,
19,
19,
19,
19,
19,
19,
19,
19,
19,
19,
18,
19,
18,
18,
19,
19,
18,
18,
18,
18,
18,
18,
18,
18,
18,
18,
18,
18,
18,
18,
17,
17,
17,
17,
17,
17,
17,
17,
17,
17,
17,
17,
17,
17,
17,
17,
17,
17,
15,
17,
15,
17,
15,
15,
15,
15,
15,
15,
15,
15,
15,
15,
15,
15,
15,
15,
15,
15,
15,
15,
14,
14,
14,
14,
14,
14,
14,
14,
14,
14,
14,
14,
14,
14,
13,
14,
14,
14,
13,
13,
13,
13,
13,
13,
13,
13,
13,
13,
13,
13,
13,
13,
12,
13,
13,
12,
12,
12,
12,
12,
12,
12,
12,
12,
12,
12,
12,
12,
12,
12,
11,
11,
11,
11,
11,
11,
11,
11,
11,
11,
11,
11,
10,
11,
11,
11,
10,
11,
10,
10,
10,
10,
10,
10,
10,
10,
10,
10,
10,
10,
8,
10,
10,
8,
8,
8,
8,
8,
8,
8,
8,
8,
8,
8,
8,
7,
8,
8,
7,
7,
7,
7,
7,
7,
7,
7,
7,
7,
7,
7,
7,
7,
7,
7,
6,
7,
6,
6,
6,
6,
6,
6,
6,
6,
6,
6,
6,
6,
5,
6,
6,
5,
5,
6,
5,
5,
5,
5,
5,
5,
5,
5,
5,
5,
5,
5,
4,
4,
4,
4,
4,
4,
4,
4,
4,
2,
4,
4,
2,
4,
2,
4,
2,
2,
2,
4,
2,
1,
2,
2,
2,
2,
2,
2,
2,
2,
1,
2,
1,
1,
2,
1,
1,
1,
1,
1,
1,
0,
0,
1,
1,
0,
1,
1,
0,
0,
0,
0,
0,
0,
0,
0,
0,
-1,
0,
0,
-1,
0,
0,
-1,
-1,
-1,
-1,
0,
-1,
-2,
-1,
-1,
-2,
-1,
-1,
-2,
-1,
-2,
-2,
-1,
-1,
-2,
-2,
-2,
-2,
-2,
-2,
-2,
-2,
-4,
-4,
-2,
-2,
-4,
-2,
-2,
-4,
-4,
-4,
-4,
-4,
-4,
-4,
-4,
-4,
-5,
-4,
-4,
-5,
-4,
-4,
-5,
-5,
-5,
-5,
-4,
-5,
-6,
-5,
-5,
-6,
-5,
-5,
-6,
-5,
-6,
-6,
-5,
-6,
-7,
-5,
-6,
-6,
-6,
-6,
-7,
-6,
-7,
-6,
-6,
-6,
-7,
-6,
-6,
-7,
-7,
-7,
-7,
-7,
-7,
-7,
-7,
-7,
-8,
-7,
-7,
-8,
-7,
-7,
-8,
-8,
-8,
-8,
-7,
-8,
-10,
-8,
-8,
-10,
-8,
-8,
-10,
-8,
-8,
-10,
-8,
-10,
-10,
-10,
-10,
-10,
-10,
-10,
-10,
-10,
-10,
-11,
-10,
-11,
-11,
-10,
-10,
-11,
-11,
-11,
-11,
-11,
-11,
-12,
-10,
-11,
-12,
-11,
-11,
-12,
-11,
-11,
-12,
-12,
-12,
-12,
-11,
-12,
-13,
-11,
-12,
-13,
-12,
-12,
-12,
-12,
-12,
-13,
-12,
-13,
-14,
-12,
-13,
-13,
-13,
-13,
-13,
-13,
-13,
-14,
-12,
-14,
-14,
-13,
-13,
-14,
-13,
-14,
-14,
-13,
-14,
-14,
-13,
-14,
-15,
-13,
-14,
-15,
-14,
-14,
-14,
-14,
-15,
-15,
-14,
-15,
-15,
-14,
-15,
-17,
-15,
-15,
-15,
-15,
-15,
-17,
-14,
-17,
-17,
-15,
-15,
-17,
-15,
-15,
-17,
-15,
-17,
-17,
-15,
-17,
-18,
-17,
-17,
-18,
-17,
-17,
-17,
-17,
-18,
-18,
-17,
-18,
-19,
-17,
-17,
-18,
-18,
-18,
-18,
-18,
-18,
-19,
-17,
-18,
-19,
-18,
-18,
-19,
-18,
-18,
-19,
-18,
-19,
-19,
-18,
-19,
-19,
-19,
-19,
-20,
-19,
-19,
-19,
-19,
-20,
-20,
-18,
-19,
-20,
-19,
-20,
-21,
-19,
-20,
-20,
-19,
-19,
-21,
-19,
-20,
-21,
-20,
-20,
-21,
-19,
-20,
-21,
-20,
-20,
-21,
-20,
-21,
-21,
-20,
-20,
-21,
-20,
-21,
-23,
-20,
-21,
-21,
-20,
-21,
-23,
-21,
-21,
-23,
-20,
-21,
-23,
-21,
-21,
-23,
-21,
-21,
-23,
-21,
-23,
-23,
-21,
-23,
-23,
-21,
-23,
-23,
-21,
-23,
-24,
-21,
-23,
-24,
-23,
-23,
-24,
-23,
-23,
-24,
-23,
-23,
-24,
-23,
-24,
-25,
-23,
-24,
-24,
-23,
-24,
-24,
-23,
-24,
-25,
-24,
-24,
-25,
-23,
-24,
-24,
-24,
-24,
-25,
-24,
-24,
-25,
-24,
-24,
-26,
-24,
-25,
-26,
-24,
-24,
-25,
-24,
-25,
-26,
-24,
-25,
-26,
-24,
-25,
-26,
-25,
-25,
-26,
-24,
-25,
-26,
-25,
-25,
-26,
-25,
-25,
-26,
-25,
-25,
-27,
-25,
-26,
-26,
-25,
-26,
-27,
-25,
-26,
-26,
-26,
-25,
-27,
-25,
-26,
-27,
-25,
-26,
-27,
-25,
-26,
-27,
-26,
-26,
-27,
-26,
-26,
-27,
-26,
-26,
-27,
-26,
-27,
-27,
-26,
-27,
-27,
-26,
-26,
-27,
-26,
-27,
-27,
-26,
-27,
-27,
-26,
-26,
-27,
-26,
-27,
-29,
-26,
-27,
-27,
-26,
-27,
-29,
-27,
-29,
-29,
-26,
-27,
-29,
-27,
-29,
-29,
-27,
-27,
-29,
-26,
-29,
-29,
-27,
-27,
-29,
-27,
-29,
-29,
-27,
-29,
-29,
-27,
-29,
-29,
-27,
-29,
-29,
-27,
-29,
-29,
-27,
-29,
-29,
-27,
-29,
-29,
-27,
-29,
-29,
-27,
-29,
-30,
-27,
-29,
-29,
-27,
-29,
-29,
-29,
-29,
-29,
-29,
-29,
-30,
-27,
-29,
-29,
-29,
-29,
-30,
-27,
-29,
-30,
-29,
-30,
-30,
-27,
-29,
-29,
-29,
-29,
-30,
-29,
-30,
-31,
-27,
-29,
-30,
-29,
-30,
-30,
-29,
-30,
-29,
-27,
-30,
-31,
-27,
-29,
-30,
-27,
-30,
-30,
-29,
-30,
-30,
-29,
-30,
-31,
-29,
-29,
-30,
-29,
-29,
-30,
-29,
-30,
-30,
-29,
-30,
-31,
-29,
-30,
-30,
-29,
-29,
-30,
-29,
-31,
-30,
-29,
-30,
-31,
-27,
-30,
-30,
-29,
-30,
-30,
-29,
-30,
-30,
-29,
-30,
-30,
-29,
-29,
-30,
-29,
-29,
-30,
-29,
-30,
-30,
-29,
-30,
-31,
-29,
-30,
-30,
-29,
-29,
-30,
-29,
-30,
-30,
-27,
-30,
-31,
-29,
-30,
-30,
-29,
-29,
-29,
-29,
-30,
-30,
-29,
-30,
-31,
-29,
-29,
-30,
-29,
-29,
-30,
-27,
-30,
-30,
-27,
-30,
-31,
-29,
-29,
-30,
-27,
-29,
-30,
-27,
-30,
-30,
-27,
-29,
-31,
-29,
-29,
-29,
-27,
-29,
-30,
-27,
-30,
-30,
-27,
-29,
-30,
-27,
-29,
-29,
-27,
-29,
-29,
-27,
-29,
-30,
-27,
-29,
-30,
-27,
-29,
-29,
-27,
-29,
-29,
-27,
-29,
-29,
-27,
-29,
-29,
-27,
-27,
-29,
-27,
-27,
-29,
-27,
-29,
-29,
-27,
-29,
-30,
-27,
-27,
-27,
-27,
-27,
-29,
-27,
-29,
-29,
-26,
-27,
-30,
-27,
-29,
-27,
-26,
-27,
-27,
-26,
-27,
-29,
-26,
-27,
-29,
-26,
-26,
-27,
-26,
-27,
-27,
-26,
-27,
-27,
-26,
-27,
-29,
-26,
-26,
-27,
-26,
-26,
-27,
-25,
-26,
-27,
-25,
-26,
-27,
-26,
-26,
-27,
-26,
-26,
-27,
-25,
-26,
-27,
-25,
-26,
-27,
-26,
-26,
-26,
-25,
-26,
-25,
-25,
-26,
-27,
-25,
-26,
-27,
-25,
-25,
-26,
-25,
-26,
-25,
-25,
-26,
-26,
-24,
-25,
-26,
-25,
-25,
-25,
-24,
-25,
-25,
-24,
-25,
-26,
-24,
-25,
-25,
-24,
-24,
-25,
-24,
-24,
-25,
-24,
-25,
-25,
-23,
-24,
-25,
-24,
-24,
-25,
-23,
-24,
-24,
-23,
-24,
-25,
-23,
-24,
-25,
-23,
-23,
-25,
-23,
-24,
-24,
-23,
-24,
-24,
-21,
-23,
-24,
-23,
-23,
-24,
-21,
-23,
-23,
-21,
-23,
-24,
-21,
-23,
-24,
-23,
-23,
-24,
-21,
-23,
-23,
-21,
-21,
-24,
-20,
-21,
-23,
-21,
-21,
-23,
-20,
-23,
-21,
-20,
-21,
-23,
-20,
-21,
-23,
-21,
-21,
-21,
-20,
-21,
-21,
-20,
-20,
-23,
-19,
-20,
-21,
-20,
-20,
-20,
-19,
-20,
-20,
-19,
-20,
-21,
-19,
-20,
-20,
-19,
-19,
-20,
-19,
-20,
-20,
-19,
-19,
-20,
-18,
-19,
-20,
-19,
-19,
-19,
-18,
-19,
-19,
-18,
-19,
-20,
-18,
-19,
-19,
-18,
-18,
-19,
-18,
-18,
-18,
-18,
-18,
-19,
-17,
-18,
-19,
-18,
-18,
-18,
-17,
-18,
-17,
-17,
-17,
-19,
-15,
-17,
-18,
-17,
-17,
-17,
-17,
-17,
-17,
-17,
-17,
-18,
-15,
-17,
-18,
-15,
-15,
-17,
-15,
-15,
-15,
-15,
-17,
-17,
-14,
-15,
-17,
-14,
-14,
-15,
-14,
-15,
-15,
-14,
-15,
-15,
-13,
-14,
-15,
-14,
-14,
-15,
-13,
-14,
-14,
-13,
-14,
-14,
-13,
-14,
-14,
-13,
-13,
-14,
-13,
-13,
-13,
-13,
-13,
-14,
-12,
-13,
-14,
-13,
-12,
-13,
-12,
-12,
-12,
-12,
-13,
-13,
-12,
-12,
-13,
-12,
-11,
-12,
-12,
-12,
-12,
-12,
-12,
-12,
-11,
-12,
-12,
-11,
-11,
-12,
-11,
-11,
-11,
-11,
-11,
-11,
-10,
-11,
-12,
-10,
-10,
-11,
-10,
-10,
-10,
-10,
-10,
-11,
-8,
-10,
-11,
-10,
-8,
-11,
-8,
-10,
-8,
-8,
-8,
-10,
-8,
-8,
-10,
-8,
-8,
-8,
-8,
-8,
-8,
-8,
-8,
-8,
-7,
-8,
-8,
-7,
-7,
-8,
-7,
-7,
-7,
-6,
-7,
-8,
-6,
-7,
-8,
-6,
-6,
-7,
-6,
-6,
-6,
-6,
-6,
-7,
-5,
-6,
-7,
-6,
-6,
-6,
-5,
-6,
-5,
-5,
-6,
-6,
-5,
-5,
-6,
-5,
-5,
-5,
-5,
-5,
-5,
-4,
-5,
-5,
-4,
-4,
-6,
-4,
-4,
-5,
-4,
-4,
-4,
-2,
-4,
-5,
-2,
-4,
-5,
-2,
-2,
-4,
-2,
-2,
-2,
-2,
-2,
-4,
-1,
-2,
-4,
-2,
-2,
-2,
-1,
-1,
-1,
-1,
-2,
-2,
-1,
-1,
-2,
-1,
-1,
-1,
-1,
-1,
-1,
0,
-1,
-1,
0,
0,
-1,
0,
0,
-1,
0,
0,
0,
0,
0,
0,
1,
0,
0,
1,
1,
1,
1,
1,
1,
1,
1,
1,
2,
1,
1,
1,
1,
1,
2,
2,
2,
2,
1,
1,
2,
2,
1,
2,
4,
2,
2,
2,
2,
4,
2,
2,
4,
4,
2,
4,
4,
4,
4,
4,
4,
5,
4,
4,
5,
5,
4,
5,
5,
5,
5,
5,
5,
5,
5,
5,
6,
5,
5,
5,
6,
5,
6,
6,
6,
6,
6,
6,
6,
6,
6,
6,
6,
6,
6,
6,
7,
7,
6,
6,
7,
7,
6,
7,
7,
7,
7,
7,
7,
7,
7,
7,
8,
8,
7,
8,
8,
8,
8,
8,
8,
8,
8,
8,
10,
8,
8,
8,
8,
8,
10,
10,
10,
10,
10,
8,
10,
10,
8,
10,
10,
10,
10,
10,
11,
11,
10,
10,
11,
11,
10,
11,
11,
11,
11,
11,
11,
11,
11,
11,
12,
11,
11,
12,
12,
12,
12,
12,
12,
12,
12,
12,
12,
12,
12,
12,
12,
12,
12,
13,
13,
13,
12,
12,
13,
13,
12,
13,
13,
13,
13,
13,
14,
13,
13,
13,
14,
14,
13,
13,
14,
14,
14,
14,
14,
14,
14,
14,
14,
14,
14,
14,
15,
15,
15,
15,
15,
15,
15,
15,
15,
15,
14,
15,
15,
15,
15,
15,
15,
15,
15,
15,
17,
17,
15,
17,
17,
17,
17,
17,
17,
17,
17,
17,
17,
17,
17,
17,
17,
17,
17,
18,
18,
18,
18,
17,
18,
18,
18,
18,
18,
18,
18,
18,
18,
18,
18,
18,
19,
19,
18,
18,
18,
19,
19,
19,
19,
19,
19,
19,
19,
19,
19,
19,
19,
19,
19,
19,
19,
20,
19,
19,
20,
20,
19,
19,
20,
20,
20,
20,
20,
20,
20,
20,
20,
20,
20,
20,
20,
20,
21,
21,
21,
21,
20,
21,
21,
21,
20,
21,
21,
21,
21,
21,
21,
21,
21,
21,
21,
21,
21,
21,
21,
23,
23,
23,
23,
23,
23,
23,
23,
23,
23,
23,
23,
23,
23,
23,
23,
23,
23,
23,
23,
23,
23,
23,
24,
23,
24,
24,
24,
24,
24,
24,
24,
24,
24,
24,
24,
24,
24,
24,
24,
24,
24,
24,
24,
24,
24,
24,
25,
24,
25,
25,
25,
25,
25,
25,
25,
25,
24,
24,
25,
25,
25,
25,
25,
25,
25,
25,
25,
25,
25,
25,
25,
25,
25,
26,
26,
25,
25,
25,
26,
25,
25,
25,
26,
26,
26,
26,
26,
26,
26,
26,
26,
26,
26,
26,
26,
26,
26,
26,
26,
26,
26,
26,
26,
26,
26,
26,
26,
26,
26,
27,
27,
27,
26,
27,
26,
27,
26,
26,
27,
27,
27,
27,
27,
27,
27,
27,
27,
27,
27,
27,
27,
27,
27,
27,
27,
27,
27,
27,
27,
27,
27,
27,
27,
27,
27,
27,
27,
29,
27,
27,
27,
27,
29,
27,
29,
29,
29,
29,
29,
29,
29,
27,
29,
29,
29,
29,
29,
29,
29,
29,
29,
29,
29,
29,
29,
29,
29,
29,
29,
29,
29,
29,
29,
29,
29,
29,
29,
29,
29,
29,
29,
29,
29,
29,
29,
30,
29,
29,
29,
29,
29,
29,
30,
30,
29,
30,
30,
30,
29,
29,
29,
29,
29,
30,
30,
30,
30,
30,
30,
30,
30,
30,
30,
30,
30,
30,
30,
30,
30,
30,
30,
30,
30,
30,
30,
30,
30,
30,
30,
30,
30,
30,
30,
30,
30,
30,
30,
30,
30,
30,
30,
30,
30,
30,
30,
30,
30,
30,
30,
30,
30,
30,
30,
30,
30,
30,
30,
30,
30,
30,
30,
30,
30,
30,
30,
30,
30,
30,
30,
30,
30,
30,
30,
30,
30,
30,
30,
30,
30,
30,
30,
30,
30,
30,
30,
30,
30,
30,
30,
30,
30,
30,
30,
30,
30,
30,
30,
30,
30,
30,
30,
30,
30,
30,
30,
30,
30,
30,
30,
30,
30,
30,
30,
30,
30,
30,
30,
30,
30,
30,
30,
30,
30,
30,
30,
30,
30,
30,
30,
30,
30,
30,
30,
30,
29,
29,
30,
30,
30,
30,
30,
30,
29,
29,
29,
29,
29,
29,
29,
30,
29,
30,
30,
29,
29,
29,
29,
29,
29,
29,
29,
29,
29,
29,
29,
29,
29,
29,
29,
29,
29,
29,
29,
29,
29,
29,
29,
29,
29,
29,
29,
29,
29,
29,
29,
29,
29,
29,
29,
29,
29,
29,
29,
29,
27,
27,
29,
29,
29,
29,
29,
29,
27,
27,
27,
27,
27,
27,
27,
27,
27,
27,
27,
27,
27,
27,
27,
27,
27,
27,
27,
27,
27,
27,
27,
27,
27,
27,
27,
27,
26,
26,
27,
27,
27,
27,
27,
27,
27,
26,
26,
26,
26,
26,
26,
26,
26,
26,
26,
26,
26,
26,
26,
26,
26,
26,
26,
26,
26,
26,
26,
26,
26,
26,
25,
26,
26,
25,
25,
26,
25,
26,
25,
25,
25,
25,
25,
25,
25,
25,
25,
25,
25,
25,
25,
25,
25,
25,
25,
25,
25,
24,
25,
25,
25,
25,
25,
25,
24,
24,
24,
24,
24,
24,
24,
24,
24,
24,
24,
24,
24,
24,
24,
24,
24,
24,
24,
24,
24,
24,
24,
24,
23,
24,
23,
23,
23,
23,
23,
23,
23,
23,
23,
23,
23,
23,
23,
23,
23,
23,
23,
23,
23,
23,
23,
21,
21,
21,
21,
21,
21,
21,
21,
21,
21,
21,
21,
21,
21,
21,
21,
21,
21,
21,
21,
21,
20,
21,
21,
20,
20,
20,
20,
20,
20,
20,
20,
20,
20,
20,
20,
20,
20,
20,
19,
20,
19,
20,
20,
19,
19,
19,
19,
19,
19,
19,
19,
19,
19,
19,
19,
19,
19,
19,
19,
19,
19,
18,
19,
18,
18,
18,
18,
18,
18,
18,
18,
18,
18,
18,
18,
18,
18,
18,
18,
18,
18,
17,
17,
17,
17,
17,
17,
17,
17,
17,
17,
17,
17,
17,
17,
17,
17,
15,
17,
15,
15,
15,
15,
15,
15,
15,
15,
15,
15,
15,
15,
15,
15,
15,
15,
14,
14,
14,
14,
14,
14,
14,
14,
14,
14,
14,
14,
14,
14,
14,
13,
14,
14,
14,
13,
14,
13,
13,
13,
13,
13,
13,
13,
13,
13,
13,
13,
13,
12,
13,
12,
12,
12,
12,
12,
12,
12,
12,
12,
12,
12,
12,
12,
12,
12,
12,
12,
12,
11,
11,
12,
11,
11,
11,
11,
11,
11,
11,
11,
11,
11,
11,
11,
11,
10,
11,
10,
10,
10,
10,
10,
10,
10,
10,
10,
10,
8,
10,
10,
8,
10,
10,
8,
8,
8,
8,
8,
8,
8,
8,
8,
8,
8,
8,
7,
8,
8,
7,
8,
7,
7,
7,
7,
7,
7,
7,
7,
7,
7,
6,
7,
6,
6,
7,
7,
6,
6,
6,
6,
6,
6,
6,
6,
6,
5,
6,
6,
5,
6,
5,
5,
5,
5,
5,
5,
5,
5,
5,
5,
5,
4,
5,
5,
5,
4,
4,
4,
4,
2,
4,
4,
4,
4,
4,
4,
4,
2,
2,
4,
4,
2,
4,
4,
2,
2,
2,
2,
2,
2,
2,
2,
2,
1,
2,
2,
1,
1,
2,
1,
1,
1,
1,
1,
1,
0,
1,
1,
1,
0,
0,
0,
1,
0,
0,
1,
0,
-1,
0,
0,
0,
0,
0,
0,
0,
-1,
0,
0,
-1,
-1,
0,
-1,
-1,
-1,
-1,
-1,
-1,
-1,
-1,
-1,
-1,
-2,
-1,
-1,
-2,
-2,
-1,
-2,
-2,
-2,
-2,
-2,
-2,
-4,
-2,
-2,
-4,
-4,
-2,
-4,
-2,
-4,
-4,
-2,
-4,
-5,
-4,
-4,
-5,
-4,
-4,
-4,
-4,
-5,
-5,
-4,
-5,
-5,
-4,
-5,
-5,
-5,
-5,
-5,
-5,
-5,
-5,
-5,
-5,
-6,
-5,
-6,
-6,
-6,
-5,
-6,
-6,
-6,
-6,
-6,
-6,
-7,
-6,
-6,
-7,
-7,
-7,
-7,
-6,
-7,
-7,
-7,
-7,
-8,
-7,
-7,
-7,
-7,
-7,
-8,
-7,
-8,
-8,
-7,
-8,
-8,
-7,
-7,
-8,
-8,
-8,
-8,
-8,
-8,
-8,
-8,
-10,
-11,
-8,
-8,
-10,
-10,
-10,
-10,
-8,
-10,
-10,
-10,
-10,
-11,
-10,
-10,
-11,
-11,
-10,
-11,
-10,
-11,
-11,
-10,
-11,
-12,
-11,
-11,
-12,
-11,
-11,
-12,
-11,
-12,
-12,
-11,
-12,
-12,
-11,
-11,
-12,
-12,
-12,
-12,
-12,
-12,
-12,
-12,
-12,
-14,
-12,
-12,
-13,
-12,
-12,
-13,
-12,
-13,
-13,
-12,
-13,
-14,
-12,
-13,
-14,
-13,
-13,
-14,
-13,
-14,
-14,
-13,
-14,
-15,
-13,
-14,
-15,
-14,
-14,
-14,
-14,
-14,
-15,
-14,
-15,
-17,
-14,
-14,
-15,
-15,
-15,
-15,
-14,
-15,
-15,
-14,
-15,
-18,
-14,
-15,
-17,
-15,
-15,
-15,
-15,
-17,
-17,
-15,
-17,
-18,
-15,
-15,
-17,
-17,
-17,
-17,
-17,
-17,
-17,
-17,
-17,
-19,
-17,
-17,
-18,
-17,
-17,
-18,
-17,
-18,
-18,
-17,
-18,
-19,
-17,
-18,
-19,
-18,
-18,
-19,
-18,
-19,
-19,
-18,
-19,
-20,
-18,
-19,
-19,
-19,
-19,
-19,
-18,
-19,
-20,
-19,
-19,
-20,
-19,
-19,
-20,
-20,
-19,
-20,
-19,
-19,
-20,
-19,
-19,
-21,
-19,
-20,
-20,
-19,
-20,
-20,
-19,
-20,
-21,
-20,
-20,
-21,
-20,
-20,
-21,
-20,
-20,
-21,
-20,
-21,
-21,
-20,
-21,
-23,
-20,
-21,
-21,
-20,
-21,
-23,
-21,
-21,
-23,
-21,
-21,
-23,
-21,
-23,
-23,
-21,
-23,
-23,
-21,
-23,
-23,
-21,
-23,
-24,
-21,
-23,
-23,
-21,
-23,
-24,
-21,
-23,
-24,
-23,
-23,
-24,
-23,
-23,
-24,
-23,
-24,
-24,
-23,
-24,
-24,
-23,
-24,
-25,
-23,
-24,
-25,
-23,
-24,
-24,
-24,
-24,
-25,
-24,
-24,
-25,
-24,
-24,
-25,
-24,
-24,
-25,
-24,
-24,
-25,
-24,
-25,
-25,
-24,
-25,
-26,
-24,
-24,
-26,
-24,
-25,
-26,
-24,
-25,
-25,
-24,
-25,
-26,
-25,
-25,
-26,
-25,
-25,
-26,
-25,
-26,
-26,
-25,
-26,
-26,
-25,
-25,
-26,
-25,
-26,
-27,
-25,
-26,
-26,
-25,
-26,
-27,
-25,
-26,
-26,
-25,
-26,
-26,
-25,
-26,
-27,
-26,
-26,
-27,
-25,
-26,
-27,
-26,
-26,
-29,
-26,
-27,
-29,
-26,
-27,
-27,
-26,
-27,
-27,
-26,
-27,
-27,
-26,
-27,
-29,
-26,
-27,
-27,
-26,
-27,
-29,
-26,
-27,
-29,
-26,
-27,
-29,
-26,
-27,
-27,
-27,
-29,
-29,
-26,
-27,
-29,
-27,
-27,
-30,
-27,
-29,
-29,
-27,
-27,
-29,
-27,
-29,
-29,
-27,
-27,
-29,
-27,
-27,
-29,
-27,
-27,
-29,
-27,
-29,
-29,
-27,
-27,
-30,
-27,
-29,
-29,
-27,
-29,
-29,
-27,
-29,
-30,
-27,
-29,
-30,
-27,
-29,
-29,
-27,
-30,
-30,
-27,
-29,
-29,
-27,
-29,
-30,
-29,
-29,
-29,
-27,
-29,
-30,
-29,
-29,
-30,
-27,
-29,
-30,
-29,
-29,
-30,
-29,
-29,
-30,
-29,
-29,
-30,
-29,
-29,
-31,
-29,
-29,
-30,
-29,
-30,
-30,
-29,
-30,
-30,
-29,
-30,
-30,
-29,
-29,
-29,
-29,
-29,
-30,
-29,
-30,
-30,
-29,
-30,
-31,
-27,
-30,
-30,
-29,
-29,
-30,
-29,
-30,
-30,
-29,
-30,
-31,
-29,
-30,
-30,
-29,
-29,
-30,
-29,
-30,
-30,
-29,
-30,
-31,
-29,
-29,
-30,
-29,
-30,
-30,
-29,
-30,
-30,
-29,
-30,
-31,
-29,
-29,
-30,
-29,
-29,
-30,
-29,
-30,
-30,
-29,
-30,
-31,
-29,
-29,
-30,
-29,
-29,
-30,
-29,
-30,
-29,
-27,
-30,
-31,
-29,
-30,
-30,
-29,
-29,
-30,
-29,
-30,
-30,
-29,
-30,
-31,
-27,
-29,
-30,
-29,
-29,
-30,
-29,
-30,
-30,
-27,
-29,
-31,
-29,
-29,
-30,
-27,
-29,
-29,
-27,
-29,
-29,
-27,
-29,
-30,
-27,
-29,
-29,
-27,
-29,
-29,
-27,
-29,
-29,
-27,
-29,
-30,
-27,
-29,
-29,
-27,
-29,
-29,
-27,
-29,
-30,
-27,
-29,
-30,
-27,
-27,
-29,
-27,
-29,
-29,
-27,
-29,
-29,
-27,
-29,
-30,
-27,
-27,
-29,
-27,
-27,
-29,
-27,
-29,
-29,
-27,
-27,
-30,
-26,
-27,
-29,
-27,
-27,
-29,
-27,
-29,
-27,
-26,
-27,
-29,
-26,
-27,
-27,
-26,
-27,
