RLC_R_11.91/ALL0017/2.CSV

Format,1.0B,
Memory Length,10000,
IntpDistance,0,
Trigger Address,4999,
Trigger Level,0.000E+00,
Source,CH2,
Vertical Units,V,
Vertical Units Div,0,
Vertical Units Extend Div,16,
Label, ,
Probe Type,0,
Probe Ratio,1.000E+00,
Vertical Scale,2.000E-01,
Vertical Position,-4.000E-01,
Horizontal Units,S,
Horizontal Scale,5.000E-05,
Horizontal Position,0.000E+00,
Horizontal Mode,Main,
SincET Mode,Real Time,
Sampling Period,5.000E-08,
Horizontal Old Scale,5.000E-05,
Horizontal Old Position,0.000E+00,
Firmware,V1.24,
Mode,Fast,
Waveform Data,
-28,
-24,
-25,
-26,
-25,
-25,
-26,
-23,
-25,
-25,
-24,
-26,
-24,
-25,
-26,
-24,
-23,
-25,
-26,
-25,
-26,
-26,
-24,
-25,
-26,
-23,
-25,
-25,
-23,
-24,
-24,
-24,
-24,
-25,
-22,
-24,
-26,
-23,
-24,
-26,
-23,
-23,
-25,
-22,
-24,
-23,
-22,
-23,
-26,
-22,
-23,
-25,
-23,
-23,
-24,
-22,
-23,
-24,
-20,
-23,
-26,
-22,
-23,
-24,
-22,
-22,
-24,
-22,
-22,
-24,
-22,
-23,
-25,
-22,
-22,
-24,
-20,
-22,
-22,
-22,
-24,
-22,
-22,
-22,
-22,
-20,
-20,
-23,
-20,
-22,
-22,
-20,
-22,
-22,
-22,
-22,
-23,
-19,
-20,
-20,
-20,
-20,
-20,
-20,
-22,
-20,
-22,
-20,
-23,
-18,
-20,
-22,
-19,
-20,
-19,
-18,
-20,
-19,
-20,
-19,
-20,
-17,
-19,
-20,
-19,
-19,
-22,
-19,
-22,
-20,
-19,
-19,
-23,
-17,
-19,
-20,
-17,
-18,
-20,
-18,
-19,
-19,
-18,
-20,
-22,
-17,
-18,
-20,
-17,
-18,
-18,
-16,
-18,
-19,
-17,
-19,
-20,
-16,
-18,
-18,
-17,
-19,
-19,
-17,
-20,
-18,
-18,
-18,
-20,
-16,
-17,
-18,
-18,
-17,
-17,
-17,
-18,
-17,
-18,
-18,
-18,
-16,
-17,
-18,
-18,
-17,
-17,
-16,
-16,
-16,
-17,
-17,
-18,
-14,
-17,
-17,
-16,
-16,
-18,
-16,
-17,
-14,
-16,
-17,
-18,
-13,
-14,
-17,
-13,
-14,
-16,
-16,
-17,
-16,
-16,
-16,
-18,
-13,
-17,
-16,
-14,
-14,
-16,
-13,
-14,
-14,
-13,
-14,
-16,
-12,
-16,
-14,
-13,
-13,
-16,
-14,
-16,
-14,
-13,
-14,
-14,
-12,
-12,
-14,
-13,
-13,
-14,
-12,
-14,
-13,
-12,
-14,
-16,
-13,
-12,
-14,
-12,
-13,
-13,
-13,
-13,
-12,
-11,
-13,
-14,
-10,
-12,
-12,
-12,
-12,
-12,
-11,
-12,
-12,
-11,
-12,
-14,
-10,
-12,
-11,
-11,
-11,
-12,
-11,
-13,
-11,
-11,
-11,
-13,
-10,
-10,
-12,
-10,
-11,
-12,
-10,
-11,
-11,
-11,
-10,
-12,
-10,
-11,
-12,
-10,
-10,
-11,
-8,
-11,
-10,
-10,
-10,
-12,
-7,
-10,
-8,
-10,
-10,
-10,
-10,
-8,
-10,
-8,
-10,
-11,
-7,
-10,
-8,
-7,
-8,
-10,
-7,
-10,
-10,
-7,
-8,
-10,
-7,
-8,
-8,
-7,
-8,
-8,
-7,
-10,
-10,
-7,
-7,
-8,
-5,
-8,
-7,
-7,
-7,
-7,
-5,
-8,
-7,
-8,
-7,
-8,
-7,
-7,
-8,
-7,
-6,
-7,
-5,
-6,
-6,
-5,
-7,
-7,
-5,
-6,
-6,
-5,
-6,
-7,
-5,
-6,
-6,
-6,
-6,
-6,
-5,
-6,
-5,
-4,
-6,
-6,
-5,
-6,
-6,
-5,
-6,
-6,
-4,
-5,
-6,
-4,
-5,
-6,
-4,
-5,
-5,
-5,
-5,
-6,
-2,
-6,
-4,
-4,
-4,
-6,
-2,
-4,
-4,
-4,
-4,
-6,
-1,
-4,
-4,
-1,
-2,
-4,
-2,
-2,
-4,
-1,
-4,
-4,
-1,
-4,
-5,
-4,
-2,
-4,
-1,
-4,
-1,
-1,
-4,
-2,
-1,
-2,
-4,
-1,
-1,
-2,
-1,
-4,
-1,
-2,
-2,
-4,
-1,
-1,
-1,
-1,
-1,
-1,
0,
-1,
-2,
-2,
-1,
-2,
0,
-1,
-1,
-1,
-1,
-1,
0,
-2,
-1,
1,
0,
-1,
2,
-1,
-1,
-1,
0,
-1,
1,
-1,
0,
1,
-1,
-2,
2,
0,
0,
1,
0,
0,
2,
0,
0,
1,
0,
-1,
2,
0,
0,
1,
1,
1,
2,
1,
1,
1,
2,
-1,
3,
1,
1,
2,
1,
2,
2,
1,
1,
2,
1,
0,
2,
2,
0,
2,
3,
3,
3,
2,
2,
2,
2,
1,
5,
2,
1,
2,
2,
3,
2,
2,
2,
3,
3,
3,
5,
3,
3,
2,
3,
3,
5,
3,
3,
5,
2,
3,
5,
3,
3,
5,
5,
5,
5,
3,
3,
5,
3,
3,
6,
3,
3,
7,
5,
5,
6,
5,
6,
7,
5,
3,
7,
6,
3,
6,
6,
5,
6,
6,
5,
6,
5,
5,
8,
6,
6,
6,
7,
7,
7,
6,
7,
7,
7,
3,
8,
6,
6,
7,
6,
8,
8,
7,
7,
8,
6,
6,
8,
7,
7,
8,
7,
8,
8,
6,
7,
8,
7,
7,
11,
8,
8,
8,
8,
8,
8,
6,
8,
8,
8,
8,
8,
8,
8,
8,
8,
8,
11,
8,
9,
9,
11,
8,
11,
9,
9,
11,
9,
11,
9,
8,
9,
11,
9,
8,
12,
9,
9,
11,
9,
9,
11,
9,
11,
11,
9,
8,
13,
9,
9,
11,
11,
11,
12,
11,
12,
12,
12,
9,
13,
12,
8,
12,
11,
11,
13,
9,
11,
13,
12,
12,
13,
12,
9,
13,
13,
12,
12,
12,
12,
13,
12,
12,
13,
12,
12,
13,
13,
14,
14,
13,
13,
13,
12,
13,
14,
12,
12,
13,
13,
14,
13,
14,
13,
14,
14,
14,
14,
14,
14,
14,
14,
14,
14,
14,
14,
14,
12,
13,
15,
14,
14,
14,
15,
14,
15,
15,
15,
14,
14,
14,
15,
15,
13,
15,
15,
14,
15,
13,
15,
15,
15,
14,
17,
15,
15,
17,
15,
14,
17,
15,
15,
17,
15,
14,
17,
15,
15,
17,
17,
18,
17,
15,
17,
17,
15,
15,
19,
15,
17,
17,
17,
15,
18,
15,
18,
19,
17,
15,
19,
18,
18,
18,
17,
17,
18,
15,
17,
18,
18,
15,
18,
18,
18,
19,
18,
18,
18,
18,
18,
19,
19,
17,
20,
18,
18,
18,
19,
18,
19,
18,
18,
19,
19,
18,
20,
19,
18,
20,
20,
18,
19,
19,
20,
19,
19,
18,
20,
20,
19,
20,
20,
20,
20,
20,
20,
19,
20,
18,
23,
21,
19,
20,
20,
20,
20,
20,
20,
20,
20,
20,
23,
20,
20,
20,
20,
20,
23,
20,
20,
21,
20,
18,
23,
21,
21,
21,
20,
21,
21,
21,
21,
24,
21,
20,
24,
21,
20,
23,
21,
21,
23,
21,
21,
21,
21,
21,
25,
23,
23,
23,
24,
21,
23,
23,
21,
23,
23,
21,
24,
24,
21,
23,
23,
23,
24,
21,
24,
25,
21,
21,
25,
24,
23,
25,
24,
21,
25,
23,
24,
24,
24,
23,
25,
24,
24,
25,
24,
24,
25,
24,
25,
25,
24,
21,
26,
24,
24,
25,
25,
24,
25,
24,
24,
26,
25,
24,
26,
24,
24,
25,
26,
26,
25,
24,
25,
25,
25,
24,
27,
26,
26,
26,
26,
26,
26,
25,
26,
26,
26,
25,
26,
26,
26,
25,
26,
26,
26,
26,
26,
27,
26,
26,
27,
26,
26,
27,
27,
26,
26,
26,
26,
27,
26,
26,
26,
29,
26,
27,
27,
27,
27,
27,
27,
27,
27,
26,
30,
27,
27,
26,
27,
27,
27,
27,
29,
29,
27,
27,
30,
27,
29,
29,
27,
29,
29,
27,
29,
29,
27,
26,
31,
26,
29,
30,
29,
27,
30,
27,
29,
29,
29,
27,
29,
29,
27,
30,
30,
27,
30,
29,
29,
30,
29,
27,
30,
29,
29,
30,
31,
30,
29,
29,
29,
30,
29,
29,
31,
30,
30,
29,
31,
30,
31,
30,
31,
31,
30,
27,
31,
31,
30,
30,
30,
31,
31,
30,
31,
31,
30,
29,
32,
31,
31,
31,
31,
31,
31,
30,
31,
31,
30,
29,
32,
30,
32,
31,
32,
31,
32,
30,
31,
32,
31,
30,
32,
31,
32,
31,
32,
31,
32,
31,
31,
32,
31,
31,
33,
32,
32,
32,
32,
32,
31,
31,
31,
32,
32,
30,
34,
32,
31,
32,
32,
32,
32,
32,
32,
32,
32,
31,
33,
32,
32,
32,
33,
31,
32,
32,
32,
33,
32,
30,
33,
33,
32,
33,
32,
32,
33,
32,
33,
32,
32,
32,
33,
33,
34,
33,
33,
32,
33,
32,
33,
33,
33,
32,
34,
32,
32,
33,
33,
34,
34,
32,
33,
34,
33,
33,
36,
33,
33,
34,
34,
33,
34,
33,
33,
34,
33,
32,
36,
33,
34,
33,
34,
36,
36,
33,
34,
34,
33,
32,
37,
33,
34,
34,
34,
34,
34,
33,
34,
36,
34,
33,
37,
36,
36,
34,
36,
34,
34,
33,
34,
34,
33,
34,
37,
36,
34,
37,
36,
36,
37,
36,
34,
37,
37,
33,
37,
36,
34,
36,
37,
36,
37,
36,
36,
37,
36,
33,
37,
36,
36,
37,
37,
37,
37,
36,
36,
36,
34,
36,
37,
36,
36,
36,
37,
36,
37,
36,
37,
37,
36,
34,
37,
36,
36,
38,
36,
38,
37,
36,
37,
37,
37,
36,
38,
37,
37,
37,
37,
38,
37,
36,
37,
37,
36,
36,
38,
37,
37,
38,
38,
37,
38,
36,
37,
37,
37,
36,
38,
38,
36,
37,
37,
36,
37,
38,
37,
37,
38,
36,
39,
37,
38,
38,
38,
38,
38,
37,
37,
38,
37,
36,
37,
38,
37,
37,
38,
38,
38,
38,
38,
38,
37,
36,
39,
38,
38,
38,
38,
39,
38,
37,
38,
38,
37,
38,
39,
38,
38,
38,
38,
38,
38,
38,
38,
38,
37,
36,
39,
38,
38,
38,
39,
39,
38,
38,
37,
38,
38,
38,
40,
38,
38,
38,
38,
39,
38,
38,
38,
38,
37,
37,
39,
39,
38,
38,
38,
39,
38,
38,
38,
39,
37,
37,
38,
38,
38,
38,
39,
38,
38,
39,
39,
39,
38,
36,
40,
39,
38,
39,
38,
39,
38,
38,
38,
38,
38,
38,
39,
39,
38,
39,
39,
38,
39,
38,
39,
38,
38,
36,
40,
39,
38,
38,
38,
39,
38,
37,
39,
39,
39,
38,
39,
38,
38,
39,
38,
38,
39,
38,
38,
39,
38,
38,
39,
39,
38,
39,
38,
39,
40,
38,
39,
39,
38,
38,
40,
38,
39,
38,
38,
38,
39,
38,
39,
38,
39,
38,
40,
40,
38,
39,
39,
38,
39,
38,
38,
39,
38,
38,
38,
39,
38,
39,
39,
38,
39,
39,
39,
39,
38,
38,
39,
39,
38,
38,
38,
38,
39,
39,
38,
39,
38,
38,
40,
39,
38,
39,
39,
38,
39,
38,
38,
39,
38,
38,
39,
39,
38,
40,
39,
39,
40,
38,
38,
39,
38,
39,
39,
38,
39,
38,
39,
39,
39,
38,
39,
39,
38,
38,
40,
38,
39,
40,
39,
38,
39,
37,
38,
38,
38,
38,
39,
38,
38,
39,
39,
39,
40,
38,
39,
39,
38,
38,
38,
39,
37,
39,
38,
39,
38,
38,
38,
38,
39,
38,
38,
39,
38,
39,
40,
38,
38,
38,
38,
38,
38,
37,
39,
39,
38,
38,
39,
38,
39,
39,
39,
38,
38,
38,
39,
39,
38,
39,
38,
38,
39,
37,
38,
39,
38,
39,
40,
39,
38,
40,
38,
39,
38,
38,
38,
39,
38,
37,
39,
38,
38,
38,
38,
38,
38,
39,
38,
38,
38,
38,
39,
38,
38,
38,
39,
38,
38,
38,
38,
38,
37,
37,
39,
38,
38,
38,
38,
37,
39,
37,
38,
37,
38,
37,
37,
37,
38,
38,
38,
38,
37,
38,
37,
38,
38,
37,
38,
37,
37,
37,
38,
38,
38,
37,
37,
37,
37,
37,
38,
38,
38,
38,
38,
38,
38,
38,
37,
37,
37,
36,
37,
37,
38,
37,
37,
37,
38,
36,
38,
38,
37,
36,
38,
36,
36,
38,
37,
37,
37,
36,
37,
37,
36,
36,
38,
37,
37,
37,
36,
36,
37,
36,
36,
37,
36,
36,
37,
37,
36,
37,
37,
37,
37,
36,
37,
37,
36,
36,
37,
37,
36,
36,
37,
37,
36,
36,
37,
37,
34,
36,
37,
34,
34,
36,
37,
36,
37,
34,
36,
36,
34,
34,
37,
36,
34,
36,
37,
34,
36,
34,
36,
37,
36,
33,
37,
34,
36,
36,
34,
36,
34,
33,
34,
36,
33,
33,
37,
34,
33,
37,
34,
34,
34,
33,
34,
37,
33,
34,
37,
33,
34,
34,
36,
34,
36,
34,
34,
34,
33,
33,
36,
34,
33,
36,
34,
33,
34,
33,
33,
34,
33,
32,
34,
36,
32,
34,
36,
34,
34,
33,
33,
33,
33,
33,
34,
34,
32,
34,
33,
33,
32,
34,
33,
33,
32,
33,
34,
34,
32,
33,
33,
33,
32,
33,
33,
32,
32,
32,
34,
33,
32,
32,
32,
33,
32,
33,
34,
33,
33,
32,
33,
32,
32,
32,
33,
32,
32,
32,
32,
32,
31,
32,
32,
32,
32,
33,
32,
32,
33,
32,
32,
32,
31,
31,
33,
31,
30,
32,
32,
32,
32,
32,
30,
32,
32,
30,
32,
32,
30,
31,
32,
31,
31,
32,
31,
31,
31,
29,
31,
31,
30,
31,
32,
31,
32,
32,
32,
30,
31,
30,
32,
30,
30,
30,
31,
31,
29,
31,
31,
31,
31,
30,
31,
30,
30,
32,
30,
30,
31,
30,
29,
30,
30,
29,
31,
30,
29,
31,
30,
30,
31,
31,
30,
30,
29,
27,
31,
27,
27,
30,
30,
29,
30,
29,
30,
29,
29,
29,
32,
30,
27,
29,
29,
30,
30,
29,
29,
29,
26,
26,
29,
29,
27,
30,
29,
29,
29,
27,
27,
29,
27,
27,
29,
27,
26,
27,
29,
27,
27,
27,
29,
27,
27,
26,
29,
27,
27,
27,
27,
27,
27,
26,
26,
26,
27,
24,
29,
27,
24,
27,
27,
26,
26,
27,
26,
27,
26,
24,
29,
27,
25,
26,
26,
26,
25,
26,
26,
27,
25,
25,
29,
26,
26,
26,
26,
26,
27,
25,
26,
26,
25,
24,
27,
25,
26,
26,
26,
26,
26,
24,
25,
26,
25,
24,
26,
25,
24,
25,
26,
25,
25,
25,
25,
25,
24,
25,
25,
24,
23,
25,
25,
25,
25,
24,
24,
25,
24,
23,
25,
25,
21,
24,
25,
23,
24,
24,
24,
23,
23,
23,
25,
24,
23,
25,
24,
24,
24,
23,
23,
23,
21,
21,
24,
23,
21,
23,
23,
23,
24,
24,
23,
23,
23,
20,
23,
23,
21,
24,
21,
21,
24,
20,
23,
23,
21,
21,
25,
21,
20,
21,
23,
21,
21,
21,
21,
21,
20,
19,
23,
21,
20,
21,
21,
21,
21,
20,
21,
20,
21,
19,
23,
20,
18,
19,
21,
20,
21,
20,
20,
19,
21,
19,
21,
21,
20,
20,
21,
19,
20,
19,
20,
19,
20,
19,
20,
19,
18,
19,
20,
20,
19,
19,
19,
20,
18,
18,
19,
19,
17,
19,
19,
18,
20,
17,
19,
18,
18,
18,
20,
19,
18,
19,
19,
18,
20,
17,
18,
19,
17,
17,
19,
18,
15,
20,
19,
18,
19,
17,
17,
18,
17,
15,
19,
18,
15,
18,
17,
18,
17,
18,
17,
18,
17,
15,
18,
17,
15,
17,
18,
15,
17,
15,
17,
15,
17,
14,
18,
15,
14,
14,
17,
14,
17,
15,
15,
15,
15,
14,
18,
17,
15,
17,
17,
15,
15,
14,
14,
17,
15,
14,
15,
15,
14,
14,
15,
14,
17,
14,
15,
15,
13,
12,
14,
15,
13,
15,
14,
15,
17,
14,
14,
14,
14,
14,
17,
14,
12,
14,
13,
14,
13,
13,
14,
14,
12,
11,
15,
14,
12,
14,
14,
13,
14,
12,
13,
14,
12,
11,
14,
12,
11,
13,
13,
12,
13,
14,
13,
13,
12,
12,
13,
13,
9,
13,
12,
11,
11,
11,
11,
12,
12,
12,
13,
12,
9,
11,
12,
12,
12,
12,
12,
11,
9,
9,
11,
9,
9,
12,
12,
9,
11,
9,
11,
11,
9,
9,
12,
9,
9,
11,
12,
9,
12,
8,
11,
12,
9,
8,
11,
9,
9,
12,
11,
9,
11,
9,
9,
11,
8,
8,
12,
8,
7,
9,
9,
8,
8,
7,
9,
9,
8,
7,
9,
8,
8,
11,
8,
8,
7,
6,
7,
8,
7,
6,
11,
7,
6,
8,
8,
8,
8,
8,
8,
7,
7,
5,
8,
7,
6,
7,
8,
6,
6,
6,
7,
6,
7,
7,
8,
7,
5,
7,
8,
6,
6,
6,
7,
5,
6,
5,
8,
6,
5,
6,
6,
6,
7,
6,
6,
6,
5,
5,
7,
6,
2,
6,
5,
5,
5,
6,
5,
6,
3,
2,
6,
3,
3,
6,
6,
5,
7,
3,
3,
5,
1,
2,
5,
3,
2,
3,
3,
3,
5,
5,
3,
5,
3,
2,
5,
3,
2,
3,
3,
3,
2,
2,
2,
2,
2,
1,
5,
2,
2,
2,
3,
2,
3,
1,
3,
2,
1,
0,
3,
1,
2,
2,
2,
0,
2,
1,
2,
2,
0,
-1,
2,
1,
0,
2,
1,
0,
1,
0,
0,
1,
0,
-1,
2,
1,
-1,
1,
1,
0,
1,
0,
-1,
1,
-1,
-2,
1,
0,
-2,
1,
0,
-1,
1,
-1,
-1,
0,
-1,
-2,
1,
-1,
-4,
0,
-1,
-2,
1,
-2,
-2,
-1,
-2,
-4,
1,
-2,
-4,
-1,
0,
-2,
0,
-4,
-2,
-1,
-4,
-5,
1,
-4,
-4,
-2,
-1,
-4,
-1,
-4,
-2,
-1,
-4,
-5,
-1,
-2,
-5,
-2,
-2,
-4,
-4,
-4,
-4,
-4,
-4,
-4,
-2,
-2,
-4,
-4,
-4,
-4,
-4,
-4,
-4,
-4,
-6,
-5,
-4,
-5,
-6,
-2,
-4,
-4,
-4,
-4,
-5,
-4,
-5,
-6,
-4,
-5,
-7,
-4,
-5,
-6,
-4,
-6,
-5,
-5,
-5,
-8,
-4,
-6,
-7,
-4,
-4,
-6,
-5,
-7,
-8,
-5,
-6,
-10,
-5,
-6,
-8,
-5,
-6,
-7,
-5,
-7,
-6,
-6,
-6,
-10,
-5,
-7,
-10,
-7,
-6,
-8,
-7,
-8,
-8,
-7,
-7,
-10,
-6,
-6,
-8,
-8,
-7,
-8,
-7,
-10,
-8,
-8,
-8,
-11,
-7,
-8,
-10,
-7,
-8,
-7,
-7,
-10,
-8,
-7,
-10,
-10,
-7,
-8,
-10,
-10,
-8,
-8,
-10,
-10,
-10,
-8,
-10,
-12,
-7,
-10,
-11,
-8,
-8,
-10,
-8,
-12,
-11,
-10,
-11,
-13,
-10,
-11,
-12,
-10,
-10,
-10,
-10,
-12,
-11,
-8,
-12,
-14,
-8,
-11,
-12,
-10,
-11,
-12,
-8,
-13,
-11,
-11,
-12,
-14,
-10,
-12,
-12,
-10,
-11,
-12,
-10,
-14,
-12,
-11,
-12,
-14,
-10,
-13,
-14,
-11,
-12,
-13,
-11,
-14,
-13,
-12,
-13,
-14,
-11,
-14,
-14,
-13,
-13,
-14,
-11,
-14,
-12,
-13,
-13,
-16,
-11,
-13,
-14,
-12,
-12,
-14,
-13,
-16,
-14,
-14,
-16,
-16,
-12,
-14,
-16,
-14,
-13,
-14,
-12,
-16,
-13,
-14,
-16,
-17,
-13,
-14,
-18,
-14,
-16,
-17,
-14,
-16,
-16,
-16,
-16,
-17,
-13,
-16,
-17,
-13,
-16,
-17,
-13,
-18,
-16,
-16,
-17,
-18,
-13,
-16,
-18,
-16,
-16,
-17,
-14,
-18,
-17,
-16,
-18,
-18,
-16,
-17,
-19,
-17,
-16,
-18,
-14,
-18,
-17,
-16,
-19,
-20,
-13,
-17,
-18,
-17,
-17,
-18,
-16,
-18,
-18,
-17,
-19,
-20,
-16,
-19,
-20,
-17,
-18,
-19,
-17,
-20,
-18,
-17,
-18,
-20,
-17,
-19,
-20,
-19,
-18,
-19,
-18,
-18,
-19,
-18,
-20,
-22,
-17,
-20,
-19,
-18,
-19,
-22,
-17,
-22,
-19,
-19,
-20,
-22,
-18,
-22,
-22,
-19,
-19,
-20,
-18,
-20,
-20,
-19,
-22,
-24,
-17,
-22,
-22,
-20,
-22,
-22,
-19,
-24,
-22,
-20,
-22,
-23,
-19,
-20,
-22,
-20,
-22,
-23,
-19,
-24,
-22,
-22,
-22,
-24,
-19,
-22,
-22,
-22,
-22,
-22,
-19,
-24,
-23,
-22,
-22,
-24,
-20,
-22,
-22,
-23,
-22,
-24,
-22,
-23,
-23,
-23,
-23,
-26,
-20,
-24,
-23,
-22,
-22,
-24,
-22,
-26,
-23,
-23,
-24,
-26,
-22,
-24,
-24,
-23,
-23,
-26,
-22,
-25,
-24,
-22,
-25,
-28,
-22,
-24,
-25,
-23,
-24,
-25,
-23,
-26,
-25,
-23,
-25,
-26,
-22,
-24,
-26,
-25,
-23,
-26,
-23,
-26,
-25,
-24,
-26,
-29,
-23,
-24,
-28,
-23,
-24,
-25,
-24,
-26,
-25,
-23,
-26,
-28,
-23,
-26,
-26,
-25,
-26,
-26,
-25,
-28,
-26,
-25,
-28,
-28,
-24,
-26,
-26,
-26,
-26,
-28,
-25,
-28,
-28,
-26,
-26,
-28,
-25,
-26,
-28,
-26,
-25,
-28,
-25,
-28,
-28,
-25,
-28,
-30,
-25,
-28,
-30,
-25,
-28,
-28,
-26,
-28,
-28,
-26,
-28,
-30,
-25,
-28,
-30,
-26,
-26,
-29,
-26,
-29,
-30,
-26,
-29,
-32,
-26,
-29,
-30,
-26,
-28,
-29,
-28,
-28,
-29,
-26,
-31,
-30,
-25,
-30,
-31,
-28,
-29,
-30,
-28,
-28,
-30,
-28,
-30,
-32,
-28,
-30,
-31,
-28,
-29,
-30,
-29,
-30,
-30,
-30,
-31,
-30,
-28,
-30,
-32,
-29,
-29,
-31,
-29,
-29,
-30,
-30,
-31,
-32,
-28,
-31,
-32,
-29,
-31,
-30,
-29,
-30,
-30,
-30,
-32,
-32,
-29,
-30,
-31,
-29,
-30,
-32,
-28,
-31,
-32,
-30,
-32,
-33,
-29,
-32,
-32,
-29,
-32,
-31,
-30,
-32,
-32,
-30,
-32,
-35,
-29,
-33,
-33,
-29,
-31,
-32,
-31,
-32,
-32,
-30,
-32,
-32,
-29,
-32,
-33,
-30,
-32,
-32,
-31,
-33,
-32,
-31,
-33,
-35,
-31,
-33,
-35,
-31,
-33,
-33,
-30,
-33,
-33,
-32,
-33,
-36,
-31,
-33,
-36,
-32,
-33,
-33,
-32,
-33,
-33,
-33,
-36,
-35,
-32,
-33,
-33,
-32,
-33,
-36,
-33,
-35,
-35,
-35,
-36,
-36,
-33,
-33,
-37,
-32,
-33,
-33,
-35,
-35,
-36,
-32,
-35,
-36,
-33,
-36,
-37,
-33,
-36,
-35,
-33,
-35,
-35,
-33,
-36,
-38,
-33,
-36,
-37,
-33,
-36,
-36,
-35,
-36,
-36,
-33,
-38,
-38,
-33,
-37,
-38,
-33,
-35,
-36,
-35,
-36,
-38,
-33,
-38,
-37,
-35,
-37,
-38,
-35,
-37,
-36,
-35,
-36,
-37,
-35,
-38,
-37,
-33,
-36,
-38,
-35,
-38,
-37,
-37,
-37,
-37,
-37,
-38,
-38,
-33,
-36,
-38,
-35,
-37,
-38,
-36,
-37,
-36,
-35,
-38,
-38,
-35,
-37,
-39,
-37,
-36,
-39,
-36,
-38,
-38,
-37,
-37,
-38,
-35,
-36,
-39,
-35,
-38,
-39,
-37,
-38,
-38,
-37,
-39,
-41,
-35,
-39,
-39,
-36,
-37,
-39,
-36,
-38,
-38,
-37,
-38,
-41,
-35,
-38,
-41,
-37,
-38,
-39,
-37,
-38,
-38,
-37,
-38,
-38,
-35,
-38,
-39,
-37,
-39,
-39,
-37,
-39,
-42,
-37,
-39,
-42,
-35,
-38,
-39,
-37,
-39,
-39,
-38,
-39,
-39,
-37,
-41,
-39,
-37,
-39,
-41,
-37,
-39,
-39,
-39,
-39,
-39,
-37,
-42,
-39,
-38,
-39,
-42,
-37,
-41,
-42,
-39,
-41,
-41,
-39,
-41,
-42,
-37,
-39,
-42,
-37,
-39,
-42,
-39,
-39,
-41,
-38,
-41,
-42,
-38,
-41,
-43,
-39,
-39,
-42,
-39,
-42,
-41,
-38,
-42,
-43,
-39,
-41,
-44,
-38,
-41,
-42,
-39,
-42,
-44,
-39,
-42,
-43,
-39,
-41,
-44,
-39,
-42,
-42,
-41,
-41,
-42,
-39,
-43,
-42,
-38,
-42,
-43,
-39,
-42,
-42,
-39,
-42,
-43,
-39,
-42,
-42,
-39,
-42,
-44,
-39,
-42,
-43,
-39,
-43,
-42,
-41,
-44,
-43,
-41,
-43,
-44,
-39,
-42,
-42,
-41,
-42,
-43,
-41,
-42,
-44,
-39,
-43,
-44,
-41,
-42,
-44,
-41,
-44,
-44,
-41,
-44,
-44,
-39,
-43,
-45,
-41,
-42,
-44,
-41,
-43,
-44,
-41,
-43,
-45,
-41,
-43,
-45,
-41,
-43,
-43,
-41,
-44,
-43,
-43,
-44,
-44,
-41,
-43,
-44,
-41,
-44,
-45,
-42,
-44,
-45,
-41,
-43,
-44,
-41,
-42,
-44,
-42,
-43,
-44,
-41,
-44,
-44,
-43,
-45,
-45,
-41,
-44,
-45,
-43,
-44,
-44,
-41,
-44,
-45,
-42,
-44,
-45,
-42,
-44,
-45,
-43,
-44,
-44,
-43,
-45,
-44,
-43,
-44,
-45,
-41,
-43,
-45,
-44,
-44,
-44,
-43,
-44,
-45,
-43,
-45,
-45,
-42,
-45,
-44,
-42,
-44,
-45,
-43,
-45,
-44,
-43,
-44,
-45,
-42,
-44,
-45,
-43,
-45,
-45,
-43,
-44,
-45,
-42,
-44,
-47,
-41,
-44,
-45,
-43,
-45,
-45,
-43,
-45,
-45,
-42,
-45,
-48,
-42,
-45,
-45,
-43,
-44,
-47,
-41,
-45,
-45,
-43,
-45,
-47,
-43,
-44,
-47,
-43,
-45,
-45,
-43,
-45,
-44,
-43,
-45,
-47,
-43,
-44,
-48,
-43,
-44,
-44,
-43,
-44,
-48,
-41,
-45,
-47,
-43,
-44,
-47,
-44,
-45,
-44,
-43,
-45,
-44,
-43,
-47,
-47,
-42,
-45,
-45,
-43,
-45,
-45,
-43,
-45,
-45,
-43,
-48,
-48,
-43,
-43,
-47,
-43,
-44,
-44,
-44,
-45,
-45,
-43,
-47,
-48,
-43,
-44,
-47,
-43,
-45,
-45,
-43,
-45,
-47,
-41,
-45,
-47,
-43,
-45,
-49,
-43,
-45,
-45,
-44,
-45,
-47,
-42,
-45,
-47,
-42,
-44,
-48,
-43,
-45,
-47,
-43,
-45,
-45,
-43,
-45,
-48,
-44,
-44,
-45,
-43,
-45,
-45,
-43,
-44,
-45,
-43,
-45,
-48,
-43,
-44,
-47,
-45,
-44,
-47,
-43,
-44,
-45,
-42,
-45,
-48,
-43,
-44,
-45,
-43,
-44,
-45,
-43,
-45,
-45,
-43,
-44,
-45,
-42,
-44,
-45,
-43,
-44,
-47,
-43,
-45,
-45,
-43,
-44,
-45,
-43,
-44,
-47,
-43,
-45,
-45,
-44,
-44,
-45,
-43,
-44,
-45,
-42,
-45,
-45,
-41,
-44,
-45,
-43,
-45,
-45,
-43,
-45,
-48,
-43,
-45,
-47,
-42,
-45,
-45,
-41,
-45,
-44,
-42,
-45,
-45,
-41,
-45,
-45,
-43,
-45,
-45,
-42,
-45,
-45,
-43,
-45,
-45,
-42,
-45,
-45,
-42,
-44,
-44,
-42,
-44,
-45,
-43,
-45,
-47,
-42,
-44,
-45,
-43,
-44,
-45,
-42,
-44,
-44,
-42,
-44,
-45,
-43,
-44,
-44,
-43,
-45,
-44,
-43,
-44,
-44,
-42,
-45,
-45,
-43,
-44,
-45,
-43,
-44,
-45,
-42,
-44,
-45,
-43,
-44,
-45,
-41,
-45,
-44,
-43,
-44,
-45,
-42,
-44,
-45,
-41,
-44,
-47,
-41,
-43,
-44,
-41,
-44,
-45,
-43,
-44,
-45,
-41,
-44,
-47,
-42,
-44,
-45,
-41,
-44,
-43,
-41,
-43,
-45,
-42,
-44,
-45,
-41,
-44,
-44,
-41,
-43,
-45,
-42,
-43,
-44,
-42,
-44,
-45,
-41,
-42,
-44,
-41,
-43,
-44,
-41,
-45,
-43,
-42,
-44,
-45,
-41,
-43,
-44,
-41,
-43,
-43,
-41,
-43,
-44,
-41,
-44,
-44,
-39,
-42,
-45,
-42,
-44,
-44,
-42,
-43,
-42,
-41,
-44,
-44,
-39,
-42,
-44,
-41,
-41,
-44,
-41,
-42,
-45,
-41,
-42,
-44,
-39,
-43,
-44,
-41,
-42,
-42,
-41,
-44,
-42,
-39,
-43,
-44,
-39,
-42,
-44,
-41,
-42,
-43,
-41,
-42,
-43,
-39,
-42,
-44,
-39,
-41,
-44,
-39,
-43,
-42,
-39,
-42,
-42,
-39,
-42,
-43,
-38,
-41,
-44,
-39,
-43,
-42,
-39,
-41,
-42,
-39,
-42,
-42,
-39,
-41,
-42,
-38,
-42,
-42,
-39,
-42,
-42,
-41,
-43,
-42,
-37,
-42,
-43,
-38,
-39,
-42,
-39,
-41,
-42,
-39,
-39,
-44,
-37,
-42,
-43,
-39,
-41,
-42,
-39,
-39,
-42,
-37,
-41,
-42,
-37,
-39,
-42,
-38,
-41,
-41,
-39,
-42,
-42,
-38,
-39,
-43,
-37,
-39,
-41,
-38,
-39,
-39,
-37,
-39,
-41,
-37,
-39,
-42,
-37,
-39,
-41,
-38,
-39,
-41,
-38,
-39,
-39,
-38,
-38,
-39,
-36,
-38,
-39,
-37,
-39,
-38,
-37,
-39,
-41,
-39,
-39,
-41,
-36,
-38,
-41,
-37,
-39,
-39,
-38,
-38,
-38,
-36,
-38,
-41,
-37,
-38,
-39,
-37,
-39,
-38,
-37,
-38,
-38,
-36,
-39,
-39,
-36,
-38,
-39,
-36,
-37,
-39,
-35,
-38,
-38,
-35,
-37,
-39,
-36,
-38,
-39,
-35,
-38,
-37,
-37,
-38,
-38,
-35,
-38,
-38,
-33,
-36,
-37,
-35,
-38,
-38,
-35,
-37,
-38,
-36,
-36,
-39,
-35,
-37,
-37,
-35,
-36,
-38,
-35,
-36,
-37,
-35,
-38,
-38,
-33,
-38,
-38,
-35,
-37,
-36,
-35,
-35,
-37,
-33,
-36,
-37,
-33,
-36,
-36,
-33,
-36,
-36,
-35,
-36,
-36,
-35,
-37,
-37,
-33,
-35,
-37,
-33,
-36,
-36,
-33,
-36,
-33,
-33,
-36,
-37,
-32,
-36,
-36,
-35,
-33,
-37,
-35,
-35,
-35,
-33,
-35,
-36,
-31,
-35,
-36,
-32,
-33,
-36,
-32,
-35,
-35,
-32,
-36,
-36,
-32,
-33,
-36,
-32,
-33,
-35,
-32,
-32,
-35,
-31,
-33,
-35,
-31,
-33,
-36,
-33,
-33,
-33,
-32,
-33,
-33,
-32,
-33,
-35,
-32,
-32,
-33,
-31,
-32,
-33,
-32,
-32,
-33,
-31,
-33,
-33,
-31,
-32,
-33,
-31,
-32,
-33,
-31,
-33,
-32,
-31,
-33,
-33,
-31,
-32,
-33,
-30,
-32,
-33,
-31,
-32,
-32,
-31,
-33,
-32,
-29,
-32,
-33,
-29,
-31,
-32,
-29,
-32,
-30,
-31,
-31,
-33,
-29,
-31,
-31,
-30,
-30,
-32,
-30,
-32,
-33,
-29,
-33,
-32,
-29,
-30,
-32,
-28,
-31,
-32,
-30,
-31,
-30,
-29,
-31,
-32,
-28,
-31,
-32,
-28,
-29,
-31,
-29,
-30,
-31,
-28,
-31,
-32,
-28,
-31,
-31,
