RLC_R_11.91/ALL0023/2.CSV

Format,1.0B,
Memory Length,10000,
IntpDistance,0,
Trigger Address,4999,
Trigger Level,0.000E+00,
Source,CH2,
Vertical Units,V,
Vertical Units Div,0,
Vertical Units Extend Div,16,
Label, ,
Probe Type,0,
Probe Ratio,1.000E+00,
Vertical Scale,1.000E-01,
Vertical Position,-2.000E-01,
Horizontal Units,S,
Horizontal Scale,5.000E-05,
Horizontal Position,0.000E+00,
Horizontal Mode,Main,
SincET Mode,Real Time,
Sampling Period,5.000E-08,
Horizontal Old Scale,5.000E-05,
Horizontal Old Position,0.000E+00,
Firmware,V1.24,
Mode,Fast,
Waveform Data,
-12,
-13,
-12,
-12,
-12,
-12,
-12,
-12,
-12,
-12,
-12,
-12,
-12,
-12,
-13,
-12,
-13,
-13,
-15,
-13,
-13,
-13,
-13,
-12,
-12,
-12,
-13,
-13,
-13,
-12,
-13,
-13,
-13,
-13,
-15,
-13,
-13,
-15,
-13,
-13,
-15,
-12,
-13,
-13,
-12,
-13,
-13,
-13,
-13,
-15,
-15,
-15,
-15,
-15,
-13,
-15,
-13,
-15,
-13,
-15,
-13,
-13,
-13,
-15,
-13,
-13,
-15,
-15,
-15,
-15,
-15,
-13,
-15,
-13,
-16,
-13,
-15,
-13,
-15,
-13,
-15,
-15,
-15,
-15,
-15,
-15,
-15,
-16,
-15,
-16,
-15,
-15,
-15,
-15,
-15,
-15,
-15,
-15,
-15,
-16,
-15,
-16,
-15,
-16,
-15,
-16,
-15,
-16,
-15,
-15,
-16,
-15,
-16,
-16,
-15,
-15,
-15,
-15,
-16,
-15,
-16,
-15,
-16,
-16,
-17,
-15,
-17,
-16,
-16,
-16,
-17,
-15,
-16,
-15,
-16,
-16,
-16,
-15,
-16,
-16,
-16,
-16,
-17,
-16,
-17,
-17,
-16,
-17,
-17,
-16,
-16,
-16,
-16,
-16,
-16,
-16,
-16,
-17,
-16,
-17,
-17,
-17,
-17,
-19,
-16,
-17,
-17,
-16,
-16,
-16,
-17,
-16,
-16,
-16,
-16,
-17,
-17,
-17,
-19,
-17,
-19,
-19,
-19,
-17,
-19,
-17,
-16,
-16,
-17,
-17,
-17,
-17,
-17,
-17,
-17,
-17,
-19,
-17,
-17,
-19,
-19,
-16,
-19,
-17,
-17,
-17,
-17,
-20,
-15,
-16,
-22,
-13,
-23,
-15,
-22,
-17,
-19,
-19,
-17,
-20,
-17,
-20,
-17,
-17,
-17,
-19,
-19,
-17,
-19,
-17,
-17,
-19,
-19,
-19,
-19,
-17,
-17,
-19,
-19,
-19,
-19,
-17,
-17,
-19,
-19,
-19,
-19,
-19,
-19,
-20,
-20,
-19,
-20,
-20,
-19,
-19,
-20,
-19,
-20,
-19,
-19,
-19,
-20,
-19,
-19,
-19,
-19,
-19,
-20,
-19,
-19,
-20,
-20,
-19,
-20,
-20,
-19,
-20,
-19,
-19,
-19,
-19,
-17,
-20,
-19,
-19,
-20,
-20,
-19,
-22,
-20,
-20,
-20,
-20,
-19,
-19,
-17,
-20,
-17,
-22,
-17,
-20,
-20,
-19,
-22,
-20,
-22,
-20,
-22,
-19,
-20,
-20,
-20,
-20,
-19,
-20,
-19,
-19,
-20,
-20,
-20,
-20,
-20,
-20,
-22,
-20,
-20,
-20,
-20,
-20,
-20,
-19,
-19,
-20,
-20,
-20,
-20,
-20,
-20,
-20,
-20,
-22,
-22,
-20,
-22,
-20,
-22,
-20,
-20,
-20,
-20,
-20,
-20,
-20,
-20,
-22,
-20,
-20,
-22,
-20,
-22,
-22,
-20,
-22,
-20,
-20,
-20,
-22,
-19,
-20,
-20,
-20,
-20,
-22,
-20,
-22,
-22,
-22,
-20,
-22,
-22,
-20,
-22,
-20,
-20,
-20,
-20,
-22,
-22,
-20,
-20,
-22,
-22,
-22,
-23,
-22,
-22,
-22,
-22,
-20,
-22,
-22,
-22,
-20,
-20,
-20,
-20,
-20,
-20,
-20,
-22,
-22,
-22,
-22,
-22,
-22,
-22,
-22,
-22,
-22,
-22,
-20,
-22,
-22,
-20,
-22,
-22,
-22,
-22,
-22,
-22,
-22,
-22,
-22,
-22,
-22,
-22,
-22,
-22,
-20,
-22,
-22,
-20,
-22,
-20,
-22,
-22,
-22,
-22,
-23,
-22,
-23,
-22,
-22,
-22,
-22,
-22,
-22,
-22,
-22,
-22,
-22,
-22,
-22,
-22,
-22,
-23,
-22,
-23,
-23,
-22,
-22,
-23,
-20,
-22,
-22,
-20,
-22,
-22,
-20,
-22,
-23,
-22,
-23,
-23,
-23,
-23,
-23,
-22,
-22,
-23,
-22,
-22,
-22,
-20,
-22,
-22,
-23,
-22,
-22,
-22,
-22,
-23,
-23,
-22,
-22,
-23,
-22,
-23,
-23,
-23,
-22,
-22,
-22,
-23,
-22,
-22,
-22,
-23,
-22,
-22,
-23,
-23,
-23,
-23,
-23,
-23,
-23,
-23,
-22,
-22,
-22,
-22,
-22,
-22,
-22,
-22,
-22,
-22,
-22,
-22,
-25,
-23,
-23,
-23,
-23,
-23,
-23,
-22,
-22,
-23,
-22,
-22,
-22,
-22,
-22,
-23,
-25,
-17,
-29,
-19,
-25,
-23,
-20,
-26,
-22,
-25,
-22,
-23,
-22,
-22,
-23,
-20,
-23,
-22,
-23,
-22,
-23,
-23,
-23,
-23,
-23,
-25,
-22,
-23,
-23,
-23,
-22,
-22,
-23,
-22,
-22,
-22,
-23,
-23,
-22,
-22,
-23,
-23,
-23,
-23,
-25,
-23,
-23,
-23,
-23,
-23,
-23,
-23,
-22,
-23,
-23,
-22,
-23,
-23,
-23,
-22,
-23,
-22,
-23,
-23,
-23,
-23,
-23,
-22,
-25,
-23,
-23,
-23,
-22,
-22,
-22,
-22,
-23,
-23,
-23,
-23,
-22,
-23,
-23,
-23,
-23,
-23,
-25,
-23,
-22,
-23,
-22,
-22,
-22,
-22,
-23,
-20,
-22,
-22,
-23,
-22,
-23,
-25,
-22,
-25,
-23,
-23,
-23,
-22,
-22,
-23,
-23,
-22,
-22,
-22,
-22,
-22,
-23,
-23,
-23,
-23,
-22,
-23,
-23,
-22,
-22,
-23,
-22,
-22,
-22,
-22,
-22,
-22,
-22,
-22,
-22,
-22,
-22,
-23,
-22,
-23,
-23,
-22,
-23,
-23,
-23,
-22,
-22,
-22,
-22,
-22,
-22,
-22,
-22,
-22,
-22,
-22,
-22,
-22,
-22,
-23,
-22,
-23,
-22,
-22,
-22,
-22,
-22,
-22,
-20,
-22,
-20,
-22,
-22,
-22,
-22,
-22,
-22,
-23,
-22,
-23,
-22,
-23,
-22,
-22,
-22,
-22,
-20,
-22,
-22,
-22,
-22,
-22,
-22,
-23,
-22,
-22,
-23,
-23,
-22,
-22,
-22,
-22,
-22,
-22,
-20,
-22,
-20,
-20,
-22,
-22,
-20,
-22,
-22,
-22,
-22,
-23,
-20,
-22,
-22,
-20,
-20,
-23,
-22,
-20,
-20,
-22,
-20,
-20,
-22,
-20,
-22,
-22,
-20,
-22,
-22,
-20,
-22,
-22,
-20,
-20,
-20,
-20,
-20,
-20,
-20,
-22,
-20,
-20,
-20,
-22,
-20,
-20,
-22,
-20,
-22,
-22,
-20,
-22,
-20,
-20,
-20,
-20,
-20,
-20,
-20,
-20,
-22,
-20,
-22,
-23,
-20,
-22,
-22,
-20,
-20,
-20,
-20,
-19,
-20,
-19,
-20,
-20,
-20,
-20,
-20,
-20,
-23,
-22,
-20,
-22,
-20,
-19,
-22,
-20,
-19,
-19,
-19,
-20,
-20,
-20,
-19,
-20,
-20,
-20,
-20,
-20,
-20,
-20,
-19,
-20,
-19,
-20,
-19,
-20,
-20,
-20,
-20,
-19,
-20,
-19,
-20,
-20,
-20,
-20,
-20,
-19,
-20,
-19,
-19,
-20,
-19,
-19,
-19,
-20,
-19,
-19,
-20,
-19,
-19,
-20,
-17,
-22,
-19,
-19,
-19,
-19,
-19,
-19,
-20,
-22,
-13,
-20,
-19,
-16,
-23,
-15,
-23,
-17,
-20,
-19,
-19,
-20,
-17,
-20,
-17,
-19,
-17,
-19,
-17,
-19,
-19,
-19,
-19,
-19,
-19,
-19,
-19,
-20,
-17,
-20,
-17,
-19,
-19,
-17,
-17,
-19,
-17,
-16,
-19,
-19,
-19,
-19,
-19,
-19,
-19,
-19,
-17,
-19,
-19,
-17,
-19,
-17,
-17,
-17,
-17,
-17,
-17,
-17,
-17,
-17,
-19,
-17,
-17,
-19,
-17,
-17,
-17,
-17,
-17,
-17,
-17,
-17,
-17,
-17,
-17,
-19,
-17,
-17,
-17,
-19,
-16,
-19,
-17,
-16,
-19,
-16,
-16,
-15,
-17,
-13,
-17,
-15,
-16,
-16,
-16,
-16,
-17,
-17,
-16,
-19,
-17,
-16,
-16,
-16,
-16,
-16,
-17,
-15,
-16,
-16,
-16,
-16,
-16,
-16,
-16,
-16,
-17,
-16,
-16,
-16,
-16,
-15,
-16,
-16,
-16,
-16,
-15,
-15,
-16,
-15,
-15,
-16,
-15,
-16,
-16,
-16,
-15,
-16,
-15,
-16,
-16,
-15,
-15,
-16,
-15,
-15,
-15,
-15,
-15,
-15,
-15,
-15,
-16,
-15,
-15,
-15,
-16,
-15,
-15,
-16,
-15,
-15,
-15,
-15,
-15,
-15,
-15,
-15,
-15,
-13,
-15,
-15,
-16,
-13,
-16,
-15,
-15,
-15,
-15,
-15,
-15,
-15,
-15,
-15,
-13,
-13,
-13,
-13,
-15,
-15,
-13,
-15,
-13,
-15,
-13,
-16,
-13,
-15,
-13,
-13,
-13,
-13,
-13,
-13,
-13,
-12,
-13,
-13,
-13,
-13,
-13,
-13,
-15,
-15,
-15,
-13,
-13,
-12,
-13,
-13,
-13,
-12,
-13,
-12,
-13,
-12,
-13,
-13,
-13,
-13,
-13,
-13,
-15,
-12,
-12,
-13,
-13,
-12,
-13,
-13,
-12,
-12,
-12,
-12,
-12,
-12,
-12,
-12,
-12,
-12,
-12,
-13,
-12,
-13,
-12,
-13,
-12,
-12,
-12,
-12,
-12,
-10,
-10,
-12,
-12,
-10,
-10,
-13,
-12,
-10,
-13,
-12,
-12,
-12,
-10,
-12,
-12,
-10,
-10,
-10,
-10,
-10,
-10,
-10,
-12,
-10,
-12,
-12,
-12,
-10,
-12,
-12,
-10,
-9,
-10,
-9,
-10,
-9,
-10,
-10,
-10,
-9,
-10,
-10,
-10,
-10,
-10,
-10,
-10,
-10,
-10,
-10,
-10,
-10,
-9,
-10,
-10,
-9,
-9,
-10,
-9,
-9,
-9,
-9,
-9,
-10,
-9,
-10,
-10,
-9,
-10,
-10,
-9,
-9,
-9,
-9,
-7,
-9,
-10,
-3,
-13,
-6,
-9,
-12,
-6,
-12,
-7,
-12,
-7,
-10,
-9,
-9,
-10,
-7,
-9,
-9,
-9,
-7,
-9,
-9,
-7,
-9,
-9,
-9,
-9,
-7,
-9,
-9,
-9,
-7,
-9,
-7,
-7,
-6,
-7,
-7,
-7,
-7,
-9,
-7,
-9,
-7,
-9,
-9,
-9,
-6,
-9,
-7,
-7,
-7,
-7,
-7,
-7,
-6,
-6,
-9,
-6,
-7,
-6,
-9,
-7,
-7,
-7,
-7,
-7,
-7,
-6,
-7,
-6,
-6,
-6,
-7,
-6,
-7,
-6,
-7,
-6,
-7,
-6,
-7,
-9,
-6,
-6,
-7,
-6,
-3,
-7,
-3,
-6,
-4,
-6,
-4,
-6,
-4,
-6,
-7,
-6,
-4,
-6,
-6,
-4,
-6,
-6,
-4,
-6,
-4,
-6,
-6,
-4,
-4,
-4,
-4,
-4,
-4,
-4,
-4,
-4,
-4,
-4,
-6,
-4,
-4,
-4,
-4,
-4,
-3,
-3,
-4,
-3,
-3,
-3,
-4,
-4,
-4,
-3,
-4,
-4,
-4,
-3,
-6,
-3,
-3,
-3,
-4,
-3,
-3,
-3,
-4,
-3,
-3,
-3,
-4,
-4,
-3,
-3,
-3,
-3,
-1,
-3,
-3,
-3,
-1,
-3,
-3,
-3,
-1,
-3,
-1,
-3,
-1,
-3,
-3,
-3,
-3,
-3,
-3,
-3,
-1,
-1,
-3,
-1,
-1,
-1,
-1,
-1,
-1,
0,
-1,
-1,
-1,
-1,
-4,
-1,
-3,
-3,
-3,
-1,
-1,
0,
-1,
-1,
0,
0,
-1,
-1,
0,
-3,
0,
-1,
-1,
-1,
-1,
-1,
-1,
-1,
-1,
0,
0,
0,
-1,
0,
2,
0,
0,
0,
0,
0,
0,
0,
0,
0,
0,
0,
0,
2,
0,
2,
0,
2,
-1,
0,
2,
2,
0,
0,
0,
0,
0,
0,
0,
2,
0,
0,
2,
2,
0,
2,
2,
2,
2,
2,
2,
2,
0,
2,
2,
0,
2,
2,
3,
0,
2,
2,
2,
2,
3,
2,
3,
2,
3,
2,
3,
2,
2,
2,
2,
2,
2,
2,
2,
3,
2,
3,
3,
5,
2,
3,
3,
3,
3,
3,
2,
5,
2,
2,
3,
3,
2,
3,
3,
3,
3,
5,
3,
5,
3,
3,
5,
3,
3,
2,
5,
3,
3,
3,
5,
3,
5,
3,
5,
5,
5,
5,
5,
5,
5,
5,
2,
7,
3,
2,
7,
0,
7,
2,
5,
5,
3,
6,
3,
7,
3,
6,
5,
5,
5,
3,
5,
5,
5,
5,
6,
5,
5,
5,
6,
5,
6,
5,
6,
6,
5,
5,
6,
5,
6,
5,
6,
5,
6,
5,
5,
6,
6,
6,
6,
6,
6,
6,
6,
7,
6,
7,
6,
6,
6,
6,
6,
7,
6,
6,
7,
6,
6,
7,
6,
7,
7,
7,
6,
7,
6,
6,
7,
6,
6,
7,
6,
6,
7,
7,
7,
7,
7,
9,
7,
9,
7,
9,
7,
7,
7,
6,
9,
6,
7,
7,
9,
7,
9,
7,
9,
9,
7,
7,
9,
9,
9,
7,
9,
7,
9,
7,
9,
9,
7,
9,
9,
9,
9,
9,
9,
9,
9,
9,
9,
9,
7,
10,
7,
10,
9,
9,
9,
10,
9,
10,
10,
10,
9,
10,
9,
10,
9,
10,
9,
10,
9,
9,
10,
9,
9,
9,
10,
10,
10,
9,
10,
10,
10,
10,
10,
10,
10,
9,
10,
10,
10,
10,
10,
9,
12,
10,
10,
12,
10,
10,
12,
12,
10,
10,
10,
10,
10,
10,
10,
12,
9,
12,
12,
12,
10,
12,
12,
10,
12,
12,
10,
13,
10,
10,
12,
10,
10,
12,
12,
10,
13,
12,
13,
12,
12,
12,
12,
12,
12,
12,
13,
10,
12,
12,
12,
12,
12,
12,
12,
13,
12,
12,
13,
12,
12,
13,
13,
12,
13,
13,
12,
13,
13,
12,
12,
13,
10,
13,
13,
13,
13,
13,
13,
13,
13,
13,
13,
13,
12,
13,
13,
13,
12,
13,
13,
13,
13,
13,
13,
15,
15,
13,
13,
15,
13,
13,
15,
12,
15,
13,
13,
13,
15,
15,
15,
15,
15,
13,
15,
13,
15,
15,
13,
15,
15,
13,
13,
15,
13,
15,
15,
15,
13,
15,
15,
15,
15,
15,
15,
15,
15,
13,
15,
15,
15,
15,
15,
15,
15,
15,
15,
16,
15,
16,
15,
16,
15,
15,
15,
15,
15,
15,
15,
15,
15,
15,
15,
16,
15,
13,
21,
15,
15,
19,
12,
19,
13,
16,
15,
15,
16,
13,
18,
15,
16,
16,
15,
16,
16,
16,
16,
16,
16,
16,
18,
15,
16,
15,
16,
15,
16,
16,
18,
16,
16,
16,
18,
16,
16,
16,
16,
16,
16,
16,
16,
16,
16,
16,
18,
16,
16,
18,
18,
18,
18,
18,
16,
16,
16,
16,
16,
18,
15,
16,
16,
16,
16,
18,
16,
18,
18,
18,
18,
18,
16,
18,
16,
16,
16,
18,
16,
16,
18,
16,
18,
18,
19,
18,
19,
18,
19,
18,
18,
18,
18,
19,
16,
19,
16,
18,
18,
18,
18,
18,
19,
18,
19,
19,
19,
18,
19,
18,
18,
18,
18,
18,
19,
18,
19,
19,
19,
18,
19,
19,
19,
19,
18,
19,
19,
19,
19,
19,
18,
19,
19,
18,
18,
19,
18,
19,
19,
19,
19,
21,
19,
19,
18,
19,
19,
19,
19,
19,
19,
19,
19,
19,
19,
19,
19,
19,
19,
19,
21,
19,
19,
19,
19,
19,
19,
19,
19,
19,
19,
19,
21,
19,
21,
21,
19,
19,
21,
21,
19,
19,
19,
19,
21,
19,
21,
21,
19,
21,
21,
21,
21,
21,
21,
21,
21,
21,
21,
21,
19,
21,
19,
21,
21,
21,
21,
21,
21,
19,
21,
21,
19,
22,
21,
21,
19,
19,
19,
21,
19,
21,
21,
21,
21,
22,
21,
22,
21,
21,
21,
21,
21,
21,
19,
21,
21,
19,
21,
22,
21,
21,
21,
21,
22,
22,
21,
22,
21,
21,
21,
21,
19,
21,
21,
21,
21,
21,
21,
21,
21,
21,
22,
22,
22,
21,
21,
21,
21,
21,
21,
21,
21,
21,
21,
22,
22,
22,
21,
22,
21,
22,
22,
21,
21,
22,
21,
22,
21,
21,
21,
22,
21,
22,
22,
22,
21,
22,
22,
21,
22,
19,
22,
21,
21,
21,
22,
21,
22,
22,
22,
22,
22,
21,
22,
22,
22,
22,
22,
21,
21,
21,
21,
21,
22,
22,
22,
22,
22,
22,
22,
22,
21,
22,
22,
22,
21,
22,
24,
16,
25,
18,
24,
22,
21,
24,
19,
24,
21,
24,
21,
22,
22,
21,
22,
21,
22,
21,
22,
22,
22,
22,
21,
22,
22,
22,
24,
22,
22,
22,
21,
22,
22,
21,
21,
22,
21,
22,
22,
22,
21,
24,
22,
22,
22,
22,
21,
22,
22,
22,
22,
22,
21,
22,
22,
22,
22,
22,
22,
22,
22,
22,
22,
24,
22,
22,
22,
22,
21,
22,
22,
21,
22,
22,
22,
24,
22,
21,
24,
22,
22,
22,
22,
24,
22,
22,
21,
24,
22,
22,
22,
22,
24,
22,
24,
22,
22,
22,
22,
22,
22,
22,
22,
22,
22,
22,
22,
22,
24,
22,
22,
24,
22,
22,
22,
22,
22,
22,
22,
22,
22,
22,
22,
22,
22,
22,
24,
22,
22,
24,
24,
22,
22,
22,
22,
22,
22,
21,
22,
22,
22,
22,
22,
22,
22,
24,
22,
24,
22,
22,
22,
22,
21,
22,
22,
21,
22,
22,
22,
24,
22,
22,
24,
22,
22,
22,
22,
22,
22,
22,
22,
24,
22,
22,
22,
22,
22,
24,
22,
22,
22,
22,
22,
22,
22,
22,
22,
22,
22,
22,
22,
22,
22,
22,
22,
22,
22,
22,
21,
22,
22,
21,
22,
22,
21,
22,
22,
22,
22,
22,
22,
22,
22,
22,
22,
22,
21,
21,
22,
22,
22,
22,
21,
22,
22,
22,
22,
22,
22,
22,
22,
22,
22,
21,
22,
21,
21,
22,
22,
22,
22,
22,
22,
22,
22,
22,
22,
21,
22,
22,
21,
22,
21,
21,
21,
21,
22,
22,
22,
22,
22,
21,
22,
22,
21,
21,
22,
21,
21,
22,
21,
21,
22,
21,
21,
22,
22,
21,
22,
22,
22,
21,
21,
21,
22,
21,
21,
21,
21,
21,
22,
21,
21,
22,
21,
21,
21,
22,
21,
22,
19,
21,
21,
21,
21,
21,
21,
21,
21,
21,
21,
22,
21,
21,
21,
21,
21,
21,
21,
21,
21,
21,
19,
21,
21,
21,
21,
21,
21,
21,
21,
19,
21,
21,
21,
19,
18,
25,
15,
22,
19,
18,
24,
16,
22,
19,
21,
19,
21,
21,
18,
22,
19,
21,
19,
19,
19,
19,
21,
19,
21,
21,
21,
19,
21,
19,
19,
19,
19,
19,
19,
19,
18,
19,
19,
19,
19,
19,
19,
19,
19,
19,
19,
21,
18,
19,
19,
18,
19,
19,
18,
19,
18,
19,
19,
19,
19,
19,
19,
19,
19,
19,
19,
19,
18,
19,
19,
18,
19,
19,
19,
18,
19,
18,
19,
19,
19,
19,
18,
19,
18,
19,
19,
19,
18,
18,
18,
19,
18,
19,
18,
19,
18,
18,
19,
18,
19,
18,
18,
18,
18,
18,
19,
18,
18,
18,
19,
18,
18,
19,
19,
18,
19,
18,
18,
19,
16,
18,
18,
16,
18,
18,
18,
18,
18,
18,
18,
19,
18,
18,
18,
18,
18,
18,
16,
18,
18,
16,
18,
18,
18,
16,
18,
18,
18,
18,
18,
16,
18,
16,
16,
16,
18,
16,
18,
16,
16,
16,
18,
16,
18,
16,
18,
16,
18,
16,
18,
16,
16,
16,
16,
16,
16,
18,
16,
16,
16,
18,
16,
18,
16,
16,
16,
16,
15,
16,
15,
15,
16,
16,
16,
16,
16,
16,
16,
16,
16,
16,
16,
16,
16,
15,
15,
15,
15,
15,
15,
16,
16,
16,
15,
16,
16,
16,
16,
15,
15,
16,
15,
15,
15,
13,
16,
15,
15,
15,
15,
16,
16,
15,
15,
15,
15,
13,
15,
13,
13,
13,
15,
15,
15,
13,
15,
15,
15,
15,
16,
15,
15,
13,
15,
13,
13,
13,
13,
15,
13,
13,
13,
15,
15,
15,
13,
15,
13,
15,
13,
13,
13,
13,
13,
13,
13,
13,
13,
15,
13,
15,
13,
13,
13,
13,
13,
13,
13,
12,
15,
12,
13,
13,
12,
13,
13,
13,
13,
13,
13,
12,
13,
12,
12,
13,
12,
12,
13,
12,
12,
13,
13,
12,
13,
12,
12,
13,
12,
12,
12,
12,
10,
12,
12,
12,
12,
12,
12,
12,
13,
12,
13,
12,
12,
12,
12,
10,
10,
10,
15,
5,
16,
9,
12,
13,
9,
13,
10,
13,
9,
13,
10,
10,
10,
10,
9,
12,
10,
10,
10,
12,
10,
12,
10,
10,
10,
12,
10,
10,
10,
9,
10,
10,
9,
10,
10,
10,
10,
10,
10,
10,
10,
10,
10,
9,
10,
9,
9,
9,
9,
9,
10,
9,
10,
9,
10,
10,
10,
9,
9,
9,
9,
9,
9,
7,
9,
9,
9,
9,
9,
9,
9,
9,
9,
9,
9,
9,
9,
9,
7,
9,
9,
7,
7,
10,
7,
10,
7,
10,
9,
9,
9,
7,
9,
7,
9,
7,
7,
9,
7,
9,
7,
9,
9,
9,
9,
7,
7,
7,
9,
6,
7,
7,
7,
6,
9,
6,
7,
7,
7,
6,
9,
7,
7,
7,
7,
6,
7,
7,
6,
7,
6,
7,
6,
7,
7,
7,
6,
7,
6,
7,
6,
7,
6,
6,
5,
6,
6,
6,
6,
6,
7,
6,
7,
6,
6,
6,
6,
5,
6,
6,
5,
6,
5,
6,
6,
6,
6,
5,
6,
6,
6,
6,
6,
5,
6,
5,
5,
5,
5,
5,
5,
6,
5,
6,
6,
6,
5,
6,
5,
6,
5,
5,
5,
5,
3,
5,
5,
5,
5,
5,
5,
5,
5,
5,
5,
3,
5,
5,
5,
3,
3,
3,
5,
3,
5,
3,
5,
3,
5,
3,
5,
5,
3,
3,
5,
3,
3,
3,
3,
3,
3,
3,
3,
5,
3,
3,
3,
3,
3,
3,
2,
3,
3,
2,
2,
3,
0,
2,
2,
3,
2,
3,
3,
3,
3,
3,
2,
2,
2,
2,
2,
2,
2,
2,
2,
2,
2,
3,
3,
2,
3,
2,
2,
2,
2,
2,
2,
0,
0,
2,
2,
0,
2,
2,
0,
2,
2,
2,
2,
2,
0,
2,
0,
0,
0,
0,
0,
0,
0,
0,
0,
2,
0,
2,
0,
0,
0,
0,
0,
0,
0,
0,
-1,
0,
0,
-1,
0,
0,
-1,
0,
0,
-1,
0,
-1,
-1,
-1,
0,
-1,
-1,
-1,
-3,
-1,
0,
-3,
-1,
-1,
-4,
5,
-6,
0,
-1,
-3,
0,
-4,
2,
-4,
-1,
-1,
-3,
-1,
-4,
0,
-3,
-1,
-3,
-1,
-1,
-1,
-3,
-3,
-3,
-3,
-3,
-1,
-3,
-3,
-3,
-3,
-3,
-3,
-3,
-3,
-1,
-3,
-1,
-3,
-3,
-3,
-1,
-3,
-3,
-3,
-4,
-3,
-3,
-4,
-3,
-3,
-3,
-3,
-3,
-3,
-3,
-3,
-4,
-3,
-4,
-4,
-6,
-3,
-4,
-4,
-4,
-3,
-4,
-3,
-4,
-3,
-4,
-3,
-4,
-4,
-4,
-4,
-6,
-4,
-4,
-4,
-6,
-4,
-4,
-3,
-3,
-4,
-4,
-4,
-4,
-4,
-4,
-6,
-4,
-6,
-6,
-6,
-4,
-6,
-4,
-6,
-4,
-4,
-4,
-4,
-6,
-4,
-6,
-6,
-7,
-4,
-6,
-6,
-7,
-6,
-6,
-6,
-6,
-6,
-6,
-6,
-6,
-6,
-6,
-6,
-6,
-7,
-6,
-7,
-6,
-7,
-6,
-7,
-6,
-6,
-6,
-6,
-6,
-6,
-6,
-7,
-6,
-7,
-7,
-7,
-7,
-7,
-7,
-7,
-7,
-7,
-6,
-6,
-7,
-7,
-7,
-7,
-7,
-7,
-7,
-7,
-9,
-7,
-7,
-7,
-7,
-6,
-7,
-7,
-7,
-6,
-7,
-7,
-7,
-9,
-7,
-9,
-7,
-9,
-7,
-9,
-9,
-7,
-7,
-9,
-7,
-7,
-7,
-9,
-7,
-9,
-7,
-9,
-9,
-7,
-9,
-9,
-9,
-9,
-9,
-9,
-9,
-9,
-7,
-9,
-10,
-9,
-9,
-9,
-9,
-9,
-9,
-9,
-9,
-10,
-9,
-10,
-10,
-9,
-9,
-10,
-9,
-9,
-9,
-9,
-10,
-9,
-10,
-9,
-10,
-10,
-10,
-10,
-12,
-10,
-10,
-10,
-10,
-9,
-10,
-9,
-10,
-9,
-10,
-9,
-12,
-9,
-10,
-12,
-12,
-10,
-12,
-10,
-12,
-10,
-9,
-10,
-12,
-9,
-10,
-12,
-12,
-12,
-12,
-12,
-12,
-13,
-12,
-12,
-10,
-12,
-10,
-12,
-12,
-10,
-10,
-10,
-12,
-10,
-13,
-12,
-13,
-12,
-12,
-12,
-13,
-12,
-12,
-12,
-12,
-10,
-12,
-12,
-12,
-12,
-12,
-12,
-13,
-12,
-13,
-12,
-13,
-12,
-13,
-12,
-13,
-12,
-12,
-12,
-13,
-12,
-13,
-13,
-13,
-12,
-13,
-13,
-15,
-13,
-13,
-13,
-13,
-13,
-13,
-13,
-13,
-13,
-13,
-13,
-13,
-13,
-12,
-15,
-13,
-13,
-15,
-15,
-15,
-16,
-9,
-15,
-15,
-10,
-17,
-10,
-16,
-12,
-13,
-13,
-13,
-15,
-13,
-16,
-13,
-15,
-15,
-13,
-15,
-13,
-15,
-13,
-15,
-13,
-13,
-15,
-15,
-13,
-15,
-15,
-15,
-15,
-15,
-15,
-16,
-15,
-16,
-15,
-15,
-15,
-15,
-15,
-15,
-15,
-15,
-15,
-15,
-16,
-16,
-16,
-16,
-16,
-16,
-16,
-15,
-16,
-15,
-15,
-15,
-15,
-15,
-16,
-16,
-16,
-16,
-16,
-16,
-16,
-17,
-16,
-15,
-16,
-15,
-16,
-16,
-15,
-15,
-16,
-15,
-16,
-17,
-16,
-16,
-16,
-16,
-16,
-16,
-16,
-16,
-16,
-16,
-16,
-16,
-15,
-16,
-16,
-16,
-16,
-16,
-17,
-16,
-17,
-17,
-17,
-17,
-16,
-16,
-16,
-17,
-16,
-16,
-16,
-16,
-15,
-17,
-16,
-16,
-17,
-17,
-16,
-17,
-16,
-17,
-17,
-17,
-16,
-17,
-16,
-16,
-16,
-17,
-16,
-17,
-17,
-17,
-17,
-17,
-16,
-17,
-17,
-17,
-17,
-17,
-16,
-17,
-17,
-17,
-16,
-16,
-17,
-17,
-17,
-17,
-19,
-17,
-19,
-17,
-17,
-19,
-19,
-17,
-17,
-17,
-17,
-17,
-17,
-17,
-17,
-17,
-17,
-19,
-17,
-19,
-19,
-19,
-19,
-19,
-17,
-17,
-17,
-17,
-17,
-19,
-17,
-19,
-17,
-17,
-19,
-19,
-19,
-19,
-19,
-19,
-19,
-19,
-17,
-19,
-17,
-17,
-17,
-19,
-17,
-19,
-17,
-19,
-19,
-19,
-19,
-19,
-19,
-19,
-19,
-19,
-19,
-19,
-19,
-17,
-19,
-19,
-19,
-19,
-20,
-19,
-20,
-19,
-20,
-19,
-19,
-19,
-19,
-20,
-19,
-19,
-19,
-19,
-19,
-19,
-20,
-19,
-20,
-19,
-20,
-20,
-20,
-20,
-20,
-20,
-19,
-22,
-19,
-19,
-20,
-19,
-19,
-20,
-19,
-20,
-20,
-20,
-19,
-22,
-20,
-20,
-20,
-20,
-19,
-20,
-19,
-19,
-20,
-19,
-19,
-20,
-20,
-19,
-22,
-20,
-20,
-20,
-22,
-20,
-20,
-20,
-20,
-20,
-20,
-20,
-20,
-20,
-20,
-20,
-20,
-20,
-20,
-20,
-22,
-20,
-22,
-22,
-20,
-22,
-19,
-20,
-20,
-20,
-20,
-20,
-22,
-20,
-22,
-22,
-20,
-22,
-20,
-22,
-22,
-20,
-20,
-22,
-20,
-20,
-22,
-20,
-20,
-20,
-20,
-20,
-22,
-20,
-22,
-20,
-22,
-22,
-22,
-20,
-22,
-22,
-20,
-22,
-20,
-20,
-20,
-22,
-22,
-22,
-20,
-22,
-23,
-23,
-16,
-29,
-17,
-25,
-22,
-20,
-23,
-19,
-23,
-19,
-22,
-20,
-20,
-22,
-20,
-23,
-22,
-23,
-23,
-23,
-22,
-23,
-23,
-22,
-22,
-22,
-22,
-22,
-22,
-22,
-22,
-22,
-22,
-23,
-23,
-22,
-23,
-22,
-22,
-22,
-22,
-22,
-22,
-22,
-22,
-22,
-22,
-22,
-22,
-22,
-22,
-23,
-22,
-23,
-23,
-22,
-22,
-23,
-23,
-22,
-22,
-23,
-22,
-22,
-22,
-22,
-22,
-23,
-22,
-22,
-22,
-22,
-22,
-25,
-22,
-22,
-23,
-22,
-22,
-23,
-22,
-22,
-23,
-22,
-22,
-23,
-22,
-20,
-23,
-22,
-23,
-23,
-23,
-22,
-23,
-22,
-22,
-23,
-20,
-22,
-22,
-22,
-22,
-22,
-22,
-22,
-22,
-22,
-23,
-25,
-23,
-22,
-22,
-23,
-22,
-22,
-22,
-22,
-20,
-22,
-22,
-22,
-23,
-22,
-22,
-23,
-23,
-23,
-23,
-23,
-22,
-23,
-22,
-22,
-22,
-22,
-22,
-22,
-22,
-22,
-23,
-22,
-22,
-23,
-23,
-23,
-23,
-23,
-22,
-22,
-22,
-22,
-23,
-22,
-22,
-22,
-22,
-22,
-23,
-22,
-23,
-23,
-23,
-23,
-22,
-23,
-23,
-23,
-22,
-23,
-22,
-22,
-22,
-22,
-22,
-23,
-22,
-23,
-22,
-23,
-23,
-25,
-22,
-23,
-23,
-23,
-23,
-22,
-22,
-22,
-22,
-20,
-22,
-23,
-22,
-22,
-23,
-23,
-23,
-23,
-23,
-23,
-23,
-22,
-23,
-22,
-22,
-22,
-22,
-22,
-22,
-22,
-22,
-23,
-22,
-23,
-23,
-23,
-22,
-22,
-22,
-23,
-22,
-22,
-22,
-22,
-22,
-22,
-22,
-23,
-23,
-22,
-23,
-22,
-23,
-23,
-22,
-22,
-22,
-22,
-22,
-23,
-22,
-22,
-22,
-22,
-22,
-23,
-23,
-22,
-23,
-22,
-22,
-25,
-22,
-22,
-23,
-22,
-22,
-23,
-22,
-22,
-22,
-22,
-22,
-23,
-22,
-22,
-23,
-23,
-22,
-23,
-23,
-23,
-22,
-22,
-22,
-23,
-22,
-20,
-22,
-22,
-22,
-22,
-22,
-23,
-22,
-23,
-23,
-23,
-23,
-22,
-22,
-22,
-22,
-22,
-22,
-22,
-22,
-22,
-22,
-22,
-23,
-22,
-22,
-23,
-22,
-22,
-23,
-22,
-22,
-22,
-22,
-22,
-22,
-22,
-20,
-22,
-22,
-22,
-23,
-22,
-22,
-22,
-23,
-22,
-22,
-22,
-22,
-22,
-22,
-22,
-20,
-22,
-22,
-20,
-22,
-23,
-22,
-22,
-22,
-22,
-22,
-23,
-20,
-22,
-22,
-22,
-19,
-19,
-26,
-16,
-26,
-17,
-22,
-22,
-20,
-25,
-20,
-23,
-22,
-23,
-22,
-20,
-22,
-20,
-22,
-20,
-20,
-20,
-22,
-20,
-20,
-22,
-22,
-22,
-22,
-22,
-22,
-22,
-22,
-22,
-20,
-20,
-22,
-20,
-22,
-20,
-20,
-22,
-22,
-22,
-22,
-23,
-22,
-22,
-20,
-22,
-22,
-20,
-20,
-20,
-20,
-20,
-20,
-20,
-22,
-20,
-20,
-22,
-22,
-20,
-22,
-20,
-20,
-22,
-22,
-20,
-22,
-20,
-20,
-22,
-20,
-20,
-20,
-22,
-20,
-20,
-20,
-20,
-20,
-22,
-20,
-22,
-20,
-19,
-19,
-20,
-19,
-20,
-19,
-20,
-19,
-19,
-19,
-20,
-20,
-19,
-20,
-20,
-22,
-20,
-20,
-20,
-19,
-19,
-20,
-19,
-20,
-20,
-19,
-19,
-20,
-19,
-20,
-20,
-20,
-20,
-20,
-20,
-20,
-20,
-19,
-20,
-19,
-19,
-19,
-19,
-19,
-19,
-19,
-20,
-20,
-20,
-19,
-20,
-20,
-20,
-20,
