RLC_R_11.91/ALL0006/2.CSV

Format,1.0B,
Memory Length,10000,
IntpDistance,0,
Trigger Address,4999,
Trigger Level,-4.000E-01,
Source,CH2,
Vertical Units,V,
Vertical Units Div,0,
Vertical Units Extend Div,16,
Label, ,
Probe Type,0,
Probe Ratio,1.000E+00,
Vertical Scale,5.000E-02,
Vertical Position,-9.800E-02,
Horizontal Units,S,
Horizontal Scale,1.000E-04,
Horizontal Position,0.000E+00,
Horizontal Mode,Main,
SincET Mode,Real Time,
Sampling Period,1.000E-07,
Horizontal Old Scale,1.000E-04,
Horizontal Old Position,0.000E+00,
Firmware,V1.24,
Mode,Fast,
Waveform Data,
10,
8,
10,
10,
8,
11,
10,
10,
10,
8,
10,
10,
10,
10,
10,
10,
10,
10,
11,
8,
10,
10,
8,
11,
11,
10,
11,
11,
11,
10,
10,
10,
8,
11,
11,
10,
11,
10,
10,
10,
8,
10,
10,
8,
11,
8,
10,
11,
13,
11,
8,
8,
8,
10,
11,
10,
11,
11,
10,
11,
10,
10,
10,
8,
10,
11,
10,
11,
8,
10,
10,
8,
10,
8,
11,
11,
10,
10,
10,
7,
10,
13,
13,
10,
10,
10,
11,
11,
10,
8,
8,
8,
10,
10,
10,
10,
10,
8,
10,
8,
11,
11,
10,
10,
7,
10,
11,
11,
11,
10,
10,
11,
10,
10,
10,
10,
11,
10,
10,
11,
11,
13,
8,
11,
8,
8,
11,
10,
11,
11,
8,
11,
10,
10,
11,
8,
10,
11,
11,
13,
11,
11,
11,
10,
13,
11,
11,
11,
8,
10,
11,
10,
11,
11,
11,
11,
10,
11,
10,
10,
10,
11,
13,
11,
13,
11,
10,
13,
11,
11,
10,
11,
13,
13,
11,
11,
8,
11,
10,
10,
13,
11,
11,
13,
11,
13,
11,
11,
13,
8,
11,
13,
11,
14,
10,
11,
11,
10,
11,
13,
11,
11,
8,
11,
11,
11,
11,
11,
11,
11,
11,
11,
11,
13,
11,
11,
13,
11,
11,
11,
10,
11,
11,
11,
13,
11,
13,
13,
11,
10,
10,
11,
11,
13,
13,
11,
11,
11,
11,
11,
10,
11,
11,
11,
11,
11,
13,
13,
10,
11,
10,
11,
13,
11,
11,
11,
8,
13,
13,
11,
11,
10,
11,
11,
13,
13,
11,
11,
10,
10,
11,
8,
11,
14,
14,
13,
10,
8,
11,
10,
11,
13,
13,
13,
11,
13,
11,
10,
11,
13,
13,
13,
11,
13,
10,
13,
13,
11,
13,
11,
13,
11,
14,
11,
8,
11,
13,
11,
13,
11,
11,
13,
11,
13,
13,
11,
11,
11,
13,
13,
11,
14,
13,
13,
13,
10,
13,
13,
11,
13,
11,
13,
13,
13,
13,
13,
11,
13,
11,
11,
11,
13,
14,
13,
13,
13,
11,
11,
13,
14,
13,
10,
11,
13,
14,
14,
13,
13,
11,
13,
13,
13,
14,
13,
11,
13,
11,
13,
11,
13,
14,
13,
14,
11,
11,
11,
11,
14,
14,
10,
11,
8,
13,
14,
13,
14,
11,
11,
14,
11,
11,
13,
11,
13,
13,
13,
13,
13,
13,
10,
13,
11,
11,
13,
10,
13,
11,
13,
14,
11,
13,
13,
11,
13,
7,
13,
13,
11,
13,
13,
11,
14,
11,
13,
11,
11,
13,
11,
11,
13,
11,
14,
13,
11,
11,
10,
13,
13,
11,
13,
11,
13,
13,
13,
11,
10,
11,
13,
13,
11,
11,
11,
13,
11,
13,
13,
11,
11,
10,
13,
13,
13,
14,
13,
13,
11,
13,
14,
13,
11,
11,
10,
13,
13,
13,
14,
13,
13,
11,
11,
13,
13,
14,
13,
11,
14,
13,
13,
13,
10,
13,
13,
13,
14,
11,
14,
11,
11,
13,
11,
13,
13,
11,
13,
13,
13,
11,
10,
13,
11,
14,
14,
13,
13,
10,
13,
14,
13,
14,
11,
13,
14,
11,
13,
11,
13,
13,
13,
16,
13,
11,
13,
10,
14,
13,
11,
13,
11,
16,
14,
11,
13,
13,
13,
13,
11,
13,
13,
13,
13,
11,
13,
11,
13,
14,
13,
14,
11,
13,
14,
11,
14,
11,
13,
13,
11,
14,
14,
13,
13,
11,
11,
13,
11,
13,
13,
11,
13,
11,
14,
13,
11,
13,
11,
11,
11,
13,
13,
13,
11,
11,
13,
13,
11,
13,
13,
11,
11,
14,
14,
11,
10,
11,
11,
13,
13,
13,
14,
11,
11,
11,
11,
11,
11,
10,
13,
11,
13,
13,
11,
13,
10,
11,
11,
13,
13,
11,
11,
11,
10,
14,
14,
14,
13,
11,
11,
11,
11,
13,
14,
13,
11,
13,
13,
11,
14,
14,
13,
13,
11,
14,
13,
11,
13,
10,
13,
13,
11,
13,
13,
13,
13,
10,
14,
14,
14,
14,
11,
13,
13,
13,
14,
11,
13,
11,
11,
13,
13,
14,
11,
11,
14,
11,
11,
11,
11,
13,
13,
13,
13,
13,
14,
13,
13,
13,
13,
13,
10,
11,
14,
13,
16,
13,
13,
11,
11,
13,
11,
13,
13,
11,
13,
13,
11,
11,
11,
13,
13,
13,
13,
10,
13,
13,
11,
13,
13,
13,
13,
11,
13,
11,
13,
13,
11,
11,
13,
13,
13,
13,
13,
11,
11,
13,
11,
13,
13,
11,
13,
11,
11,
11,
10,
11,
11,
14,
10,
14,
11,
11,
13,
11,
8,
11,
11,
13,
14,
13,
13,
11,
10,
13,
10,
13,
11,
11,
11,
11,
11,
11,
10,
13,
10,
13,
11,
11,
13,
11,
10,
11,
10,
13,
11,
11,
13,
10,
13,
11,
10,
11,
11,
13,
14,
11,
8,
11,
14,
11,
10,
11,
10,
11,
11,
11,
13,
10,
11,
11,
10,
13,
11,
11,
11,
10,
11,
11,
13,
13,
10,
11,
13,
11,
14,
13,
13,
13,
8,
11,
11,
13,
13,
10,
11,
11,
8,
13,
11,
13,
13,
11,
13,
11,
11,
13,
13,
13,
11,
13,
11,
11,
11,
10,
10,
11,
11,
13,
11,
13,
13,
8,
10,
13,
10,
13,
11,
13,
13,
11,
13,
11,
10,
11,
10,
13,
13,
11,
13,
10,
13,
13,
11,
11,
11,
11,
13,
11,
11,
11,
11,
11,
11,
13,
11,
10,
10,
10,
11,
13,
10,
11,
10,
11,
10,
10,
11,
10,
11,
11,
10,
13,
13,
11,
11,
10,
11,
10,
11,
11,
11,
11,
11,
10,
11,
10,
10,
10,
11,
11,
10,
11,
11,
11,
10,
10,
8,
10,
8,
11,
10,
8,
10,
10,
10,
10,
10,
11,
10,
10,
11,
8,
10,
10,
10,
11,
10,
10,
11,
10,
11,
8,
8,
8,
11,
13,
10,
8,
10,
10,
11,
13,
11,
11,
10,
11,
10,
10,
11,
10,
10,
10,
10,
13,
11,
10,
11,
8,
8,
11,
10,
11,
8,
10,
10,
10,
10,
10,
13,
13,
10,
10,
8,
11,
13,
11,
11,
11,
10,
11,
10,
10,
11,
10,
10,
11,
10,
11,
10,
10,
10,
8,
10,
8,
10,
10,
8,
11,
10,
10,
10,
7,
8,
10,
10,
10,
8,
10,
10,
8,
11,
8,
11,
10,
10,
11,
8,
11,
11,
10,
11,
10,
10,
10,
10,
10,
10,
8,
13,
8,
10,
10,
8,
8,
8,
8,
11,
10,
10,
8,
10,
10,
8,
10,
11,
10,
11,
10,
8,
8,
8,
8,
8,
8,
10,
8,
11,
10,
7,
7,
10,
8,
7,
8,
8,
8,
8,
8,
7,
8,
8,
8,
8,
5,
7,
7,
7,
8,
7,
10,
8,
8,
8,
8,
8,
7,
7,
8,
10,
8,
10,
8,
8,
8,
7,
10,
8,
8,
10,
8,
10,
10,
7,
8,
8,
8,
8,
10,
10,
10,
8,
8,
8,
8,
8,
8,
8,
7,
8,
7,
7,
8,
8,
8,
7,
7,
10,
7,
7,
7,
7,
8,
10,
8,
10,
5,
5,
8,
5,
10,
8,
8,
10,
8,
8,
10,
8,
8,
7,
10,
8,
10,
10,
7,
7,
7,
5,
8,
8,
8,
8,
5,
8,
10,
7,
8,
7,
7,
8,
8,
8,
8,
8,
10,
8,
8,
8,
8,
10,
8,
7,
8,
8,
8,
8,
7,
7,
5,
7,
7,
7,
10,
7,
8,
8,
5,
8,
5,
7,
8,
7,
8,
8,
5,
5,
5,
7,
7,
5,
8,
5,
5,
7,
7,
8,
8,
7,
8,
7,
7,
8,
7,
8,
7,
7,
8,
5,
7,
7,
2,
10,
4,
4,
7,
5,
8,
7,
4,
7,
4,
7,
7,
4,
7,
5,
7,
7,
4,
8,
7,
5,
7,
5,
7,
8,
5,
5,
4,
5,
5,
5,
5,
5,
5,
7,
5,
4,
5,
5,
7,
5,
7,
7,
5,
7,
10,
7,
5,
5,
10,
8,
5,
5,
4,
5,
8,
7,
7,
7,
5,
7,
7,
7,
7,
5,
5,
7,
5,
7,
5,
5,
5,
2,
5,
5,
7,
7,
4,
5,
5,
5,
5,
5,
5,
7,
5,
7,
7,
5,
7,
5,
7,
7,
5,
8,
7,
5,
7,
4,
7,
7,
5,
7,
4,
4,
5,
5,
7,
5,
4,
5,
5,
5,
5,
4,
5,
4,
4,
5,
4,
5,
5,
7,
5,
7,
7,
7,
5,
4,
5,
5,
8,
5,
5,
5,
4,
5,
5,
5,
5,
5,
7,
7,
7,
5,
5,
5,
5,
4,
5,
5,
4,
4,
4,
4,
4,
4,
5,
5,
4,
4,
4,
5,
4,
5,
5,
5,
5,
5,
2,
4,
2,
2,
5,
-1,
7,
5,
2,
5,
2,
2,
4,
4,
4,
5,
4,
4,
4,
4,
5,
2,
2,
2,
4,
5,
4,
4,
4,
1,
2,
2,
4,
2,
1,
2,
1,
2,
4,
4,
2,
2,
1,
1,
4,
1,
4,
2,
2,
5,
2,
4,
4,
4,
5,
5,
5,
4,
4,
5,
4,
2,
4,
2,
4,
5,
4,
5,
4,
4,
4,
4,
4,
2,
2,
2,
2,
2,
2,
2,
2,
2,
2,
4,
1,
4,
2,
2,
4,
4,
5,
5,
4,
4,
1,
2,
4,
2,
4,
2,
1,
2,
1,
2,
2,
5,
4,
2,
4,
4,
2,
5,
2,
1,
4,
2,
5,
4,
2,
2,
2,
2,
4,
1,
2,
1,
1,
4,
2,
1,
2,
2,
4,
2,
2,
4,
2,
2,
2,
1,
4,
4,
4,
2,
-1,
5,
7,
2,
4,
2,
1,
2,
1,
2,
1,
1,
1,
1,
4,
2,
2,
2,
2,
2,
1,
-2,
1,
1,
1,
2,
1,
1,
1,
1,
2,
2,
2,
2,
1,
2,
1,
-4,
4,
1,
1,
-1,
-1,
2,
-1,
1,
1,
-2,
4,
4,
1,
1,
-2,
1,
2,
2,
4,
1,
-1,
2,
-2,
1,
1,
-2,
2,
1,
1,
2,
-1,
2,
1,
-1,
1,
-1,
1,
2,
-1,
1,
-1,
-1,
1,
-1,
2,
2,
2,
2,
1,
2,
1,
-2,
1,
-1,
-1,
-1,
-1,
1,
-1,
-1,
1,
-1,
1,
2,
1,
2,
1,
1,
1,
-1,
2,
1,
-1,
-2,
-1,
-2,
1,
-2,
1,
-2,
1,
-1,
-2,
-1,
-2,
-1,
1,
1,
1,
2,
1,
2,
-1,
1,
1,
1,
1,
1,
-1,
2,
1,
-1,
1,
-1,
-1,
-1,
-1,
-1,
-2,
1,
-1,
-1,
2,
-2,
1,
1,
-2,
1,
1,
-1,
1,
1,
1,
1,
-2,
1,
1,
-1,
-1,
-2,
-1,
1,
1,
-1,
-2,
-2,
-2,
-4,
-1,
-2,
-1,
2,
-1,
-1,
-2,
-4,
-1,
-1,
-1,
-1,
-4,
-1,
-2,
-2,
-1,
-2,
-2,
-1,
-2,
-1,
-1,
-1,
-1,
-2,
1,
-1,
-1,
-1,
-2,
-1,
-1,
-1,
1,
-1,
-1,
-1,
-2,
-2,
-4,
-2,
-1,
-4,
-2,
-1,
-4,
-2,
-5,
-4,
-4,
-4,
-1,
-2,
-2,
-2,
-4,
-2,
-2,
-2,
1,
-1,
-1,
-1,
-2,
-1,
-1,
-4,
-2,
-4,
-2,
-2,
-2,
-1,
-2,
-2,
-2,
-4,
-2,
-2,
-2,
-2,
-2,
-1,
-2,
-2,
-1,
-2,
-2,
-1,
-2,
1,
-2,
-4,
-1,
-4,
-2,
-2,
-4,
-2,
-2,
-4,
-2,
-2,
-1,
-2,
-1,
-1,
-2,
-1,
-2,
-2,
-2,
-2,
-1,
-1,
-2,
1,
-2,
-4,
-4,
-4,
-2,
-4,
-5,
-4,
-4,
-4,
-2,
-4,
-4,
-1,
-2,
-1,
-4,
-4,
-4,
-4,
-2,
-2,
-2,
-2,
-4,
-2,
-4,
-4,
-2,
-5,
-1,
-1,
-4,
-4,
-7,
-5,
-2,
-4,
-1,
-2,
-4,
-4,
-4,
-1,
-2,
-5,
-4,
-7,
-2,
-2,
-2,
-2,
-4,
-5,
-4,
-4,
-2,
-1,
-4,
-2,
-4,
-4,
-2,
-5,
-4,
-2,
-5,
-2,
-5,
-5,
-4,
-5,
-4,
-4,
-4,
1,
-4,
-5,
-5,
-4,
-1,
-4,
-4,
-4,
-2,
-2,
-2,
-5,
-4,
-5,
-5,
-5,
-4,
-4,
-4,
-2,
-4,
-4,
-4,
-4,
-7,
-5,
-5,
-5,
-2,
-4,
-4,
-5,
-5,
-5,
-5,
-4,
-5,
-5,
-4,
-5,
-4,
-4,
-5,
-2,
-5,
-5,
-2,
-5,
-5,
-4,
-4,
-5,
-4,
-5,
-5,
-7,
-5,
-7,
-7,
-5,
-7,
-4,
-7,
-5,
-7,
-7,
-4,
-4,
-5,
-1,
-4,
-4,
-7,
-8,
-5,
-4,
-4,
-4,
-5,
-5,
-7,
-7,
-4,
-5,
-4,
-2,
-7,
-5,
-4,
-5,
-4,
-5,
-7,
-4,
-7,
-7,
-7,
-7,
-5,
-5,
-7,
-5,
-5,
-4,
-4,
-4,
-4,
-7,
-2,
-2,
-7,
-5,
-7,
-7,
-5,
-7,
-4,
-7,
-7,
-7,
-7,
-5,
-5,
-5,
-4,
-4,
-4,
-4,
-5,
-4,
-5,
-5,
-4,
-5,
-4,
-5,
-5,
-5,
-7,
-5,
-7,
-5,
-5,
-7,
-5,
-4,
-5,
-7,
-7,
-7,
-4,
-7,
-7,
-7,
-7,
-4,
-5,
-5,
-7,
-8,
-7,
-5,
-5,
-5,
-7,
-5,
-5,
-7,
-4,
-5,
-7,
-7,
-8,
-5,
-5,
-5,
-5,
-5,
-7,
-4,
-7,
-5,
-7,
-8,
-5,
-5,
-5,
-5,
-7,
-5,
-7,
-7,
-7,
-7,
-5,
-7,
-8,
-5,
-8,
-7,
-7,
-8,
-7,
-7,
-7,
-5,
-8,
-8,
-8,
-8,
-7,
-7,
-8,
-7,
-10,
-7,
-8,
-8,
-7,
-8,
-7,
-7,
-7,
-5,
-7,
-8,
-7,
-7,
-5,
-7,
-5,
-7,
-7,
-8,
-8,
-8,
-7,
-8,
-7,
-7,
-8,
-7,
-8,
-8,
-7,
-8,
-5,
-7,
-8,
-7,
-7,
-5,
-5,
-7,
-7,
-8,
-8,
-7,
-7,
-5,
-8,
-5,
-5,
-7,
-7,
-8,
-10,
-7,
-8,
-7,
-7,
-8,
-7,
-8,
-8,
-8,
-10,
-8,
-5,
-7,
-5,
-7,
-8,
-7,
-10,
-7,
-8,
-8,
-5,
-8,
-7,
-7,
-8,
-8,
-10,
-13,
-4,
-5,
-5,
-8,
-10,
-8,
-8,
-7,
-5,
-8,
-8,
-8,
-10,
-5,
-7,
-7,
-5,
-8,
-5,
-8,
-8,
-7,
-10,
-8,
-8,
-10,
-7,
-7,
-8,
-8,
-13,
-10,
-10,
-5,
-4,
-8,
-8,
-7,
-8,
-7,
-8,
-8,
-7,
-8,
-7,
-8,
-7,
-7,
-10,
-8,
-10,
-12,
-8,
-8,
-8,
-8,
-10,
-10,
-8,
-8,
-8,
-8,
-8,
-7,
-8,
-8,
-10,
-8,
-7,
-8,
-7,
-8,
-8,
-8,
-12,
-13,
-7,
-10,
-8,
-8,
-10,
-10,
-10,
-10,
-10,
-12,
-10,
-10,
-8,
-8,
-8,
-8,
-10,
-8,
-8,
-10,
-8,
-8,
-8,
-7,
-8,
-8,
-10,
-10,
-8,
-10,
-10,
-8,
-10,
-10,
-10,
-10,
-8,
-10,
-8,
-8,
-10,
-10,
-10,
-12,
-10,
-13,
-8,
-8,
-8,
-7,
-12,
-10,
-8,
-12,
-8,
-10,
-8,
-8,
-10,
-8,
-8,
-10,
-7,
-10,
-10,
-8,
-10,
-5,
-8,
-12,
-10,
-12,
-10,
-10,
-10,
-10,
-12,
-12,
-8,
-12,
-7,
-10,
-12,
-8,
-10,
-8,
-10,
-12,
-8,
-8,
-8,
-7,
-10,
-10,
-8,
-8,
-8,
-10,
-10,
-8,
-10,
-10,
-12,
-13,
-10,
-12,
-8,
-8,
-10,
-7,
-8,
-10,
-10,
-10,
-8,
-10,
-10,
-10,
-10,
-10,
-7,
-10,
-10,
-12,
-12,
-8,
-10,
-10,
-10,
-10,
-8,
-8,
-8,
-10,
-10,
-10,
-10,
-10,
-8,
-12,
-10,
-10,
-12,
-8,
-10,
-8,
-8,
-10,
-12,
-10,
-10,
-7,
-8,
-12,
-8,
-10,
-10,
-10,
-12,
-12,
-12,
-12,
-8,
-8,
-8,
-10,
-13,
-10,
-10,
-10,
-12,
-10,
-10,
-12,
-10,
-10,
-12,
-10,
-10,
-10,
-10,
-12,
-10,
-10,
-10,
-10,
-12,
-12,
-13,
-12,
-8,
-12,
-10,
-10,
-12,
-10,
-12,
-12,
-10,
-12,
-10,
-12,
-10,
-8,
-13,
-12,
-12,
-12,
-12,
-12,
-10,
-10,
-13,
-10,
-12,
-12,
-10,
-12,
-10,
-13,
-12,
-7,
-10,
-13,
-10,
-12,
-8,
-12,
-10,
-10,
-13,
-10,
-10,
-12,
-8,
-8,
-12,
-10,
-12,
-12,
-12,
-12,
-10,
-12,
-10,
-8,
-13,
-10,
-12,
-10,
-10,
-10,
-10,
-10,
-12,
-8,
-10,
-10,
-13,
-13,
-10,
-10,
-10,
-12,
-12,
-10,
-12,
-12,
-10,
-12,
-12,
-8,
-10,
-10,
-12,
-10,
-10,
-10,
-12,
-12,
-12,
-12,
-12,
-10,
-10,
-12,
-10,
-10,
-12,
-10,
-13,
-12,
-12,
-12,
-10,
-13,
-8,
-10,
-13,
-10,
-12,
-12,
-10,
-12,
-10,
-12,
-12,
-8,
-10,
-12,
-12,
-15,
-12,
-12,
-12,
-10,
-13,
-10,
-12,
-10,
-10,
-12,
-10,
-12,
-13,
-10,
-12,
-12,
-10,
-12,
-10,
-12,
-12,
-10,
-12,
-13,
-13,
-13,
-8,
-12,
-12,
-12,
-13,
-12,
-12,
-12,
-10,
-12,
-12,
-8,
-10,
-10,
-12,
-12,
-13,
-12,
-12,
-12,
-12,
-10,
-10,
-12,
-12,
-13,
-12,
-12,
-13,
-12,
-15,
-12,
-12,
-12,
-10,
-10,
-12,
-13,
-12,
-12,
-12,
-10,
-12,
-13,
-12,
-13,
-13,
-10,
-13,
-12,
-15,
-12,
-10,
-12,
-10,
-12,
-13,
-12,
-10,
-10,
-10,
-13,
-12,
-12,
-12,
-10,
-12,
-10,
-12,
-12,
-12,
-13,
-12,
-10,
-12,
-12,
-12,
-12,
-10,
-13,
-12,
-13,
-12,
-10,
-12,
-12,
-12,
-12,
-10,
-12,
-12,
-12,
-13,
-10,
-12,
-13,
-10,
-12,
-10,
-10,
-12,
-10,
-13,
-12,
-12,
-13,
-12,
-12,
-10,
-10,
-12,
-12,
-12,
-13,
-12,
-13,
-12,
-12,
-10,
-10,
-12,
-12,
-13,
-12,
-10,
-13,
-12,
-12,
-15,
-12,
-12,
-10,
-10,
-12,
-12,
-12,
-12,
-10,
-12,
-12,
-12,
-13,
-10,
-13,
-12,
-12,
-12,
-12,
-12,
-15,
-12,
-12,
-10,
-12,
-15,
-12,
-13,
-12,
-12,
-13,
-10,
-12,
-10,
-10,
-12,
-12,
-12,
-13,
-12,
-12,
-12,
-10,
-12,
-12,
-12,
-15,
-10,
-13,
-12,
-12,
-15,
-12,
-13,
-15,
-8,
-13,
-12,
-12,
-12,
-12,
-12,
-12,
-15,
-13,
-10,
-13,
-10,
-12,
-13,
-12,
-15,
-15,
-12,
-12,
-10,
-12,
-13,
-10,
-13,
-12,
-13,
-15,
-12,
-13,
-10,
-12,
-13,
-12,
-12,
-13,
-12,
-15,
-12,
-10,
-10,
-13,
-15,
-12,
-12,
-8,
-10,
-13,
-12,
-10,
-13,
-10,
-10,
-13,
-12,
-13,
-12,
-12,
-12,
-10,
-12,
-13,
-10,
-15,
-12,
-12,
-10,
-12,
-12,
-12,
-8,
-10,
-13,
-12,
-12,
-12,
-12,
-12,
-12,
-10,
-10,
-12,
-10,
-10,
-12,
-10,
-13,
-12,
-12,
-12,
-10,
-10,
-10,
-10,
-12,
-12,
-13,
-12,
-10,
-12,
-10,
-12,
-13,
-10,
-12,
-12,
-10,
-12,
-12,
-10,
-12,
-10,
-12,
-13,
-10,
-12,
-10,
-12,
-12,
-12,
-12,
-12,
-12,
-12,
-10,
-12,
-12,
-12,
-12,
-12,
-12,
-13,
-13,
-13,
-10,
-10,
-10,
-10,
-12,
-12,
-12,
-13,
-10,
-12,
-8,
-10,
-12,
-12,
-12,
-13,
-10,
-10,
-12,
-12,
-13,
-10,
-12,
-10,
-12,
-13,
-10,
-12,
-10,
-12,
-13,
-10,
-12,
-10,
-10,
-10,
-10,
-10,
-12,
-12,
-13,
-10,
-8,
-12,
-12,
-12,
-13,
-10,
-12,
-12,
-10,
-13,
-10,
-13,
-12,
-10,
-12,
-10,
-10,
-13,
-12,
-13,
-12,
-10,
-12,
-10,
-12,
-12,
-12,
-13,
-10,
-12,
-12,
-10,
-12,
-12,
-12,
-12,
-12,
-12,
-12,
-12,
-12,
-10,
-7,
-8,
-12,
-12,
-12,
-13,
-12,
-10,
-12,
-10,
-12,
-12,
-10,
-13,
-10,
-10,
-10,
-10,
-10,
-10,
-12,
-12,
-10,
-12,
-10,
-8,
-12,
-10,
-12,
-10,
-8,
-12,
-7,
-10,
-12,
-10,
-10,
-10,
-12,
-12,
-10,
-13,
-10,
-10,
-10,
-8,
-10,
-13,
-10,
-12,
-10,
-10,
-10,
-8,
-12,
-12,
-12,
-13,
-10,
-10,
-10,
-10,
-12,
-10,
-10,
-10,
-10,
-12,
-12,
-12,
-8,
-8,
-8,
-10,
-12,
-12,
-8,
-10,
-10,
-10,
-12,
-8,
-8,
-10,
-8,
-10,
-8,
-12,
-12,
-10,
-10,
-10,
-8,
-10,
-8,
-8,
-8,
-7,
-10,
-12,
-12,
-12,
-8,
-10,
-10,
-8,
-10,
-10,
-10,
-13,
-10,
-10,
-8,
-8,
-10,
-10,
-10,
-10,
-8,
-12,
-10,
-10,
-8,
-7,
-8,
-10,
-13,
-13,
-8,
-13,
-10,
-10,
-13,
-12,
-8,
-10,
-8,
-10,
-12,
-10,
-8,
-10,
-10,
-10,
-10,
-10,
-8,
-10,
-8,
-12,
-10,
-10,
-12,
-10,
-8,
-10,
-8,
-12,
-12,
-8,
-12,
-12,
-12,
-13,
-7,
-13,
-10,
-12,
-13,
-8,
-10,
-10,
-10,
-8,
-5,
-5,
-8,
-8,
-12,
-10,
-8,
-12,
-8,
-8,
-10,
-8,
-10,
-8,
-10,
-8,
-8,
-10,
-8,
-8,
-8,
-8,
-10,
-10,
-12,
-10,
-8,
-8,
-10,
-8,
-8,
-8,
-7,
-10,
-7,
-10,
-8,
-8,
-8,
-8,
-8,
-7,
-8,
-10,
-8,
-12,
-8,
-8,
-10,
-8,
-10,
-10,
-8,
-10,
-8,
-10,
-10,
-8,
-10,
-8,
-7,
-8,
-7,
-8,
-10,
-7,
-8,
-7,
-7,
-7,
-7,
-10,
-7,
-7,
-8,
-8,
-10,
-8,
-8,
-10,
-7,
-8,
-8,
-7,
-10,
-8,
-8,
-10,
-8,
-8,
-8,
-8,
-8,
-5,
-8,
-8,
-8,
-10,
-7,
-7,
-7,
-7,
-8,
-8,
-8,
-8,
-8,
-8,
-7,
-7,
-10,
-8,
-10,
-8,
-8,
-10,
-8,
-8,
-10,
-7,
-8,
-8,
-8,
-10,
-8,
-12,
-5,
-8,
-10,
-8,
-8,
-10,
-8,
-7,
-5,
-7,
-8,
-7,
-10,
-10,
-7,
-7,
-7,
-8,
-7,
-7,
-8,
-8,
-12,
-10,
-7,
-8,
-8,
-8,
-10,
-7,
-10,
-10,
-8,
-10,
-7,
-8,
-10,
-8,
-8,
-8,
-8,
-12,
-8,
-10,
-8,
-5,
-5,
-5,
-8,
-7,
-8,
-8,
-7,
-7,
-7,
-5,
-7,
-8,
-7,
-8,
-5,
-7,
-7,
-7,
-7,
-7,
-7,
-8,
-7,
-7,
-5,
-5,
-7,
-5,
-7,
-7,
-7,
-8,
-7,
-5,
-5,
-7,
-10,
-8,
-8,
-7,
-5,
-7,
-7,
-7,
-7,
-5,
-7,
-7,
-7,
-8,
-5,
-5,
-5,
-5,
-7,
-5,
-5,
-8,
-4,
-7,
-5,
-5,
-7,
-7,
-7,
-7,
-7,
-8,
-5,
-7,
-8,
-7,
-7,
-4,
-5,
-7,
-4,
-7,
-5,
-4,
-7,
-5,
-5,
-7,
-4,
-8,
-7,
-7,
-7,
-7,
-7,
-5,
-7,
-7,
-7,
-7,
-8,
-7,
-7,
-5,
-7,
-8,
-7,
-5,
-5,
-4,
-5,
-7,
-7,
-4,
-4,
-7,
-7,
-8,
-4,
-2,
-5,
-7,
-8,
-8,
-5,
-7,
-5,
-5,
-7,
-8,
-5,
-5,
-5,
-7,
-5,
-7,
-5,
-4,
-5,
-5,
-8,
-7,
-5,
-5,
-4,
-5,
-5,
-4,
-5,
-5,
-4,
-7,
-2,
-7,
-7,
-5,
-7,
-5,
-7,
-7,
-7,
-7,
-7,
-5,
-5,
-4,
-7,
-5,
-4,
-5,
-4,
-5,
-5,
-4,
-7,
-4,
-5,
-7,
-5,
-4,
-5,
-5,
-7,
-4,
-5,
-5,
-5,
-5,
-5,
-5,
-4,
-5,
-7,
-7,
-5,
-4,
-2,
-4,
-4,
-4,
-5,
-4,
-5,
-4,
-4,
-5,
-4,
-4,
-4,
-2,
-4,
-4,
-5,
-7,
-4,
-5,
-4,
-4,
-7,
-4,
-4,
-4,
-4,
-5,
-4,
-5,
-5,
-4,
-7,
-4,
-5,
-5,
-4,
-5,
-2,
-4,
-4,
-2,
-4,
-4,
-2,
-5,
-2,
-4,
-5,
-4,
-5,
-5,
-4,
-5,
-2,
-4,
-4,
-5,
-5,
-4,
-4,
-4,
-4,
-5,
-4,
-1,
-4,
-4,
-5,
-5,
-4,
-5,
-2,
-4,
-2,
-4,
-4,
-2,
-4,
-2,
-4,
-5,
-4,
-4,
-4,
-2,
-4,
-4,
-5,
-4,
-2,
-4,
-4,
-4,
-4,
-2,
-4,
-2,
-4,
-4,
-2,
-2,
-1,
-2,
-5,
-4,
-2,
-4,
-4,
-7,
-2,
-4,
-4,
-2,
-5,
-4,
-4,
-5,
-2,
-4,
-4,
-4,
-4,
-2,
-4,
-1,
-2,
-4,
-2,
-4,
-2,
-1,
-2,
-4,
-4,
-4,
-2,
-4,
-2,
-2,
-5,
-4,
-4,
-4,
-4,
-5,
-4,
-4,
-2,
-2,
-4,
-2,
-4,
-2,
-2,
-1,
-1,
-2,
-2,
-2,
-2,
-2,
-2,
-2,
-1,
-2,
-1,
1,
-2,
-1,
-4,
-2,
-2,
-4,
-2,
-2,
-2,
-2,
-2,
-1,
-2,
-4,
-1,
-2,
1,
-1,
-2,
-1,
-2,
-1,
1,
-2,
-1,
-2,
-1,
1,
-1,
-1,
-2,
-2,
1,
1,
-2,
1,
-1,
-1,
-1,
-1,
-2,
-2,
-1,
-2,
-2,
-1,
-1,
-1,
-1,
-2,
-1,
-1,
1,
-1,
-1,
-2,
-2,
-1,
-2,
-1,
-1,
-1,
1,
1,
-2,
-2,
-4,
-1,
1,
-4,
-1,
-2,
-2,
-1,
-2,
-1,
-2,
-2,
-1,
-1,
2,
-1,
1,
1,
1,
2,
-1,
-1,
1,
-2,
1,
-1,
-1,
2,
-1,
-1,
-1,
-1,
-1,
-1,
-1,
1,
-2,
-1,
-1,
-1,
1,
-1,
-1,
2,
-1,
1,
-1,
1,
-1,
-1,
1,
1,
-1,
-1,
-2,
-1,
-4,
-2,
2,
-1,
1,
-1,
-1,
-1,
-1,
1,
-1,
-4,
-1,
-2,
1,
1,
-1,
1,
-1,
-1,
1,
1,
2,
1,
-1,
1,
-1,
-1,
-1,
-1,
1,
1,
4,
-1,
-1,
1,
1,
1,
1,
1,
1,
1,
2,
2,
-1,
1,
-1,
1,
1,
-1,
2,
2,
2,
1,
1,
1,
1,
1,
2,
-1,
1,
1,
2,
4,
1,
1,
1,
-2,
1,
2,
2,
2,
-1,
1,
1,
-1,
1,
-1,
1,
1,
2,
2,
2,
2,
2,
2,
2,
1,
2,
4,
2,
4,
1,
-1,
1,
1,
2,
1,
1,
1,
1,
1,
2,
2,
2,
2,
4,
2,
1,
2,
1,
4,
2,
1,
2,
1,
1,
4,
4,
4,
2,
2,
2,
2,
4,
2,
2,
4,
-1,
1,
1,
1,
2,
2,
4,
4,
2,
4,
2,
2,
2,
2,
4,
1,
2,
4,
2,
2,
1,
1,
1,
2,
2,
2,
1,
2,
1,
2,
2,
1,
4,
-1,
1,
2,
1,
2,
1,
4,
2,
2,
4,
2,
1,
4,
2,
4,
2,
-1,
1,
1,
2,
2,
2,
2,
1,
4,
2,
-1,
4,
2,
2,
4,
2,
5,
2,
2,
2,
1,
2,
2,
1,
4,
1,
1,
2,
1,
7,
4,
4,
5,
4,
5,
2,
4,
4,
4,
5,
4,
4,
2,
1,
4,
4,
1,
2,
2,
5,
7,
5,
4,
2,
4,
5,
4,
5,
4,
4,
4,
2,
5,
2,
1,
4,
2,
4,
4,
1,
4,
2,
2,
4,
2,
4,
4,
4,
4,
2,
8,
5,
5,
5,
2,
7,
5,
5,
5,
4,
4,
4,
4,
5,
5,
4,
4,
2,
4,
4,
5,
5,
4,
5,
4,
4,
5,
5,
7,
5,
4,
5,
4,
5,
5,
4,
5,
4,
5,
5,
5,
5,
5,
4,
4,
4,
5,
7,
4,
5,
2,
4,
4,
5,
4,
4,
5,
5,
4,
4,
5,
5,
5,
5,
7,
5,
5,
7,
2,
4,
4,
5,
7,
4,
5,
2,
4,
7,
5,
5,
5,
2,
7,
4,
5,
5,
4,
5,
5,
5,
4,
4,
5,
7,
4,
5,
2,
4,
5,
4,
5,
4,
4,
5,
5,
5,
4,
5,
5,
5,
7,
5,
4,
5,
5,
7,
7,
5,
5,
2,
4,
4,
4,
5,
4,
5,
5,
4,
7,
7,
5,
5,
2,
7,
5,
7,
8,
5,
8,
7,
5,
7,
7,
7,
8,
7,
7,
7,
4,
5,
4,
7,
5,
5,
5,
5,
7,
5,
5,
7,
5,
7,
7,
7,
8,
4,
7,
8,
7,
8,
8,
7,
7,
4,
7,
5,
7,
7,
5,
5,
5,
7,
7,
5,
7,
5,
8,
10,
7,
8,
7,
5,
8,
7,
7,
8,
7,
8,
7,
8,
8,
5,
8,
7,
5,
7,
4,
8,
7,
7,
8,
7,
7,
7,
5,
7,
7,
7,
8,
8,
8,
8,
8,
8,
5,
7,
8,
7,
8,
8,
7,
5,
4,
8,
7,
7,
7,
7,
7,
8,
7,
8,
7,
7,
7,
7,
7,
5,
5,
7,
7,
8,
8,
8,
8,
7,
7,
7,
7,
7,
7,
10,
5,
7,
8,
8,
10,
8,
7,
8,
5,
8,
8,
8,
8,
8,
7,
7,
5,
10,
8,
8,
8,
5,
8,
10,
7,
8,
5,
7,
8,
5,
8,
7,
7,
8,
7,
7,
8,
7,
7,
7,
8,
8,
8,
10,
8,
11,
8,
10,
11,
10,
7,
7,
8,
8,
8,
10,
8,
5,
8,
8,
8,
8,
7,
8,
10,
10,
10,
8,
8,
8,
10,
10,
8,
10,
10,
10,
10,
8,
8,
7,
7,
10,
8,
10,
11,
8,
10,
10,
7,
10,
8,
10,
10,
8,
11,
10,
10,
8,
7,
10,
10,
10,
10,
8,
10,
7,
10,
11,
8,
10,
10,
7,
8,
8,
8,
8,
8,
10,
10,
10,
8,
7,
10,
10,
10,
10,
10,
11,
10,
10,
10,
8,
10,
8,
10,
10,
11,
11,
11,
8,
10,
7,
8,
10,
7,
10,
10,
10,
11,
8,
10,
8,
8,
11,
10,
10,
10,
8,
10,
11,
8,
11,
10,
11,
10,
11,
11,
10,
10,
10,
8,
10,
7,
10,
11,
10,
11,
11,
10,
11,
10,
10,
10,
10,
11,
10,
11,
10,
10,
8,
8,
10,
8,
10,
11,
10,
10,
8,
7,
10,
8,
10,
8,
8,
10,
8,
11,
11,
10,
11,
10,
10,
13,
8,
10,
8,
8,
11,
8,
11,
11,
10,
11,
10,
11,
11,
11,
11,
10,
10,
11,
10,
10,
10,
8,
10,
10,
13,
11,
11,
11,
8,
10,
11,
10,
11,
11,
11,
11,
10,
10,
10,
11,
11,
10,
10,
8,
11,
11,
11,
13,
11,
10,
11,
11,
13,
10,
10,
13,
10,
13,
10,
10,
11,
10,
10,
10,
11,
11,
11,
11,
11,
11,
11,
11,
11,
13,
7,
11,
13,
11,
13,
11,
13,
11,
8,
11,
10,
11,
11,
11,
11,
11,
13,
11,
10,
11,
8,
11,
13,
10,
11,
11,
13,
11,
11,
11,
10,
13,
13,
8,
13,
11,
11,
13,
11,
13,
11,
10,
13,
10,
11,
10,
11,
13,
11,
11,
11,
10,
11,
11,
11,
11,
11,
13,
11,
11,
10,
10,
11,
13,
16,
13,
10,
11,
10,
14,
11,
11,
11,
10,
11,
13,
11,
11,
10,
10,
11,
10,
13,
11,
11,
13,
10,
11,
10,
10,
11,
11,
13,
11,
10,
11,
11,
11,
10,
10,
11,
11,
11,
13,
11,
11,
10,
10,
11,
10,
11,
13,
13,
13,
11,
13,
16,
13,
11,
10,
11,
11,
14,
14,
11,
11,
11,
13,
14,
11,
11,
11,
10,
13,
10,
11,
13,
11,
13,
11,
13,
11,
11,
13,
13,
13,
11,
11,
13,
11,
11,
13,
10,
13,
11,
13,
13,
11,
11,
11,
11,
13,
13,
13,
13,
11,
11,
10,
11,
13,
13,
14,
11,
13,
11,
10,
13,
11,
13,
13,
11,
13,
11,
14,
13,
13,
11,
11,
13,
13,
11,
13,
11,
11,
13,
11,
13,
13,
13,
11,
10,
13,
13,
13,
14,
11,
11,
14,
14,
11,
11,
11,
11,
13,
14,
11,
13,
11,
11,
13,
13,
13,
13,
13,
13,
11,
11,
11,
11,
13,
11,
13,
13,
10,
13,
13,
13,
13,
11,
13,
11,
13,
11,
13,
13,
13,
13,
13,
10,
14,
13,
10,
11,
10,
13,
13,
13,
11,
11,
13,
13,
11,
11,
11,
13,
11,
13,
13,
11,
11,
11,
10,
13,
